# Blender v2.93.1 OBJ File: ''
# www.blender.org
mtllib White_Ceiling.mtl
o White_Ceiling
v -6.400000 0.099999 4.700000
v -6.400000 0.000001 -6.400000
v -6.400000 -0.000001 6.400000
v -6.400000 0.099999 4.500000
v -6.400000 0.100000 2.700000
v -6.400000 0.100000 2.500000
v -6.400000 0.100000 0.700000
v -6.400000 0.100000 0.500000
v -6.400000 0.100000 -1.300000
v -6.400000 0.100000 -1.500000
v -6.400000 0.100001 -3.300000
v -6.400000 0.100001 -3.500000
v -6.400000 0.100001 -5.300000
v -6.400000 0.100001 -5.500000
v -6.400000 0.199999 6.400000
v -6.400000 0.199999 4.700000
v -6.400000 0.199999 4.500000
v -6.400000 0.200000 2.700000
v -6.400000 0.200000 2.500000
v -6.400000 0.200000 0.700000
v -6.400000 0.200000 0.500000
v -6.400000 0.200000 -1.300000
v -6.400000 0.200000 -1.500000
v -6.400000 0.200001 -3.300000
v -6.400000 0.200001 -3.500000
v -6.400000 0.200001 -5.300000
v -6.400000 0.200001 -5.500000
v -6.400000 0.200001 -6.400000
v -6.400000 0.299999 6.400000
v -6.400000 0.299999 4.700000
v -6.400000 0.299999 4.500000
v -6.400000 0.300000 2.700000
v -6.400000 0.300000 2.500000
v -6.400000 0.300000 0.700000
v -6.400000 0.300000 0.500000
v -6.400000 0.300000 -1.300000
v -6.400000 0.300000 -1.500000
v -6.400000 0.300001 -3.300000
v -6.400000 0.300001 -3.500000
v -6.400000 0.300001 -5.300000
v -6.400000 0.300001 -5.500000
v -6.400000 0.300001 -6.400000
v -5.200000 0.299999 6.400000
v -5.200000 0.199999 4.700000
v -5.200000 0.199999 6.400000
v -5.200000 0.299999 4.700000
v -5.200000 0.300000 2.500000
v -5.200000 0.200000 0.700000
v -5.200000 0.200000 2.500000
v -5.200000 0.300000 0.700000
v -5.200000 0.300000 -1.500000
v -5.200000 0.200001 -3.300000
v -5.200000 0.200000 -1.500000
v -5.200000 0.300001 -3.300000
v -5.200000 0.300001 -5.500000
v -5.200000 0.200001 -6.400000
v -5.200000 0.200001 -5.500000
v -5.200000 0.300001 -6.400000
v -4.400000 0.299999 4.500000
v -4.400000 0.200000 2.700000
v -4.400000 0.199999 4.500000
v -4.400000 0.300000 2.700000
v -4.400000 0.300000 0.500000
v -4.400000 0.200000 -1.300000
v -4.400000 0.200000 0.500000
v -4.400000 0.300000 -1.300000
v -4.400000 0.300001 -3.500000
v -4.400000 0.200001 -5.300000
v -4.400000 0.200001 -3.500000
v -4.400000 0.300001 -5.300000
v -2.300000 0.299999 4.500000
v -2.300000 0.200000 2.700000
v -2.300000 0.199999 4.500000
v -2.300000 0.300000 2.700000
v -2.300000 0.300000 0.500000
v -2.300000 0.200000 -1.300000
v -2.300000 0.200000 0.500000
v -2.300000 0.300000 -1.300000
v -2.300000 0.300001 -3.500000
v -2.300000 0.200001 -5.300000
v -2.300000 0.200001 -3.500000
v -2.300000 0.300001 -5.300000
v -1.200000 0.299999 6.400000
v -1.200000 0.199999 4.700000
v -1.200000 0.199999 6.400000
v -1.200000 0.299999 4.700000
v -1.200000 0.300000 2.500000
v -1.200000 0.200000 0.700000
v -1.200000 0.200000 2.500000
v -1.200000 0.300000 0.700000
v -1.200000 0.300000 -1.500000
v -1.200000 0.200001 -3.300000
v -1.200000 0.200000 -1.500000
v -1.200000 0.300001 -3.300000
v -1.200000 0.300001 -5.500000
v -1.200000 0.200001 -6.400000
v -1.200000 0.200001 -5.500000
v -1.200000 0.300001 -6.400000
v -0.200000 0.299999 4.500000
v -0.200000 0.200000 2.700000
v -0.200000 0.199999 4.500000
v -0.200000 0.300000 2.700000
v -0.200000 0.300000 0.500000
v -0.200000 0.200000 -1.300000
v -0.200000 0.200000 0.500000
v -0.200000 0.300000 -1.300000
v -0.200000 0.300001 -3.500000
v -0.200000 0.200001 -5.300000
v -0.200000 0.200001 -3.500000
v -0.200000 0.300001 -5.300000
v 2.000000 0.299999 4.500000
v 2.000000 0.200000 2.700000
v 2.000000 0.199999 4.500000
v 2.000000 0.300000 2.700000
v 2.000000 0.300000 0.500000
v 2.000000 0.200000 -1.300000
v 2.000000 0.200000 0.500000
v 2.000000 0.300000 -1.300000
v 2.000000 0.300001 -3.500000
v 2.000000 0.200001 -5.300000
v 2.000000 0.200001 -3.500000
v 2.000000 0.300001 -5.300000
v 2.800000 0.299999 6.400000
v 2.800000 0.199999 4.700000
v 2.800000 0.199999 6.400000
v 2.800000 0.299999 4.700000
v 2.800000 0.300000 2.500000
v 2.800000 0.200000 0.700000
v 2.800000 0.200000 2.500000
v 2.800000 0.300000 0.700000
v 2.800000 0.300000 -1.500000
v 2.800000 0.200001 -3.300000
v 2.800000 0.200000 -1.500000
v 2.800000 0.300001 -3.300000
v 2.800000 0.300001 -5.500000
v 2.800000 0.200001 -6.400000
v 2.800000 0.200001 -5.500000
v 2.800000 0.300001 -6.400000
v 4.100000 0.299999 4.500000
v 4.100000 0.200000 2.700000
v 4.100000 0.199999 4.500000
v 4.100000 0.300000 2.700000
v 4.100000 0.300000 0.500000
v 4.100000 0.200000 -1.300000
v 4.100000 0.200000 0.500000
v 4.100000 0.300000 -1.300000
v 4.100000 0.300001 -3.500000
v 4.100000 0.200001 -5.300000
v 4.100000 0.200001 -3.500000
v 4.100000 0.300001 -5.300000
v -5.300000 0.199999 6.400000
v -5.300000 0.199999 4.700000
v -5.300000 0.299999 6.400000
v -5.300000 0.299999 4.700000
v -5.300000 0.200000 2.500000
v -5.300000 0.200000 0.700000
v -5.300000 0.300000 2.500000
v -5.300000 0.300000 0.700000
v -5.300000 0.200000 -1.500000
v -5.300000 0.200001 -3.300000
v -5.300000 0.300000 -1.500000
v -5.300000 0.300001 -3.300000
v -5.300000 0.200001 -5.500000
v -5.300000 0.200001 -6.400000
v -5.300000 0.300001 -5.500000
v -5.300000 0.300001 -6.400000
v -4.500000 0.199999 4.500000
v -4.500000 0.200000 2.700000
v -4.500000 0.299999 4.500000
v -4.500000 0.300000 2.700000
v -4.500000 0.200000 0.500000
v -4.500000 0.200000 -1.300000
v -4.500000 0.300000 0.500000
v -4.500000 0.300000 -1.300000
v -4.500000 0.200001 -3.500000
v -4.500000 0.200001 -5.300000
v -4.500000 0.300001 -3.500000
v -4.500000 0.300001 -5.300000
v -2.400000 0.199999 4.500000
v -2.400000 0.200000 2.700000
v -2.400000 0.299999 4.500000
v -2.400000 0.300000 2.700000
v -2.400000 0.200000 0.500000
v -2.400000 0.200000 -1.300000
v -2.400000 0.300000 0.500000
v -2.400000 0.300000 -1.300000
v -2.400000 0.200001 -3.500000
v -2.400000 0.200001 -5.300000
v -2.400000 0.300001 -3.500000
v -2.400000 0.300001 -5.300000
v -1.300000 0.199999 6.400000
v -1.300000 0.199999 4.700000
v -1.300000 0.299999 6.400000
v -1.300000 0.299999 4.700000
v -1.300000 0.200000 2.500000
v -1.300000 0.200000 0.700000
v -1.300000 0.300000 2.500000
v -1.300000 0.300000 0.700000
v -1.300000 0.200000 -1.500000
v -1.300000 0.200001 -3.300000
v -1.300000 0.300000 -1.500000
v -1.300000 0.300001 -3.300000
v -1.300000 0.200001 -5.500000
v -1.300000 0.200001 -6.400000
v -1.300000 0.300001 -5.500000
v -1.300000 0.300001 -6.400000
v -0.300000 0.199999 4.500000
v -0.300000 0.200000 2.700000
v -0.300000 0.299999 4.500000
v -0.300000 0.300000 2.700000
v -0.300000 0.200000 0.500000
v -0.300000 0.200000 -1.300000
v -0.300000 0.300000 0.500000
v -0.300000 0.300000 -1.300000
v -0.300000 0.200001 -3.500000
v -0.300000 0.200001 -5.300000
v -0.300000 0.300001 -3.500000
v -0.300000 0.300001 -5.300000
v 1.900000 0.199999 4.500000
v 1.900000 0.200000 2.700000
v 1.900000 0.299999 4.500000
v 1.900000 0.300000 2.700000
v 1.900000 0.200000 0.500000
v 1.900000 0.200000 -1.300000
v 1.900000 0.300000 0.500000
v 1.900000 0.300000 -1.300000
v 1.900000 0.200001 -3.500000
v 1.900000 0.200001 -5.300000
v 1.900000 0.300001 -3.500000
v 1.900000 0.300001 -5.300000
v 2.700000 0.199999 6.400000
v 2.700000 0.199999 4.700000
v 2.700000 0.299999 6.400000
v 2.700000 0.299999 4.700000
v 2.700000 0.200000 2.500000
v 2.700000 0.200000 0.700000
v 2.700000 0.300000 2.500000
v 2.700000 0.300000 0.700000
v 2.700000 0.200000 -1.500000
v 2.700000 0.200001 -3.300000
v 2.700000 0.300000 -1.500000
v 2.700000 0.300001 -3.300000
v 2.700000 0.200001 -5.500000
v 2.700000 0.200001 -6.400000
v 2.700000 0.300001 -5.500000
v 2.700000 0.300001 -6.400000
v 4.000000 0.199999 4.500000
v 4.000000 0.200000 2.700000
v 4.000000 0.299999 4.500000
v 4.000000 0.300000 2.700000
v 4.000000 0.200000 0.500000
v 4.000000 0.200000 -1.300000
v 4.000000 0.300000 0.500000
v 4.000000 0.300000 -1.300000
v 4.000000 0.200001 -3.500000
v 4.000000 0.200001 -5.300000
v 4.000000 0.300001 -3.500000
v 4.000000 0.300001 -5.300000
v 6.400000 -0.000001 6.400000
v 6.400000 0.000001 -6.400000
v 6.400000 0.099999 4.700000
v 6.400000 0.099999 4.500000
v 6.400000 0.100000 2.700000
v 6.400000 0.100000 2.500000
v 6.400000 0.100000 0.700000
v 6.400000 0.100000 0.500000
v 6.400000 0.100000 -1.300000
v 6.400000 0.100000 -1.500000
v 6.400000 0.100001 -3.300000
v 6.400000 0.100001 -3.500000
v 6.400000 0.100001 -5.300000
v 6.400000 0.100001 -5.500000
v 6.400000 0.199999 6.400000
v 6.400000 0.199999 4.700000
v 6.400000 0.199999 4.500000
v 6.400000 0.200000 2.700000
v 6.400000 0.200000 2.500000
v 6.400000 0.200000 0.700000
v 6.400000 0.200000 0.500000
v 6.400000 0.200000 -1.300000
v 6.400000 0.200000 -1.500000
v 6.400000 0.200001 -3.300000
v 6.400000 0.200001 -3.500000
v 6.400000 0.200001 -5.300000
v 6.400000 0.200001 -5.500000
v 6.400000 0.200001 -6.400000
v 6.400000 0.299999 6.400000
v 6.400000 0.299999 4.700000
v 6.400000 0.299999 4.500000
v 6.400000 0.300000 2.700000
v 6.400000 0.300000 2.500000
v 6.400000 0.300000 0.700000
v 6.400000 0.300000 0.500000
v 6.400000 0.300000 -1.300000
v 6.400000 0.300000 -1.500000
v 6.400000 0.300001 -3.300000
v 6.400000 0.300001 -3.500000
v 6.400000 0.300001 -5.300000
v 6.400000 0.300001 -5.500000
v 6.400000 0.300001 -6.400000
v -5.300000 0.099999 6.400000
v -6.400000 0.199999 6.400000
v -6.400000 -0.000001 6.400000
v -5.300000 0.199999 6.400000
v -6.400000 0.299999 6.400000
v -5.300000 0.299999 6.400000
v -5.200000 0.099999 6.400000
v -5.200000 0.199999 6.400000
v -1.300000 0.099999 6.400000
v -1.300000 0.199999 6.400000
v -5.200000 0.299999 6.400000
v -1.300000 0.299999 6.400000
v -1.200000 0.099999 6.400000
v -1.200000 0.199999 6.400000
v 2.700000 0.099999 6.400000
v -1.200000 0.299999 6.400000
v 2.700000 0.199999 6.400000
v 2.700000 0.299999 6.400000
v 2.800000 0.099999 6.400000
v 2.800000 0.199999 6.400000
v 6.400000 -0.000001 6.400000
v 6.400000 0.199999 6.400000
v 2.800000 0.299999 6.400000
v 6.400000 0.299999 6.400000
v -4.500000 0.199999 4.500000
v -6.400000 0.299999 4.500000
v -6.400000 0.199999 4.500000
v -4.500000 0.299999 4.500000
v -2.400000 0.199999 4.500000
v -4.400000 0.299999 4.500000
v -4.400000 0.199999 4.500000
v -2.400000 0.299999 4.500000
v -0.300000 0.199999 4.500000
v -2.300000 0.299999 4.500000
v -2.300000 0.199999 4.500000
v -0.300000 0.299999 4.500000
v 1.900000 0.199999 4.500000
v -0.200000 0.299999 4.500000
v -0.200000 0.199999 4.500000
v 1.900000 0.299999 4.500000
v 4.000000 0.199999 4.500000
v 2.000000 0.299999 4.500000
v 2.000000 0.199999 4.500000
v 4.000000 0.299999 4.500000
v 6.400000 0.199999 4.500000
v 4.100000 0.299999 4.500000
v 4.100000 0.199999 4.500000
v 6.400000 0.299999 4.500000
v -5.300000 0.200000 2.500000
v -6.400000 0.300000 2.500000
v -6.400000 0.200000 2.500000
v -5.300000 0.300000 2.500000
v -1.300000 0.200000 2.500000
v -5.200000 0.300000 2.500000
v -5.200000 0.200000 2.500000
v -1.300000 0.300000 2.500000
v 2.700000 0.200000 2.500000
v -1.200000 0.300000 2.500000
v -1.200000 0.200000 2.500000
v 2.700000 0.300000 2.500000
v 6.400000 0.200000 2.500000
v 2.800000 0.300000 2.500000
v 2.800000 0.200000 2.500000
v 6.400000 0.300000 2.500000
v -4.500000 0.200000 0.500000
v -6.400000 0.300000 0.500000
v -6.400000 0.200000 0.500000
v -4.500000 0.300000 0.500000
v -2.400000 0.200000 0.500000
v -4.400000 0.300000 0.500000
v -4.400000 0.200000 0.500000
v -2.400000 0.300000 0.500000
v -0.300000 0.200000 0.500000
v -2.300000 0.300000 0.500000
v -2.300000 0.200000 0.500000
v -0.300000 0.300000 0.500000
v 1.900000 0.200000 0.500000
v -0.200000 0.300000 0.500000
v -0.200000 0.200000 0.500000
v 1.900000 0.300000 0.500000
v 4.000000 0.200000 0.500000
v 2.000000 0.300000 0.500000
v 2.000000 0.200000 0.500000
v 4.000000 0.300000 0.500000
v 6.400000 0.200000 0.500000
v 4.100000 0.300000 0.500000
v 4.100000 0.200000 0.500000
v 6.400000 0.300000 0.500000
v -5.300000 0.200000 -1.500000
v -6.400000 0.300000 -1.500000
v -6.400000 0.200000 -1.500000
v -5.300000 0.300000 -1.500000
v -1.300000 0.200000 -1.500000
v -5.200000 0.300000 -1.500000
v -5.200000 0.200000 -1.500000
v -1.300000 0.300000 -1.500000
v 2.700000 0.200000 -1.500000
v -1.200000 0.300000 -1.500000
v -1.200000 0.200000 -1.500000
v 2.700000 0.300000 -1.500000
v 6.400000 0.200000 -1.500000
v 2.800000 0.300000 -1.500000
v 2.800000 0.200000 -1.500000
v 6.400000 0.300000 -1.500000
v -4.500000 0.200001 -3.500000
v -6.400000 0.300001 -3.500000
v -6.400000 0.200001 -3.500000
v -4.500000 0.300001 -3.500000
v -2.400000 0.200001 -3.500000
v -4.400000 0.300001 -3.500000
v -4.400000 0.200001 -3.500000
v -2.400000 0.300001 -3.500000
v -0.300000 0.200001 -3.500000
v -2.300000 0.300001 -3.500000
v -2.300000 0.200001 -3.500000
v -0.300000 0.300001 -3.500000
v 1.900000 0.200001 -3.500000
v -0.200000 0.300001 -3.500000
v -0.200000 0.200001 -3.500000
v 1.900000 0.300001 -3.500000
v 4.000000 0.200001 -3.500000
v 2.000000 0.300001 -3.500000
v 2.000000 0.200001 -3.500000
v 4.000000 0.300001 -3.500000
v 6.400000 0.200001 -3.500000
v 4.100000 0.300001 -3.500000
v 4.100000 0.200001 -3.500000
v 6.400000 0.300001 -3.500000
v -5.300000 0.200001 -5.500000
v -6.400000 0.300001 -5.500000
v -6.400000 0.200001 -5.500000
v -5.300000 0.300001 -5.500000
v -1.300000 0.200001 -5.500000
v -5.200000 0.300001 -5.500000
v -5.200000 0.200001 -5.500000
v -1.300000 0.300001 -5.500000
v 2.700000 0.200001 -5.500000
v -1.200000 0.300001 -5.500000
v -1.200000 0.200001 -5.500000
v 2.700000 0.300001 -5.500000
v 6.400000 0.200001 -5.500000
v 2.800000 0.300001 -5.500000
v 2.800000 0.200001 -5.500000
v 6.400000 0.300001 -5.500000
v -6.400000 0.199999 4.700000
v -6.400000 0.299999 4.700000
v -5.300000 0.199999 4.700000
v -5.300000 0.299999 4.700000
v -5.200000 0.199999 4.700000
v -5.200000 0.299999 4.700000
v -1.300000 0.199999 4.700000
v -1.300000 0.299999 4.700000
v -1.200000 0.199999 4.700000
v -1.200000 0.299999 4.700000
v 2.700000 0.199999 4.700000
v 2.700000 0.299999 4.700000
v 2.800000 0.199999 4.700000
v 2.800000 0.299999 4.700000
v 6.400000 0.199999 4.700000
v 6.400000 0.299999 4.700000
v -6.400000 0.200000 2.700000
v -6.400000 0.300000 2.700000
v -4.500000 0.200000 2.700000
v -4.500000 0.300000 2.700000
v -4.400000 0.200000 2.700000
v -4.400000 0.300000 2.700000
v -2.400000 0.200000 2.700000
v -2.400000 0.300000 2.700000
v -2.300000 0.200000 2.700000
v -2.300000 0.300000 2.700000
v -0.300000 0.200000 2.700000
v -0.300000 0.300000 2.700000
v -0.200000 0.200000 2.700000
v -0.200000 0.300000 2.700000
v 1.900000 0.200000 2.700000
v 1.900000 0.300000 2.700000
v 2.000000 0.200000 2.700000
v 2.000000 0.300000 2.700000
v 4.000000 0.200000 2.700000
v 4.000000 0.300000 2.700000
v 4.100000 0.200000 2.700000
v 4.100000 0.300000 2.700000
v 6.400000 0.200000 2.700000
v 6.400000 0.300000 2.700000
v -6.400000 0.200000 0.700000
v -6.400000 0.300000 0.700000
v -5.300000 0.200000 0.700000
v -5.300000 0.300000 0.700000
v -5.200000 0.200000 0.700000
v -5.200000 0.300000 0.700000
v -1.300000 0.200000 0.700000
v -1.300000 0.300000 0.700000
v -1.200000 0.200000 0.700000
v -1.200000 0.300000 0.700000
v 2.700000 0.200000 0.700000
v 2.700000 0.300000 0.700000
v 2.800000 0.200000 0.700000
v 2.800000 0.300000 0.700000
v 6.400000 0.200000 0.700000
v 6.400000 0.300000 0.700000
v -6.400000 0.200000 -1.300000
v -6.400000 0.300000 -1.300000
v -4.500000 0.200000 -1.300000
v -4.500000 0.300000 -1.300000
v -4.400000 0.200000 -1.300000
v -4.400000 0.300000 -1.300000
v -2.400000 0.200000 -1.300000
v -2.400000 0.300000 -1.300000
v -2.300000 0.200000 -1.300000
v -2.300000 0.300000 -1.300000
v -0.300000 0.200000 -1.300000
v -0.300000 0.300000 -1.300000
v -0.200000 0.200000 -1.300000
v -0.200000 0.300000 -1.300000
v 1.900000 0.200000 -1.300000
v 1.900000 0.300000 -1.300000
v 2.000000 0.200000 -1.300000
v 2.000000 0.300000 -1.300000
v 4.000000 0.200000 -1.300000
v 4.000000 0.300000 -1.300000
v 4.100000 0.200000 -1.300000
v 4.100000 0.300000 -1.300000
v 6.400000 0.200000 -1.300000
v 6.400000 0.300000 -1.300000
v -6.400000 0.200001 -3.300000
v -6.400000 0.300001 -3.300000
v -5.300000 0.200001 -3.300000
v -5.300000 0.300001 -3.300000
v -5.200000 0.200001 -3.300000
v -5.200000 0.300001 -3.300000
v -1.300000 0.200001 -3.300000
v -1.300000 0.300001 -3.300000
v -1.200000 0.200001 -3.300000
v -1.200000 0.300001 -3.300000
v 2.700000 0.200001 -3.300000
v 2.700000 0.300001 -3.300000
v 2.800000 0.200001 -3.300000
v 2.800000 0.300001 -3.300000
v 6.400000 0.200001 -3.300000
v 6.400000 0.300001 -3.300000
v -6.400000 0.200001 -5.300000
v -6.400000 0.300001 -5.300000
v -4.500000 0.200001 -5.300000
v -4.500000 0.300001 -5.300000
v -4.400000 0.200001 -5.300000
v -4.400000 0.300001 -5.300000
v -2.400000 0.200001 -5.300000
v -2.400000 0.300001 -5.300000
v -2.300000 0.200001 -5.300000
v -2.300000 0.300001 -5.300000
v -0.300000 0.200001 -5.300000
v -0.300000 0.300001 -5.300000
v -0.200000 0.200001 -5.300000
v -0.200000 0.300001 -5.300000
v 1.900000 0.200001 -5.300000
v 1.900000 0.300001 -5.300000
v 2.000000 0.200001 -5.300000
v 2.000000 0.300001 -5.300000
v 4.000000 0.200001 -5.300000
v 4.000000 0.300001 -5.300000
v 4.100000 0.200001 -5.300000
v 4.100000 0.300001 -5.300000
v 6.400000 0.200001 -5.300000
v 6.400000 0.300001 -5.300000
v -6.400000 0.000001 -6.400000
v -6.400000 0.200001 -6.400000
v -5.300000 0.100001 -6.400000
v -6.400000 0.300001 -6.400000
v -5.300000 0.200001 -6.400000
v -5.300000 0.300001 -6.400000
v -5.200000 0.100001 -6.400000
v -5.200000 0.200001 -6.400000
v -1.300000 0.100001 -6.400000
v -5.200000 0.300001 -6.400000
v -1.300000 0.200001 -6.400000
v -1.300000 0.300001 -6.400000
v -1.200000 0.100001 -6.400000
v -1.200000 0.200001 -6.400000
v 2.700000 0.100001 -6.400000
v -1.200000 0.300001 -6.400000
v 2.700000 0.200001 -6.400000
v 2.700000 0.300001 -6.400000
v 2.800000 0.100001 -6.400000
v 2.800000 0.200001 -6.400000
v 6.400000 0.000001 -6.400000
v 2.800000 0.300001 -6.400000
v 6.400000 0.200001 -6.400000
v 6.400000 0.300001 -6.400000
v -6.300000 -0.000001 6.300000
v 6.400000 -0.000001 6.400000
v -6.400000 -0.000001 6.400000
v -6.000000 -0.000001 6.300000
v 6.000000 -0.000001 6.300000
v 6.300000 -0.000001 6.300000
v -6.300000 0.000001 -6.300000
v -6.000000 0.000001 -6.300000
v 6.000000 0.000001 -6.300000
v 6.300000 0.000001 -6.300000
v -6.400000 0.000001 -6.400000
v 6.400000 0.000001 -6.400000
v -5.300000 0.199999 6.400000
v -5.200000 0.199999 6.400000
v -5.300000 0.199999 4.700000
v -5.200000 0.199999 4.700000
v -1.300000 0.199999 6.400000
v -1.200000 0.199999 6.400000
v -1.300000 0.199999 4.700000
v -1.200000 0.199999 4.700000
v 2.700000 0.199999 6.400000
v 2.800000 0.199999 6.400000
v 2.700000 0.199999 4.700000
v 2.800000 0.199999 4.700000
v -6.400000 0.199999 4.500000
v 6.400000 0.199999 4.700000
v -6.400000 0.199999 4.700000
v -4.500000 0.199999 4.500000
v -4.400000 0.199999 4.500000
v -2.400000 0.199999 4.500000
v -2.300000 0.199999 4.500000
v -0.300000 0.199999 4.500000
v -0.200000 0.199999 4.500000
v 1.900000 0.199999 4.500000
v 2.000000 0.199999 4.500000
v 4.000000 0.199999 4.500000
v 4.100000 0.199999 4.500000
v 6.400000 0.199999 4.500000
v -4.500000 0.200000 2.700000
v -4.400000 0.200000 2.700000
v -2.400000 0.200000 2.700000
v -2.300000 0.200000 2.700000
v -0.300000 0.200000 2.700000
v -0.200000 0.200000 2.700000
v 1.900000 0.200000 2.700000
v 2.000000 0.200000 2.700000
v 4.000000 0.200000 2.700000
v 4.100000 0.200000 2.700000
v -6.400000 0.200000 2.500000
v 6.400000 0.200000 2.700000
v -6.400000 0.200000 2.700000
v -5.300000 0.200000 2.500000
v -5.200000 0.200000 2.500000
v -1.300000 0.200000 2.500000
v -1.200000 0.200000 2.500000
v 2.700000 0.200000 2.500000
v 2.800000 0.200000 2.500000
v 6.400000 0.200000 2.500000
v -5.300000 0.200000 0.700000
v -5.200000 0.200000 0.700000
v -1.300000 0.200000 0.700000
v -1.200000 0.200000 0.700000
v 2.700000 0.200000 0.700000
v 2.800000 0.200000 0.700000
v -6.400000 0.200000 0.500000
v 6.400000 0.200000 0.700000
v -6.400000 0.200000 0.700000
v -4.500000 0.200000 0.500000
v -4.400000 0.200000 0.500000
v -2.400000 0.200000 0.500000
v -2.300000 0.200000 0.500000
v -0.300000 0.200000 0.500000
v -0.200000 0.200000 0.500000
v 1.900000 0.200000 0.500000
v 2.000000 0.200000 0.500000
v 4.000000 0.200000 0.500000
v 4.100000 0.200000 0.500000
v 6.400000 0.200000 0.500000
v -4.500000 0.200000 -1.300000
v -4.400000 0.200000 -1.300000
v -2.400000 0.200000 -1.300000
v -2.300000 0.200000 -1.300000
v -0.300000 0.200000 -1.300000
v -0.200000 0.200000 -1.300000
v 1.900000 0.200000 -1.300000
v 2.000000 0.200000 -1.300000
v 4.000000 0.200000 -1.300000
v 4.100000 0.200000 -1.300000
v -6.400000 0.200000 -1.500000
v 6.400000 0.200000 -1.300000
v -6.400000 0.200000 -1.300000
v -5.300000 0.200000 -1.500000
v -5.200000 0.200000 -1.500000
v -1.300000 0.200000 -1.500000
v -1.200000 0.200000 -1.500000
v 2.700000 0.200000 -1.500000
v 2.800000 0.200000 -1.500000
v 6.400000 0.200000 -1.500000
v -5.300000 0.200001 -3.300000
v -5.200000 0.200001 -3.300000
v -1.300000 0.200001 -3.300000
v -1.200000 0.200001 -3.300000
v 2.700000 0.200001 -3.300000
v 2.800000 0.200001 -3.300000
v -6.400000 0.200001 -3.500000
v 6.400000 0.200001 -3.300000
v -6.400000 0.200001 -3.300000
v -4.500000 0.200001 -3.500000
v -4.400000 0.200001 -3.500000
v -2.400000 0.200001 -3.500000
v -2.300000 0.200001 -3.500000
v -0.300000 0.200001 -3.500000
v -0.200000 0.200001 -3.500000
v 1.900000 0.200001 -3.500000
v 2.000000 0.200001 -3.500000
v 4.000000 0.200001 -3.500000
v 4.100000 0.200001 -3.500000
v 6.400000 0.200001 -3.500000
v -4.500000 0.200001 -5.300000
v -4.400000 0.200001 -5.300000
v -2.400000 0.200001 -5.300000
v -2.300000 0.200001 -5.300000
v -0.300000 0.200001 -5.300000
v -0.200000 0.200001 -5.300000
v 1.900000 0.200001 -5.300000
v 2.000000 0.200001 -5.300000
v 4.000000 0.200001 -5.300000
v 4.100000 0.200001 -5.300000
v -6.400000 0.200001 -5.500000
v 6.400000 0.200001 -5.300000
v -6.400000 0.200001 -5.300000
v -5.300000 0.200001 -5.500000
v -5.200000 0.200001 -5.500000
v -1.300000 0.200001 -5.500000
v -1.200000 0.200001 -5.500000
v 2.700000 0.200001 -5.500000
v 2.800000 0.200001 -5.500000
v 6.400000 0.200001 -5.500000
v -5.300000 0.200001 -6.400000
v -5.200000 0.200001 -6.400000
v -1.300000 0.200001 -6.400000
v -1.200000 0.200001 -6.400000
v 2.700000 0.200001 -6.400000
v 2.800000 0.200001 -6.400000
v -6.400000 0.299999 6.400000
v -5.300000 0.299999 6.400000
v -6.400000 0.299999 4.700000
v -5.300000 0.299999 4.700000
v -5.200000 0.299999 6.400000
v -1.300000 0.299999 6.400000
v -5.200000 0.299999 4.700000
v -1.300000 0.299999 4.700000
v -1.200000 0.299999 6.400000
v 2.700000 0.299999 6.400000
v -1.200000 0.299999 4.700000
v 2.700000 0.299999 4.700000
v 2.800000 0.299999 6.400000
v 6.400000 0.299999 6.400000
v 2.800000 0.299999 4.700000
v 6.400000 0.299999 4.700000
v -6.400000 0.299999 4.500000
v -4.500000 0.299999 4.500000
v -6.400000 0.300000 2.700000
v -4.500000 0.300000 2.700000
v -4.400000 0.299999 4.500000
v -2.400000 0.299999 4.500000
v -4.400000 0.300000 2.700000
v -2.400000 0.300000 2.700000
v -2.300000 0.299999 4.500000
v -0.300000 0.299999 4.500000
v -2.300000 0.300000 2.700000
v -0.300000 0.300000 2.700000
v -0.200000 0.299999 4.500000
v 1.900000 0.299999 4.500000
v -0.200000 0.300000 2.700000
v 1.900000 0.300000 2.700000
v 2.000000 0.299999 4.500000
v 4.000000 0.299999 4.500000
v 2.000000 0.300000 2.700000
v 4.000000 0.300000 2.700000
v 4.100000 0.299999 4.500000
v 6.400000 0.299999 4.500000
v 4.100000 0.300000 2.700000
v 6.400000 0.300000 2.700000
v -6.400000 0.300000 2.500000
v -5.300000 0.300000 2.500000
v -6.400000 0.300000 0.700000
v -5.300000 0.300000 0.700000
v -5.200000 0.300000 2.500000
v -1.300000 0.300000 2.500000
v -5.200000 0.300000 0.700000
v -1.300000 0.300000 0.700000
v -1.200000 0.300000 2.500000
v 2.700000 0.300000 2.500000
v -1.200000 0.300000 0.700000
v 2.700000 0.300000 0.700000
v 2.800000 0.300000 2.500000
v 6.400000 0.300000 2.500000
v 2.800000 0.300000 0.700000
v 6.400000 0.300000 0.700000
v -6.400000 0.300000 0.500000
v -4.500000 0.300000 0.500000
v -6.400000 0.300000 -1.300000
v -4.500000 0.300000 -1.300000
v -4.400000 0.300000 0.500000
v -2.400000 0.300000 0.500000
v -4.400000 0.300000 -1.300000
v -2.400000 0.300000 -1.300000
v -2.300000 0.300000 0.500000
v -0.300000 0.300000 0.500000
v -2.300000 0.300000 -1.300000
v -0.300000 0.300000 -1.300000
v -0.200000 0.300000 0.500000
v 1.900000 0.300000 0.500000
v -0.200000 0.300000 -1.300000
v 1.900000 0.300000 -1.300000
v 2.000000 0.300000 0.500000
v 4.000000 0.300000 0.500000
v 2.000000 0.300000 -1.300000
v 4.000000 0.300000 -1.300000
v 4.100000 0.300000 0.500000
v 6.400000 0.300000 0.500000
v 4.100000 0.300000 -1.300000
v 6.400000 0.300000 -1.300000
v -6.400000 0.300000 -1.500000
v -5.300000 0.300000 -1.500000
v -6.400000 0.300001 -3.300000
v -5.300000 0.300001 -3.300000
v -5.200000 0.300000 -1.500000
v -1.300000 0.300000 -1.500000
v -5.200000 0.300001 -3.300000
v -1.300000 0.300001 -3.300000
v -1.200000 0.300000 -1.500000
v 2.700000 0.300000 -1.500000
v -1.200000 0.300001 -3.300000
v 2.700000 0.300001 -3.300000
v 2.800000 0.300000 -1.500000
v 6.400000 0.300000 -1.500000
v 2.800000 0.300001 -3.300000
v 6.400000 0.300001 -3.300000
v -6.400000 0.300001 -3.500000
v -4.500000 0.300001 -3.500000
v -6.400000 0.300001 -5.300000
v -4.500000 0.300001 -5.300000
v -4.400000 0.300001 -3.500000
v -2.400000 0.300001 -3.500000
v -4.400000 0.300001 -5.300000
v -2.400000 0.300001 -5.300000
v -2.300000 0.300001 -3.500000
v -0.300000 0.300001 -3.500000
v -2.300000 0.300001 -5.300000
v -0.300000 0.300001 -5.300000
v -0.200000 0.300001 -3.500000
v 1.900000 0.300001 -3.500000
v -0.200000 0.300001 -5.300000
v 1.900000 0.300001 -5.300000
v 2.000000 0.300001 -3.500000
v 4.000000 0.300001 -3.500000
v 2.000000 0.300001 -5.300000
v 4.000000 0.300001 -5.300000
v 4.100000 0.300001 -3.500000
v 6.400000 0.300001 -3.500000
v 4.100000 0.300001 -5.300000
v 6.400000 0.300001 -5.300000
v -6.400000 0.300001 -5.500000
v -5.300000 0.300001 -5.500000
v -6.400000 0.300001 -6.400000
v -5.300000 0.300001 -6.400000
v -5.200000 0.300001 -5.500000
v -1.300000 0.300001 -5.500000
v -5.200000 0.300001 -6.400000
v -1.300000 0.300001 -6.400000
v -1.200000 0.300001 -5.500000
v 2.700000 0.300001 -5.500000
v -1.200000 0.300001 -6.400000
v 2.700000 0.300001 -6.400000
v 2.800000 0.300001 -5.500000
v 6.400000 0.300001 -5.500000
v 2.800000 0.300001 -6.400000
v 6.400000 0.300001 -6.400000
vt 0.962891 0.500000
vt 0.962891 0.500000
vt 0.962891 0.500000
vt 0.962891 0.500000
vt 0.962891 0.500000
vt 0.962891 0.500000
vt 0.962891 0.500000
vt 0.962891 0.500000
vt 0.962891 0.500000
vt 0.962891 0.500000
vt 0.962891 0.500000
vt 0.962891 0.500000
vt 0.962891 0.500000
vt 0.962891 0.500000
vt 0.962891 0.500000
vt 0.548828 0.500000
vt 0.548828 0.500000
vt 0.548828 0.500000
vt 0.962891 0.500000
vt 0.962891 0.500000
vt 0.548828 0.500000
vt 0.548828 0.500000
vt 0.548828 0.500000
vt 0.548828 0.500000
vt 0.962891 0.500000
vt 0.962891 0.500000
vt 0.548828 0.500000
vt 0.548828 0.500000
vt 0.548828 0.500000
vt 0.548828 0.500000
vt 0.962891 0.500000
vt 0.962891 0.500000
vt 0.548828 0.500000
vt 0.548828 0.500000
vt 0.548828 0.500000
vt 0.548828 0.500000
vt 0.962891 0.500000
vt 0.962891 0.500000
vt 0.548828 0.500000
vt 0.548828 0.500000
vt 0.548828 0.500000
vt 0.548828 0.500000
vt 0.962891 0.500000
vt 0.962891 0.500000
vt 0.548828 0.500000
vt 0.548828 0.500000
vt 0.548828 0.500000
vt 0.548828 0.500000
vt 0.962891 0.500000
vt 0.962891 0.500000
vt 0.548828 0.500000
vt 0.962891 0.500000
vt 0.517578 0.500000
vt 0.517578 0.500000
vt 0.517578 0.500000
vt 0.517578 0.500000
vt 0.517578 0.500000
vt 0.517578 0.500000
vt 0.517578 0.500000
vt 0.517578 0.500000
vt 0.962891 0.500000
vt 0.962891 0.500000
vt 0.517578 0.500000
vt 0.517578 0.500000
vt 0.517578 0.500000
vt 0.517578 0.500000
vt 0.517578 0.500000
vt 0.517578 0.500000
vt 0.517578 0.500000
vt 0.517578 0.500000
vt 0.962891 0.500000
vt 0.962891 0.500000
vt 0.517578 0.500000
vt 0.517578 0.500000
vt 0.517578 0.500000
vt 0.517578 0.500000
vt 0.517578 0.500000
vt 0.517578 0.500000
vt 0.517578 0.500000
vt 0.517578 0.500000
vt 0.517578 0.500000
vt 0.517578 0.500000
vt 0.517578 0.500000
vt 0.517578 0.500000
vt 0.517578 0.500000
vt 0.517578 0.500000
vt 0.517578 0.500000
vt 0.517578 0.500000
vt 0.517578 0.500000
vt 0.517578 0.500000
vt 0.517578 0.500000
vt 0.517578 0.500000
vt 0.962891 0.500000
vt 0.962891 0.500000
vt 0.962891 0.500000
vt 0.962891 0.500000
vt 0.962891 0.500000
vt 0.962891 0.500000
vt 0.962891 0.500000
vt 0.962891 0.500000
vt 0.517578 0.500000
vt 0.517578 0.500000
vt 0.517578 0.500000
vt 0.517578 0.500000
vt 0.517578 0.500000
vt 0.517578 0.500000
vt 0.517578 0.500000
vt 0.517578 0.500000
vt 0.517578 0.500000
vt 0.517578 0.500000
vt 0.517578 0.500000
vt 0.517578 0.500000
vt 0.962891 0.500000
vt 0.962891 0.500000
vt 0.962891 0.500000
vt 0.962891 0.500000
vt 0.962891 0.500000
vt 0.962891 0.500000
vt 0.962891 0.500000
vt 0.962891 0.500000
vt 0.517578 0.500000
vt 0.517578 0.500000
vt 0.517578 0.500000
vt 0.517578 0.500000
vt 0.962891 0.500000
vt 0.962891 0.500000
vt 0.962891 0.500000
vt 0.962891 0.500000
vt 0.962891 0.500000
vt 0.962891 0.500000
vt 0.962891 0.500000
vt 0.962891 0.500000
vt 0.962891 0.500000
vt 0.962891 0.500000
vt 0.962891 0.500000
vt 0.962891 0.500000
vt 0.517578 0.500000
vt 0.517578 0.500000
vt 0.517578 0.500000
vt 0.517578 0.500000
vt 0.517578 0.500000
vt 0.517578 0.500000
vt 0.517578 0.500000
vt 0.517578 0.500000
vt 0.517578 0.500000
vt 0.517578 0.500000
vt 0.517578 0.500000
vt 0.517578 0.500000
vt 0.517578 0.500000
vt 0.517578 0.500000
vt 0.517578 0.500000
vt 0.517578 0.500000
vt 0.517578 0.500000
vt 0.517578 0.500000
vt 0.517578 0.500000
vt 0.517578 0.500000
vt 0.517578 0.500000
vt 0.517578 0.500000
vt 0.517578 0.500000
vt 0.517578 0.500000
vt 0.962891 0.500000
vt 0.962891 0.500000
vt 0.962891 0.500000
vt 0.962891 0.500000
vt 0.517578 0.500000
vt 0.517578 0.500000
vt 0.517578 0.500000
vt 0.517578 0.500000
vt 0.517578 0.500000
vt 0.517578 0.500000
vt 0.517578 0.500000
vt 0.517578 0.500000
vt 0.517578 0.500000
vt 0.517578 0.500000
vt 0.517578 0.500000
vt 0.517578 0.500000
vt 0.517578 0.500000
vt 0.517578 0.500000
vt 0.517578 0.500000
vt 0.517578 0.500000
vt 0.962891 0.500000
vt 0.962891 0.500000
vt 0.962891 0.500000
vt 0.962891 0.500000
vt 0.517578 0.500000
vt 0.517578 0.500000
vt 0.517578 0.500000
vt 0.517578 0.500000
vt 0.962891 0.500000
vt 0.962891 0.500000
vt 0.962891 0.500000
vt 0.962891 0.500000
vt 0.517578 0.500000
vt 0.517578 0.500000
vt 0.517578 0.500000
vt 0.517578 0.500000
vt 0.517578 0.500000
vt 0.517578 0.500000
vt 0.517578 0.500000
vt 0.517578 0.500000
vt 0.517578 0.500000
vt 0.517578 0.500000
vt 0.517578 0.500000
vt 0.517578 0.500000
vt 0.517578 0.500000
vt 0.517578 0.500000
vt 0.517578 0.500000
vt 0.517578 0.500000
vt 0.962891 0.500000
vt 0.962891 0.500000
vt 0.962891 0.500000
vt 0.962891 0.500000
vt 0.962891 0.500000
vt 0.962891 0.500000
vt 0.962891 0.500000
vt 0.962891 0.500000
vt 0.962891 0.500000
vt 0.962891 0.500000
vt 0.962891 0.500000
vt 0.962891 0.500000
vt 0.517578 0.500000
vt 0.517578 0.500000
vt 0.517578 0.500000
vt 0.517578 0.500000
vt 0.517578 0.500000
vt 0.517578 0.500000
vt 0.517578 0.500000
vt 0.517578 0.500000
vt 0.517578 0.500000
vt 0.517578 0.500000
vt 0.517578 0.500000
vt 0.517578 0.500000
vt 0.517578 0.500000
vt 0.517578 0.500000
vt 0.517578 0.500000
vt 0.517578 0.500000
vt 0.517578 0.500000
vt 0.517578 0.500000
vt 0.517578 0.500000
vt 0.517578 0.500000
vt 0.517578 0.500000
vt 0.517578 0.500000
vt 0.517578 0.500000
vt 0.517578 0.500000
vt 0.517578 0.500000
vt 0.517578 0.500000
vt 0.517578 0.500000
vt 0.517578 0.500000
vt 0.962891 0.500000
vt 0.962891 0.500000
vt 0.962891 0.500000
vt 0.962891 0.500000
vt 0.962891 0.500000
vt 0.962891 0.500000
vt 0.962891 0.500000
vt 0.962891 0.500000
vt 0.517578 0.500000
vt 0.517578 0.500000
vt 0.517578 0.500000
vt 0.517578 0.500000
vt 0.517578 0.500000
vt 0.517578 0.500000
vt 0.517578 0.500000
vt 0.517578 0.500000
vt 0.962891 0.500000
vt 0.962891 0.500000
vt 0.962891 0.500000
vt 0.962891 0.500000
vt 0.517578 0.500000
vt 0.517578 0.500000
vt 0.517578 0.500000
vt 0.517578 0.500000
vt 0.962891 0.500000
vt 0.962891 0.500000
vt 0.962891 0.500000
vt 0.962891 0.500000
vt 0.962891 0.500000
vt 0.962891 0.500000
vt 0.962891 0.500000
vt 0.962891 0.500000
vt 0.517578 0.500000
vt 0.517578 0.500000
vt 0.517578 0.500000
vt 0.517578 0.500000
vt 0.517578 0.500000
vt 0.517578 0.500000
vt 0.517578 0.500000
vt 0.517578 0.500000
vt 0.517578 0.500000
vt 0.517578 0.500000
vt 0.517578 0.500000
vt 0.517578 0.500000
vt 0.962891 0.500000
vt 0.962891 0.500000
vt 0.962891 0.500000
vt 0.962891 0.500000
vt 0.962891 0.500000
vt 0.962891 0.500000
vt 0.962891 0.500000
vt 0.962891 0.500000
vt 0.962891 0.500000
vt 0.962891 0.500000
vt 0.962891 0.500000
vt 0.962891 0.500000
vt 0.962891 0.500000
vt 0.962891 0.500000
vt 0.962891 0.500000
vt 0.548828 0.500000
vt 0.548828 0.500000
vt 0.548828 0.500000
vt 0.962891 0.500000
vt 0.962891 0.500000
vt 0.548828 0.500000
vt 0.548828 0.500000
vt 0.548828 0.500000
vt 0.548828 0.500000
vt 0.962891 0.500000
vt 0.962891 0.500000
vt 0.548828 0.500000
vt 0.548828 0.500000
vt 0.548828 0.500000
vt 0.548828 0.500000
vt 0.962891 0.500000
vt 0.962891 0.500000
vt 0.548828 0.500000
vt 0.548828 0.500000
vt 0.548828 0.500000
vt 0.548828 0.500000
vt 0.962891 0.500000
vt 0.962891 0.500000
vt 0.548828 0.500000
vt 0.548828 0.500000
vt 0.548828 0.500000
vt 0.548828 0.500000
vt 0.962891 0.500000
vt 0.962891 0.500000
vt 0.548828 0.500000
vt 0.548828 0.500000
vt 0.548828 0.500000
vt 0.548828 0.500000
vt 0.962891 0.500000
vt 0.962891 0.500000
vt 0.548828 0.500000
vt 0.962891 0.500000
vt 0.517578 0.500000
vt 0.517578 0.500000
vt 0.517578 0.500000
vt 0.517578 0.500000
vt 0.517578 0.500000
vt 0.517578 0.500000
vt 0.517578 0.500000
vt 0.517578 0.500000
vt 0.962891 0.500000
vt 0.962891 0.500000
vt 0.517578 0.500000
vt 0.517578 0.500000
vt 0.517578 0.500000
vt 0.517578 0.500000
vt 0.517578 0.500000
vt 0.517578 0.500000
vt 0.517578 0.500000
vt 0.517578 0.500000
vt 0.962891 0.500000
vt 0.962891 0.500000
vt 0.517578 0.500000
vt 0.517578 0.500000
vt 0.517578 0.500000
vt 0.517578 0.500000
vt 0.962891 0.500000
vt 0.962891 0.500000
vt 0.962891 0.500000
vt 0.517578 0.500000
vt 0.517578 0.500000
vt 0.517578 0.500000
vt 0.962891 0.500000
vt 0.517578 0.500000
vt 0.962891 0.500000
vt 0.548828 0.500000
vt 0.548828 0.500000
vt 0.548828 0.500000
vt 0.548828 0.500000
vt 0.962891 0.500000
vt 0.962891 0.500000
vt 0.517578 0.500000
vt 0.517578 0.500000
vt 0.517578 0.500000
vt 0.962891 0.500000
vt 0.517578 0.500000
vt 0.962891 0.500000
vt 0.548828 0.500000
vt 0.548828 0.500000
vt 0.548828 0.500000
vt 0.548828 0.500000
vt 0.962891 0.500000
vt 0.962891 0.500000
vt 0.962891 0.500000
vt 0.962891 0.500000
vt 0.962891 0.500000
vt 0.962891 0.500000
vt 0.548828 0.500000
vt 0.548828 0.500000
vt 0.548828 0.500000
vt 0.548828 0.500000
vt 0.962891 0.500000
vt 0.962891 0.500000
vt 0.517578 0.500000
vt 0.517578 0.500000
vt 0.517578 0.500000
vt 0.962891 0.500000
vt 0.517578 0.500000
vt 0.517578 0.500000
vt 0.517578 0.500000
vt 0.517578 0.500000
vt 0.517578 0.500000
vt 0.962891 0.500000
vt 0.962891 0.500000
vt 0.962891 0.500000
vt 0.962891 0.500000
vt 0.517578 0.500000
vt 0.517578 0.500000
vt 0.517578 0.500000
vt 0.517578 0.500000
vt 0.962891 0.500000
vt 0.962891 0.500000
vt 0.962891 0.500000
vt 0.962891 0.500000
vt 0.517578 0.500000
vt 0.517578 0.500000
vt 0.517578 0.500000
vt 0.517578 0.500000
vt 0.517578 0.500000
vt 0.517578 0.500000
vt 0.517578 0.500000
vt 0.517578 0.500000
vt 0.962891 0.500000
vt 0.962891 0.500000
vt 0.962891 0.500000
vt 0.962891 0.500000
vt 0.517578 0.500000
vt 0.517578 0.500000
vt 0.517578 0.500000
vt 0.517578 0.500000
vt 0.517578 0.500000
vt 0.517578 0.500000
vt 0.517578 0.500000
vt 0.517578 0.500000
vt 0.962891 0.500000
vt 0.962891 0.500000
vt 0.962891 0.500000
vt 0.962891 0.500000
vt 0.517578 0.500000
vt 0.517578 0.500000
vt 0.517578 0.500000
vt 0.517578 0.500000
vt 0.962891 0.500000
vt 0.962891 0.500000
vt 0.962891 0.500000
vt 0.962891 0.500000
vt 0.517578 0.500000
vt 0.517578 0.500000
vt 0.517578 0.500000
vt 0.517578 0.500000
vt 0.517578 0.500000
vt 0.517578 0.500000
vt 0.517578 0.500000
vt 0.517578 0.500000
vt 0.517578 0.500000
vt 0.517578 0.500000
vt 0.517578 0.500000
vt 0.517578 0.500000
vt 0.517578 0.500000
vt 0.517578 0.500000
vt 0.517578 0.500000
vt 0.517578 0.500000
vt 0.517578 0.500000
vt 0.517578 0.500000
vt 0.517578 0.500000
vt 0.517578 0.500000
vt 0.517578 0.500000
vt 0.517578 0.500000
vt 0.517578 0.500000
vt 0.517578 0.500000
vt 0.962891 0.500000
vt 0.962891 0.500000
vt 0.962891 0.500000
vt 0.962891 0.500000
vt 0.517578 0.500000
vt 0.517578 0.500000
vt 0.517578 0.500000
vt 0.517578 0.500000
vt 0.962891 0.500000
vt 0.962891 0.500000
vt 0.962891 0.500000
vt 0.962891 0.500000
vt 0.517578 0.500000
vt 0.517578 0.500000
vt 0.517578 0.500000
vt 0.517578 0.500000
vt 0.962891 0.500000
vt 0.962891 0.500000
vt 0.962891 0.500000
vt 0.962891 0.500000
vt 0.517578 0.500000
vt 0.517578 0.500000
vt 0.517578 0.500000
vt 0.517578 0.500000
vt 0.517578 0.500000
vt 0.517578 0.500000
vt 0.517578 0.500000
vt 0.517578 0.500000
vt 0.962891 0.500000
vt 0.962891 0.500000
vt 0.962891 0.500000
vt 0.962891 0.500000
vt 0.517578 0.500000
vt 0.517578 0.500000
vt 0.517578 0.500000
vt 0.517578 0.500000
vt 0.517578 0.500000
vt 0.517578 0.500000
vt 0.517578 0.500000
vt 0.517578 0.500000
vt 0.962891 0.500000
vt 0.962891 0.500000
vt 0.962891 0.500000
vt 0.962891 0.500000
vt 0.517578 0.500000
vt 0.517578 0.500000
vt 0.517578 0.500000
vt 0.517578 0.500000
vt 0.517578 0.500000
vt 0.517578 0.500000
vt 0.517578 0.500000
vt 0.517578 0.500000
vt 0.517578 0.500000
vt 0.517578 0.500000
vt 0.517578 0.500000
vt 0.517578 0.500000
vt 0.962891 0.500000
vt 0.962891 0.500000
vt 0.962891 0.500000
vt 0.962891 0.500000
vt 0.517578 0.500000
vt 0.517578 0.500000
vt 0.517578 0.500000
vt 0.517578 0.500000
vt 0.517578 0.500000
vt 0.517578 0.500000
vt 0.517578 0.500000
vt 0.517578 0.500000
vt 0.962891 0.500000
vt 0.962891 0.500000
vt 0.962891 0.500000
vt 0.962891 0.500000
vt 0.517578 0.500000
vt 0.517578 0.500000
vt 0.517578 0.500000
vt 0.517578 0.500000
vt 0.962891 0.500000
vt 0.962891 0.500000
vt 0.962891 0.500000
vt 0.962891 0.500000
vt 0.517578 0.500000
vt 0.517578 0.500000
vt 0.517578 0.500000
vt 0.517578 0.500000
vt 0.517578 0.500000
vt 0.517578 0.500000
vt 0.517578 0.500000
vt 0.517578 0.500000
vt 0.962891 0.500000
vt 0.962891 0.500000
vt 0.962891 0.500000
vt 0.962891 0.500000
vt 0.517578 0.500000
vt 0.517578 0.500000
vt 0.517578 0.500000
vt 0.517578 0.500000
vt 0.517578 0.500000
vt 0.517578 0.500000
vt 0.517578 0.500000
vt 0.517578 0.500000
vt 0.962891 0.500000
vt 0.962891 0.500000
vt 0.962891 0.500000
vt 0.962891 0.500000
vt 0.517578 0.500000
vt 0.517578 0.500000
vt 0.517578 0.500000
vt 0.517578 0.500000
vt 0.962891 0.500000
vt 0.962891 0.500000
vt 0.962891 0.500000
vt 0.962891 0.500000
vt 0.517578 0.500000
vt 0.517578 0.500000
vt 0.517578 0.500000
vt 0.517578 0.500000
vt 0.517578 0.500000
vt 0.517578 0.500000
vt 0.517578 0.500000
vt 0.517578 0.500000
vt 0.517578 0.500000
vt 0.517578 0.500000
vt 0.517578 0.500000
vt 0.517578 0.500000
vt 0.517578 0.500000
vt 0.517578 0.500000
vt 0.517578 0.500000
vt 0.517578 0.500000
vt 0.517578 0.500000
vt 0.517578 0.500000
vt 0.517578 0.500000
vt 0.517578 0.500000
vt 0.517578 0.500000
vt 0.517578 0.500000
vt 0.517578 0.500000
vt 0.517578 0.500000
vt 0.962891 0.500000
vt 0.962891 0.500000
vt 0.962891 0.500000
vt 0.962891 0.500000
vt 0.517578 0.500000
vt 0.517578 0.500000
vt 0.517578 0.500000
vt 0.517578 0.500000
vt 0.962891 0.500000
vt 0.962891 0.500000
vt 0.962891 0.500000
vt 0.962891 0.500000
vt 0.517578 0.500000
vt 0.517578 0.500000
vt 0.517578 0.500000
vt 0.517578 0.500000
vt 0.962891 0.500000
vt 0.962891 0.500000
vt 0.962891 0.500000
vt 0.962891 0.500000
vt 0.517578 0.500000
vt 0.517578 0.500000
vt 0.517578 0.500000
vt 0.517578 0.500000
vt 0.517578 0.500000
vt 0.517578 0.500000
vt 0.517578 0.500000
vt 0.517578 0.500000
vt 0.962891 0.500000
vt 0.962891 0.500000
vt 0.962891 0.500000
vt 0.962891 0.500000
vt 0.962891 0.500000
vt 0.962891 0.500000
vt 0.962891 0.500000
vt 0.517578 0.500000
vt 0.517578 0.500000
vt 0.517578 0.500000
vt 0.962891 0.500000
vt 0.517578 0.500000
vt 0.962891 0.500000
vt 0.548828 0.500000
vt 0.548828 0.500000
vt 0.548828 0.500000
vt 0.548828 0.500000
vt 0.962891 0.500000
vt 0.962891 0.500000
vt 0.517578 0.500000
vt 0.517578 0.500000
vt 0.517578 0.500000
vt 0.962891 0.500000
vt 0.517578 0.500000
vt 0.962891 0.500000
vt 0.548828 0.500000
vt 0.548828 0.500000
vt 0.548828 0.500000
vt 0.548828 0.500000
vt 0.962891 0.500000
vt 0.962891 0.500000
vt 0.962891 0.500000
vt 0.962891 0.500000
vt 0.962891 0.500000
vt 0.962891 0.500000
vt 0.548828 0.500000
vt 0.548828 0.500000
vt 0.548828 0.500000
vt 0.548828 0.500000
vt 0.962891 0.500000
vt 0.962891 0.500000
vt 0.517578 0.500000
vt 0.517578 0.500000
vt 0.517578 0.500000
vt 0.962891 0.500000
vt 0.517578 0.500000
vt 0.962891 0.500000
vt 0.962891 0.500000
vt 0.962891 0.500000
vt 0.962891 0.500000
vt 0.962891 0.500000
vt 0.962891 0.500000
vt 0.962891 0.500000
vt 0.525391 0.500000
vt 0.525391 0.500000
vt 0.525391 0.500000
vt 0.498047 0.500000
vt 0.498047 0.500000
vt 0.498047 0.500000
vt 0.525391 0.500000
vt 0.525391 0.500000
vt 0.525391 0.500000
vt 0.525391 0.500000
vt 0.498047 0.500000
vt 0.962891 0.500000
vt 0.525391 0.500000
vt 0.962891 0.500000
vt 0.962891 0.500000
vt 0.962891 0.500000
vt 0.962891 0.500000
vt 0.548828 0.500000
vt 0.548828 0.500000
vt 0.548828 0.500000
vt 0.548828 0.500000
vt 0.548828 0.500000
vt 0.548828 0.500000
vt 0.548828 0.500000
vt 0.548828 0.500000
vt 0.548828 0.500000
vt 0.548828 0.500000
vt 0.548828 0.500000
vt 0.548828 0.500000
vt 0.548828 0.500000
vt 0.548828 0.500000
vt 0.548828 0.500000
vt 0.548828 0.500000
vt 0.548828 0.500000
vt 0.548828 0.500000
vt 0.548828 0.500000
vt 0.548828 0.500000
vt 0.548828 0.500000
vt 0.548828 0.500000
vt 0.548828 0.500000
vt 0.548828 0.500000
vt 0.548828 0.500000
vt 0.548828 0.500000
vt 0.548828 0.500000
vt 0.548828 0.500000
vt 0.548828 0.500000
vt 0.548828 0.500000
vt 0.548828 0.500000
vt 0.548828 0.500000
vt 0.548828 0.500000
vt 0.548828 0.500000
vt 0.548828 0.500000
vt 0.548828 0.500000
vt 0.548828 0.500000
vt 0.548828 0.500000
vt 0.548828 0.500000
vt 0.548828 0.500000
vt 0.548828 0.500000
vt 0.548828 0.500000
vt 0.548828 0.500000
vt 0.548828 0.500000
vt 0.548828 0.500000
vt 0.548828 0.500000
vt 0.548828 0.500000
vt 0.548828 0.500000
vt 0.548828 0.500000
vt 0.548828 0.500000
vt 0.548828 0.500000
vt 0.548828 0.500000
vt 0.548828 0.500000
vt 0.548828 0.500000
vt 0.548828 0.500000
vt 0.548828 0.500000
vt 0.548828 0.500000
vt 0.548828 0.500000
vt 0.548828 0.500000
vt 0.548828 0.500000
vt 0.548828 0.500000
vt 0.548828 0.500000
vt 0.548828 0.500000
vt 0.548828 0.500000
vt 0.548828 0.500000
vt 0.548828 0.500000
vt 0.548828 0.500000
vt 0.548828 0.500000
vt 0.548828 0.500000
vt 0.548828 0.500000
vt 0.548828 0.500000
vt 0.548828 0.500000
vt 0.548828 0.500000
vt 0.548828 0.500000
vt 0.548828 0.500000
vt 0.548828 0.500000
vt 0.548828 0.500000
vt 0.548828 0.500000
vt 0.548828 0.500000
vt 0.548828 0.500000
vt 0.548828 0.500000
vt 0.548828 0.500000
vt 0.548828 0.500000
vt 0.548828 0.500000
vt 0.548828 0.500000
vt 0.548828 0.500000
vt 0.548828 0.500000
vt 0.548828 0.500000
vt 0.548828 0.500000
vt 0.548828 0.500000
vt 0.548828 0.500000
vt 0.548828 0.500000
vt 0.548828 0.500000
vt 0.548828 0.500000
vt 0.548828 0.500000
vt 0.548828 0.500000
vt 0.548828 0.500000
vt 0.548828 0.500000
vt 0.548828 0.500000
vt 0.548828 0.500000
vt 0.548828 0.500000
vt 0.548828 0.500000
vt 0.548828 0.500000
vt 0.548828 0.500000
vt 0.548828 0.500000
vt 0.548828 0.500000
vt 0.548828 0.500000
vt 0.548828 0.500000
vt 0.548828 0.500000
vt 0.548828 0.500000
vt 0.548828 0.500000
vt 0.548828 0.500000
vt 0.548828 0.500000
vt 0.548828 0.500000
vt 0.548828 0.500000
vt 0.548828 0.500000
vt 0.548828 0.500000
vt 0.548828 0.500000
vt 0.548828 0.500000
vt 0.548828 0.500000
vt 0.548828 0.500000
vt 0.548828 0.500000
vt 0.548828 0.500000
vt 0.548828 0.500000
vt 0.548828 0.500000
vt 0.548828 0.500000
vt 0.548828 0.500000
vt 0.548828 0.500000
vt 0.548828 0.500000
vt 0.548828 0.500000
vt 0.548828 0.500000
vt 0.548828 0.500000
vt 0.517578 0.500000
vt 0.517578 0.500000
vt 0.517578 0.500000
vt 0.517578 0.500000
vt 0.517578 0.500000
vt 0.517578 0.500000
vt 0.517578 0.500000
vt 0.517578 0.500000
vt 0.962891 0.500000
vt 0.962891 0.500000
vt 0.962891 0.500000
vt 0.962891 0.500000
vt 0.517578 0.500000
vt 0.517578 0.500000
vt 0.517578 0.500000
vt 0.517578 0.500000
vt 0.517578 0.500000
vt 0.517578 0.500000
vt 0.517578 0.500000
vt 0.517578 0.500000
vt 0.962891 0.500000
vt 0.962891 0.500000
vt 0.962891 0.500000
vt 0.962891 0.500000
vt 0.517578 0.500000
vt 0.517578 0.500000
vt 0.517578 0.500000
vt 0.517578 0.500000
vt 0.962891 0.500000
vt 0.962891 0.500000
vt 0.962891 0.500000
vt 0.962891 0.500000
vt 0.517578 0.500000
vt 0.517578 0.500000
vt 0.517578 0.500000
vt 0.517578 0.500000
vt 0.517578 0.500000
vt 0.517578 0.500000
vt 0.517578 0.500000
vt 0.517578 0.500000
vt 0.962891 0.500000
vt 0.962891 0.500000
vt 0.962891 0.500000
vt 0.962891 0.500000
vt 0.517578 0.500000
vt 0.517578 0.500000
vt 0.517578 0.500000
vt 0.517578 0.500000
vt 0.517578 0.500000
vt 0.517578 0.500000
vt 0.517578 0.500000
vt 0.517578 0.500000
vt 0.962891 0.500000
vt 0.962891 0.500000
vt 0.962891 0.500000
vt 0.962891 0.500000
vt 0.517578 0.500000
vt 0.517578 0.500000
vt 0.517578 0.500000
vt 0.517578 0.500000
vt 0.962891 0.500000
vt 0.962891 0.500000
vt 0.962891 0.500000
vt 0.962891 0.500000
vt 0.517578 0.500000
vt 0.517578 0.500000
vt 0.517578 0.500000
vt 0.517578 0.500000
vt 0.517578 0.500000
vt 0.517578 0.500000
vt 0.517578 0.500000
vt 0.517578 0.500000
vt 0.517578 0.500000
vt 0.517578 0.500000
vt 0.517578 0.500000
vt 0.517578 0.500000
vt 0.517578 0.500000
vt 0.517578 0.500000
vt 0.517578 0.500000
vt 0.517578 0.500000
vt 0.517578 0.500000
vt 0.517578 0.500000
vt 0.517578 0.500000
vt 0.517578 0.500000
vt 0.517578 0.500000
vt 0.517578 0.500000
vt 0.517578 0.500000
vt 0.517578 0.500000
vt 0.962891 0.500000
vt 0.962891 0.500000
vt 0.962891 0.500000
vt 0.962891 0.500000
vt 0.517578 0.500000
vt 0.517578 0.500000
vt 0.517578 0.500000
vt 0.517578 0.500000
vt 0.962891 0.500000
vt 0.962891 0.500000
vt 0.962891 0.500000
vt 0.962891 0.500000
vt 0.517578 0.500000
vt 0.517578 0.500000
vt 0.517578 0.500000
vt 0.517578 0.500000
vt 0.962891 0.500000
vt 0.962891 0.500000
vt 0.962891 0.500000
vt 0.962891 0.500000
vt 0.517578 0.500000
vt 0.517578 0.500000
vt 0.517578 0.500000
vt 0.517578 0.500000
vt 0.517578 0.500000
vt 0.517578 0.500000
vt 0.517578 0.500000
vt 0.517578 0.500000
vt 0.962891 0.500000
vt 0.962891 0.500000
vt 0.962891 0.500000
vt 0.962891 0.500000
vt 0.517578 0.500000
vt 0.517578 0.500000
vt 0.517578 0.500000
vt 0.517578 0.500000
vt 0.517578 0.500000
vt 0.517578 0.500000
vt 0.517578 0.500000
vt 0.517578 0.500000
vt 0.962891 0.500000
vt 0.962891 0.500000
vt 0.962891 0.500000
vt 0.962891 0.500000
vt 0.517578 0.500000
vt 0.517578 0.500000
vt 0.517578 0.500000
vt 0.517578 0.500000
vn -1.0000 0.0000 0.0000
vn -1.0000 0.0002 0.0000
vn 1.0000 0.0000 0.0000
vn 1.0000 0.0002 0.0000
vn 1.0000 0.0001 0.0000
vn 0.0000 0.0000 1.0000
vn 0.0000 0.0000 -1.0000
vn 0.0000 1.0000 0.0000
usemtl palette.001
s 1
f 1/1/1 2/2/1 3/3/1
f 4/4/1 2/2/1 1/1/1
f 5/5/1 2/2/1 4/4/1
f 6/6/2 2/2/1 5/5/1
f 7/7/1 2/2/1 6/6/2
f 8/8/1 2/2/1 7/7/1
f 9/9/1 2/2/1 8/8/1
f 10/10/2 2/2/1 9/9/1
f 11/11/1 2/2/1 10/10/2
f 12/12/1 2/2/1 11/11/1
f 13/13/1 2/2/1 12/12/1
f 14/14/1 2/2/1 13/13/1
f 15/15/1 1/1/1 3/3/1
f 16/16/1 4/17/1 1/18/1
f 16/19/1 1/1/1 15/15/1
f 17/20/1 5/5/1 4/4/1
f 17/21/1 4/17/1 16/16/1
f 18/22/1 6/23/2 5/24/1
f 18/25/1 5/5/1 17/20/1
f 19/26/1 7/7/1 6/6/2
f 19/27/1 6/23/2 18/22/1
f 20/28/1 8/29/1 7/30/1
f 20/31/1 7/7/1 19/26/1
f 21/32/1 9/9/1 8/8/1
f 21/33/1 8/29/1 20/28/1
f 22/34/1 10/35/2 9/36/1
f 22/37/1 9/9/1 21/32/1
f 23/38/1 11/11/1 10/10/2
f 23/39/1 10/35/2 22/34/1
f 24/40/1 12/41/1 11/42/1
f 24/43/1 11/11/1 23/38/1
f 25/44/1 13/13/1 12/12/1
f 25/45/1 12/41/1 24/40/1
f 26/46/1 14/47/1 13/48/1
f 26/49/1 13/13/1 25/44/1
f 27/50/1 2/2/1 14/14/1
f 27/51/1 14/47/1 26/46/1
f 28/52/1 2/2/1 27/50/1
f 29/53/1 16/54/1 15/55/1
f 30/56/1 16/54/1 29/53/1
f 31/57/1 18/58/1 17/59/1
f 32/60/1 18/58/1 31/57/1
f 33/61/1 20/31/1 19/26/1
f 34/62/1 20/31/1 33/61/1
f 35/63/1 22/64/1 21/65/1
f 36/66/1 22/64/1 35/63/1
f 37/67/1 24/68/1 23/69/1
f 38/70/1 24/68/1 37/67/1
f 39/71/1 26/49/1 25/44/1
f 40/72/1 26/49/1 39/71/1
f 41/73/1 28/74/1 27/75/1
f 42/76/1 28/74/1 41/73/1
f 43/77/1 44/78/1 45/79/1
f 46/80/1 44/78/1 43/77/1
f 47/81/1 48/82/1 49/83/1
f 50/84/1 48/82/1 47/81/1
f 51/85/1 52/86/1 53/87/1
f 54/88/1 52/86/1 51/85/1
f 55/89/1 56/90/1 57/91/1
f 58/92/1 56/90/1 55/89/1
f 59/93/1 60/94/1 61/95/1
f 62/96/1 60/94/1 59/93/1
f 63/97/1 64/98/1 65/99/1
f 66/100/1 64/98/1 63/97/1
f 67/101/1 68/102/1 69/103/1
f 70/104/1 68/102/1 67/101/1
f 71/105/1 72/106/1 73/107/1
f 74/108/1 72/106/1 71/105/1
f 75/109/1 76/110/1 77/111/1
f 78/112/1 76/110/1 75/109/1
f 79/113/1 80/114/1 81/115/1
f 82/116/1 80/114/1 79/113/1
f 83/117/1 84/118/1 85/119/1
f 86/120/1 84/118/1 83/117/1
f 87/121/1 88/122/1 89/123/1
f 90/124/1 88/122/1 87/121/1
f 91/125/1 92/126/1 93/127/1
f 94/128/1 92/126/1 91/125/1
f 95/129/1 96/130/1 97/131/1
f 98/132/1 96/130/1 95/129/1
f 99/133/1 100/134/1 101/135/1
f 102/136/1 100/134/1 99/133/1
f 103/137/1 104/138/1 105/139/1
f 106/140/1 104/138/1 103/137/1
f 107/141/1 108/142/1 109/143/1
f 110/144/1 108/142/1 107/141/1
f 111/145/1 112/146/1 113/147/1
f 114/148/1 112/146/1 111/145/1
f 115/149/1 116/150/1 117/151/1
f 118/152/1 116/150/1 115/149/1
f 119/153/1 120/154/1 121/155/1
f 122/156/1 120/154/1 119/153/1
f 123/157/1 124/158/1 125/159/1
f 126/160/1 124/158/1 123/157/1
f 127/161/1 128/162/1 129/163/1
f 130/164/1 128/162/1 127/161/1
f 131/165/1 132/166/1 133/167/1
f 134/168/1 132/166/1 131/165/1
f 135/169/1 136/170/1 137/171/1
f 138/172/1 136/170/1 135/169/1
f 139/173/1 140/174/1 141/175/1
f 142/176/1 140/174/1 139/173/1
f 143/177/1 144/178/1 145/179/1
f 146/180/1 144/178/1 143/177/1
f 147/181/1 148/182/1 149/183/1
f 150/184/1 148/182/1 147/181/1
f 151/185/3 152/186/3 153/187/3
f 153/187/3 152/186/3 154/188/3
f 155/189/3 156/190/3 157/191/3
f 157/191/3 156/190/3 158/192/3
f 159/193/3 160/194/3 161/195/3
f 161/195/3 160/194/3 162/196/3
f 163/197/3 164/198/3 165/199/3
f 165/199/3 164/198/3 166/200/3
f 167/201/3 168/202/3 169/203/3
f 169/203/3 168/202/3 170/204/3
f 171/205/3 172/206/3 173/207/3
f 173/207/3 172/206/3 174/208/3
f 175/209/3 176/210/3 177/211/3
f 177/211/3 176/210/3 178/212/3
f 179/213/3 180/214/3 181/215/3
f 181/215/3 180/214/3 182/216/3
f 183/217/3 184/218/3 185/219/3
f 185/219/3 184/218/3 186/220/3
f 187/221/3 188/222/3 189/223/3
f 189/223/3 188/222/3 190/224/3
f 191/225/3 192/226/3 193/227/3
f 193/227/3 192/226/3 194/228/3
f 195/229/3 196/230/3 197/231/3
f 197/231/3 196/230/3 198/232/3
f 199/233/3 200/234/3 201/235/3
f 201/235/3 200/234/3 202/236/3
f 203/237/3 204/238/3 205/239/3
f 205/239/3 204/238/3 206/240/3
f 207/241/3 208/242/3 209/243/3
f 209/243/3 208/242/3 210/244/3
f 211/245/3 212/246/3 213/247/3
f 213/247/3 212/246/3 214/248/3
f 215/249/3 216/250/3 217/251/3
f 217/251/3 216/250/3 218/252/3
f 219/253/3 220/254/3 221/255/3
f 221/255/3 220/254/3 222/256/3
f 223/257/3 224/258/3 225/259/3
f 225/259/3 224/258/3 226/260/3
f 227/261/3 228/262/3 229/263/3
f 229/263/3 228/262/3 230/264/3
f 231/265/3 232/266/3 233/267/3
f 233/267/3 232/266/3 234/268/3
f 235/269/3 236/270/3 237/271/3
f 237/271/3 236/270/3 238/272/3
f 239/273/3 240/274/3 241/275/3
f 241/275/3 240/274/3 242/276/3
f 243/277/3 244/278/3 245/279/3
f 245/279/3 244/278/3 246/280/3
f 247/281/3 248/282/3 249/283/3
f 249/283/3 248/282/3 250/284/3
f 251/285/3 252/286/3 253/287/3
f 253/287/3 252/286/3 254/288/3
f 255/289/3 256/290/3 257/291/3
f 257/291/3 256/290/3 258/292/3
f 259/293/3 260/294/3 261/295/3
f 261/295/3 260/294/3 262/296/3
f 262/296/3 260/294/3 263/297/3
f 263/297/3 260/294/3 264/298/4
f 264/298/4 260/294/3 265/299/3
f 265/299/3 260/294/3 266/300/3
f 266/300/3 260/294/3 267/301/3
f 267/301/3 260/294/3 268/302/5
f 268/302/5 260/294/3 269/303/3
f 269/303/3 260/294/3 270/304/3
f 270/304/3 260/294/3 271/305/3
f 271/305/3 260/294/3 272/306/3
f 259/293/3 261/295/3 273/307/3
f 261/308/3 262/309/3 274/310/3
f 273/307/3 261/295/3 274/311/3
f 262/296/3 263/297/3 275/312/3
f 274/310/3 262/309/3 275/313/3
f 263/314/3 264/315/4 276/316/3
f 275/312/3 263/297/3 276/317/3
f 264/298/4 265/299/3 277/318/3
f 276/316/3 264/315/4 277/319/3
f 265/320/3 266/321/3 278/322/3
f 277/318/3 265/299/3 278/323/3
f 266/300/3 267/301/3 279/324/3
f 278/322/3 266/321/3 279/325/3
f 267/326/3 268/327/5 280/328/3
f 279/324/3 267/301/3 280/329/3
f 268/302/5 269/303/3 281/330/3
f 280/328/3 268/327/5 281/331/3
f 269/332/3 270/333/3 282/334/3
f 281/330/3 269/303/3 282/335/3
f 270/304/3 271/305/3 283/336/3
f 282/334/3 270/333/3 283/337/3
f 271/338/3 272/339/3 284/340/3
f 283/336/3 271/305/3 284/341/3
f 272/306/3 260/294/3 285/342/3
f 284/340/3 272/339/3 285/343/3
f 285/342/3 260/294/3 286/344/3
f 273/345/3 274/346/3 287/347/3
f 287/347/3 274/346/3 288/348/3
f 275/349/3 276/350/3 289/351/3
f 289/351/3 276/350/3 290/352/3
f 277/318/3 278/323/3 291/353/3
f 291/353/3 278/323/3 292/354/3
f 279/355/3 280/356/3 293/357/3
f 293/357/3 280/356/3 294/358/3
f 281/359/3 282/360/3 295/361/3
f 295/361/3 282/360/3 296/362/3
f 283/336/3 284/341/3 297/363/3
f 297/363/3 284/341/3 298/364/3
f 285/365/3 286/366/3 299/367/3
f 299/367/3 286/366/3 300/368/3
f 301/369/6 302/370/6 303/371/6
f 304/372/6 305/373/6 302/374/6
f 304/375/6 302/370/6 301/369/6
f 306/376/6 305/373/6 304/372/6
f 307/377/6 301/369/6 303/371/6
f 307/378/6 304/379/6 301/380/6
f 308/381/6 304/379/6 307/378/6
f 309/382/6 307/377/6 303/371/6
f 309/382/6 308/383/6 307/377/6
f 310/384/6 311/385/6 308/386/6
f 310/387/6 308/383/6 309/382/6
f 312/388/6 311/385/6 310/384/6
f 313/389/6 309/382/6 303/371/6
f 313/390/6 310/391/6 309/392/6
f 314/393/6 310/391/6 313/390/6
f 315/394/6 313/389/6 303/371/6
f 315/394/6 316/395/6 314/396/6
f 315/394/6 314/396/6 313/389/6
f 317/397/6 316/395/6 315/394/6
f 318/398/6 316/395/6 317/397/6
f 319/399/6 315/394/6 303/371/6
f 319/400/6 317/401/6 315/402/6
f 320/403/6 317/401/6 319/400/6
f 321/404/6 319/399/6 303/371/6
f 321/404/6 320/405/6 319/399/6
f 322/406/6 323/407/6 320/408/6
f 322/409/6 320/405/6 321/404/6
f 324/410/6 323/407/6 322/406/6
f 325/411/6 326/412/6 327/413/6
f 328/414/6 326/412/6 325/411/6
f 329/415/6 330/416/6 331/417/6
f 332/418/6 330/416/6 329/415/6
f 333/419/6 334/420/6 335/421/6
f 336/422/6 334/420/6 333/419/6
f 337/423/6 338/424/6 339/425/6
f 340/426/6 338/424/6 337/423/6
f 341/427/6 342/428/6 343/429/6
f 344/430/6 342/428/6 341/427/6
f 345/431/6 346/432/6 347/433/6
f 348/434/6 346/432/6 345/431/6
f 349/435/6 350/436/6 351/437/6
f 352/438/6 350/436/6 349/435/6
f 353/439/6 354/440/6 355/441/6
f 356/442/6 354/440/6 353/439/6
f 357/443/6 358/444/6 359/445/6
f 360/446/6 358/444/6 357/443/6
f 361/447/6 362/448/6 363/449/6
f 364/450/6 362/448/6 361/447/6
f 365/451/6 366/452/6 367/453/6
f 368/454/6 366/452/6 365/451/6
f 369/455/6 370/456/6 371/457/6
f 372/458/6 370/456/6 369/455/6
f 373/459/6 374/460/6 375/461/6
f 376/462/6 374/460/6 373/459/6
f 377/463/6 378/464/6 379/465/6
f 380/466/6 378/464/6 377/463/6
f 381/467/6 382/468/6 383/469/6
f 384/470/6 382/468/6 381/467/6
f 385/471/6 386/472/6 387/473/6
f 388/474/6 386/472/6 385/471/6
f 389/475/6 390/476/6 391/477/6
f 392/478/6 390/476/6 389/475/6
f 393/479/6 394/480/6 395/481/6
f 396/482/6 394/480/6 393/479/6
f 397/483/6 398/484/6 399/485/6
f 400/486/6 398/484/6 397/483/6
f 401/487/6 402/488/6 403/489/6
f 404/490/6 402/488/6 401/487/6
f 405/491/6 406/492/6 407/493/6
f 408/494/6 406/492/6 405/491/6
f 409/495/6 410/496/6 411/497/6
f 412/498/6 410/496/6 409/495/6
f 413/499/6 414/500/6 415/501/6
f 416/502/6 414/500/6 413/499/6
f 417/503/6 418/504/6 419/505/6
f 420/506/6 418/504/6 417/503/6
f 421/507/6 422/508/6 423/509/6
f 424/510/6 422/508/6 421/507/6
f 425/511/6 426/512/6 427/513/6
f 428/514/6 426/512/6 425/511/6
f 429/515/6 430/516/6 431/517/6
f 432/518/6 430/516/6 429/515/6
f 433/519/6 434/520/6 435/521/6
f 436/522/6 434/520/6 433/519/6
f 437/523/6 438/524/6 439/525/6
f 440/526/6 438/524/6 437/523/6
f 441/527/6 442/528/6 443/529/6
f 444/530/6 442/528/6 441/527/6
f 445/531/7 446/532/7 447/533/7
f 447/533/7 446/532/7 448/534/7
f 449/535/7 450/536/7 451/537/7
f 451/537/7 450/536/7 452/538/7
f 453/539/7 454/540/7 455/541/7
f 455/541/7 454/540/7 456/542/7
f 457/543/7 458/544/7 459/545/7
f 459/545/7 458/544/7 460/546/7
f 461/547/7 462/548/7 463/549/7
f 463/549/7 462/548/7 464/550/7
f 465/551/7 466/552/7 467/553/7
f 467/553/7 466/552/7 468/554/7
f 469/555/7 470/556/7 471/557/7
f 471/557/7 470/556/7 472/558/7
f 473/559/7 474/560/7 475/561/7
f 475/561/7 474/560/7 476/562/7
f 477/563/7 478/564/7 479/565/7
f 479/565/7 478/564/7 480/566/7
f 481/567/7 482/568/7 483/569/7
f 483/569/7 482/568/7 484/570/7
f 485/571/7 486/572/7 487/573/7
f 487/573/7 486/572/7 488/574/7
f 489/575/7 490/576/7 491/577/7
f 491/577/7 490/576/7 492/578/7
f 493/579/7 494/580/7 495/581/7
f 495/581/7 494/580/7 496/582/7
f 497/583/7 498/584/7 499/585/7
f 499/585/7 498/584/7 500/586/7
f 501/587/7 502/588/7 503/589/7
f 503/589/7 502/588/7 504/590/7
f 505/591/7 506/592/7 507/593/7
f 507/593/7 506/592/7 508/594/7
f 509/595/7 510/596/7 511/597/7
f 511/597/7 510/596/7 512/598/7
f 513/599/7 514/600/7 515/601/7
f 515/601/7 514/600/7 516/602/7
f 517/603/7 518/604/7 519/605/7
f 519/605/7 518/604/7 520/606/7
f 521/607/7 522/608/7 523/609/7
f 523/609/7 522/608/7 524/610/7
f 525/611/7 526/612/7 527/613/7
f 527/613/7 526/612/7 528/614/7
f 529/615/7 530/616/7 531/617/7
f 531/617/7 530/616/7 532/618/7
f 533/619/7 534/620/7 535/621/7
f 535/621/7 534/620/7 536/622/7
f 537/623/7 538/624/7 539/625/7
f 539/625/7 538/624/7 540/626/7
f 541/627/7 542/628/7 543/629/7
f 543/629/7 542/628/7 544/630/7
f 545/631/7 546/632/7 547/633/7
f 547/633/7 546/632/7 548/634/7
f 549/635/7 550/636/7 551/637/7
f 551/637/7 550/636/7 552/638/7
f 553/639/7 554/640/7 555/641/7
f 555/641/7 554/640/7 556/642/7
f 557/643/7 558/644/7 559/645/7
f 559/645/7 558/644/7 560/646/7
f 561/647/7 562/648/7 563/649/7
f 563/649/7 562/648/7 564/650/7
f 565/651/7 566/652/7 567/653/7
f 566/654/7 568/655/7 569/656/7
f 567/653/7 566/652/7 569/657/7
f 569/656/7 568/655/7 570/658/7
f 565/651/7 567/653/7 571/659/7
f 567/660/7 569/661/7 571/662/7
f 571/662/7 569/661/7 572/663/7
f 565/651/7 571/659/7 573/664/7
f 571/659/7 572/665/7 573/664/7
f 572/666/7 574/667/7 575/668/7
f 573/664/7 572/665/7 575/669/7
f 575/668/7 574/667/7 576/670/7
f 565/651/7 573/664/7 577/671/7
f 573/672/7 575/673/7 577/674/7
f 577/674/7 575/673/7 578/675/7
f 565/651/7 577/671/7 579/676/7
f 578/677/7 580/678/7 579/676/7
f 577/671/7 578/677/7 579/676/7
f 579/676/7 580/678/7 581/679/7
f 581/679/7 580/678/7 582/680/7
f 565/651/7 579/676/7 583/681/7
f 579/682/7 581/683/7 583/684/7
f 583/684/7 581/683/7 584/685/7
f 565/651/7 583/681/7 585/686/7
f 583/681/7 584/687/7 585/686/7
f 584/688/7 586/689/7 587/690/7
f 585/686/7 584/687/7 587/691/7
f 587/690/7 586/689/7 588/692/7
f 589/693/8 591/694/8 590/695/8
f 592/696/8 589/693/8 590/695/8
f 593/697/8 592/696/8 590/695/8
f 594/698/8 593/697/8 590/695/8
f 595/699/8 591/694/8 589/693/8
f 595/700/8 589/701/8 592/702/8
f 596/703/8 592/704/8 593/705/8
f 596/706/8 595/700/8 592/702/8
f 597/707/8 593/708/8 594/709/8
f 597/710/8 596/703/8 593/705/8
f 598/711/8 594/698/8 590/695/8
f 598/712/8 597/707/8 594/709/8
f 599/713/8 596/714/8 597/715/8
f 599/713/8 595/699/8 596/714/8
f 599/713/8 597/715/8 598/711/8
f 599/713/8 591/694/8 595/699/8
f 600/716/8 598/711/8 590/695/8
f 600/716/8 599/713/8 598/711/8
f 601/717/8 602/718/8 603/719/8
f 603/719/8 602/718/8 604/720/8
f 605/721/8 606/722/8 607/723/8
f 607/723/8 606/722/8 608/724/8
f 609/725/8 610/726/8 611/727/8
f 611/727/8 610/726/8 612/728/8
f 607/723/8 608/724/8 613/729/8
f 612/728/8 614/730/8 613/729/8
f 611/727/8 612/728/8 613/729/8
f 608/724/8 611/727/8 613/729/8
f 603/719/8 604/720/8 613/729/8
f 604/720/8 607/723/8 613/729/8
f 615/731/8 603/719/8 613/729/8
f 613/729/8 614/730/8 616/732/8
f 616/732/8 614/730/8 617/733/8
f 617/733/8 614/730/8 618/734/8
f 618/734/8 614/730/8 619/735/8
f 619/735/8 614/730/8 620/736/8
f 620/736/8 614/730/8 621/737/8
f 621/737/8 614/730/8 622/738/8
f 622/738/8 614/730/8 623/739/8
f 623/739/8 614/730/8 624/740/8
f 624/740/8 614/730/8 625/741/8
f 625/741/8 614/730/8 626/742/8
f 616/732/8 617/733/8 627/743/8
f 627/743/8 617/733/8 628/744/8
f 618/734/8 619/735/8 629/745/8
f 629/745/8 619/735/8 630/746/8
f 620/736/8 621/737/8 631/747/8
f 631/747/8 621/737/8 632/748/8
f 622/738/8 623/739/8 633/749/8
f 633/749/8 623/739/8 634/750/8
f 624/740/8 625/741/8 635/751/8
f 635/751/8 625/741/8 636/752/8
f 629/745/8 630/746/8 637/753/8
f 636/752/8 638/754/8 637/753/8
f 635/751/8 636/752/8 637/753/8
f 634/750/8 635/751/8 637/753/8
f 633/749/8 634/750/8 637/753/8
f 632/748/8 633/749/8 637/753/8
f 627/743/8 628/744/8 637/753/8
f 630/746/8 631/747/8 637/753/8
f 631/747/8 632/748/8 637/753/8
f 628/744/8 629/745/8 637/753/8
f 639/755/8 627/743/8 637/753/8
f 637/753/8 638/754/8 640/756/8
f 640/756/8 638/754/8 641/757/8
f 641/757/8 638/754/8 642/758/8
f 642/758/8 638/754/8 643/759/8
f 643/759/8 638/754/8 644/760/8
f 644/760/8 638/754/8 645/761/8
f 645/761/8 638/754/8 646/762/8
f 640/756/8 641/757/8 647/763/8
f 647/763/8 641/757/8 648/764/8
f 642/758/8 643/759/8 649/765/8
f 649/765/8 643/759/8 650/766/8
f 644/760/8 645/761/8 651/767/8
f 651/767/8 645/761/8 652/768/8
f 647/763/8 648/764/8 653/769/8
f 652/768/8 654/770/8 653/769/8
f 651/767/8 652/768/8 653/769/8
f 650/766/8 651/767/8 653/769/8
f 649/765/8 650/766/8 653/769/8
f 648/764/8 649/765/8 653/769/8
f 655/771/8 647/763/8 653/769/8
f 653/769/8 654/770/8 656/772/8
f 656/772/8 654/770/8 657/773/8
f 657/773/8 654/770/8 658/774/8
f 658/774/8 654/770/8 659/775/8
f 659/775/8 654/770/8 660/776/8
f 660/776/8 654/770/8 661/777/8
f 661/777/8 654/770/8 662/778/8
f 662/778/8 654/770/8 663/779/8
f 663/779/8 654/770/8 664/780/8
f 664/780/8 654/770/8 665/781/8
f 665/781/8 654/770/8 666/782/8
f 656/772/8 657/773/8 667/783/8
f 667/783/8 657/773/8 668/784/8
f 658/774/8 659/775/8 669/785/8
f 669/785/8 659/775/8 670/786/8
f 660/776/8 661/777/8 671/787/8
f 671/787/8 661/777/8 672/788/8
f 662/778/8 663/779/8 673/789/8
f 673/789/8 663/779/8 674/790/8
f 664/780/8 665/781/8 675/791/8
f 675/791/8 665/781/8 676/792/8
f 669/785/8 670/786/8 677/793/8
f 676/792/8 678/794/8 677/793/8
f 675/791/8 676/792/8 677/793/8
f 674/790/8 675/791/8 677/793/8
f 673/789/8 674/790/8 677/793/8
f 672/788/8 673/789/8 677/793/8
f 667/783/8 668/784/8 677/793/8
f 670/786/8 671/787/8 677/793/8
f 671/787/8 672/788/8 677/793/8
f 668/784/8 669/785/8 677/793/8
f 679/795/8 667/783/8 677/793/8
f 677/793/8 678/794/8 680/796/8
f 680/796/8 678/794/8 681/797/8
f 681/797/8 678/794/8 682/798/8
f 682/798/8 678/794/8 683/799/8
f 683/799/8 678/794/8 684/800/8
f 684/800/8 678/794/8 685/801/8
f 685/801/8 678/794/8 686/802/8
f 680/796/8 681/797/8 687/803/8
f 687/803/8 681/797/8 688/804/8
f 682/798/8 683/799/8 689/805/8
f 689/805/8 683/799/8 690/806/8
f 684/800/8 685/801/8 691/807/8
f 691/807/8 685/801/8 692/808/8
f 687/803/8 688/804/8 693/809/8
f 692/808/8 694/810/8 693/809/8
f 691/807/8 692/808/8 693/809/8
f 690/806/8 691/807/8 693/809/8
f 689/805/8 690/806/8 693/809/8
f 688/804/8 689/805/8 693/809/8
f 695/811/8 687/803/8 693/809/8
f 693/809/8 694/810/8 696/812/8
f 696/812/8 694/810/8 697/813/8
f 697/813/8 694/810/8 698/814/8
f 698/814/8 694/810/8 699/815/8
f 699/815/8 694/810/8 700/816/8
f 700/816/8 694/810/8 701/817/8
f 701/817/8 694/810/8 702/818/8
f 702/818/8 694/810/8 703/819/8
f 703/819/8 694/810/8 704/820/8
f 704/820/8 694/810/8 705/821/8
f 705/821/8 694/810/8 706/822/8
f 696/812/8 697/813/8 707/823/8
f 707/823/8 697/813/8 708/824/8
f 698/814/8 699/815/8 709/825/8
f 709/825/8 699/815/8 710/826/8
f 700/816/8 701/817/8 711/827/8
f 711/827/8 701/817/8 712/828/8
f 702/818/8 703/819/8 713/829/8
f 713/829/8 703/819/8 714/830/8
f 704/820/8 705/821/8 715/831/8
f 715/831/8 705/821/8 716/832/8
f 709/825/8 710/826/8 717/833/8
f 716/832/8 718/834/8 717/833/8
f 715/831/8 716/832/8 717/833/8
f 714/830/8 715/831/8 717/833/8
f 713/829/8 714/830/8 717/833/8
f 712/828/8 713/829/8 717/833/8
f 707/823/8 708/824/8 717/833/8
f 710/826/8 711/827/8 717/833/8
f 711/827/8 712/828/8 717/833/8
f 708/824/8 709/825/8 717/833/8
f 719/835/8 707/823/8 717/833/8
f 717/833/8 718/834/8 720/836/8
f 720/836/8 718/834/8 721/837/8
f 721/837/8 718/834/8 722/838/8
f 722/838/8 718/834/8 723/839/8
f 723/839/8 718/834/8 724/840/8
f 724/840/8 718/834/8 725/841/8
f 725/841/8 718/834/8 726/842/8
f 720/836/8 721/837/8 727/843/8
f 727/843/8 721/837/8 728/844/8
f 722/838/8 723/839/8 729/845/8
f 729/845/8 723/839/8 730/846/8
f 724/840/8 725/841/8 731/847/8
f 731/847/8 725/841/8 732/848/8
f 733/849/8 734/850/8 735/851/8
f 735/851/8 734/850/8 736/852/8
f 737/853/8 738/854/8 739/855/8
f 739/855/8 738/854/8 740/856/8
f 741/857/8 742/858/8 743/859/8
f 743/859/8 742/858/8 744/860/8
f 745/861/8 746/862/8 747/863/8
f 747/863/8 746/862/8 748/864/8
f 749/865/8 750/866/8 751/867/8
f 751/867/8 750/866/8 752/868/8
f 753/869/8 754/870/8 755/871/8
f 755/871/8 754/870/8 756/872/8
f 757/873/8 758/874/8 759/875/8
f 759/875/8 758/874/8 760/876/8
f 761/877/8 762/878/8 763/879/8
f 763/879/8 762/878/8 764/880/8
f 765/881/8 766/882/8 767/883/8
f 767/883/8 766/882/8 768/884/8
f 769/885/8 770/886/8 771/887/8
f 771/887/8 770/886/8 772/888/8
f 773/889/8 774/890/8 775/891/8
f 775/891/8 774/890/8 776/892/8
f 777/893/8 778/894/8 779/895/8
f 779/895/8 778/894/8 780/896/8
f 781/897/8 782/898/8 783/899/8
f 783/899/8 782/898/8 784/900/8
f 785/901/8 786/902/8 787/903/8
f 787/903/8 786/902/8 788/904/8
f 789/905/8 790/906/8 791/907/8
f 791/907/8 790/906/8 792/908/8
f 793/909/8 794/910/8 795/911/8
f 795/911/8 794/910/8 796/912/8
f 797/913/8 798/914/8 799/915/8
f 799/915/8 798/914/8 800/916/8
f 801/917/8 802/918/8 803/919/8
f 803/919/8 802/918/8 804/920/8
f 805/921/8 806/922/8 807/923/8
f 807/923/8 806/922/8 808/924/8
f 809/925/8 810/926/8 811/927/8
f 811/927/8 810/926/8 812/928/8
f 813/929/8 814/930/8 815/931/8
f 815/931/8 814/930/8 816/932/8
f 817/933/8 818/934/8 819/935/8
f 819/935/8 818/934/8 820/936/8
f 821/937/8 822/938/8 823/939/8
f 823/939/8 822/938/8 824/940/8
f 825/941/8 826/942/8 827/943/8
f 827/943/8 826/942/8 828/944/8
f 829/945/8 830/946/8 831/947/8
f 831/947/8 830/946/8 832/948/8
f 833/949/8 834/950/8 835/951/8
f 835/951/8 834/950/8 836/952/8
f 837/953/8 838/954/8 839/955/8
f 839/955/8 838/954/8 840/956/8
f 841/957/8 842/958/8 843/959/8
f 843/959/8 842/958/8 844/960/8
f 845/961/8 846/962/8 847/963/8
f 847/963/8 846/962/8 848/964/8
f 849/965/8 850/966/8 851/967/8
f 851/967/8 850/966/8 852/968/8
f 853/969/8 854/970/8 855/971/8
f 855/971/8 854/970/8 856/972/8
f 857/973/8 858/974/8 859/975/8
f 859/975/8 858/974/8 860/976/8
f 861/977/8 862/978/8 863/979/8
f 863/979/8 862/978/8 864/980/8
f 865/981/8 866/982/8 867/983/8
f 867/983/8 866/982/8 868/984/8
