%YAML 1.1
%TAG !u! tag:unity3d.com,2011:
--- !u!1 &8249779556335625920
GameObject:
  m_ObjectHideFlags: 0
  m_CorrespondingSourceObject: {fileID: 0}
  m_PrefabInstance: {fileID: 0}
  m_PrefabAsset: {fileID: 0}
  serializedVersion: 6
  m_Component:
  - component: {fileID: 8249779556335625927}
  m_Layer: 0
  m_Name: Acid_Pool_with_Wall
  m_TagString: Untagged
  m_Icon: {fileID: 0}
  m_NavMeshLayer: 0
  m_StaticEditorFlags: 2147483647
  m_IsActive: 1
--- !u!4 &8249779556335625927
Transform:
  m_ObjectHideFlags: 0
  m_CorrespondingSourceObject: {fileID: 0}
  m_PrefabInstance: {fileID: 0}
  m_PrefabAsset: {fileID: 0}
  m_GameObject: {fileID: 8249779556335625920}
  m_LocalRotation: {x: -0, y: -0, z: -0, w: 1}
  m_LocalPosition: {x: 126.257, y: 106.2745, z: 183.52542}
  m_LocalScale: {x: 1, y: 1, z: 1}
  m_ConstrainProportionsScale: 0
  m_Children:
  - {fileID: 5807871085636737920}
  - {fileID: 6215966904799218650}
  m_Father: {fileID: 0}
  m_RootOrder: 0
  m_LocalEulerAnglesHint: {x: 0, y: 0, z: 0}
--- !u!1001 &8249779556031328535
PrefabInstance:
  m_ObjectHideFlags: 0
  serializedVersion: 2
  m_Modification:
    m_TransformParent: {fileID: 8249779556335625927}
    m_Modifications:
    - target: {fileID: 2611690015824198349, guid: aa31411fe29b914459f7f0719fcdf7e2, type: 3}
      propertyPath: m_RootOrder
      value: 1
      objectReference: {fileID: 0}
    - target: {fileID: 2611690015824198349, guid: aa31411fe29b914459f7f0719fcdf7e2, type: 3}
      propertyPath: m_LocalPosition.x
      value: 0
      objectReference: {fileID: 0}
    - target: {fileID: 2611690015824198349, guid: aa31411fe29b914459f7f0719fcdf7e2, type: 3}
      propertyPath: m_LocalPosition.y
      value: -12.8
      objectReference: {fileID: 0}
    - target: {fileID: 2611690015824198349, guid: aa31411fe29b914459f7f0719fcdf7e2, type: 3}
      propertyPath: m_LocalPosition.z
      value: 6.3000183
      objectReference: {fileID: 0}
    - target: {fileID: 2611690015824198349, guid: aa31411fe29b914459f7f0719fcdf7e2, type: 3}
      propertyPath: m_LocalRotation.w
      value: 1
      objectReference: {fileID: 0}
    - target: {fileID: 2611690015824198349, guid: aa31411fe29b914459f7f0719fcdf7e2, type: 3}
      propertyPath: m_LocalRotation.x
      value: -0
      objectReference: {fileID: 0}
    - target: {fileID: 2611690015824198349, guid: aa31411fe29b914459f7f0719fcdf7e2, type: 3}
      propertyPath: m_LocalRotation.y
      value: -0
      objectReference: {fileID: 0}
    - target: {fileID: 2611690015824198349, guid: aa31411fe29b914459f7f0719fcdf7e2, type: 3}
      propertyPath: m_LocalRotation.z
      value: -0
      objectReference: {fileID: 0}
    - target: {fileID: 2611690015824198349, guid: aa31411fe29b914459f7f0719fcdf7e2, type: 3}
      propertyPath: m_LocalEulerAnglesHint.x
      value: 0
      objectReference: {fileID: 0}
    - target: {fileID: 2611690015824198349, guid: aa31411fe29b914459f7f0719fcdf7e2, type: 3}
      propertyPath: m_LocalEulerAnglesHint.y
      value: 0
      objectReference: {fileID: 0}
    - target: {fileID: 2611690015824198349, guid: aa31411fe29b914459f7f0719fcdf7e2, type: 3}
      propertyPath: m_LocalEulerAnglesHint.z
      value: 0
      objectReference: {fileID: 0}
    - target: {fileID: 3419717110473089143, guid: aa31411fe29b914459f7f0719fcdf7e2, type: 3}
      propertyPath: m_Name
      value: Acid_Pool_Side_Wall
      objectReference: {fileID: 0}
    m_RemovedComponents: []
  m_SourcePrefab: {fileID: 100100000, guid: aa31411fe29b914459f7f0719fcdf7e2, type: 3}
--- !u!4 &6215966904799218650 stripped
Transform:
  m_CorrespondingSourceObject: {fileID: 2611690015824198349, guid: aa31411fe29b914459f7f0719fcdf7e2, type: 3}
  m_PrefabInstance: {fileID: 8249779556031328535}
  m_PrefabAsset: {fileID: 0}
--- !u!1001 &8249779557006330917
PrefabInstance:
  m_ObjectHideFlags: 0
  serializedVersion: 2
  m_Modification:
    m_TransformParent: {fileID: 8249779556335625927}
    m_Modifications:
    - target: {fileID: 2514320547312539557, guid: a75f518ef020390419dfa0770ed01919, type: 3}
      propertyPath: m_RootOrder
      value: 0
      objectReference: {fileID: 0}
    - target: {fileID: 2514320547312539557, guid: a75f518ef020390419dfa0770ed01919, type: 3}
      propertyPath: m_LocalPosition.x
      value: 0
      objectReference: {fileID: 0}
    - target: {fileID: 2514320547312539557, guid: a75f518ef020390419dfa0770ed01919, type: 3}
      propertyPath: m_LocalPosition.y
      value: 0
      objectReference: {fileID: 0}
    - target: {fileID: 2514320547312539557, guid: a75f518ef020390419dfa0770ed01919, type: 3}
      propertyPath: m_LocalPosition.z
      value: 0
      objectReference: {fileID: 0}
    - target: {fileID: 2514320547312539557, guid: a75f518ef020390419dfa0770ed01919, type: 3}
      propertyPath: m_LocalRotation.w
      value: 0.7071068
      objectReference: {fileID: 0}
    - target: {fileID: 2514320547312539557, guid: a75f518ef020390419dfa0770ed01919, type: 3}
      propertyPath: m_LocalRotation.x
      value: -0
      objectReference: {fileID: 0}
    - target: {fileID: 2514320547312539557, guid: a75f518ef020390419dfa0770ed01919, type: 3}
      propertyPath: m_LocalRotation.y
      value: 0.7071068
      objectReference: {fileID: 0}
    - target: {fileID: 2514320547312539557, guid: a75f518ef020390419dfa0770ed01919, type: 3}
      propertyPath: m_LocalRotation.z
      value: -0
      objectReference: {fileID: 0}
    - target: {fileID: 2514320547312539557, guid: a75f518ef020390419dfa0770ed01919, type: 3}
      propertyPath: m_LocalEulerAnglesHint.x
      value: 0
      objectReference: {fileID: 0}
    - target: {fileID: 2514320547312539557, guid: a75f518ef020390419dfa0770ed01919, type: 3}
      propertyPath: m_LocalEulerAnglesHint.y
      value: 90
      objectReference: {fileID: 0}
    - target: {fileID: 2514320547312539557, guid: a75f518ef020390419dfa0770ed01919, type: 3}
      propertyPath: m_LocalEulerAnglesHint.z
      value: 0
      objectReference: {fileID: 0}
    - target: {fileID: 3003753187279097119, guid: a75f518ef020390419dfa0770ed01919, type: 3}
      propertyPath: m_Name
      value: Wall_white
      objectReference: {fileID: 0}
    m_RemovedComponents: []
  m_SourcePrefab: {fileID: 100100000, guid: a75f518ef020390419dfa0770ed01919, type: 3}
--- !u!4 &5807871085636737920 stripped
Transform:
  m_CorrespondingSourceObject: {fileID: 2514320547312539557, guid: a75f518ef020390419dfa0770ed01919, type: 3}
  m_PrefabInstance: {fileID: 8249779557006330917}
  m_PrefabAsset: {fileID: 0}
