%YAML 1.1
%TAG !u! tag:unity3d.com,2011:
--- !u!1 &1027111574196927402
GameObject:
  m_ObjectHideFlags: 0
  m_CorrespondingSourceObject: {fileID: 0}
  m_PrefabInstance: {fileID: 0}
  m_PrefabAsset: {fileID: 0}
  serializedVersion: 6
  m_Component:
  - component: {fileID: 1027111574196927403}
  m_Layer: 0
  m_Name: Wooden_Floor_with_Wall
  m_TagString: Untagged
  m_Icon: {fileID: 0}
  m_NavMeshLayer: 0
  m_StaticEditorFlags: 2147483647
  m_IsActive: 1
--- !u!4 &1027111574196927403
Transform:
  m_ObjectHideFlags: 0
  m_CorrespondingSourceObject: {fileID: 0}
  m_PrefabInstance: {fileID: 0}
  m_PrefabAsset: {fileID: 0}
  m_GameObject: {fileID: 1027111574196927402}
  m_LocalRotation: {x: 0, y: 0, z: 0, w: 1}
  m_LocalPosition: {x: 2.80941, y: 0, z: 0}
  m_LocalScale: {x: 1, y: 1, z: 1}
  m_ConstrainProportionsScale: 0
  m_Children:
  - {fileID: 3473102048760036591}
  - {fileID: 3822855400508739022}
  m_Father: {fileID: 0}
  m_RootOrder: 0
  m_LocalEulerAnglesHint: {x: 0, y: 0, z: 0}
--- !u!1001 &1027111572709833827
PrefabInstance:
  m_ObjectHideFlags: 0
  serializedVersion: 2
  m_Modification:
    m_TransformParent: {fileID: 1027111574196927403}
    m_Modifications:
    - target: {fileID: 3460834479512120087, guid: c015a5f0fb69ad9458168ae6e6c5028a, type: 3}
      propertyPath: m_Name
      value: Brown_Wall_Energy
      objectReference: {fileID: 0}
    - target: {fileID: 4272942102059299245, guid: c015a5f0fb69ad9458168ae6e6c5028a, type: 3}
      propertyPath: m_RootOrder
      value: 1
      objectReference: {fileID: 0}
    - target: {fileID: 4272942102059299245, guid: c015a5f0fb69ad9458168ae6e6c5028a, type: 3}
      propertyPath: m_LocalPosition.x
      value: 12.489117
      objectReference: {fileID: 0}
    - target: {fileID: 4272942102059299245, guid: c015a5f0fb69ad9458168ae6e6c5028a, type: 3}
      propertyPath: m_LocalPosition.y
      value: -0.00000023841858
      objectReference: {fileID: 0}
    - target: {fileID: 4272942102059299245, guid: c015a5f0fb69ad9458168ae6e6c5028a, type: 3}
      propertyPath: m_LocalPosition.z
      value: 96.250244
      objectReference: {fileID: 0}
    - target: {fileID: 4272942102059299245, guid: c015a5f0fb69ad9458168ae6e6c5028a, type: 3}
      propertyPath: m_LocalRotation.w
      value: 0.7071068
      objectReference: {fileID: 0}
    - target: {fileID: 4272942102059299245, guid: c015a5f0fb69ad9458168ae6e6c5028a, type: 3}
      propertyPath: m_LocalRotation.x
      value: -0
      objectReference: {fileID: 0}
    - target: {fileID: 4272942102059299245, guid: c015a5f0fb69ad9458168ae6e6c5028a, type: 3}
      propertyPath: m_LocalRotation.y
      value: -0.7071068
      objectReference: {fileID: 0}
    - target: {fileID: 4272942102059299245, guid: c015a5f0fb69ad9458168ae6e6c5028a, type: 3}
      propertyPath: m_LocalRotation.z
      value: -0
      objectReference: {fileID: 0}
    - target: {fileID: 4272942102059299245, guid: c015a5f0fb69ad9458168ae6e6c5028a, type: 3}
      propertyPath: m_LocalEulerAnglesHint.x
      value: 0
      objectReference: {fileID: 0}
    - target: {fileID: 4272942102059299245, guid: c015a5f0fb69ad9458168ae6e6c5028a, type: 3}
      propertyPath: m_LocalEulerAnglesHint.y
      value: -90
      objectReference: {fileID: 0}
    - target: {fileID: 4272942102059299245, guid: c015a5f0fb69ad9458168ae6e6c5028a, type: 3}
      propertyPath: m_LocalEulerAnglesHint.z
      value: 0
      objectReference: {fileID: 0}
    m_RemovedComponents: []
  m_SourcePrefab: {fileID: 100100000, guid: c015a5f0fb69ad9458168ae6e6c5028a, type: 3}
--- !u!4 &3822855400508739022 stripped
Transform:
  m_CorrespondingSourceObject: {fileID: 4272942102059299245, guid: c015a5f0fb69ad9458168ae6e6c5028a, type: 3}
  m_PrefabInstance: {fileID: 1027111572709833827}
  m_PrefabAsset: {fileID: 0}
--- !u!1001 &1027111574302332829
PrefabInstance:
  m_ObjectHideFlags: 0
  serializedVersion: 2
  m_Modification:
    m_TransformParent: {fileID: 1027111574196927403}
    m_Modifications:
    - target: {fileID: 587929454767544673, guid: 04d55ca6d35b3264ca8fc9e129e64c2c, type: 3}
      propertyPath: m_Name
      value: Wooden_Floor
      objectReference: {fileID: 0}
    - target: {fileID: 4500194858886916978, guid: 04d55ca6d35b3264ca8fc9e129e64c2c, type: 3}
      propertyPath: m_RootOrder
      value: 0
      objectReference: {fileID: 0}
    - target: {fileID: 4500194858886916978, guid: 04d55ca6d35b3264ca8fc9e129e64c2c, type: 3}
      propertyPath: m_LocalScale.x
      value: 1.2750989
      objectReference: {fileID: 0}
    - target: {fileID: 4500194858886916978, guid: 04d55ca6d35b3264ca8fc9e129e64c2c, type: 3}
      propertyPath: m_LocalScale.z
      value: 1.2749994
      objectReference: {fileID: 0}
    - target: {fileID: 4500194858886916978, guid: 04d55ca6d35b3264ca8fc9e129e64c2c, type: 3}
      propertyPath: m_LocalPosition.x
      value: 12.718094
      objectReference: {fileID: 0}
    - target: {fileID: 4500194858886916978, guid: 04d55ca6d35b3264ca8fc9e129e64c2c, type: 3}
      propertyPath: m_LocalPosition.y
      value: 0.25694966
      objectReference: {fileID: 0}
    - target: {fileID: 4500194858886916978, guid: 04d55ca6d35b3264ca8fc9e129e64c2c, type: 3}
      propertyPath: m_LocalPosition.z
      value: 102.11041
      objectReference: {fileID: 0}
    - target: {fileID: 4500194858886916978, guid: 04d55ca6d35b3264ca8fc9e129e64c2c, type: 3}
      propertyPath: m_LocalRotation.w
      value: 0.7071068
      objectReference: {fileID: 0}
    - target: {fileID: 4500194858886916978, guid: 04d55ca6d35b3264ca8fc9e129e64c2c, type: 3}
      propertyPath: m_LocalRotation.x
      value: -0
      objectReference: {fileID: 0}
    - target: {fileID: 4500194858886916978, guid: 04d55ca6d35b3264ca8fc9e129e64c2c, type: 3}
      propertyPath: m_LocalRotation.y
      value: 0.7071068
      objectReference: {fileID: 0}
    - target: {fileID: 4500194858886916978, guid: 04d55ca6d35b3264ca8fc9e129e64c2c, type: 3}
      propertyPath: m_LocalRotation.z
      value: -0
      objectReference: {fileID: 0}
    - target: {fileID: 4500194858886916978, guid: 04d55ca6d35b3264ca8fc9e129e64c2c, type: 3}
      propertyPath: m_LocalEulerAnglesHint.x
      value: 0
      objectReference: {fileID: 0}
    - target: {fileID: 4500194858886916978, guid: 04d55ca6d35b3264ca8fc9e129e64c2c, type: 3}
      propertyPath: m_LocalEulerAnglesHint.y
      value: 90
      objectReference: {fileID: 0}
    - target: {fileID: 4500194858886916978, guid: 04d55ca6d35b3264ca8fc9e129e64c2c, type: 3}
      propertyPath: m_LocalEulerAnglesHint.z
      value: 0
      objectReference: {fileID: 0}
    m_RemovedComponents: []
  m_SourcePrefab: {fileID: 100100000, guid: 04d55ca6d35b3264ca8fc9e129e64c2c, type: 3}
--- !u!4 &3473102048760036591 stripped
Transform:
  m_CorrespondingSourceObject: {fileID: 4500194858886916978, guid: 04d55ca6d35b3264ca8fc9e129e64c2c, type: 3}
  m_PrefabInstance: {fileID: 1027111574302332829}
  m_PrefabAsset: {fileID: 0}
