# MagicaVoxel @ Ephtracy

# group
o 

# material
mtllib Hiding_Spot-0-Room_Asset.mtl
usemtl palette

# normals
vn -1 0 0
vn 1 0 0
vn 0 0 1
vn 0 0 -1
vn 0 -1 0
vn 0 1 0

# texcoords
vt 0.0332031 0.5
vt 0.0722656 0.5
vt 0.607422 0.5

# verts
v -2.6 0 2
v -2.6 0 0.9
v -2.6 1.8 2
v -2.6 1.8 0.9
v -2.6 1.9 -1
v -2.6 1.9 -2
v -2.6 2.8 -1
v -2.6 2.8 -2
v -2.6 3.9 2
v -2.6 3.9 0.9
v -2.6 5 2
v -2.6 5 0.9
v -2.6 5.1 -1
v -2.6 5.1 -2
v -2.6 5.6 -1
v -2.6 5.6 -2
v -2.5 0 0.8
v -2.5 0 -0.9
v -2.5 0 -1
v -2.5 0 -1.9
v -2.5 1.8 0.8
v -2.5 1.8 -0.9
v -2.5 1.8 -1
v -2.5 1.8 -1.9
v -2.5 1.9 1.9
v -2.5 1.9 0.9
v -2.5 1.9 0.8
v -2.5 1.9 -0.9
v -2.5 2.8 1.9
v -2.5 2.8 0.9
v -2.5 2.8 0.8
v -2.5 2.8 -0.9
v -2.5 2.9 1.9
v -2.5 2.9 0.9
v -2.5 2.9 0.8
v -2.5 2.9 -0.9
v -2.5 2.9 -1
v -2.5 2.9 -1.9
v -2.5 3.8 1.9
v -2.5 3.8 0.9
v -2.5 3.8 0.8
v -2.5 3.8 -0.9
v -2.5 3.8 -1
v -2.5 3.8 -1.9
v -2.5 3.9 0.8
v -2.5 3.9 -0.9
v -2.5 3.9 -1
v -2.5 3.9 -1.9
v -2.5 5 0.8
v -2.5 5 -0.9
v -2.5 5 -1
v -2.5 5 -1.9
v -2.5 5.1 1.9
v -2.5 5.1 0.9
v -2.5 5.1 0.8
v -2.5 5.1 -0.9
v -2.5 5.6 1.9
v -2.5 5.6 0.9
v -2.5 5.6 0.8
v -2.5 5.6 -0.9
v -2.4 0.1 0.9
v -2.4 0.1 0.8
v -2.4 0.1 -0.9
v -2.4 0.1 -1
v -2.4 1.8 1.8
v -2.4 1.8 0.9
v -2.4 1.8 0.8
v -2.4 1.8 -0.9
v -2.4 1.8 -1
v -2.4 1.8 -1.8
v -2.4 1.9 1.8
v -2.4 1.9 0.9
v -2.4 1.9 0.8
v -2.4 1.9 -0.9
v -2.4 1.9 -1
v -2.4 1.9 -1.8
v -2.4 2.8 1.8
v -2.4 2.8 0.9
v -2.4 2.8 0.8
v -2.4 2.8 -0.9
v -2.4 2.8 -1
v -2.4 2.8 -1.8
v -2.4 2.9 1.8
v -2.4 2.9 0.9
v -2.4 2.9 0.8
v -2.4 2.9 -0.9
v -2.4 2.9 -1
v -2.4 2.9 -1.8
v -2.4 3.8 1.8
v -2.4 3.8 0.9
v -2.4 3.8 0.8
v -2.4 3.8 -0.9
v -2.4 3.8 -1
v -2.4 3.8 -1.8
v -2.4 3.9 1.8
v -2.4 3.9 0.9
v -2.4 3.9 0.8
v -2.4 3.9 -0.9
v -2.4 3.9 -1
v -2.4 3.9 -1.8
v -2.4 5 1.8
v -2.4 5 0.9
v -2.4 5 0.8
v -2.4 5 -0.9
v -2.4 5 -1
v -2.4 5 -1.8
v -2.4 5.1 1.8
v -2.4 5.1 0.9
v -2.4 5.1 0.8
v -2.4 5.1 -0.9
v -2.4 5.1 -1
v -2.4 5.1 -1.8
v -2.4 5.5 0.9
v -2.4 5.5 0.8
v -2.4 5.5 -0.9
v -2.4 5.5 -1
v -0.5 0 1.9
v -0.5 0 0.9
v -0.5 0 0.8
v -0.5 0 -0.9
v -0.5 0 -1
v -0.5 0 -1.9
v -0.5 0.1 1.8
v -0.5 0.1 0.9
v -0.5 0.1 0.8
v -0.5 0.1 -0.9
v -0.5 0.1 -1
v -0.5 0.1 -1.8
v -0.5 1.8 1.9
v -0.5 1.8 1.8
v -0.5 1.8 -1.8
v -0.5 1.8 -1.9
v -0.5 1.9 2
v -0.5 1.9 1.9
v -0.5 1.9 1.8
v -0.5 1.9 -1.8
v -0.5 1.9 -1.9
v -0.5 2.8 2
v -0.5 2.8 1.9
v -0.5 2.8 1.8
v -0.5 2.8 -1.8
v -0.5 2.8 -1.9
v -0.5 2.9 1.9
v -0.5 2.9 1.8
v -0.5 2.9 -1.8
v -0.5 2.9 -1.9
v -0.5 3.8 1.9
v -0.5 3.8 1.8
v -0.5 3.8 -1.8
v -0.5 3.8 -1.9
v -0.5 3.9 1.9
v -0.5 3.9 1.8
v -0.5 3.9 -1.8
v -0.5 3.9 -1.9
v -0.5 3.9 -2
v -0.5 5 1.9
v -0.5 5 1.8
v -0.5 5 -1.8
v -0.5 5 -1.9
v -0.5 5 -2
v -0.5 5.1 1.9
v -0.5 5.1 1.8
v -0.5 5.1 -1.8
v -0.5 5.1 -1.9
v -0.5 5.5 1.8
v -0.5 5.5 0.9
v -0.5 5.5 0.8
v -0.5 5.5 -0.1
v -0.5 5.6 1.9
v -0.5 5.6 0.9
v -0.5 5.6 0.8
v -0.5 5.6 -0.1
v -0.5 5.6 -0.9
v -0.5 5.6 -1.8
v -0.5 5.6 -1.9
v -0.5 5.7 0.8
v -0.5 5.7 -0.9
v 1.9 0 2
v 1.9 0 1.9
v 1.9 0 0.9
v 1.9 0 0.8
v 1.9 0 -0.9
v 1.9 0 -1
v 1.9 0 -1.9
v 1.9 0 -2
v 1.9 0.1 1.8
v 1.9 0.1 0.9
v 1.9 0.1 0.8
v 1.9 0.1 -0.9
v 1.9 0.1 -1
v 1.9 0.1 -1.8
v 1.9 1.8 2
v 1.9 1.8 1.9
v 1.9 1.8 1.8
v 1.9 1.8 -1.8
v 1.9 1.8 -1.9
v 1.9 1.8 -2
v 1.9 1.9 1.9
v 1.9 1.9 1.8
v 1.9 1.9 -1.8
v 1.9 1.9 -1.9
v 1.9 2.8 1.9
v 1.9 2.8 1.8
v 1.9 2.8 -1.8
v 1.9 2.8 -1.9
v 1.9 2.9 1.9
v 1.9 2.9 1.8
v 1.9 2.9 -1.8
v 1.9 2.9 -1.9
v 1.9 3.8 1.9
v 1.9 3.8 1.8
v 1.9 3.8 -1.8
v 1.9 3.8 -1.9
v 1.9 3.9 2
v 1.9 3.9 1.9
v 1.9 3.9 1.8
v 1.9 3.9 -1.8
v 1.9 3.9 -1.9
v 1.9 5 2
v 1.9 5 1.9
v 1.9 5 1.8
v 1.9 5 -1.8
v 1.9 5 -1.9
v 1.9 5.1 1.9
v 1.9 5.1 1.8
v 1.9 5.1 -1.8
v 1.9 5.1 -1.9
v 1.9 5.1 -2
v 1.9 5.5 1.8
v 1.9 5.5 0.9
v 1.9 5.5 0.8
v 1.9 5.5 -0.9
v 1.9 5.5 -1
v 1.9 5.5 -1.8
v 1.9 5.6 1.9
v 1.9 5.6 0.9
v 1.9 5.6 0.8
v 1.9 5.6 -0.9
v 1.9 5.6 -1
v 1.9 5.6 -1.9
v 1.9 5.7 -1
v 1.9 5.7 -2
v -0.6 0 2
v -0.6 0 1.9
v -0.6 0 0.9
v -0.6 0 0.8
v -0.6 0 -0.9
v -0.6 0 -1
v -0.6 0 -1.9
v -0.6 0.1 1.8
v -0.6 0.1 0.9
v -0.6 0.1 0.8
v -0.6 0.1 -0.9
v -0.6 0.1 -1
v -0.6 0.1 -1.8
v -0.6 1.8 2
v -0.6 1.8 1.9
v -0.6 1.8 1.8
v -0.6 1.8 -1.8
v -0.6 1.8 -1.9
v -0.6 1.9 1.9
v -0.6 1.9 1.8
v -0.6 1.9 -1.8
v -0.6 1.9 -1.9
v -0.6 1.9 -2
v -0.6 2.8 1.9
v -0.6 2.8 1.8
v -0.6 2.8 -1.8
v -0.6 2.8 -1.9
v -0.6 2.8 -2
v -0.6 2.9 1.9
v -0.6 2.9 1.8
v -0.6 2.9 -1.8
v -0.6 2.9 -1.9
v -0.6 3.8 1.9
v -0.6 3.8 1.8
v -0.6 3.8 -1.8
v -0.6 3.8 -1.9
v -0.6 3.9 2
v -0.6 3.9 1.9
v -0.6 3.9 1.8
v -0.6 3.9 -1.8
v -0.6 3.9 -1.9
v -0.6 5 2
v -0.6 5 1.9
v -0.6 5 1.8
v -0.6 5 -1.8
v -0.6 5 -1.9
v -0.6 5.1 1.9
v -0.6 5.1 1.8
v -0.6 5.1 -1.8
v -0.6 5.1 -1.9
v -0.6 5.1 -2
v -0.6 5.5 1.8
v -0.6 5.5 0.9
v -0.6 5.5 0.8
v -0.6 5.5 -0.1
v -0.6 5.6 1.9
v -0.6 5.6 0.9
v -0.6 5.6 0.8
v -0.6 5.6 -0.1
v -0.6 5.6 -1.8
v -0.6 5.6 -1.9
v -0.6 5.6 -2
v 1.8 0 1.9
v 1.8 0 0.9
v 1.8 0 0.8
v 1.8 0 -0.9
v 1.8 0 -1
v 1.8 0 -1.9
v 1.8 0.1 1.8
v 1.8 0.1 0.9
v 1.8 0.1 0.8
v 1.8 0.1 -0.9
v 1.8 0.1 -1
v 1.8 0.1 -1.8
v 1.8 1.8 1.9
v 1.8 1.8 1.8
v 1.8 1.8 -1.8
v 1.8 1.8 -1.9
v 1.8 1.9 2
v 1.8 1.9 1.9
v 1.8 1.9 1.8
v 1.8 1.9 -1.8
v 1.8 1.9 -1.9
v 1.8 2.8 2
v 1.8 2.8 1.9
v 1.8 2.8 1.8
v 1.8 2.8 -1.8
v 1.8 2.8 -1.9
v 1.8 2.9 1.9
v 1.8 2.9 1.8
v 1.8 2.9 -1.8
v 1.8 2.9 -1.9
v 1.8 3.8 1.9
v 1.8 3.8 1.8
v 1.8 3.8 -1.8
v 1.8 3.8 -1.9
v 1.8 3.9 1.9
v 1.8 3.9 1.8
v 1.8 3.9 -1.8
v 1.8 3.9 -1.9
v 1.8 3.9 -2
v 1.8 5 1.9
v 1.8 5 1.8
v 1.8 5 -1.8
v 1.8 5 -1.9
v 1.8 5 -2
v 1.8 5.1 1.9
v 1.8 5.1 1.8
v 1.8 5.1 -1.8
v 1.8 5.1 -1.9
v 1.8 5.5 1.8
v 1.8 5.5 0.9
v 1.8 5.5 0.8
v 1.8 5.5 -0.9
v 1.8 5.5 -1
v 1.8 5.5 -1.8
v 1.8 5.6 1.9
v 1.8 5.6 0.9
v 1.8 5.6 0.8
v 1.8 5.6 -0.9
v 1.8 5.6 -1
v 1.8 5.6 -1.9
v 1.8 5.7 0.8
v 1.8 5.7 -0.9
v 2.5 0.1 0.9
v 2.5 0.1 0.8
v 2.5 0.1 -0.9
v 2.5 0.1 -1
v 2.5 1.8 1.8
v 2.5 1.8 0.9
v 2.5 1.8 0.8
v 2.5 1.8 -0.9
v 2.5 1.8 -1
v 2.5 1.8 -1.8
v 2.5 1.9 1.8
v 2.5 1.9 0.9
v 2.5 1.9 0.8
v 2.5 1.9 -0.9
v 2.5 1.9 -1
v 2.5 1.9 -1.8
v 2.5 2.8 1.8
v 2.5 2.8 0.9
v 2.5 2.8 0.8
v 2.5 2.8 -0.9
v 2.5 2.8 -1
v 2.5 2.8 -1.8
v 2.5 2.9 1.8
v 2.5 2.9 0.9
v 2.5 2.9 0.8
v 2.5 2.9 -0.9
v 2.5 2.9 -1
v 2.5 2.9 -1.8
v 2.5 3.8 1.8
v 2.5 3.8 0.9
v 2.5 3.8 0.8
v 2.5 3.8 -0.9
v 2.5 3.8 -1
v 2.5 3.8 -1.8
v 2.5 3.9 1.8
v 2.5 3.9 0.9
v 2.5 3.9 0.8
v 2.5 3.9 -0.9
v 2.5 3.9 -1
v 2.5 3.9 -1.8
v 2.5 5 1.8
v 2.5 5 0.9
v 2.5 5 0.8
v 2.5 5 -0.9
v 2.5 5 -1
v 2.5 5 -1.8
v 2.5 5.1 1.8
v 2.5 5.1 0.9
v 2.5 5.1 0.8
v 2.5 5.1 -0.9
v 2.5 5.1 -1
v 2.5 5.1 -1.8
v 2.5 5.5 0.9
v 2.5 5.5 0.8
v 2.5 5.5 -0.9
v 2.5 5.5 -1
v 2.6 0 0.8
v 2.6 0 -0.9
v 2.6 0 -1
v 2.6 0 -1.9
v 2.6 0 -2
v 2.6 1.8 0.8
v 2.6 1.8 -0.9
v 2.6 1.8 -1
v 2.6 1.8 -1.9
v 2.6 1.8 -2
v 2.6 1.9 1.9
v 2.6 1.9 0.9
v 2.6 1.9 -1
v 2.6 1.9 -1.9
v 2.6 2.8 1.9
v 2.6 2.8 0.9
v 2.6 2.8 -1
v 2.6 2.8 -1.9
v 2.6 2.9 1.9
v 2.6 2.9 0.9
v 2.6 2.9 0.8
v 2.6 2.9 -0.9
v 2.6 2.9 -1
v 2.6 2.9 -1.9
v 2.6 3.8 1.9
v 2.6 3.8 0.9
v 2.6 3.8 0.8
v 2.6 3.8 -0.9
v 2.6 3.8 -1
v 2.6 3.8 -1.9
v 2.6 3.9 0.8
v 2.6 3.9 -0.9
v 2.6 3.9 -1
v 2.6 3.9 -1.9
v 2.6 5 0.8
v 2.6 5 -0.9
v 2.6 5 -1
v 2.6 5 -1.9
v 2.6 5.1 1.9
v 2.6 5.1 0.9
v 2.6 5.1 0.8
v 2.6 5.1 -0.9
v 2.6 5.6 1.9
v 2.6 5.6 0.9
v 2.6 5.6 0.8
v 2.6 5.6 -0.9
v 2.7 0 2
v 2.7 0 0.9
v 2.7 1.8 2
v 2.7 1.8 0.9
v 2.7 1.9 0.8
v 2.7 1.9 -0.9
v 2.7 2.8 0.8
v 2.7 2.8 -0.9
v 2.7 3.9 2
v 2.7 3.9 0.9
v 2.7 5 2
v 2.7 5 0.9
v 2.7 5.1 -1
v 2.7 5.1 -2
v 2.7 5.7 -1
v 2.7 5.7 -2
v -2.6 0 2
v -2.6 1.8 2
v -2.6 3.9 2
v -2.6 5 2
v -0.6 0 2
v -0.6 1.8 2
v -0.6 3.9 2
v -0.6 5 2
v -0.5 1.9 2
v -0.5 2.8 2
v 1.8 1.9 2
v 1.8 2.8 2
v 1.9 0 2
v 1.9 1.8 2
v 1.9 3.9 2
v 1.9 5 2
v 2.7 0 2
v 2.7 1.8 2
v 2.7 3.9 2
v 2.7 5 2
v -2.5 1.9 1.9
v -2.5 2.8 1.9
v -2.5 2.9 1.9
v -2.5 3.8 1.9
v -2.5 5.1 1.9
v -2.5 5.6 1.9
v -0.6 1.9 1.9
v -0.6 2.8 1.9
v -0.6 2.9 1.9
v -0.6 3.8 1.9
v -0.6 5.1 1.9
v -0.6 5.6 1.9
v -0.5 0 1.9
v -0.5 1.8 1.9
v -0.5 2.9 1.9
v -0.5 3.8 1.9
v -0.5 3.9 1.9
v -0.5 5 1.9
v -0.5 5.1 1.9
v -0.5 5.6 1.9
v 1.8 0 1.9
v 1.8 1.8 1.9
v 1.8 2.9 1.9
v 1.8 3.8 1.9
v 1.8 3.9 1.9
v 1.8 5 1.9
v 1.8 5.1 1.9
v 1.8 5.6 1.9
v 1.9 1.9 1.9
v 1.9 2.8 1.9
v 1.9 2.9 1.9
v 1.9 3.8 1.9
v 1.9 5.1 1.9
v 1.9 5.6 1.9
v 2.6 1.9 1.9
v 2.6 2.8 1.9
v 2.6 2.9 1.9
v 2.6 3.8 1.9
v 2.6 5.1 1.9
v 2.6 5.6 1.9
v -2.4 1.8 1.8
v -2.4 1.9 1.8
v -2.4 2.8 1.8
v -2.4 2.9 1.8
v -2.4 3.8 1.8
v -2.4 3.9 1.8
v -2.4 5 1.8
v -2.4 5.1 1.8
v -0.6 0.1 1.8
v -0.6 1.8 1.8
v -0.6 1.9 1.8
v -0.6 2.8 1.8
v -0.6 2.9 1.8
v -0.6 3.8 1.8
v -0.6 3.9 1.8
v -0.6 5 1.8
v -0.6 5.1 1.8
v -0.6 5.5 1.8
v -0.5 0.1 1.8
v -0.5 1.8 1.8
v -0.5 1.9 1.8
v -0.5 2.8 1.8
v -0.5 2.9 1.8
v -0.5 3.8 1.8
v -0.5 3.9 1.8
v -0.5 5 1.8
v -0.5 5.1 1.8
v -0.5 5.5 1.8
v 1.8 0.1 1.8
v 1.8 1.8 1.8
v 1.8 1.9 1.8
v 1.8 2.8 1.8
v 1.8 2.9 1.8
v 1.8 3.8 1.8
v 1.8 3.9 1.8
v 1.8 5 1.8
v 1.8 5.1 1.8
v 1.8 5.5 1.8
v 1.9 0.1 1.8
v 1.9 1.8 1.8
v 1.9 1.9 1.8
v 1.9 2.8 1.8
v 1.9 2.9 1.8
v 1.9 3.8 1.8
v 1.9 3.9 1.8
v 1.9 5 1.8
v 1.9 5.1 1.8
v 1.9 5.5 1.8
v 2.5 1.8 1.8
v 2.5 1.9 1.8
v 2.5 2.8 1.8
v 2.5 2.9 1.8
v 2.5 3.8 1.8
v 2.5 3.9 1.8
v 2.5 5 1.8
v 2.5 5.1 1.8
v -2.5 0 0.8
v -2.5 1.8 0.8
v -2.5 1.9 0.8
v -2.5 2.8 0.8
v -2.5 2.9 0.8
v -2.5 3.8 0.8
v -2.5 3.9 0.8
v -2.5 5 0.8
v -2.5 5.1 0.8
v -2.5 5.6 0.8
v -2.4 0.1 0.8
v -2.4 1.8 0.8
v -2.4 1.9 0.8
v -2.4 2.8 0.8
v -2.4 2.9 0.8
v -2.4 3.8 0.8
v -2.4 3.9 0.8
v -2.4 5 0.8
v -2.4 5.1 0.8
v -2.4 5.5 0.8
v -0.6 0 0.8
v -0.6 0.1 0.8
v -0.6 5.5 0.8
v -0.6 5.6 0.8
v -0.5 0 0.8
v -0.5 0.1 0.8
v -0.5 5.5 0.8
v -0.5 5.6 0.8
v -0.5 5.7 0.8
v 1.8 0 0.8
v 1.8 0.1 0.8
v 1.8 5.5 0.8
v 1.8 5.6 0.8
v 1.8 5.7 0.8
v 1.9 0 0.8
v 1.9 0.1 0.8
v 1.9 5.5 0.8
v 1.9 5.6 0.8
v 2.5 0.1 0.8
v 2.5 1.8 0.8
v 2.5 1.9 0.8
v 2.5 2.8 0.8
v 2.5 2.9 0.8
v 2.5 3.8 0.8
v 2.5 3.9 0.8
v 2.5 5 0.8
v 2.5 5.1 0.8
v 2.5 5.5 0.8
v 2.6 0 0.8
v 2.6 1.8 0.8
v 2.6 1.9 0.8
v 2.6 2.8 0.8
v 2.6 2.9 0.8
v 2.6 3.8 0.8
v 2.6 3.9 0.8
v 2.6 5 0.8
v 2.6 5.1 0.8
v 2.6 5.6 0.8
v 2.7 1.9 0.8
v 2.7 2.8 0.8
v -0.6 5.5 -0.1
v -0.6 5.6 -0.1
v -0.5 5.5 -0.1
v -0.5 5.6 -0.1
v -2.6 1.9 -1
v -2.6 2.8 -1
v -2.6 5.1 -1
v -2.6 5.6 -1
v -2.5 0 -1
v -2.5 1.8 -1
v -2.5 1.9 -1
v -2.5 2.8 -1
v -2.5 2.9 -1
v -2.5 3.8 -1
v -2.5 3.9 -1
v -2.5 5 -1
v -2.5 5.1 -1
v -2.5 5.6 -1
v -2.4 0.1 -1
v -2.4 1.8 -1
v -2.4 1.9 -1
v -2.4 2.8 -1
v -2.4 2.9 -1
v -2.4 3.8 -1
v -2.4 3.9 -1
v -2.4 5 -1
v -2.4 5.1 -1
v -2.4 5.5 -1
v -0.6 0 -1
v -0.6 0.1 -1
v -0.6 5.5 -1
v -0.6 5.6 -1
v -0.5 0 -1
v -0.5 0.1 -1
v -0.5 5.5 -1
v -0.5 5.6 -1
v 1.8 0 -1
v 1.8 0.1 -1
v 1.8 5.5 -1
v 1.8 5.6 -1
v 1.9 0 -1
v 1.9 0.1 -1
v 1.9 5.5 -1
v 1.9 5.6 -1
v 1.9 5.7 -1
v 2.5 0.1 -1
v 2.5 1.8 -1
v 2.5 1.9 -1
v 2.5 2.8 -1
v 2.5 2.9 -1
v 2.5 3.8 -1
v 2.5 3.9 -1
v 2.5 5 -1
v 2.5 5.1 -1
v 2.5 5.5 -1
v 2.6 0 -1
v 2.6 1.8 -1
v 2.6 1.9 -1
v 2.6 2.8 -1
v 2.6 2.9 -1
v 2.6 3.8 -1
v 2.6 3.9 -1
v 2.6 5 -1
v 2.6 5.1 -1
v 2.6 5.6 -1
v 2.7 5.1 -1
v 2.7 5.7 -1
v -2.6 0 0.9
v -2.6 1.8 0.9
v -2.6 3.9 0.9
v -2.6 5 0.9
v -2.5 0 0.9
v -2.5 1.8 0.9
v -2.5 1.9 0.9
v -2.5 2.8 0.9
v -2.5 2.9 0.9
v -2.5 3.8 0.9
v -2.5 3.9 0.9
v -2.5 5 0.9
v -2.5 5.1 0.9
v -2.5 5.6 0.9
v -2.4 0.1 0.9
v -2.4 1.8 0.9
v -2.4 1.9 0.9
v -2.4 2.8 0.9
v -2.4 2.9 0.9
v -2.4 3.8 0.9
v -2.4 3.9 0.9
v -2.4 5 0.9
v -2.4 5.1 0.9
v -2.4 5.5 0.9
v -0.6 0 0.9
v -0.6 0.1 0.9
v -0.6 5.5 0.9
v -0.6 5.6 0.9
v -0.5 0 0.9
v -0.5 0.1 0.9
v -0.5 5.5 0.9
v -0.5 5.6 0.9
v 1.8 0 0.9
v 1.8 0.1 0.9
v 1.8 5.5 0.9
v 1.8 5.6 0.9
v 1.9 0 0.9
v 1.9 0.1 0.9
v 1.9 5.5 0.9
v 1.9 5.6 0.9
v 2.5 0.1 0.9
v 2.5 1.8 0.9
v 2.5 1.9 0.9
v 2.5 2.8 0.9
v 2.5 2.9 0.9
v 2.5 3.8 0.9
v 2.5 3.9 0.9
v 2.5 5 0.9
v 2.5 5.1 0.9
v 2.5 5.5 0.9
v 2.6 0 0.9
v 2.6 1.8 0.9
v 2.6 1.9 0.9
v 2.6 2.8 0.9
v 2.6 2.9 0.9
v 2.6 3.8 0.9
v 2.6 3.9 0.9
v 2.6 5 0.9
v 2.6 5.1 0.9
v 2.6 5.6 0.9
v 2.7 0 0.9
v 2.7 1.8 0.9
v 2.7 3.9 0.9
v 2.7 5 0.9
v -2.5 0 -0.9
v -2.5 1.8 -0.9
v -2.5 1.9 -0.9
v -2.5 2.8 -0.9
v -2.5 2.9 -0.9
v -2.5 3.8 -0.9
v -2.5 3.9 -0.9
v -2.5 5 -0.9
v -2.5 5.1 -0.9
v -2.5 5.6 -0.9
v -2.4 0.1 -0.9
v -2.4 1.8 -0.9
v -2.4 1.9 -0.9
v -2.4 2.8 -0.9
v -2.4 2.9 -0.9
v -2.4 3.8 -0.9
v -2.4 3.9 -0.9
v -2.4 5 -0.9
v -2.4 5.1 -0.9
v -2.4 5.5 -0.9
v -0.6 0 -0.9
v -0.6 0.1 -0.9
v -0.6 5.5 -0.9
v -0.6 5.6 -0.9
v -0.5 0 -0.9
v -0.5 0.1 -0.9
v -0.5 5.5 -0.9
v -0.5 5.6 -0.9
v -0.5 5.7 -0.9
v 1.8 0 -0.9
v 1.8 0.1 -0.9
v 1.8 5.5 -0.9
v 1.8 5.6 -0.9
v 1.8 5.7 -0.9
v 1.9 0 -0.9
v 1.9 0.1 -0.9
v 1.9 5.5 -0.9
v 1.9 5.6 -0.9
v 2.5 0.1 -0.9
v 2.5 1.8 -0.9
v 2.5 1.9 -0.9
v 2.5 2.8 -0.9
v 2.5 2.9 -0.9
v 2.5 3.8 -0.9
v 2.5 3.9 -0.9
v 2.5 5 -0.9
v 2.5 5.1 -0.9
v 2.5 5.5 -0.9
v 2.6 0 -0.9
v 2.6 1.8 -0.9
v 2.6 1.9 -0.9
v 2.6 2.8 -0.9
v 2.6 2.9 -0.9
v 2.6 3.8 -0.9
v 2.6 3.9 -0.9
v 2.6 5 -0.9
v 2.6 5.1 -0.9
v 2.6 5.6 -0.9
v 2.7 1.9 -0.9
v 2.7 2.8 -0.9
v -2.4 1.8 -1.8
v -2.4 1.9 -1.8
v -2.4 2.8 -1.8
v -2.4 2.9 -1.8
v -2.4 3.8 -1.8
v -2.4 3.9 -1.8
v -2.4 5 -1.8
v -2.4 5.1 -1.8
v -0.6 0.1 -1.8
v -0.6 1.8 -1.8
v -0.6 1.9 -1.8
v -0.6 2.8 -1.8
v -0.6 2.9 -1.8
v -0.6 3.8 -1.8
v -0.6 3.9 -1.8
v -0.6 5 -1.8
v -0.6 5.1 -1.8
v -0.6 5.6 -1.8
v -0.5 0.1 -1.8
v -0.5 1.8 -1.8
v -0.5 1.9 -1.8
v -0.5 2.8 -1.8
v -0.5 2.9 -1.8
v -0.5 3.8 -1.8
v -0.5 3.9 -1.8
v -0.5 5 -1.8
v -0.5 5.1 -1.8
v -0.5 5.6 -1.8
v 1.8 0.1 -1.8
v 1.8 1.8 -1.8
v 1.8 1.9 -1.8
v 1.8 2.8 -1.8
v 1.8 2.9 -1.8
v 1.8 3.8 -1.8
v 1.8 3.9 -1.8
v 1.8 5 -1.8
v 1.8 5.1 -1.8
v 1.8 5.5 -1.8
v 1.9 0.1 -1.8
v 1.9 1.8 -1.8
v 1.9 1.9 -1.8
v 1.9 2.8 -1.8
v 1.9 2.9 -1.8
v 1.9 3.8 -1.8
v 1.9 3.9 -1.8
v 1.9 5 -1.8
v 1.9 5.1 -1.8
v 1.9 5.5 -1.8
v 2.5 1.8 -1.8
v 2.5 1.9 -1.8
v 2.5 2.8 -1.8
v 2.5 2.9 -1.8
v 2.5 3.8 -1.8
v 2.5 3.9 -1.8
v 2.5 5 -1.8
v 2.5 5.1 -1.8
v -2.5 0 -1.9
v -2.5 1.8 -1.9
v -2.5 2.9 -1.9
v -2.5 3.8 -1.9
v -2.5 3.9 -1.9
v -2.5 5 -1.9
v -0.6 0 -1.9
v -0.6 1.8 -1.9
v -0.6 2.9 -1.9
v -0.6 3.8 -1.9
v -0.6 3.9 -1.9
v -0.6 5 -1.9
v -0.5 0 -1.9
v -0.5 1.8 -1.9
v -0.5 1.9 -1.9
v -0.5 2.8 -1.9
v -0.5 2.9 -1.9
v -0.5 3.8 -1.9
v -0.5 5.1 -1.9
v -0.5 5.6 -1.9
v 1.8 0 -1.9
v 1.8 1.8 -1.9
v 1.8 1.9 -1.9
v 1.8 2.8 -1.9
v 1.8 2.9 -1.9
v 1.8 3.8 -1.9
v 1.8 5.1 -1.9
v 1.8 5.6 -1.9
v 1.9 1.9 -1.9
v 1.9 2.8 -1.9
v 1.9 2.9 -1.9
v 1.9 3.8 -1.9
v 1.9 3.9 -1.9
v 1.9 5 -1.9
v 2.6 1.9 -1.9
v 2.6 2.8 -1.9
v 2.6 2.9 -1.9
v 2.6 3.8 -1.9
v 2.6 3.9 -1.9
v 2.6 5 -1.9
v -2.6 1.9 -2
v -2.6 2.8 -2
v -2.6 5.1 -2
v -2.6 5.6 -2
v -0.6 1.9 -2
v -0.6 2.8 -2
v -0.6 5.1 -2
v -0.6 5.6 -2
v -0.5 3.9 -2
v -0.5 5 -2
v 1.8 3.9 -2
v 1.8 5 -2
v 1.9 0 -2
v 1.9 1.8 -2
v 1.9 5.1 -2
v 1.9 5.7 -2
v 2.6 0 -2
v 2.6 1.8 -2
v 2.7 5.1 -2
v 2.7 5.7 -2
v -2.6 0 2
v -0.6 0 2
v 1.9 0 2
v 2.7 0 2
v -2.5 0 1.9
v -0.6 0 1.9
v -0.5 0 1.9
v 1.8 0 1.9
v 1.9 0 1.9
v 2.6 0 1.9
v -2.6 0 0.9
v -2.5 0 0.9
v -0.6 0 0.9
v -0.5 0 0.9
v 1.8 0 0.9
v 1.9 0 0.9
v 2.6 0 0.9
v 2.7 0 0.9
v -2.5 0 0.8
v -0.6 0 0.8
v -0.5 0 0.8
v 1.8 0 0.8
v 1.9 0 0.8
v 2.6 0 0.8
v -2.5 0 -0.9
v -0.6 0 -0.9
v -0.5 0 -0.9
v 1.8 0 -0.9
v 1.9 0 -0.9
v 2.6 0 -0.9
v -2.5 0 -1
v -0.6 0 -1
v -0.5 0 -1
v 1.8 0 -1
v 1.9 0 -1
v 2.6 0 -1
v -2.5 0 -1.9
v -0.6 0 -1.9
v -0.5 0 -1.9
v 1.8 0 -1.9
v 1.9 0 -1.9
v 2.6 0 -1.9
v 1.9 0 -2
v 2.6 0 -2
v -0.6 0.1 1.8
v -0.5 0.1 1.8
v 1.8 0.1 1.8
v 1.9 0.1 1.8
v -2.4 0.1 0.9
v -0.6 0.1 0.9
v -0.5 0.1 0.9
v 1.8 0.1 0.9
v 1.9 0.1 0.9
v 2.5 0.1 0.9
v -2.4 0.1 0.8
v -0.6 0.1 0.8
v -0.5 0.1 0.8
v 1.8 0.1 0.8
v 1.9 0.1 0.8
v 2.5 0.1 0.8
v -2.4 0.1 -0.9
v -0.6 0.1 -0.9
v -0.5 0.1 -0.9
v 1.8 0.1 -0.9
v 1.9 0.1 -0.9
v 2.5 0.1 -0.9
v -2.4 0.1 -1
v -0.6 0.1 -1
v -0.5 0.1 -1
v 1.8 0.1 -1
v 1.9 0.1 -1
v 2.5 0.1 -1
v -0.6 0.1 -1.8
v -0.5 0.1 -1.8
v 1.8 0.1 -1.8
v 1.9 0.1 -1.8
v -0.5 1.9 2
v 1.8 1.9 2
v -2.5 1.9 1.9
v -0.6 1.9 1.9
v -0.5 1.9 1.9
v 1.8 1.9 1.9
v 1.9 1.9 1.9
v 2.6 1.9 1.9
v -2.4 1.9 1.8
v -0.6 1.9 1.8
v -0.5 1.9 1.8
v 1.8 1.9 1.8
v 1.9 1.9 1.8
v 2.5 1.9 1.8
v -2.5 1.9 0.9
v -2.4 1.9 0.9
v 2.5 1.9 0.9
v 2.6 1.9 0.9
v -2.5 1.9 0.8
v -2.4 1.9 0.8
v 2.5 1.9 0.8
v 2.6 1.9 0.8
v 2.7 1.9 0.8
v -2.5 1.9 -0.9
v -2.4 1.9 -0.9
v 2.5 1.9 -0.9
v 2.6 1.9 -0.9
v 2.7 1.9 -0.9
v -2.6 1.9 -1
v -2.5 1.9 -1
v -2.4 1.9 -1
v 2.5 1.9 -1
v 2.6 1.9 -1
v -2.4 1.9 -1.8
v -0.6 1.9 -1.8
v -0.5 1.9 -1.8
v 1.8 1.9 -1.8
v 1.9 1.9 -1.8
v 2.5 1.9 -1.8
v -2.5 1.9 -1.9
v -0.6 1.9 -1.9
v -0.5 1.9 -1.9
v 1.8 1.9 -1.9
v 1.9 1.9 -1.9
v 2.6 1.9 -1.9
v -2.6 1.9 -2
v -0.6 1.9 -2
v -2.5 2.9 1.9
v -0.6 2.9 1.9
v -0.5 2.9 1.9
v 1.8 2.9 1.9
v 1.9 2.9 1.9
v 2.6 2.9 1.9
v -2.4 2.9 1.8
v -0.6 2.9 1.8
v -0.5 2.9 1.8
v 1.8 2.9 1.8
v 1.9 2.9 1.8
v 2.5 2.9 1.8
v -2.5 2.9 0.9
v -2.4 2.9 0.9
v 2.5 2.9 0.9
v 2.6 2.9 0.9
v -2.5 2.9 0.8
v -2.4 2.9 0.8
v 2.5 2.9 0.8
v 2.6 2.9 0.8
v -2.5 2.9 -0.9
v -2.4 2.9 -0.9
v 2.5 2.9 -0.9
v 2.6 2.9 -0.9
v -2.5 2.9 -1
v -2.4 2.9 -1
v 2.5 2.9 -1
v 2.6 2.9 -1
v -2.4 2.9 -1.8
v -0.6 2.9 -1.8
v -0.5 2.9 -1.8
v 1.8 2.9 -1.8
v 1.9 2.9 -1.8
v 2.5 2.9 -1.8
v -2.5 2.9 -1.9
v -0.6 2.9 -1.9
v -0.5 2.9 -1.9
v 1.8 2.9 -1.9
v 1.9 2.9 -1.9
v 2.6 2.9 -1.9
v -2.6 3.9 2
v -0.6 3.9 2
v 1.9 3.9 2
v 2.7 3.9 2
v -2.5 3.9 1.9
v -0.6 3.9 1.9
v -0.5 3.9 1.9
v 1.8 3.9 1.9
v 1.9 3.9 1.9
v 2.6 3.9 1.9
v -2.4 3.9 1.8
v -0.6 3.9 1.8
v -0.5 3.9 1.8
v 1.8 3.9 1.8
v 1.9 3.9 1.8
v 2.5 3.9 1.8
v -2.6 3.9 0.9
v -2.5 3.9 0.9
v -2.4 3.9 0.9
v 2.5 3.9 0.9
v 2.6 3.9 0.9
v 2.7 3.9 0.9
v -2.5 3.9 0.8
v -2.4 3.9 0.8
v 2.5 3.9 0.8
v 2.6 3.9 0.8
v -2.5 3.9 -0.9
v -2.4 3.9 -0.9
v 2.5 3.9 -0.9
v 2.6 3.9 -0.9
v -2.5 3.9 -1
v -2.4 3.9 -1
v 2.5 3.9 -1
v 2.6 3.9 -1
v -2.4 3.9 -1.8
v -0.6 3.9 -1.8
v -0.5 3.9 -1.8
v 1.8 3.9 -1.8
v 1.9 3.9 -1.8
v 2.5 3.9 -1.8
v -2.5 3.9 -1.9
v -0.6 3.9 -1.9
v -0.5 3.9 -1.9
v 1.8 3.9 -1.9
v 1.9 3.9 -1.9
v 2.6 3.9 -1.9
v -0.5 3.9 -2
v 1.8 3.9 -2
v -2.5 5.1 1.9
v -0.6 5.1 1.9
v -0.5 5.1 1.9
v 1.8 5.1 1.9
v 1.9 5.1 1.9
v 2.6 5.1 1.9
v -2.4 5.1 1.8
v -0.6 5.1 1.8
v -0.5 5.1 1.8
v 1.8 5.1 1.8
v 1.9 5.1 1.8
v 2.5 5.1 1.8
v -2.5 5.1 0.9
v -2.4 5.1 0.9
v 2.5 5.1 0.9
v 2.6 5.1 0.9
v -2.5 5.1 0.8
v -2.4 5.1 0.8
v 2.5 5.1 0.8
v 2.6 5.1 0.8
v -2.5 5.1 -0.9
v -2.4 5.1 -0.9
v 2.5 5.1 -0.9
v 2.6 5.1 -0.9
v -2.6 5.1 -1
v -2.5 5.1 -1
v -2.4 5.1 -1
v 2.5 5.1 -1
v 2.6 5.1 -1
v 2.7 5.1 -1
v -2.4 5.1 -1.8
v -0.6 5.1 -1.8
v -0.5 5.1 -1.8
v 1.8 5.1 -1.8
v 1.9 5.1 -1.8
v 2.5 5.1 -1.8
v -2.5 5.1 -1.9
v -0.6 5.1 -1.9
v -0.5 5.1 -1.9
v 1.8 5.1 -1.9
v 1.9 5.1 -1.9
v 2.6 5.1 -1.9
v -2.6 5.1 -2
v -0.6 5.1 -2
v 1.9 5.1 -2
v 2.7 5.1 -2
v -2.6 1.8 2
v -0.6 1.8 2
v 1.9 1.8 2
v 2.7 1.8 2
v -2.5 1.8 1.9
v -0.6 1.8 1.9
v -0.5 1.8 1.9
v 1.8 1.8 1.9
v 1.9 1.8 1.9
v 2.6 1.8 1.9
v -2.4 1.8 1.8
v -0.6 1.8 1.8
v -0.5 1.8 1.8
v 1.8 1.8 1.8
v 1.9 1.8 1.8
v 2.5 1.8 1.8
v -2.6 1.8 0.9
v -2.5 1.8 0.9
v -2.4 1.8 0.9
v 2.5 1.8 0.9
v 2.6 1.8 0.9
v 2.7 1.8 0.9
v -2.5 1.8 0.8
v -2.4 1.8 0.8
v 2.5 1.8 0.8
v 2.6 1.8 0.8
v -2.5 1.8 -0.9
v -2.4 1.8 -0.9
v 2.5 1.8 -0.9
v 2.6 1.8 -0.9
v -2.5 1.8 -1
v -2.4 1.8 -1
v 2.5 1.8 -1
v 2.6 1.8 -1
v -2.4 1.8 -1.8
v -0.6 1.8 -1.8
v -0.5 1.8 -1.8
v 1.8 1.8 -1.8
v 1.9 1.8 -1.8
v 2.5 1.8 -1.8
v -2.5 1.8 -1.9
v -0.6 1.8 -1.9
v -0.5 1.8 -1.9
v 1.8 1.8 -1.9
v 1.9 1.8 -1.9
v 2.6 1.8 -1.9
v 1.9 1.8 -2
v 2.6 1.8 -2
v -0.5 2.8 2
v 1.8 2.8 2
v -2.5 2.8 1.9
v -0.6 2.8 1.9
v -0.5 2.8 1.9
v 1.8 2.8 1.9
v 1.9 2.8 1.9
v 2.6 2.8 1.9
v -2.4 2.8 1.8
v -0.6 2.8 1.8
v -0.5 2.8 1.8
v 1.8 2.8 1.8
v 1.9 2.8 1.8
v 2.5 2.8 1.8
v -2.5 2.8 0.9
v -2.4 2.8 0.9
v 2.5 2.8 0.9
v 2.6 2.8 0.9
v -2.5 2.8 0.8
v -2.4 2.8 0.8
v 2.5 2.8 0.8
v 2.6 2.8 0.8
v 2.7 2.8 0.8
v -2.5 2.8 -0.9
v -2.4 2.8 -0.9
v 2.5 2.8 -0.9
v 2.6 2.8 -0.9
v 2.7 2.8 -0.9
v -2.6 2.8 -1
v -2.5 2.8 -1
v -2.4 2.8 -1
v 2.5 2.8 -1
v 2.6 2.8 -1
v -2.4 2.8 -1.8
v -0.6 2.8 -1.8
v -0.5 2.8 -1.8
v 1.8 2.8 -1.8
v 1.9 2.8 -1.8
v 2.5 2.8 -1.8
v -2.5 2.8 -1.9
v -0.6 2.8 -1.9
v -0.5 2.8 -1.9
v 1.8 2.8 -1.9
v 1.9 2.8 -1.9
v 2.6 2.8 -1.9
v -2.6 2.8 -2
v -0.6 2.8 -2
v -2.5 3.8 1.9
v -0.6 3.8 1.9
v -0.5 3.8 1.9
v 1.8 3.8 1.9
v 1.9 3.8 1.9
v 2.6 3.8 1.9
v -2.4 3.8 1.8
v -0.6 3.8 1.8
v -0.5 3.8 1.8
v 1.8 3.8 1.8
v 1.9 3.8 1.8
v 2.5 3.8 1.8
v -2.5 3.8 0.9
v -2.4 3.8 0.9
v 2.5 3.8 0.9
v 2.6 3.8 0.9
v -2.5 3.8 0.8
v -2.4 3.8 0.8
v 2.5 3.8 0.8
v 2.6 3.8 0.8
v -2.5 3.8 -0.9
v -2.4 3.8 -0.9
v 2.5 3.8 -0.9
v 2.6 3.8 -0.9
v -2.5 3.8 -1
v -2.4 3.8 -1
v 2.5 3.8 -1
v 2.6 3.8 -1
v -2.4 3.8 -1.8
v -0.6 3.8 -1.8
v -0.5 3.8 -1.8
v 1.8 3.8 -1.8
v 1.9 3.8 -1.8
v 2.5 3.8 -1.8
v -2.5 3.8 -1.9
v -0.6 3.8 -1.9
v -0.5 3.8 -1.9
v 1.8 3.8 -1.9
v 1.9 3.8 -1.9
v 2.6 3.8 -1.9
v -2.6 5 2
v -0.6 5 2
v 1.9 5 2
v 2.7 5 2
v -2.5 5 1.9
v -0.6 5 1.9
v -0.5 5 1.9
v 1.8 5 1.9
v 1.9 5 1.9
v 2.6 5 1.9
v -2.4 5 1.8
v -0.6 5 1.8
v -0.5 5 1.8
v 1.8 5 1.8
v 1.9 5 1.8
v 2.5 5 1.8
v -2.6 5 0.9
v -2.5 5 0.9
v -2.4 5 0.9
v 2.5 5 0.9
v 2.6 5 0.9
v 2.7 5 0.9
v -2.5 5 0.8
v -2.4 5 0.8
v 2.5 5 0.8
v 2.6 5 0.8
v -2.5 5 -0.9
v -2.4 5 -0.9
v 2.5 5 -0.9
v 2.6 5 -0.9
v -2.5 5 -1
v -2.4 5 -1
v 2.5 5 -1
v 2.6 5 -1
v -2.4 5 -1.8
v -0.6 5 -1.8
v -0.5 5 -1.8
v 1.8 5 -1.8
v 1.9 5 -1.8
v 2.5 5 -1.8
v -2.5 5 -1.9
v -0.6 5 -1.9
v -0.5 5 -1.9
v 1.8 5 -1.9
v 1.9 5 -1.9
v 2.6 5 -1.9
v -0.5 5 -2
v 1.8 5 -2
v -0.6 5.5 1.8
v -0.5 5.5 1.8
v 1.8 5.5 1.8
v 1.9 5.5 1.8
v -2.4 5.5 0.9
v -0.6 5.5 0.9
v -0.5 5.5 0.9
v 1.8 5.5 0.9
v 1.9 5.5 0.9
v 2.5 5.5 0.9
v -2.4 5.5 0.8
v -0.6 5.5 0.8
v -0.5 5.5 0.8
v 1.8 5.5 0.8
v 1.9 5.5 0.8
v 2.5 5.5 0.8
v -0.6 5.5 -0.1
v -0.5 5.5 -0.1
v -2.4 5.5 -0.9
v -0.6 5.5 -0.9
v -0.5 5.5 -0.9
v 1.8 5.5 -0.9
v 1.9 5.5 -0.9
v 2.5 5.5 -0.9
v -2.4 5.5 -1
v -0.6 5.5 -1
v -0.5 5.5 -1
v 1.8 5.5 -1
v 1.9 5.5 -1
v 2.5 5.5 -1
v 1.8 5.5 -1.8
v 1.9 5.5 -1.8
v -2.5 5.6 1.9
v -0.6 5.6 1.9
v -0.5 5.6 1.9
v 1.8 5.6 1.9
v 1.9 5.6 1.9
v 2.6 5.6 1.9
v -2.5 5.6 0.9
v -0.6 5.6 0.9
v -0.5 5.6 0.9
v 1.8 5.6 0.9
v 1.9 5.6 0.9
v 2.6 5.6 0.9
v -2.5 5.6 0.8
v -0.6 5.6 0.8
v 1.9 5.6 0.8
v 2.6 5.6 0.8
v -0.6 5.6 -0.1
v -0.5 5.6 -0.1
v -2.5 5.6 -0.9
v -0.6 5.6 -0.9
v -0.5 5.6 -0.9
v 1.9 5.6 -0.9
v 2.6 5.6 -0.9
v -2.6 5.6 -1
v -2.5 5.6 -1
v -0.6 5.6 -1
v -0.5 5.6 -1
v 1.8 5.6 -1
v -0.6 5.6 -1.8
v -0.5 5.6 -1.8
v -2.5 5.6 -1.9
v -0.6 5.6 -1.9
v -0.5 5.6 -1.9
v 1.8 5.6 -1.9
v -2.6 5.6 -2
v -0.6 5.6 -2
v -0.5 5.7 0.8
v 1.8 5.7 0.8
v -0.5 5.7 -0.9
v 1.8 5.7 -0.9
v 1.9 5.7 -1
v 2.7 5.7 -1
v 1.9 5.7 -2
v 2.7 5.7 -2

# faces
f 3/3/1 2/3/1 1/3/1
f 4/3/1 2/3/1 3/3/1
f 7/3/1 6/3/1 5/3/1
f 8/3/1 6/3/1 7/3/1
f 11/3/1 10/3/1 9/3/1
f 12/3/1 10/3/1 11/3/1
f 15/3/1 14/3/1 13/3/1
f 16/3/1 14/3/1 15/3/1
f 21/2/1 18/2/1 17/2/1
f 22/2/1 18/2/1 21/2/1
f 23/2/1 20/2/1 19/2/1
f 24/2/1 20/2/1 23/2/1
f 29/2/1 26/2/1 25/2/1
f 30/2/1 26/2/1 29/2/1
f 31/2/1 28/2/1 27/2/1
f 32/2/1 28/2/1 31/2/1
f 39/2/1 34/2/1 33/2/1
f 40/2/1 34/2/1 39/2/1
f 41/2/1 36/2/1 35/2/1
f 42/2/1 36/2/1 41/2/1
f 43/2/1 38/2/1 37/2/1
f 44/2/1 38/2/1 43/2/1
f 49/2/1 46/2/1 45/2/1
f 50/2/1 46/2/1 49/2/1
f 51/2/1 48/2/1 47/2/1
f 52/2/1 48/2/1 51/2/1
f 57/2/1 54/2/1 53/2/1
f 58/2/1 54/2/1 57/2/1
f 59/2/1 56/2/1 55/2/1
f 60/2/1 56/2/1 59/2/1
f 66/1/1 62/1/1 61/1/1
f 67/1/1 62/1/1 66/1/1
f 68/1/1 64/1/1 63/1/1
f 69/1/1 64/1/1 68/1/1
f 71/1/1 67/1/1 66/1/1
f 71/1/1 70/1/1 69/1/1
f 71/1/1 69/1/1 68/1/1
f 71/1/1 68/1/1 67/1/1
f 71/1/1 66/1/1 65/1/1
f 72/1/1 70/1/1 71/1/1
f 73/1/1 70/1/1 72/1/1
f 74/1/1 70/1/1 73/1/1
f 75/1/1 70/1/1 74/1/1
f 76/1/1 70/1/1 75/1/1
f 78/1/1 73/1/1 72/1/1
f 79/1/1 73/1/1 78/1/1
f 80/1/1 75/1/1 74/1/1
f 81/1/1 75/1/1 80/1/1
f 83/1/1 79/1/1 78/1/1
f 83/1/1 82/1/1 81/1/1
f 83/1/1 81/1/1 80/1/1
f 83/1/1 80/1/1 79/1/1
f 83/1/1 78/1/1 77/1/1
f 84/1/1 82/1/1 83/1/1
f 85/1/1 82/1/1 84/1/1
f 86/1/1 82/1/1 85/1/1
f 87/1/1 82/1/1 86/1/1
f 88/1/1 82/1/1 87/1/1
f 90/1/1 85/1/1 84/1/1
f 91/1/1 85/1/1 90/1/1
f 92/1/1 87/1/1 86/1/1
f 93/1/1 87/1/1 92/1/1
f 95/1/1 91/1/1 90/1/1
f 95/1/1 94/1/1 93/1/1
f 95/1/1 93/1/1 92/1/1
f 95/1/1 92/1/1 91/1/1
f 95/1/1 90/1/1 89/1/1
f 96/1/1 94/1/1 95/1/1
f 97/1/1 94/1/1 96/1/1
f 98/1/1 94/1/1 97/1/1
f 99/1/1 94/1/1 98/1/1
f 100/1/1 94/1/1 99/1/1
f 102/1/1 97/1/1 96/1/1
f 103/1/1 97/1/1 102/1/1
f 104/1/1 99/1/1 98/1/1
f 105/1/1 99/1/1 104/1/1
f 107/1/1 103/1/1 102/1/1
f 107/1/1 106/1/1 105/1/1
f 107/1/1 105/1/1 104/1/1
f 107/1/1 104/1/1 103/1/1
f 107/1/1 102/1/1 101/1/1
f 108/1/1 106/1/1 107/1/1
f 109/1/1 106/1/1 108/1/1
f 110/1/1 106/1/1 109/1/1
f 111/1/1 106/1/1 110/1/1
f 112/1/1 106/1/1 111/1/1
f 113/1/1 109/1/1 108/1/1
f 114/1/1 109/1/1 113/1/1
f 115/1/1 111/1/1 110/1/1
f 116/1/1 111/1/1 115/1/1
f 123/2/1 118/2/1 117/2/1
f 124/2/1 118/2/1 123/2/1
f 125/2/1 120/2/1 119/2/1
f 126/2/1 120/2/1 125/2/1
f 127/2/1 122/2/1 121/2/1
f 128/2/1 122/2/1 127/2/1
f 129/2/1 123/2/1 117/2/1
f 130/2/1 123/2/1 129/2/1
f 131/2/1 122/2/1 128/2/1
f 132/2/1 122/2/1 131/2/1
f 138/3/1 134/3/1 133/3/1
f 139/2/1 135/2/1 134/2/1
f 139/3/1 134/3/1 138/3/1
f 140/2/1 135/2/1 139/2/1
f 141/2/1 137/2/1 136/2/1
f 142/2/1 137/2/1 141/2/1
f 147/2/1 144/2/1 143/2/1
f 148/2/1 144/2/1 147/2/1
f 149/2/1 146/2/1 145/2/1
f 150/2/1 146/2/1 149/2/1
f 156/2/1 152/2/1 151/2/1
f 157/2/1 152/2/1 156/2/1
f 158/2/1 154/2/1 153/2/1
f 159/3/1 155/3/1 154/3/1
f 159/2/1 154/2/1 158/2/1
f 160/3/1 155/3/1 159/3/1
f 165/2/1 162/2/1 161/2/1
f 169/2/1 165/2/1 161/2/1
f 169/2/1 166/2/1 165/2/1
f 170/2/1 166/2/1 169/2/1
f 171/2/1 168/2/1 167/2/1
f 172/2/1 168/2/1 171/2/1
f 174/2/1 164/2/1 163/2/1
f 175/2/1 164/2/1 174/2/1
f 176/3/1 173/3/1 172/3/1
f 176/3/1 172/3/1 171/3/1
f 177/3/1 173/3/1 176/3/1
f 186/2/1 180/2/1 179/2/1
f 187/2/1 180/2/1 186/2/1
f 188/2/1 182/2/1 181/2/1
f 189/2/1 182/2/1 188/2/1
f 190/2/1 184/2/1 183/2/1
f 191/2/1 184/2/1 190/2/1
f 192/3/1 179/3/1 178/3/1
f 193/2/1 186/2/1 179/2/1
f 193/3/1 179/3/1 192/3/1
f 194/2/1 186/2/1 193/2/1
f 195/2/1 184/2/1 191/2/1
f 196/3/1 185/3/1 184/3/1
f 196/2/1 184/2/1 195/2/1
f 197/3/1 185/3/1 196/3/1
f 202/2/1 199/2/1 198/2/1
f 203/2/1 199/2/1 202/2/1
f 204/2/1 201/2/1 200/2/1
f 205/2/1 201/2/1 204/2/1
f 210/2/1 207/2/1 206/2/1
f 211/2/1 207/2/1 210/2/1
f 212/2/1 209/2/1 208/2/1
f 213/2/1 209/2/1 212/2/1
f 219/3/1 215/3/1 214/3/1
f 220/2/1 216/2/1 215/2/1
f 220/3/1 215/3/1 219/3/1
f 221/2/1 216/2/1 220/2/1
f 222/2/1 218/2/1 217/2/1
f 223/2/1 218/2/1 222/2/1
f 229/2/1 225/2/1 224/2/1
f 234/2/1 227/2/1 226/2/1
f 235/2/1 229/2/1 224/2/1
f 235/2/1 230/2/1 229/2/1
f 236/2/1 230/2/1 235/2/1
f 237/2/1 232/2/1 231/2/1
f 238/2/1 232/2/1 237/2/1
f 239/2/1 234/2/1 233/2/1
f 240/3/1 228/3/1 227/3/1
f 240/2/1 234/2/1 239/2/1
f 240/2/1 227/2/1 234/2/1
f 241/3/1 240/3/1 239/3/1
f 242/3/1 228/3/1 240/3/1
f 242/3/1 240/3/1 241/3/1
f 244/2/2 245/2/2 250/2/2
f 250/2/2 245/2/2 251/2/2
f 246/2/2 247/2/2 252/2/2
f 252/2/2 247/2/2 253/2/2
f 248/2/2 249/2/2 254/2/2
f 254/2/2 249/2/2 255/2/2
f 243/3/2 244/3/2 256/3/2
f 244/2/2 250/2/2 257/2/2
f 256/3/2 244/3/2 257/3/2
f 257/2/2 250/2/2 258/2/2
f 255/2/2 249/2/2 259/2/2
f 259/2/2 249/2/2 260/2/2
f 261/2/2 262/2/2 266/2/2
f 266/2/2 262/2/2 267/2/2
f 263/2/2 264/2/2 268/2/2
f 264/3/2 265/3/2 269/3/2
f 268/2/2 264/2/2 269/2/2
f 269/3/2 265/3/2 270/3/2
f 271/2/2 272/2/2 275/2/2
f 275/2/2 272/2/2 276/2/2
f 273/2/2 274/2/2 277/2/2
f 277/2/2 274/2/2 278/2/2
f 279/3/2 280/3/2 284/3/2
f 280/2/2 281/2/2 285/2/2
f 284/3/2 280/3/2 285/3/2
f 285/2/2 281/2/2 286/2/2
f 282/2/2 283/2/2 287/2/2
f 287/2/2 283/2/2 288/2/2
f 289/2/2 290/2/2 294/2/2
f 289/2/2 294/2/2 298/2/2
f 294/2/2 295/2/2 298/2/2
f 298/2/2 295/2/2 299/2/2
f 296/2/2 297/2/2 300/2/2
f 300/2/2 297/2/2 301/2/2
f 291/2/2 292/2/2 302/2/2
f 292/3/2 293/3/2 303/3/2
f 302/2/2 292/2/2 303/2/2
f 303/3/2 293/3/2 304/3/2
f 305/2/2 306/2/2 311/2/2
f 311/2/2 306/2/2 312/2/2
f 307/2/2 308/2/2 313/2/2
f 313/2/2 308/2/2 314/2/2
f 309/2/2 310/2/2 315/2/2
f 315/2/2 310/2/2 316/2/2
f 305/2/2 311/2/2 317/2/2
f 317/2/2 311/2/2 318/2/2
f 316/2/2 310/2/2 319/2/2
f 319/2/2 310/2/2 320/2/2
f 321/3/2 322/3/2 326/3/2
f 322/2/2 323/2/2 327/2/2
f 326/3/2 322/3/2 327/3/2
f 327/2/2 323/2/2 328/2/2
f 324/2/2 325/2/2 329/2/2
f 329/2/2 325/2/2 330/2/2
f 331/2/2 332/2/2 335/2/2
f 335/2/2 332/2/2 336/2/2
f 333/2/2 334/2/2 337/2/2
f 337/2/2 334/2/2 338/2/2
f 339/2/2 340/2/2 344/2/2
f 344/2/2 340/2/2 345/2/2
f 341/2/2 342/2/2 346/2/2
f 342/3/2 343/3/2 347/3/2
f 346/2/2 342/2/2 347/2/2
f 347/3/2 343/3/2 348/3/2
f 349/2/2 350/2/2 353/2/2
f 351/2/2 352/2/2 358/2/2
f 349/2/2 353/2/2 359/2/2
f 353/2/2 354/2/2 359/2/2
f 359/2/2 354/2/2 360/2/2
f 355/2/2 356/2/2 361/2/2
f 361/2/2 356/2/2 362/2/2
f 357/2/2 358/2/2 363/2/2
f 358/2/2 352/2/2 364/2/2
f 363/2/2 358/2/2 364/2/2
f 361/3/2 362/3/2 365/3/2
f 365/3/2 362/3/2 366/3/2
f 367/1/2 368/1/2 372/1/2
f 372/1/2 368/1/2 373/1/2
f 369/1/2 370/1/2 374/1/2
f 374/1/2 370/1/2 375/1/2
f 372/1/2 373/1/2 377/1/2
f 375/1/2 376/1/2 377/1/2
f 374/1/2 375/1/2 377/1/2
f 373/1/2 374/1/2 377/1/2
f 371/1/2 372/1/2 377/1/2
f 377/1/2 376/1/2 378/1/2
f 378/1/2 376/1/2 379/1/2
f 379/1/2 376/1/2 380/1/2
f 380/1/2 376/1/2 381/1/2
f 381/1/2 376/1/2 382/1/2
f 378/1/2 379/1/2 384/1/2
f 384/1/2 379/1/2 385/1/2
f 380/1/2 381/1/2 386/1/2
f 386/1/2 381/1/2 387/1/2
f 384/1/2 385/1/2 389/1/2
f 387/1/2 388/1/2 389/1/2
f 386/1/2 387/1/2 389/1/2
f 385/1/2 386/1/2 389/1/2
f 383/1/2 384/1/2 389/1/2
f 389/1/2 388/1/2 390/1/2
f 390/1/2 388/1/2 391/1/2
f 391/1/2 388/1/2 392/1/2
f 392/1/2 388/1/2 393/1/2
f 393/1/2 388/1/2 394/1/2
f 390/1/2 391/1/2 396/1/2
f 396/1/2 391/1/2 397/1/2
f 392/1/2 393/1/2 398/1/2
f 398/1/2 393/1/2 399/1/2
f 396/1/2 397/1/2 401/1/2
f 399/1/2 400/1/2 401/1/2
f 398/1/2 399/1/2 401/1/2
f 397/1/2 398/1/2 401/1/2
f 395/1/2 396/1/2 401/1/2
f 401/1/2 400/1/2 402/1/2
f 402/1/2 400/1/2 403/1/2
f 403/1/2 400/1/2 404/1/2
f 404/1/2 400/1/2 405/1/2
f 405/1/2 400/1/2 406/1/2
f 402/1/2 403/1/2 408/1/2
f 408/1/2 403/1/2 409/1/2
f 404/1/2 405/1/2 410/1/2
f 410/1/2 405/1/2 411/1/2
f 408/1/2 409/1/2 413/1/2
f 411/1/2 412/1/2 413/1/2
f 410/1/2 411/1/2 413/1/2
f 409/1/2 410/1/2 413/1/2
f 407/1/2 408/1/2 413/1/2
f 413/1/2 412/1/2 414/1/2
f 414/1/2 412/1/2 415/1/2
f 415/1/2 412/1/2 416/1/2
f 416/1/2 412/1/2 417/1/2
f 417/1/2 412/1/2 418/1/2
f 414/1/2 415/1/2 419/1/2
f 419/1/2 415/1/2 420/1/2
f 416/1/2 417/1/2 421/1/2
f 421/1/2 417/1/2 422/1/2
f 423/2/2 424/2/2 428/2/2
f 428/2/2 424/2/2 429/2/2
f 425/2/2 426/2/2 430/2/2
f 426/3/2 427/3/2 431/3/2
f 430/2/2 426/2/2 431/2/2
f 431/3/2 427/3/2 432/3/2
f 433/2/2 434/2/2 437/2/2
f 437/2/2 434/2/2 438/2/2
f 435/2/2 436/2/2 439/2/2
f 439/2/2 436/2/2 440/2/2
f 441/2/2 442/2/2 447/2/2
f 447/2/2 442/2/2 448/2/2
f 443/2/2 444/2/2 449/2/2
f 449/2/2 444/2/2 450/2/2
f 445/2/2 446/2/2 451/2/2
f 451/2/2 446/2/2 452/2/2
f 453/2/2 454/2/2 457/2/2
f 457/2/2 454/2/2 458/2/2
f 455/2/2 456/2/2 459/2/2
f 459/2/2 456/2/2 460/2/2
f 461/2/2 462/2/2 465/2/2
f 465/2/2 462/2/2 466/2/2
f 463/2/2 464/2/2 467/2/2
f 467/2/2 464/2/2 468/2/2
f 469/3/2 470/3/2 471/3/2
f 471/3/2 470/3/2 472/3/2
f 473/3/2 474/3/2 475/3/2
f 475/3/2 474/3/2 476/3/2
f 477/3/2 478/3/2 479/3/2
f 479/3/2 478/3/2 480/3/2
f 481/3/2 482/3/2 483/3/2
f 483/3/2 482/3/2 484/3/2
f 489/3/3 486/3/3 485/3/3
f 490/3/3 486/3/3 489/3/3
f 491/3/3 488/3/3 487/3/3
f 492/3/3 488/3/3 491/3/3
f 495/3/3 494/3/3 493/3/3
f 496/3/3 494/3/3 495/3/3
f 501/3/3 498/3/3 497/3/3
f 502/3/3 498/3/3 501/3/3
f 503/3/3 500/3/3 499/3/3
f 504/3/3 500/3/3 503/3/3
f 511/2/3 506/2/3 505/2/3
f 512/2/3 506/2/3 511/2/3
f 513/2/3 508/2/3 507/2/3
f 514/2/3 508/2/3 513/2/3
f 515/2/3 510/2/3 509/2/3
f 516/2/3 510/2/3 515/2/3
f 525/2/3 518/2/3 517/2/3
f 526/2/3 518/2/3 525/2/3
f 527/2/3 520/2/3 519/2/3
f 528/2/3 520/2/3 527/2/3
f 529/2/3 522/2/3 521/2/3
f 530/2/3 522/2/3 529/2/3
f 531/2/3 524/2/3 523/2/3
f 532/2/3 524/2/3 531/2/3
f 539/2/3 534/2/3 533/2/3
f 540/2/3 534/2/3 539/2/3
f 541/2/3 536/2/3 535/2/3
f 542/2/3 536/2/3 541/2/3
f 543/2/3 538/2/3 537/2/3
f 544/2/3 538/2/3 543/2/3
f 554/1/3 546/1/3 545/1/3
f 555/1/3 546/1/3 554/1/3
f 556/1/3 548/1/3 547/1/3
f 557/1/3 548/1/3 556/1/3
f 558/1/3 550/1/3 549/1/3
f 559/1/3 550/1/3 558/1/3
f 560/1/3 552/1/3 551/1/3
f 561/1/3 552/1/3 560/1/3
f 563/1/3 559/1/3 558/1/3
f 563/1/3 562/1/3 561/1/3
f 563/1/3 561/1/3 560/1/3
f 563/1/3 560/1/3 559/1/3
f 563/1/3 555/1/3 554/1/3
f 563/1/3 558/1/3 557/1/3
f 563/1/3 557/1/3 556/1/3
f 563/1/3 556/1/3 555/1/3
f 563/1/3 554/1/3 553/1/3
f 564/1/3 562/1/3 563/1/3
f 565/1/3 562/1/3 564/1/3
f 566/1/3 562/1/3 565/1/3
f 567/1/3 562/1/3 566/1/3
f 568/1/3 562/1/3 567/1/3
f 569/1/3 562/1/3 568/1/3
f 570/1/3 562/1/3 569/1/3
f 571/1/3 562/1/3 570/1/3
f 572/1/3 562/1/3 571/1/3
f 574/1/3 565/1/3 564/1/3
f 575/1/3 565/1/3 574/1/3
f 576/1/3 567/1/3 566/1/3
f 577/1/3 567/1/3 576/1/3
f 578/1/3 569/1/3 568/1/3
f 579/1/3 569/1/3 578/1/3
f 580/1/3 571/1/3 570/1/3
f 581/1/3 571/1/3 580/1/3
f 583/1/3 577/1/3 576/1/3
f 583/1/3 582/1/3 581/1/3
f 583/1/3 581/1/3 580/1/3
f 583/1/3 580/1/3 579/1/3
f 583/1/3 579/1/3 578/1/3
f 583/1/3 578/1/3 577/1/3
f 583/1/3 575/1/3 574/1/3
f 583/1/3 576/1/3 575/1/3
f 583/1/3 574/1/3 573/1/3
f 584/1/3 582/1/3 583/1/3
f 585/1/3 582/1/3 584/1/3
f 586/1/3 582/1/3 585/1/3
f 587/1/3 582/1/3 586/1/3
f 588/1/3 582/1/3 587/1/3
f 589/1/3 582/1/3 588/1/3
f 590/1/3 582/1/3 589/1/3
f 591/1/3 582/1/3 590/1/3
f 592/1/3 582/1/3 591/1/3
f 593/1/3 585/1/3 584/1/3
f 594/1/3 585/1/3 593/1/3
f 595/1/3 587/1/3 586/1/3
f 596/1/3 587/1/3 595/1/3
f 597/1/3 589/1/3 588/1/3
f 598/1/3 589/1/3 597/1/3
f 599/1/3 591/1/3 590/1/3
f 600/1/3 591/1/3 599/1/3
f 611/2/3 602/2/3 601/2/3
f 612/2/3 602/2/3 611/2/3
f 613/2/3 604/2/3 603/2/3
f 614/2/3 604/2/3 613/2/3
f 615/2/3 606/2/3 605/2/3
f 616/2/3 606/2/3 615/2/3
f 617/2/3 608/2/3 607/2/3
f 618/2/3 608/2/3 617/2/3
f 619/2/3 610/2/3 609/2/3
f 620/2/3 610/2/3 619/2/3
f 621/2/3 611/2/3 601/2/3
f 622/2/3 611/2/3 621/2/3
f 623/2/3 610/2/3 620/2/3
f 624/2/3 610/2/3 623/2/3
f 630/2/3 626/2/3 625/2/3
f 631/2/3 626/2/3 630/2/3
f 632/2/3 628/2/3 627/2/3
f 633/3/3 629/3/3 628/3/3
f 633/2/3 628/2/3 632/2/3
f 634/3/3 629/3/3 633/3/3
f 639/2/3 636/2/3 635/2/3
f 648/2/3 638/2/3 637/2/3
f 649/2/3 639/2/3 635/2/3
f 649/2/3 640/2/3 639/2/3
f 650/2/3 640/2/3 649/2/3
f 651/2/3 642/2/3 641/2/3
f 652/2/3 642/2/3 651/2/3
f 653/2/3 644/2/3 643/2/3
f 654/2/3 644/2/3 653/2/3
f 655/2/3 646/2/3 645/2/3
f 656/2/3 646/2/3 655/2/3
f 657/2/3 648/2/3 647/2/3
f 658/2/3 638/2/3 648/2/3
f 658/2/3 648/2/3 657/2/3
f 659/3/3 652/3/3 651/3/3
f 660/3/3 652/3/3 659/3/3
f 663/1/3 662/1/3 661/1/3
f 664/1/3 662/1/3 663/1/3
f 671/3/3 666/3/3 665/3/3
f 672/3/3 666/3/3 671/3/3
f 677/3/3 668/3/3 667/3/3
f 678/3/3 668/3/3 677/3/3
f 679/2/3 670/2/3 669/2/3
f 680/2/3 670/2/3 679/2/3
f 681/2/3 672/2/3 671/2/3
f 682/2/3 672/2/3 681/2/3
f 683/2/3 674/2/3 673/2/3
f 684/2/3 674/2/3 683/2/3
f 685/2/3 676/2/3 675/2/3
f 686/2/3 676/2/3 685/2/3
f 687/2/3 678/2/3 677/2/3
f 688/2/3 678/2/3 687/2/3
f 689/2/3 679/2/3 669/2/3
f 690/2/3 679/2/3 689/2/3
f 691/2/3 678/2/3 688/2/3
f 692/2/3 678/2/3 691/2/3
f 695/1/3 692/1/3 691/1/3
f 696/1/3 692/1/3 695/1/3
f 697/2/3 694/2/3 693/2/3
f 698/2/3 694/2/3 697/2/3
f 699/2/3 696/2/3 695/2/3
f 700/2/3 696/2/3 699/2/3
f 706/2/3 702/2/3 701/2/3
f 715/2/3 704/2/3 703/2/3
f 716/2/3 706/2/3 701/2/3
f 716/2/3 707/2/3 706/2/3
f 717/2/3 707/2/3 716/2/3
f 718/2/3 709/2/3 708/2/3
f 719/2/3 709/2/3 718/2/3
f 720/2/3 711/2/3 710/2/3
f 721/2/3 711/2/3 720/2/3
f 722/2/3 713/2/3 712/2/3
f 723/2/3 713/2/3 722/2/3
f 724/2/3 715/2/3 714/2/3
f 725/3/3 705/3/3 704/3/3
f 725/2/3 715/2/3 724/2/3
f 725/2/3 704/2/3 715/2/3
f 726/3/3 725/3/3 724/3/3
f 727/3/3 705/3/3 725/3/3
f 727/3/3 725/3/3 726/3/3
f 728/3/4 729/3/4 732/3/4
f 732/3/4 729/3/4 733/3/4
f 730/3/4 731/3/4 738/3/4
f 738/3/4 731/3/4 739/3/4
f 732/2/4 733/2/4 742/2/4
f 742/2/4 733/2/4 743/2/4
f 734/2/4 735/2/4 744/2/4
f 744/2/4 735/2/4 745/2/4
f 736/2/4 737/2/4 746/2/4
f 746/2/4 737/2/4 747/2/4
f 738/2/4 739/2/4 748/2/4
f 748/2/4 739/2/4 749/2/4
f 740/2/4 741/2/4 750/2/4
f 750/2/4 741/2/4 751/2/4
f 732/2/4 742/2/4 752/2/4
f 752/2/4 742/2/4 753/2/4
f 751/2/4 741/2/4 754/2/4
f 754/2/4 741/2/4 755/2/4
f 756/2/4 757/2/4 760/2/4
f 760/2/4 757/2/4 761/2/4
f 758/2/4 759/2/4 762/2/4
f 762/2/4 759/2/4 763/2/4
f 764/2/4 765/2/4 768/2/4
f 766/2/4 767/2/4 777/2/4
f 764/2/4 768/2/4 778/2/4
f 768/2/4 769/2/4 778/2/4
f 778/2/4 769/2/4 779/2/4
f 770/2/4 771/2/4 780/2/4
f 780/2/4 771/2/4 781/2/4
f 772/2/4 773/2/4 782/2/4
f 782/2/4 773/2/4 783/2/4
f 774/2/4 775/2/4 784/2/4
f 784/2/4 775/2/4 785/2/4
f 776/2/4 777/2/4 786/2/4
f 777/2/4 767/2/4 787/2/4
f 786/2/4 777/2/4 787/2/4
f 778/3/4 779/3/4 788/3/4
f 788/3/4 779/3/4 789/3/4
f 784/3/4 785/3/4 790/3/4
f 790/3/4 785/3/4 791/3/4
f 792/2/4 793/2/4 802/2/4
f 802/2/4 793/2/4 803/2/4
f 794/2/4 795/2/4 804/2/4
f 804/2/4 795/2/4 805/2/4
f 796/2/4 797/2/4 806/2/4
f 806/2/4 797/2/4 807/2/4
f 798/2/4 799/2/4 808/2/4
f 808/2/4 799/2/4 809/2/4
f 800/2/4 801/2/4 810/2/4
f 810/2/4 801/2/4 811/2/4
f 792/2/4 802/2/4 812/2/4
f 812/2/4 802/2/4 813/2/4
f 811/2/4 801/2/4 814/2/4
f 814/2/4 801/2/4 815/2/4
f 814/1/4 815/1/4 818/1/4
f 818/1/4 815/1/4 819/1/4
f 816/2/4 817/2/4 821/2/4
f 821/2/4 817/2/4 822/2/4
f 818/2/4 819/2/4 823/2/4
f 819/3/4 820/3/4 824/3/4
f 823/2/4 819/2/4 824/2/4
f 824/3/4 820/3/4 825/3/4
f 826/2/4 827/2/4 830/2/4
f 828/2/4 829/2/4 839/2/4
f 826/2/4 830/2/4 840/2/4
f 830/2/4 831/2/4 840/2/4
f 840/2/4 831/2/4 841/2/4
f 832/2/4 833/2/4 842/2/4
f 842/2/4 833/2/4 843/2/4
f 834/2/4 835/2/4 844/2/4
f 844/2/4 835/2/4 845/2/4
f 836/2/4 837/2/4 846/2/4
f 846/2/4 837/2/4 847/2/4
f 838/2/4 839/2/4 848/2/4
f 839/2/4 829/2/4 849/2/4
f 848/2/4 839/2/4 849/2/4
f 842/3/4 843/3/4 850/3/4
f 850/3/4 843/3/4 851/3/4
f 852/1/4 853/1/4 861/1/4
f 861/1/4 853/1/4 862/1/4
f 854/1/4 855/1/4 863/1/4
f 863/1/4 855/1/4 864/1/4
f 856/1/4 857/1/4 865/1/4
f 865/1/4 857/1/4 866/1/4
f 858/1/4 859/1/4 867/1/4
f 867/1/4 859/1/4 868/1/4
f 865/1/4 866/1/4 870/1/4
f 868/1/4 869/1/4 870/1/4
f 867/1/4 868/1/4 870/1/4
f 866/1/4 867/1/4 870/1/4
f 861/1/4 862/1/4 870/1/4
f 864/1/4 865/1/4 870/1/4
f 863/1/4 864/1/4 870/1/4
f 862/1/4 863/1/4 870/1/4
f 860/1/4 861/1/4 870/1/4
f 870/1/4 869/1/4 871/1/4
f 871/1/4 869/1/4 872/1/4
f 872/1/4 869/1/4 873/1/4
f 873/1/4 869/1/4 874/1/4
f 874/1/4 869/1/4 875/1/4
f 875/1/4 869/1/4 876/1/4
f 876/1/4 869/1/4 877/1/4
f 877/1/4 869/1/4 878/1/4
f 878/1/4 869/1/4 879/1/4
f 871/1/4 872/1/4 881/1/4
f 881/1/4 872/1/4 882/1/4
f 873/1/4 874/1/4 883/1/4
f 883/1/4 874/1/4 884/1/4
f 875/1/4 876/1/4 885/1/4
f 885/1/4 876/1/4 886/1/4
f 877/1/4 878/1/4 887/1/4
f 887/1/4 878/1/4 888/1/4
f 883/1/4 884/1/4 890/1/4
f 888/1/4 889/1/4 890/1/4
f 887/1/4 888/1/4 890/1/4
f 886/1/4 887/1/4 890/1/4
f 885/1/4 886/1/4 890/1/4
f 884/1/4 885/1/4 890/1/4
f 881/1/4 882/1/4 890/1/4
f 882/1/4 883/1/4 890/1/4
f 880/1/4 881/1/4 890/1/4
f 890/1/4 889/1/4 891/1/4
f 891/1/4 889/1/4 892/1/4
f 892/1/4 889/1/4 893/1/4
f 893/1/4 889/1/4 894/1/4
f 894/1/4 889/1/4 895/1/4
f 895/1/4 889/1/4 896/1/4
f 896/1/4 889/1/4 897/1/4
f 897/1/4 889/1/4 898/1/4
f 898/1/4 889/1/4 899/1/4
f 891/1/4 892/1/4 900/1/4
f 900/1/4 892/1/4 901/1/4
f 893/1/4 894/1/4 902/1/4
f 902/1/4 894/1/4 903/1/4
f 895/1/4 896/1/4 904/1/4
f 904/1/4 896/1/4 905/1/4
f 897/1/4 898/1/4 906/1/4
f 906/1/4 898/1/4 907/1/4
f 908/2/4 909/2/4 914/2/4
f 914/2/4 909/2/4 915/2/4
f 910/2/4 911/2/4 916/2/4
f 916/2/4 911/2/4 917/2/4
f 912/2/4 913/2/4 918/2/4
f 918/2/4 913/2/4 919/2/4
f 920/2/4 921/2/4 928/2/4
f 928/2/4 921/2/4 929/2/4
f 922/2/4 923/2/4 930/2/4
f 930/2/4 923/2/4 931/2/4
f 924/2/4 925/2/4 932/2/4
f 932/2/4 925/2/4 933/2/4
f 926/2/4 927/2/4 934/2/4
f 934/2/4 927/2/4 935/2/4
f 936/2/4 937/2/4 942/2/4
f 942/2/4 937/2/4 943/2/4
f 938/2/4 939/2/4 944/2/4
f 944/2/4 939/2/4 945/2/4
f 940/2/4 941/2/4 946/2/4
f 946/2/4 941/2/4 947/2/4
f 948/3/4 949/3/4 952/3/4
f 952/3/4 949/3/4 953/3/4
f 950/3/4 951/3/4 954/3/4
f 954/3/4 951/3/4 955/3/4
f 956/3/4 957/3/4 958/3/4
f 958/3/4 957/3/4 959/3/4
f 960/3/4 961/3/4 964/3/4
f 964/3/4 961/3/4 965/3/4
f 962/3/4 963/3/4 966/3/4
f 966/3/4 963/3/4 967/3/4
f 972/3/5 969/3/5 968/3/5
f 973/3/5 969/3/5 972/3/5
f 976/3/5 971/3/5 970/3/5
f 977/3/5 971/3/5 976/3/5
f 978/3/5 972/3/5 968/3/5
f 979/2/5 973/2/5 972/2/5
f 979/3/5 972/3/5 978/3/5
f 980/2/5 973/2/5 979/2/5
f 981/2/5 975/2/5 974/2/5
f 982/2/5 975/2/5 981/2/5
f 983/2/5 977/2/5 976/2/5
f 984/3/5 971/3/5 977/3/5
f 984/2/5 977/2/5 983/2/5
f 985/3/5 971/3/5 984/3/5
f 992/2/5 987/2/5 986/2/5
f 993/2/5 987/2/5 992/2/5
f 994/2/5 989/2/5 988/2/5
f 995/2/5 989/2/5 994/2/5
f 996/2/5 991/2/5 990/2/5
f 997/2/5 991/2/5 996/2/5
f 1004/2/5 999/2/5 998/2/5
f 1005/2/5 999/2/5 1004/2/5
f 1006/2/5 1001/2/5 1000/2/5
f 1007/2/5 1001/2/5 1006/2/5
f 1008/2/5 1003/2/5 1002/2/5
f 1009/2/5 1003/2/5 1008/2/5
f 1010/3/5 1009/3/5 1008/3/5
f 1011/3/5 1009/3/5 1010/3/5
f 1017/1/5 1013/1/5 1012/1/5
f 1018/1/5 1013/1/5 1017/1/5
f 1019/1/5 1015/1/5 1014/1/5
f 1020/1/5 1015/1/5 1019/1/5
f 1022/1/5 1018/1/5 1017/1/5
f 1022/1/5 1021/1/5 1020/1/5
f 1022/1/5 1020/1/5 1019/1/5
f 1022/1/5 1019/1/5 1018/1/5
f 1022/1/5 1017/1/5 1016/1/5
f 1023/1/5 1021/1/5 1022/1/5
f 1024/1/5 1021/1/5 1023/1/5
f 1025/1/5 1021/1/5 1024/1/5
f 1026/1/5 1021/1/5 1025/1/5
f 1027/1/5 1021/1/5 1026/1/5
f 1029/1/5 1024/1/5 1023/1/5
f 1030/1/5 1024/1/5 1029/1/5
f 1031/1/5 1026/1/5 1025/1/5
f 1032/1/5 1026/1/5 1031/1/5
f 1034/1/5 1030/1/5 1029/1/5
f 1034/1/5 1033/1/5 1032/1/5
f 1034/1/5 1032/1/5 1031/1/5
f 1034/1/5 1031/1/5 1030/1/5
f 1034/1/5 1029/1/5 1028/1/5
f 1035/1/5 1033/1/5 1034/1/5
f 1036/1/5 1033/1/5 1035/1/5
f 1037/1/5 1033/1/5 1036/1/5
f 1038/1/5 1033/1/5 1037/1/5
f 1039/1/5 1033/1/5 1038/1/5
f 1040/1/5 1036/1/5 1035/1/5
f 1041/1/5 1036/1/5 1040/1/5
f 1042/1/5 1038/1/5 1037/1/5
f 1043/1/5 1038/1/5 1042/1/5
f 1048/3/5 1045/3/5 1044/3/5
f 1049/3/5 1045/3/5 1048/3/5
f 1052/2/5 1047/2/5 1046/2/5
f 1053/2/5 1047/2/5 1052/2/5
f 1054/2/5 1049/2/5 1048/2/5
f 1055/2/5 1049/2/5 1054/2/5
f 1056/2/5 1051/2/5 1050/2/5
f 1057/2/5 1051/2/5 1056/2/5
f 1058/2/5 1052/2/5 1046/2/5
f 1059/2/5 1052/2/5 1058/2/5
f 1060/2/5 1051/2/5 1057/2/5
f 1061/2/5 1051/2/5 1060/2/5
f 1067/2/5 1063/2/5 1062/2/5
f 1068/2/5 1063/2/5 1067/2/5
f 1069/2/5 1065/2/5 1064/2/5
f 1070/3/5 1066/3/5 1065/3/5
f 1070/2/5 1065/2/5 1069/2/5
f 1071/3/5 1066/3/5 1070/3/5
f 1077/2/5 1074/2/5 1073/2/5
f 1082/2/5 1076/2/5 1075/2/5
f 1083/3/5 1073/3/5 1072/3/5
f 1083/2/5 1077/2/5 1073/2/5
f 1083/2/5 1078/2/5 1077/2/5
f 1084/2/5 1078/2/5 1083/2/5
f 1085/2/5 1080/2/5 1079/2/5
f 1086/2/5 1080/2/5 1085/2/5
f 1087/2/5 1082/2/5 1081/2/5
f 1088/2/5 1076/2/5 1082/2/5
f 1088/2/5 1082/2/5 1087/2/5
f 1089/3/5 1084/3/5 1083/3/5
f 1089/3/5 1083/3/5 1072/3/5
f 1090/3/5 1084/3/5 1089/3/5
f 1097/2/5 1092/2/5 1091/2/5
f 1098/2/5 1092/2/5 1097/2/5
f 1099/2/5 1094/2/5 1093/2/5
f 1100/2/5 1094/2/5 1099/2/5
f 1101/2/5 1096/2/5 1095/2/5
f 1102/2/5 1096/2/5 1101/2/5
f 1103/2/5 1097/2/5 1091/2/5
f 1104/2/5 1097/2/5 1103/2/5
f 1105/2/5 1096/2/5 1102/2/5
f 1106/2/5 1096/2/5 1105/2/5
f 1111/2/5 1108/2/5 1107/2/5
f 1112/2/5 1108/2/5 1111/2/5
f 1113/2/5 1110/2/5 1109/2/5
f 1114/2/5 1110/2/5 1113/2/5
f 1119/2/5 1116/2/5 1115/2/5
f 1124/2/5 1118/2/5 1117/2/5
f 1125/2/5 1119/2/5 1115/2/5
f 1125/2/5 1120/2/5 1119/2/5
f 1126/2/5 1120/2/5 1125/2/5
f 1127/2/5 1122/2/5 1121/2/5
f 1128/2/5 1122/2/5 1127/2/5
f 1129/2/5 1124/2/5 1123/2/5
f 1130/2/5 1118/2/5 1124/2/5
f 1130/2/5 1124/2/5 1129/2/5
f 1135/3/5 1132/3/5 1131/3/5
f 1136/3/5 1132/3/5 1135/3/5
f 1139/3/5 1134/3/5 1133/3/5
f 1140/3/5 1134/3/5 1139/3/5
f 1141/2/5 1136/2/5 1135/2/5
f 1142/2/5 1136/2/5 1141/2/5
f 1143/2/5 1138/2/5 1137/2/5
f 1144/2/5 1138/2/5 1143/2/5
f 1145/2/5 1140/2/5 1139/2/5
f 1146/2/5 1140/2/5 1145/2/5
f 1147/3/5 1135/3/5 1131/3/5
f 1148/2/5 1141/2/5 1135/2/5
f 1148/3/5 1135/3/5 1147/3/5
f 1149/2/5 1141/2/5 1148/2/5
f 1150/2/5 1140/2/5 1146/2/5
f 1151/3/5 1134/3/5 1140/3/5
f 1151/2/5 1140/2/5 1150/2/5
f 1152/3/5 1134/3/5 1151/3/5
f 1157/2/5 1154/2/5 1153/2/5
f 1158/2/5 1154/2/5 1157/2/5
f 1159/2/5 1156/2/5 1155/2/5
f 1160/2/5 1156/2/5 1159/2/5
f 1165/2/5 1162/2/5 1161/2/5
f 1170/2/5 1164/2/5 1163/2/5
f 1171/2/5 1165/2/5 1161/2/5
f 1171/2/5 1166/2/5 1165/2/5
f 1172/2/5 1166/2/5 1171/2/5
f 1173/2/5 1168/2/5 1167/2/5
f 1174/2/5 1168/2/5 1173/2/5
f 1175/2/5 1170/2/5 1169/2/5
f 1176/2/5 1164/2/5 1170/2/5
f 1176/2/5 1170/2/5 1175/2/5
f 1177/3/5 1174/3/5 1173/3/5
f 1178/3/5 1174/3/5 1177/3/5
f 1185/2/5 1180/2/5 1179/2/5
f 1186/2/5 1180/2/5 1185/2/5
f 1187/2/5 1182/2/5 1181/2/5
f 1188/2/5 1182/2/5 1187/2/5
f 1189/2/5 1184/2/5 1183/2/5
f 1190/2/5 1184/2/5 1189/2/5
f 1191/2/5 1185/2/5 1179/2/5
f 1192/2/5 1185/2/5 1191/2/5
f 1193/2/5 1184/2/5 1190/2/5
f 1194/2/5 1184/2/5 1193/2/5
f 1199/2/5 1196/2/5 1195/2/5
f 1200/2/5 1196/2/5 1199/2/5
f 1201/2/5 1198/2/5 1197/2/5
f 1202/2/5 1198/2/5 1201/2/5
f 1209/2/5 1205/2/5 1204/2/5
f 1214/2/5 1207/2/5 1206/2/5
f 1215/3/5 1204/3/5 1203/3/5
f 1215/2/5 1209/2/5 1204/2/5
f 1215/2/5 1210/2/5 1209/2/5
f 1216/2/5 1210/2/5 1215/2/5
f 1217/2/5 1212/2/5 1211/2/5
f 1218/2/5 1212/2/5 1217/2/5
f 1219/2/5 1214/2/5 1213/2/5
f 1220/3/5 1208/3/5 1207/3/5
f 1220/2/5 1214/2/5 1219/2/5
f 1220/2/5 1207/2/5 1214/2/5
f 1221/3/5 1216/3/5 1215/3/5
f 1221/3/5 1215/3/5 1203/3/5
f 1222/3/5 1216/3/5 1221/3/5
f 1223/3/5 1220/3/5 1219/3/5
f 1224/3/5 1208/3/5 1220/3/5
f 1224/3/5 1220/3/5 1223/3/5
f 1225/3/6 1226/3/6 1229/3/6
f 1229/3/6 1226/3/6 1230/3/6
f 1227/3/6 1228/3/6 1233/3/6
f 1233/3/6 1228/3/6 1234/3/6
f 1229/2/6 1230/2/6 1235/2/6
f 1235/2/6 1230/2/6 1236/2/6
f 1231/2/6 1232/2/6 1237/2/6
f 1237/2/6 1232/2/6 1238/2/6
f 1233/2/6 1234/2/6 1239/2/6
f 1239/2/6 1234/2/6 1240/2/6
f 1225/3/6 1229/3/6 1241/3/6
f 1229/2/6 1235/2/6 1242/2/6
f 1241/3/6 1229/3/6 1242/3/6
f 1242/2/6 1235/2/6 1243/2/6
f 1240/2/6 1234/2/6 1244/2/6
f 1234/3/6 1228/3/6 1245/3/6
f 1244/2/6 1234/2/6 1245/2/6
f 1245/3/6 1228/3/6 1246/3/6
f 1247/2/6 1248/2/6 1251/2/6
f 1251/2/6 1248/2/6 1252/2/6
f 1249/2/6 1250/2/6 1253/2/6
f 1253/2/6 1250/2/6 1254/2/6
f 1255/2/6 1256/2/6 1259/2/6
f 1257/2/6 1258/2/6 1264/2/6
f 1255/2/6 1259/2/6 1265/2/6
f 1259/2/6 1260/2/6 1265/2/6
f 1265/2/6 1260/2/6 1266/2/6
f 1261/2/6 1262/2/6 1267/2/6
f 1267/2/6 1262/2/6 1268/2/6
f 1263/2/6 1264/2/6 1269/2/6
f 1264/2/6 1258/2/6 1270/2/6
f 1269/2/6 1264/2/6 1270/2/6
f 1269/3/6 1270/3/6 1271/3/6
f 1271/3/6 1270/3/6 1272/3/6
f 1273/3/6 1274/3/6 1277/3/6
f 1277/3/6 1274/3/6 1278/3/6
f 1275/2/6 1276/2/6 1281/2/6
f 1281/2/6 1276/2/6 1282/2/6
f 1277/2/6 1278/2/6 1283/2/6
f 1283/2/6 1278/2/6 1284/2/6
f 1279/2/6 1280/2/6 1285/2/6
f 1285/2/6 1280/2/6 1286/2/6
f 1275/2/6 1281/2/6 1287/2/6
f 1287/2/6 1281/2/6 1288/2/6
f 1286/2/6 1280/2/6 1289/2/6
f 1289/2/6 1280/2/6 1290/2/6
f 1291/2/6 1292/2/6 1296/2/6
f 1296/2/6 1292/2/6 1297/2/6
f 1293/2/6 1294/2/6 1298/2/6
f 1294/3/6 1295/3/6 1299/3/6
f 1298/2/6 1294/2/6 1299/2/6
f 1299/3/6 1295/3/6 1300/3/6
f 1302/2/6 1303/2/6 1306/2/6
f 1304/2/6 1305/2/6 1311/2/6
f 1301/3/6 1302/3/6 1312/3/6
f 1302/2/6 1306/2/6 1312/2/6
f 1306/2/6 1307/2/6 1312/2/6
f 1312/2/6 1307/2/6 1313/2/6
f 1308/2/6 1309/2/6 1314/2/6
f 1314/2/6 1309/2/6 1315/2/6
f 1310/2/6 1311/2/6 1316/2/6
f 1311/2/6 1305/2/6 1317/2/6
f 1316/2/6 1311/2/6 1317/2/6
f 1312/3/6 1313/3/6 1318/3/6
f 1301/3/6 1312/3/6 1318/3/6
f 1318/3/6 1313/3/6 1319/3/6
f 1320/2/6 1321/2/6 1326/2/6
f 1326/2/6 1321/2/6 1327/2/6
f 1322/2/6 1323/2/6 1328/2/6
f 1328/2/6 1323/2/6 1329/2/6
f 1324/2/6 1325/2/6 1330/2/6
f 1330/2/6 1325/2/6 1331/2/6
f 1320/2/6 1326/2/6 1332/2/6
f 1332/2/6 1326/2/6 1333/2/6
f 1331/2/6 1325/2/6 1334/2/6
f 1334/2/6 1325/2/6 1335/2/6
f 1336/2/6 1337/2/6 1340/2/6
f 1340/2/6 1337/2/6 1341/2/6
f 1338/2/6 1339/2/6 1342/2/6
f 1342/2/6 1339/2/6 1343/2/6
f 1344/2/6 1345/2/6 1348/2/6
f 1346/2/6 1347/2/6 1353/2/6
f 1344/2/6 1348/2/6 1354/2/6
f 1348/2/6 1349/2/6 1354/2/6
f 1354/2/6 1349/2/6 1355/2/6
f 1350/2/6 1351/2/6 1356/2/6
f 1356/2/6 1351/2/6 1357/2/6
f 1352/2/6 1353/2/6 1358/2/6
f 1353/2/6 1347/2/6 1359/2/6
f 1358/2/6 1353/2/6 1359/2/6
f 1360/3/6 1361/3/6 1364/3/6
f 1364/3/6 1361/3/6 1365/3/6
f 1362/3/6 1363/3/6 1368/3/6
f 1368/3/6 1363/3/6 1369/3/6
f 1364/2/6 1365/2/6 1370/2/6
f 1370/2/6 1365/2/6 1371/2/6
f 1366/2/6 1367/2/6 1372/2/6
f 1372/2/6 1367/2/6 1373/2/6
f 1368/2/6 1369/2/6 1374/2/6
f 1374/2/6 1369/2/6 1375/2/6
f 1360/3/6 1364/3/6 1376/3/6
f 1364/2/6 1370/2/6 1377/2/6
f 1376/3/6 1364/3/6 1377/3/6
f 1377/2/6 1370/2/6 1378/2/6
f 1375/2/6 1369/2/6 1379/2/6
f 1369/3/6 1363/3/6 1380/3/6
f 1379/2/6 1369/2/6 1380/2/6
f 1380/3/6 1363/3/6 1381/3/6
f 1382/2/6 1383/2/6 1386/2/6
f 1386/2/6 1383/2/6 1387/2/6
f 1384/2/6 1385/2/6 1388/2/6
f 1388/2/6 1385/2/6 1389/2/6
f 1390/2/6 1391/2/6 1394/2/6
f 1392/2/6 1393/2/6 1399/2/6
f 1390/2/6 1394/2/6 1400/2/6
f 1394/2/6 1395/2/6 1400/2/6
f 1400/2/6 1395/2/6 1401/2/6
f 1396/2/6 1397/2/6 1402/2/6
f 1402/2/6 1397/2/6 1403/2/6
f 1398/2/6 1399/2/6 1404/2/6
f 1399/2/6 1393/2/6 1405/2/6
f 1404/2/6 1399/2/6 1405/2/6
f 1402/3/6 1403/3/6 1406/3/6
f 1406/3/6 1403/3/6 1407/3/6
f 1408/1/6 1409/1/6 1413/1/6
f 1413/1/6 1409/1/6 1414/1/6
f 1410/1/6 1411/1/6 1415/1/6
f 1415/1/6 1411/1/6 1416/1/6
f 1413/1/6 1414/1/6 1418/1/6
f 1416/1/6 1417/1/6 1418/1/6
f 1415/1/6 1416/1/6 1418/1/6
f 1414/1/6 1415/1/6 1418/1/6
f 1412/1/6 1413/1/6 1418/1/6
f 1418/1/6 1417/1/6 1419/1/6
f 1419/1/6 1417/1/6 1420/1/6
f 1420/1/6 1417/1/6 1421/1/6
f 1421/1/6 1417/1/6 1422/1/6
f 1422/1/6 1417/1/6 1423/1/6
f 1419/1/6 1420/1/6 1424/1/6
f 1424/1/6 1420/1/6 1425/1/6
f 1421/1/6 1422/1/6 1429/1/6
f 1429/1/6 1422/1/6 1430/1/6
f 1427/1/6 1428/1/6 1432/1/6
f 1430/1/6 1431/1/6 1432/1/6
f 1429/1/6 1430/1/6 1432/1/6
f 1428/1/6 1429/1/6 1432/1/6
f 1426/1/6 1427/1/6 1432/1/6
f 1432/1/6 1431/1/6 1433/1/6
f 1433/1/6 1431/1/6 1434/1/6
f 1434/1/6 1431/1/6 1435/1/6
f 1435/1/6 1431/1/6 1436/1/6
f 1436/1/6 1431/1/6 1437/1/6
f 1435/1/6 1436/1/6 1438/1/6
f 1438/1/6 1436/1/6 1439/1/6
f 1440/2/6 1441/2/6 1446/2/6
f 1446/2/6 1441/2/6 1447/2/6
f 1442/2/6 1443/2/6 1448/2/6
f 1448/2/6 1443/2/6 1449/2/6
f 1444/2/6 1445/2/6 1450/2/6
f 1450/2/6 1445/2/6 1451/2/6
f 1452/2/6 1453/2/6 1456/2/6
f 1452/2/6 1456/2/6 1458/2/6
f 1456/1/6 1457/1/6 1459/1/6
f 1458/2/6 1456/2/6 1459/2/6
f 1459/1/6 1457/1/6 1460/1/6
f 1454/2/6 1455/2/6 1461/2/6
f 1461/2/6 1455/2/6 1462/2/6
f 1464/2/6 1465/2/6 1468/2/6
f 1465/1/6 1466/1/6 1468/1/6
f 1466/2/6 1467/2/6 1469/2/6
f 1468/1/6 1466/1/6 1469/1/6
f 1463/3/6 1464/3/6 1470/3/6
f 1464/2/6 1468/2/6 1470/2/6
f 1470/2/6 1468/2/6 1471/2/6
f 1469/2/6 1467/2/6 1472/2/6
f 1472/2/6 1467/2/6 1473/2/6
f 1470/3/6 1471/3/6 1474/3/6
f 1463/3/6 1470/3/6 1474/3/6
f 1474/3/6 1471/3/6 1475/3/6
f 1476/3/6 1477/3/6 1478/3/6
f 1478/3/6 1477/3/6 1479/3/6
f 1480/3/6 1481/3/6 1482/3/6
f 1482/3/6 1481/3/6 1483/3/6
