# MagicaVoxel @ Ephtracy

# group
o 

# material
mtllib NeoSlavery-0.mtl
usemtl palette

# normals
vn -1 0 0
vn 1 0 0
vn 0 0 1
vn 0 0 -1
vn 0 -1 0
vn 0 1 0

# texcoords
vt 0.662109 0.5
vt 0.666016 0.5
vt 0.689453 0.5
vt 0.693359 0.5
vt 0.697266 0.5
vt 0.701172 0.5
vt 0.705078 0.5
vt 0.720703 0.5
vt 0.732422 0.5
vt 0.736328 0.5
vt 0.849609 0.5
vt 0.876953 0.5
vt 0.880859 0.5
vt 0.884766 0.5
vt 0.908203 0.5
vt 0.912109 0.5
vt 0.916016 0.5

# verts
v -2 0 -2.1
v -2 0 -2.2
v -2 0 -2.8
v -2 0 -2.9
v -2 0.8 -2.2
v -2 0.8 -2.8
v -2 1.9 -2.1
v -2 1.9 -2.9
v -1.9 0 -1.5
v -1.9 0 -1.6
v -1.9 0 -1.7
v -1.9 0 -1.8
v -1.9 0.2 -1.5
v -1.9 0.2 -1.6
v -1.9 0.3 -1.5
v -1.9 0.3 -1.7
v -1.9 0.5 -1.5
v -1.9 0.5 -1.8
v -1.8 0.9 -2.4
v -1.8 0.9 -2.6
v -1.8 1 -2.2
v -1.8 1 -2.4
v -1.8 1 -2.6
v -1.8 1 -2.8
v -1.8 1.1 -2.3
v -1.8 1.1 -2.7
v -1.8 1.2 -2.2
v -1.8 1.2 -2.3
v -1.8 1.2 -2.7
v -1.8 1.2 -2.8
v -1.8 1.3 -2.2
v -1.8 1.3 -2.8
v -1.8 1.6 -2.2
v -1.8 1.6 -2.3
v -1.8 1.6 -2.7
v -1.8 1.6 -2.8
v -1.8 1.9 -2.2
v -1.8 1.9 -2.3
v -1.8 1.9 -2.7
v -1.8 1.9 -2.8
v -1.8 2.2 -2.3
v -1.8 2.2 -2.4
v -1.8 2.2 -2.6
v -1.8 2.2 -2.7
v -1.8 2.3 -2.4
v -1.8 2.3 -2.6
v -1.7 0.5 -1.7
v -1.7 0.5 -1.8
v -1.7 0.6 -1.7
v -1.7 0.6 -1.8
v -1.7 0.7 -1.7
v -1.7 0.7 -1.8
v -1.7 0.9 -2.2
v -1.7 0.9 -2.4
v -1.7 0.9 -2.6
v -1.7 0.9 -2.8
v -1.7 1 -2.2
v -1.7 1 -2.4
v -1.7 1 -2.6
v -1.7 1 -2.8
v -1.7 1.9 -2.2
v -1.7 1.9 -2.3
v -1.7 1.9 -2.7
v -1.7 1.9 -2.8
v -1.7 2.1 -2.2
v -1.7 2.1 -2.3
v -1.7 2.1 -2.7
v -1.7 2.1 -2.8
v -1.7 2.2 -2.2
v -1.7 2.2 -2.3
v -1.7 2.2 -2.4
v -1.7 2.2 -2.6
v -1.7 2.2 -2.7
v -1.7 2.2 -2.8
v -1.7 2.3 -2.3
v -1.7 2.3 -2.4
v -1.7 2.3 -2.6
v -1.7 2.3 -2.7
v -1.6 2.3 -2.4
v -1.6 2.3 -2.6
v -1.6 2.4 -2.4
v -1.6 2.4 -2.6
v -1.5 0 -2.1
v -1.5 0 -2.2
v -1.5 0 -2.8
v -1.5 0 -2.9
v -1.5 0.8 -2.1
v -1.5 0.8 -2.2
v -1.5 0.8 -2.8
v -1.5 0.8 -2.9
v -1.5 2 -2
v -1.5 2 -2.2
v -1.5 2 -2.8
v -1.5 2 -3
v -1.5 2.2 -2
v -1.5 2.2 -2.2
v -1.5 2.2 -2.8
v -1.5 2.2 -3
v -1.5 2.4 -2.4
v -1.5 2.4 -2.6
v -1.5 2.5 -2.4
v -1.5 2.5 -2.6
v -1.4 0 -2.2
v -1.4 0 -2.4
v -1.4 0 -2.6
v -1.4 0 -2.8
v -1.4 0.1 -2.2
v -1.4 0.1 -2.4
v -1.4 0.1 -2.6
v -1.4 0.1 -2.8
v -1.4 0.3 -2.2
v -1.4 0.3 -2.4
v -1.4 0.3 -2.6
v -1.4 0.3 -2.8
v -1.4 0.4 -2.2
v -1.4 0.4 -2.4
v -1.4 0.4 -2.6
v -1.4 0.4 -2.8
v -1.4 0.5 -1.7
v -1.4 0.5 -1.8
v -1.4 0.6 -1.7
v -1.4 0.6 -1.8
v -1.4 1.4 -2.4
v -1.4 1.4 -2.6
v -1.4 1.6 -2.4
v -1.4 1.6 -2.6
v -1.4 1.8 -2
v -1.4 1.8 -2.2
v -1.4 1.8 -2.8
v -1.4 1.8 -3
v -1.4 1.9 -2.8
v -1.4 2 -2
v -1.4 2 -2.2
v -1.4 2 -2.8
v -1.4 2 -3
v -1.3 0.4 -2.2
v -1.3 0.4 -2.4
v -1.3 0.4 -2.6
v -1.3 0.4 -2.8
v -1.3 0.7 -2.2
v -1.3 0.7 -2.4
v -1.3 0.7 -2.6
v -1.3 0.7 -2.8
v -1.3 1.7 -2
v -1.3 1.7 -2.2
v -1.3 1.7 -2.8
v -1.3 1.7 -3
v -1.3 1.8 -2
v -1.3 1.8 -2.2
v -1.3 1.8 -2.8
v -1.3 1.8 -3
v -1.3 2.3 -2.4
v -1.3 2.3 -2.6
v -1.3 2.4 -2.3
v -1.3 2.4 -2.4
v -1.3 2.4 -2.6
v -1.3 2.4 -2.7
v -1.3 2.5 -2.4
v -1.3 2.5 -2.6
v -1.3 2.6 -2.3
v -1.3 2.6 -2.7
v -1.2 0.7 -2.2
v -1.2 0.7 -2.4
v -1.2 0.7 -2.6
v -1.2 0.7 -2.8
v -1.2 0.9 -2.2
v -1.2 0.9 -2.4
v -1.2 0.9 -2.6
v -1.2 0.9 -2.8
v -1.2 1.6 -2
v -1.2 1.6 -2.1
v -1.2 1.6 -2.2
v -1.2 1.6 -2.8
v -1.2 1.6 -2.9
v -1.2 1.6 -3
v -1.2 1.7 -2
v -1.2 1.7 -2.1
v -1.2 1.7 -2.2
v -1.2 1.7 -2.8
v -1.2 1.7 -2.9
v -1.2 1.7 -3
v -1.2 2.2 -2.4
v -1.2 2.2 -2.6
v -1.2 2.3 -2.3
v -1.2 2.3 -2.4
v -1.2 2.3 -2.6
v -1.2 2.3 -2.7
v -1.2 2.4 -2.3
v -1.2 2.4 -2.4
v -1.2 2.4 -2.6
v -1.2 2.4 -2.7
v -1.2 2.5 -2.2
v -1.2 2.5 -2.3
v -1.2 2.5 -2.7
v -1.2 2.5 -2.8
v -1.2 2.6 -2.2
v -1.2 2.6 -2.3
v -1.2 2.6 -2.4
v -1.2 2.6 -2.6
v -1.2 2.6 -2.7
v -1.2 2.6 -2.8
v -1.2 2.7 -2.3
v -1.2 2.7 -2.4
v -1.2 2.7 -2.6
v -1.2 2.7 -2.7
v -1.1 1.1 -2.2
v -1.1 1.1 -2.4
v -1.1 1.1 -2.6
v -1.1 1.1 -2.8
v -1.1 1.2 -2.2
v -1.1 1.2 -2.4
v -1.1 1.2 -2.6
v -1.1 1.2 -2.8
v -1.1 2.2 -2.3
v -1.1 2.2 -2.4
v -1.1 2.2 -2.6
v -1.1 2.2 -2.7
v -1.1 2.3 -2.3
v -1.1 2.3 -2.4
v -1.1 2.3 -2.6
v -1.1 2.3 -2.7
v -1.1 2.4 -2.2
v -1.1 2.4 -2.3
v -1.1 2.4 -2.7
v -1.1 2.4 -2.8
v -1.1 2.5 -2.2
v -1.1 2.5 -2.3
v -1.1 2.5 -2.7
v -1.1 2.5 -2.8
v -0.9 0 -1.6
v -0.9 0 -1.7
v -0.9 0 -3.4
v -0.9 0 -3.5
v -0.9 1.5 -1.7
v -0.9 1.5 -3.4
v -0.9 1.6 -1.6
v -0.9 1.6 -2
v -0.9 1.6 -2.2
v -0.9 1.6 -2.8
v -0.9 1.6 -3
v -0.9 1.6 -3.5
v -0.9 2.1 -2.3
v -0.9 2.1 -2.7
v -0.9 2.2 -2.3
v -0.9 2.2 -2.7
v -0.6 1.6 -2
v -0.6 1.6 -2.2
v -0.6 1.6 -2.8
v -0.6 1.6 -3
v -0.6 1.7 -2
v -0.6 1.7 -2.1
v -0.6 1.7 -2.9
v -0.6 1.7 -3
v -0.6 1.8 -2.1
v -0.6 1.8 -2.2
v -0.6 1.8 -2.8
v -0.6 1.8 -2.9
v -0.4 1.6 -1.8
v -0.4 1.6 -2
v -0.4 1.6 -2.2
v -0.4 1.6 -2.8
v -0.4 1.7 -1.8
v -0.4 1.7 -2
v -0.4 1.7 -2.2
v -0.4 1.7 -2.8
v -0.3 1.7 -2.2
v -0.3 1.7 -2.3
v -0.3 1.7 -2.4
v -0.3 1.7 -2.5
v -0.3 1.7 -2.6
v -0.3 1.7 -2.7
v -0.3 1.8 -2.2
v -0.3 1.8 -2.3
v -0.3 1.8 -2.4
v -0.3 1.8 -2.5
v -0.3 1.8 -2.6
v -0.3 1.8 -2.7
v -0.2 1.7 -1.9
v -0.2 1.7 -2
v -0.2 1.7 -2.3
v -0.2 1.7 -2.4
v -0.2 1.7 -2.5
v -0.2 1.7 -2.6
v -0.2 1.7 -2.7
v -0.2 1.7 -2.8
v -0.2 1.8 -1.9
v -0.2 1.8 -2
v -0.2 1.8 -2.3
v -0.2 1.8 -2.4
v -0.2 1.8 -2.5
v -0.2 1.8 -2.6
v -0.2 1.8 -2.7
v -0.2 1.8 -2.8
v 2.38419e-007 2 -2.3
v 2.38419e-007 2 -2.7
v 2.38419e-007 2.5 -2.3
v 2.38419e-007 2.5 -2.7
v 0.1 1.6 -1.7
v 0.1 1.6 -1.8
v 0.1 1.6 -2.2
v 0.1 1.6 -2.6
v 0.1 1.6 -2.7
v 0.1 1.6 -2.8
v 0.1 1.7 -1.7
v 0.1 1.7 -1.8
v 0.1 1.7 -2.6
v 0.1 1.7 -2.7
v 0.1 1.8 -2.2
v 0.1 1.8 -2.8
v 0.1 1.9 -2.2
v 0.1 1.9 -2.8
v 0.1 2 -2.3
v 0.1 2 -2.7
v 0.1 2.5 -2.3
v 0.1 2.5 -2.7
v 0.1 2.6 -2.2
v 0.1 2.6 -2.8
v 0.2 1.8 -2.3
v 0.2 1.8 -2.7
v 0.2 1.9 -2.3
v 0.2 1.9 -2.7
v 0.3 1.6 -1.8
v 0.3 1.6 -1.9
v 0.3 1.6 -3
v 0.3 1.6 -3.4
v 0.3 1.7 -1.8
v 0.3 1.7 -1.9
v 0.3 1.7 -3.1
v 0.3 1.7 -3.3
v 0.3 1.7 -3.4
v 0.3 1.8 -3.1
v 0.3 1.8 -3.3
v 0.3 1.8 -3.4
v 0.3 1.9 -3
v 0.3 1.9 -3.4
v 0.4 1.6 -1.9
v 0.4 1.6 -2.2
v 0.4 1.7 -1.9
v 0.4 1.7 -2.2
v 0.5 0 -1.6
v 0.5 0 -1.7
v 0.5 0 -3.4
v 0.5 0 -3.5
v 0.5 1.5 -1.6
v 0.5 1.5 -1.7
v 0.5 1.5 -3.4
v 0.5 1.5 -3.5
v -1.9 0 -2.1
v -1.9 0 -2.2
v -1.9 0 -2.8
v -1.9 0 -2.9
v -1.9 0.8 -2.1
v -1.9 0.8 -2.2
v -1.9 0.8 -2.8
v -1.9 0.8 -2.9
v -1.9 0.9 -2.1
v -1.9 0.9 -2.9
v -1.9 1.3 -2.2
v -1.9 1.3 -2.8
v -1.9 1.4 -2.2
v -1.9 1.4 -2.8
v -1.9 1.6 -2.2
v -1.9 1.6 -2.3
v -1.9 1.6 -2.7
v -1.9 1.6 -2.8
v -1.9 1.9 -2.1
v -1.9 1.9 -2.3
v -1.9 1.9 -2.7
v -1.9 1.9 -2.9
v -1.6 0.5 -1.7
v -1.6 0.5 -1.8
v -1.6 0.6 -1.7
v -1.6 0.6 -1.8
v -1.6 1.4 -2.2
v -1.6 1.4 -2.3
v -1.6 1.4 -2.7
v -1.6 1.4 -2.8
v -1.6 1.5 -2.2
v -1.6 1.5 -2.3
v -1.6 1.5 -2.7
v -1.6 1.5 -2.8
v -1.6 1.6 -2.2
v -1.6 1.6 -2.3
v -1.6 1.6 -2.7
v -1.6 1.6 -2.8
v -1.5 1.2 -2.2
v -1.5 1.2 -2.3
v -1.5 1.2 -2.7
v -1.5 1.2 -2.8
v -1.5 1.3 -2.2
v -1.5 1.3 -2.3
v -1.5 1.3 -2.7
v -1.5 1.3 -2.8
v -1.5 1.4 -2.2
v -1.5 1.4 -2.3
v -1.5 1.4 -2.7
v -1.5 1.4 -2.8
v -1.5 1.6 -2.2
v -1.5 1.6 -2.3
v -1.5 1.6 -2.7
v -1.5 1.6 -2.8
v -1.5 1.7 -2.2
v -1.5 1.7 -2.3
v -1.5 1.7 -2.7
v -1.5 1.7 -2.8
v -1.4 0 -2.1
v -1.4 0 -2.2
v -1.4 0 -2.8
v -1.4 0 -2.9
v -1.4 0.1 -2.2
v -1.4 0.1 -2.8
v -1.4 0.3 -2.2
v -1.4 0.3 -2.8
v -1.4 0.4 -2.2
v -1.4 0.4 -2.8
v -1.4 0.8 -2.2
v -1.4 0.8 -2.8
v -1.4 0.9 -2.1
v -1.4 0.9 -2.2
v -1.4 0.9 -2.4
v -1.4 0.9 -2.6
v -1.4 0.9 -2.8
v -1.4 0.9 -2.9
v -1.4 1.1 -2.2
v -1.4 1.1 -2.4
v -1.4 1.1 -2.6
v -1.4 1.1 -2.8
v -1.4 1.2 -2.2
v -1.4 1.2 -2.3
v -1.4 1.2 -2.7
v -1.4 1.2 -2.8
v -1.4 1.3 -2.4
v -1.4 1.3 -2.6
v -1.4 1.4 -2.3
v -1.4 1.4 -2.4
v -1.4 1.4 -2.6
v -1.4 1.4 -2.7
v -1.4 1.6 -2.3
v -1.4 1.6 -2.4
v -1.4 1.6 -2.6
v -1.4 1.6 -2.7
v -1.4 1.7 -2.3
v -1.4 1.7 -2.4
v -1.4 1.7 -2.6
v -1.4 1.7 -2.7
v -1.4 2.1 -2.2
v -1.4 2.1 -2.3
v -1.4 2.1 -2.4
v -1.4 2.1 -2.6
v -1.4 2.1 -2.7
v -1.4 2.1 -2.8
v -1.4 2.2 -2.2
v -1.4 2.2 -2.3
v -1.4 2.2 -2.4
v -1.4 2.2 -2.6
v -1.4 2.2 -2.7
v -1.4 2.2 -2.8
v -1.4 2.3 -2.3
v -1.4 2.3 -2.4
v -1.4 2.3 -2.6
v -1.4 2.3 -2.7
v -1.4 2.4 -2.4
v -1.4 2.4 -2.6
v -1.3 0.2 -2.2
v -1.3 0.2 -2.4
v -1.3 0.2 -2.6
v -1.3 0.2 -2.8
v -1.3 0.3 -2.2
v -1.3 0.3 -2.4
v -1.3 0.3 -2.6
v -1.3 0.3 -2.8
v -1.3 0.5 -1.7
v -1.3 0.5 -1.8
v -1.3 0.6 -1.7
v -1.3 0.6 -1.8
v -1.3 0.7 -1.7
v -1.3 0.7 -1.8
v -1.3 1.3 -2.4
v -1.3 1.3 -2.6
v -1.3 1.7 -2.2
v -1.3 1.7 -2.4
v -1.3 1.7 -2.6
v -1.3 1.7 -2.8
v -1.3 2 -2.2
v -1.3 2 -2.3
v -1.3 2 -2.4
v -1.3 2 -2.6
v -1.3 2 -2.7
v -1.3 2 -2.8
v -1.3 2.1 -2
v -1.3 2.1 -2.1
v -1.3 2.1 -2.2
v -1.3 2.1 -2.3
v -1.3 2.1 -2.4
v -1.3 2.1 -2.6
v -1.3 2.1 -2.7
v -1.3 2.1 -2.8
v -1.3 2.1 -2.9
v -1.3 2.1 -3
v -1.3 2.2 -2
v -1.3 2.2 -2.1
v -1.3 2.2 -2.2
v -1.3 2.2 -2.4
v -1.3 2.2 -2.6
v -1.3 2.2 -2.8
v -1.3 2.2 -2.9
v -1.3 2.2 -3
v -1.2 0.1 -2.2
v -1.2 0.1 -2.4
v -1.2 0.1 -2.6
v -1.2 0.1 -2.8
v -1.2 0.2 -2.2
v -1.2 0.2 -2.4
v -1.2 0.2 -2.6
v -1.2 0.2 -2.8
v -1.2 0.3 -2.2
v -1.2 0.3 -2.4
v -1.2 0.3 -2.6
v -1.2 0.3 -2.8
v -1.2 0.4 -2.2
v -1.2 0.4 -2.4
v -1.2 0.4 -2.6
v -1.2 0.4 -2.8
v -1.2 1.9 -2
v -1.2 1.9 -2.2
v -1.2 1.9 -2.8
v -1.2 1.9 -3
v -1.2 2 -2.1
v -1.2 2 -2.2
v -1.2 2 -2.8
v -1.2 2 -2.9
v -1.2 2.1 -2
v -1.2 2.1 -2.1
v -1.2 2.1 -2.2
v -1.2 2.1 -2.8
v -1.2 2.1 -2.9
v -1.2 2.1 -3
v -1.1 0 -1.5
v -1.1 0 -1.6
v -1.1 0 -1.7
v -1.1 0 -1.8
v -1.1 0.2 -1.5
v -1.1 0.2 -1.6
v -1.1 0.3 -1.5
v -1.1 0.3 -1.7
v -1.1 0.4 -2.2
v -1.1 0.4 -2.4
v -1.1 0.4 -2.6
v -1.1 0.4 -2.8
v -1.1 0.5 -1.5
v -1.1 0.5 -1.8
v -1.1 0.5 -2.2
v -1.1 0.5 -2.4
v -1.1 0.5 -2.6
v -1.1 0.5 -2.8
v -1.1 0.7 -2.2
v -1.1 0.7 -2.4
v -1.1 0.7 -2.6
v -1.1 0.7 -2.8
v -1.1 1.8 -2
v -1.1 1.8 -2.2
v -1.1 1.8 -2.8
v -1.1 1.8 -3
v -1.1 1.9 -2
v -1.1 1.9 -2.2
v -1.1 1.9 -2.8
v -1.1 1.9 -3
v -1.1 2.5 -2.2
v -1.1 2.5 -2.3
v -1.1 2.5 -2.7
v -1.1 2.5 -2.8
v -1.1 2.6 -2.2
v -1.1 2.6 -2.3
v -1.1 2.6 -2.7
v -1.1 2.6 -2.8
v -1 0.7 -2.2
v -1 0.7 -2.4
v -1 0.7 -2.6
v -1 0.7 -2.8
v -1 0.8 -2.2
v -1 0.8 -2.4
v -1 0.8 -2.6
v -1 0.8 -2.8
v -1 0.9 -2.2
v -1 0.9 -2.4
v -1 0.9 -2.6
v -1 0.9 -2.8
v -1 1 -2.2
v -1 1 -2.3
v -1 1 -2.4
v -1 1 -2.6
v -1 1 -2.7
v -1 1 -2.8
v -1 1.1 -2.2
v -1 1.1 -2.3
v -1 1.1 -2.4
v -1 1.1 -2.6
v -1 1.1 -2.7
v -1 1.1 -2.8
v -1 1.2 -2.2
v -1 1.2 -2.4
v -1 1.2 -2.6
v -1 1.2 -2.8
v -1 2.4 -2.2
v -1 2.4 -2.3
v -1 2.4 -2.7
v -1 2.4 -2.8
v -1 2.5 -2.2
v -1 2.5 -2.3
v -1 2.5 -2.7
v -1 2.5 -2.8
v -0.9 0.9 -2.2
v -0.9 0.9 -2.4
v -0.9 0.9 -2.6
v -0.9 0.9 -2.8
v -0.9 1 -2.2
v -0.9 1 -2.4
v -0.9 1 -2.6
v -0.9 1 -2.8
v -0.9 2.6 -2.3
v -0.9 2.6 -2.4
v -0.9 2.6 -2.6
v -0.9 2.6 -2.7
v -0.9 2.7 -2.3
v -0.9 2.7 -2.4
v -0.9 2.7 -2.6
v -0.9 2.7 -2.7
v -0.8 0 -1.6
v -0.8 0 -1.7
v -0.8 0 -2.2
v -0.8 0 -2.3
v -0.8 0 -2.4
v -0.8 0 -2.6
v -0.8 0 -2.7
v -0.8 0 -2.8
v -0.8 0 -3.4
v -0.8 0 -3.5
v -0.8 0.1 -2.2
v -0.8 0.1 -2.3
v -0.8 0.1 -2.4
v -0.8 0.1 -2.6
v -0.8 0.1 -2.7
v -0.8 0.1 -2.8
v -0.8 1.5 -1.6
v -0.8 1.5 -1.7
v -0.8 1.5 -3.4
v -0.8 1.5 -3.5
v -0.8 2.1 -2.3
v -0.8 2.1 -2.7
v -0.8 2.2 -2.3
v -0.8 2.2 -2.5
v -0.8 2.2 -2.6
v -0.8 2.2 -2.7
v -0.8 2.5 -2.3
v -0.8 2.5 -2.4
v -0.8 2.5 -2.6
v -0.8 2.5 -2.7
v -0.8 2.6 -2.3
v -0.8 2.6 -2.4
v -0.8 2.6 -2.5
v -0.8 2.6 -2.6
v -0.8 2.6 -2.7
v -0.8 2.7 -2.4
v -0.8 2.7 -2.5
v -0.8 2.7 -2.6
v -0.7 1.6 -2
v -0.7 1.6 -2.2
v -0.7 1.6 -2.8
v -0.7 1.6 -3
v -0.7 1.7 -2
v -0.7 1.7 -2.1
v -0.7 1.7 -2.9
v -0.7 1.7 -3
v -0.7 1.8 -2.1
v -0.7 1.8 -2.2
v -0.7 1.8 -2.8
v -0.7 1.8 -2.9
v -0.7 2.2 -2.3
v -0.7 2.2 -2.5
v -0.7 2.2 -2.6
v -0.7 2.2 -2.7
v -0.7 2.3 -2.4
v -0.7 2.3 -2.5
v -0.7 2.3 -2.6
v -0.7 2.4 -2.3
v -0.7 2.4 -2.4
v -0.7 2.4 -2.5
v -0.7 2.4 -2.6
v -0.7 2.4 -2.7
v -0.7 2.5 -2.3
v -0.7 2.5 -2.4
v -0.7 2.5 -2.5
v -0.7 2.5 -2.6
v -0.7 2.5 -2.7
v -0.7 2.6 -2.4
v -0.7 2.6 -2.5
v -0.7 2.6 -2.6
v -0.5 1.6 -2
v -0.5 1.6 -2.1
v -0.5 1.6 -2.9
v -0.5 1.6 -3
v -0.5 1.7 -2
v -0.5 1.7 -2.1
v -0.5 1.7 -2.9
v -0.5 1.7 -3
v -0.3 1.7 -2
v -0.3 1.7 -2.1
v -0.3 1.7 -2.2
v -0.3 1.7 -2.8
v -0.3 1.7 -2.9
v -0.3 1.7 -3
v -0.3 1.8 -2
v -0.3 1.8 -2.2
v -0.3 1.8 -2.8
v -0.3 1.8 -3
v -0.2 1.7 -2.2
v -0.2 1.7 -2.3
v -0.2 1.7 -2.4
v -0.2 1.7 -2.5
v -0.2 1.7 -2.6
v -0.2 1.7 -2.7
v -0.2 1.8 -2.2
v -0.2 1.8 -2.3
v -0.2 1.8 -2.4
v -0.2 1.8 -2.5
v -0.2 1.8 -2.6
v -0.2 1.8 -2.7
v -0.0999999 1.7 -1.9
v -0.0999999 1.7 -2
v -0.0999999 1.7 -2.3
v -0.0999999 1.7 -2.4
v -0.0999999 1.7 -2.5
v -0.0999999 1.7 -2.6
v -0.0999999 1.7 -2.7
v -0.0999999 1.7 -2.8
v -0.0999999 1.8 -1.9
v -0.0999999 1.8 -2
v -0.0999999 1.8 -2.3
v -0.0999999 1.8 -2.4
v -0.0999999 1.8 -2.5
v -0.0999999 1.8 -2.6
v -0.0999999 1.8 -2.7
v -0.0999999 1.8 -2.8
v 2.38419e-007 1.6 -1.9
v 2.38419e-007 1.6 -2
v 2.38419e-007 1.6 -2.1
v 2.38419e-007 1.6 -2.6
v 2.38419e-007 1.6 -2.7
v 2.38419e-007 1.6 -2.9
v 2.38419e-007 1.7 -1.9
v 2.38419e-007 1.7 -2
v 2.38419e-007 1.7 -2.1
v 2.38419e-007 1.7 -2.6
v 2.38419e-007 1.7 -2.7
v 2.38419e-007 1.7 -2.9
v 0.1 1.6 -1.8
v 0.1 1.6 -1.9
v 0.1 1.7 -1.8
v 0.1 1.7 -1.9
v 0.3 1.6 -1.7
v 0.3 1.6 -1.8
v 0.3 1.7 -1.7
v 0.3 1.7 -1.8
v 0.4 1.6 -1.8
v 0.4 1.6 -1.9
v 0.4 1.7 -1.8
v 0.4 1.7 -1.9
v 0.5 1.6 -1.9
v 0.5 1.6 -2.2
v 0.5 1.6 -3
v 0.5 1.6 -3.4
v 0.5 1.7 -1.9
v 0.5 1.7 -2.2
v 0.5 1.8 -2.3
v 0.5 1.8 -2.7
v 0.5 1.9 -2.3
v 0.5 1.9 -2.7
v 0.5 1.9 -3
v 0.5 1.9 -3.4
v 0.6 0 -1.6
v 0.6 0 -1.7
v 0.6 0 -3.4
v 0.6 0 -3.5
v 0.6 1.5 -1.7
v 0.6 1.5 -3.4
v 0.6 1.6 -1.6
v 0.6 1.6 -2.2
v 0.6 1.6 -2.8
v 0.6 1.6 -3.5
v 0.6 1.8 -2.2
v 0.6 1.8 -2.8
v 0.6 1.9 -2.2
v 0.6 1.9 -2.8
v 0.6 2.6 -2.2
v 0.6 2.6 -2.8
v -1.9 0 -1.5
v -1.9 0.2 -1.5
v -1.9 0.3 -1.5
v -1.9 0.5 -1.5
v -1.7 0.3 -1.5
v -1.7 0.4 -1.5
v -1.7 0.5 -1.5
v -1.6 0.3 -1.5
v -1.6 0.4 -1.5
v -1.6 0.5 -1.5
v -1.4 0.3 -1.5
v -1.4 0.4 -1.5
v -1.4 0.5 -1.5
v -1.3 0.3 -1.5
v -1.3 0.4 -1.5
v -1.3 0.5 -1.5
v -1.1 0 -1.5
v -1.1 0.2 -1.5
v -1.1 0.3 -1.5
v -1.1 0.5 -1.5
v -0.9 0 -1.6
v -0.9 1.6 -1.6
v -0.8 0 -1.6
v -0.8 1.5 -1.6
v 0.5 0 -1.6
v 0.5 1.5 -1.6
v 0.6 0 -1.6
v 0.6 1.6 -1.6
v -1.7 0.5 -1.7
v -1.7 0.6 -1.7
v -1.7 0.7 -1.7
v -1.6 0.5 -1.7
v -1.6 0.6 -1.7
v -1.4 0.5 -1.7
v -1.4 0.6 -1.7
v -1.3 0.5 -1.7
v -1.3 0.6 -1.7
v -1.3 0.7 -1.7
v 0.1 1.6 -1.7
v 0.1 1.7 -1.7
v 0.3 1.6 -1.7
v 0.3 1.7 -1.7
v -0.4 1.6 -1.8
v -0.4 1.7 -1.8
v -0.0999999 1.6 -1.8
v -0.0999999 1.7 -1.8
v 0.1 1.6 -1.8
v 0.1 1.7 -1.8
v 0.3 1.6 -1.8
v 0.3 1.7 -1.8
v 0.4 1.6 -1.8
v 0.4 1.7 -1.8
v -0.2 1.7 -1.9
v -0.2 1.8 -1.9
v -0.0999999 1.7 -1.9
v -0.0999999 1.8 -1.9
v 0.4 1.6 -1.9
v 0.4 1.7 -1.9
v 0.5 1.6 -1.9
v 0.5 1.7 -1.9
v -1.5 2 -2
v -1.5 2.2 -2
v -1.4 1.8 -2
v -1.4 2 -2
v -1.3 1.7 -2
v -1.3 1.8 -2
v -1.3 2.1 -2
v -1.3 2.2 -2
v -1.2 1.6 -2
v -1.2 1.7 -2
v -1.2 1.9 -2
v -1.2 2.1 -2
v -1.1 1.6 -2
v -1.1 1.7 -2
v -1.1 1.8 -2
v -1.1 1.9 -2
v -0.9 1.6 -2
v -0.7 1.6 -2
v -0.7 1.7 -2
v -0.7 1.8 -2
v -0.6 1.6 -2
v -0.6 1.7 -2
v -0.5 1.6 -2
v -0.5 1.7 -2
v -0.5 1.8 -2
v -0.4 1.7 -2
v -0.3 1.7 -2
v -0.3 1.8 -2
v -2 0 -2.1
v -2 1.9 -2.1
v -1.9 0 -2.1
v -1.9 0.8 -2.1
v -1.9 0.9 -2.1
v -1.9 1.9 -2.1
v -1.5 0 -2.1
v -1.5 0.8 -2.1
v -1.4 0 -2.1
v -1.4 0.9 -2.1
v -0.5 1.6 -2.1
v -0.5 1.7 -2.1
v -0.4 1.6 -2.1
v -0.4 1.7 -2.1
v -0.3 1.7 -2.1
v 2.38419e-007 1.6 -2.1
v 2.38419e-007 1.7 -2.1
v -1.9 1.3 -2.2
v -1.9 1.4 -2.2
v -1.9 1.6 -2.2
v -1.8 1 -2.2
v -1.8 1.2 -2.2
v -1.8 1.3 -2.2
v -1.8 1.4 -2.2
v -1.8 1.6 -2.2
v -1.8 1.9 -2.2
v -1.7 0.9 -2.2
v -1.7 1 -2.2
v -1.7 1.2 -2.2
v -1.7 1.5 -2.2
v -1.7 1.6 -2.2
v -1.7 1.7 -2.2
v -1.7 1.8 -2.2
v -1.7 1.9 -2.2
v -1.7 2.1 -2.2
v -1.7 2.2 -2.2
v -1.6 0.9 -2.2
v -1.6 1 -2.2
v -1.6 1.2 -2.2
v -1.6 1.3 -2.2
v -1.6 1.4 -2.2
v -1.6 1.5 -2.2
v -1.6 1.6 -2.2
v -1.6 1.7 -2.2
v -1.6 1.8 -2.2
v -1.6 1.9 -2.2
v -1.6 2 -2.2
v -1.6 2.1 -2.2
v -1.5 1.2 -2.2
v -1.5 1.3 -2.2
v -1.5 1.4 -2.2
v -1.5 1.6 -2.2
v -1.5 1.7 -2.2
v -1.5 1.8 -2.2
v -1.5 2 -2.2
v -1.5 2.2 -2.2
v -1.4 0 -2.2
v -1.4 0.1 -2.2
v -1.4 0.3 -2.2
v -1.4 0.4 -2.2
v -1.4 0.9 -2.2
v -1.4 1.1 -2.2
v -1.4 1.2 -2.2
v -1.4 1.8 -2.2
v -1.4 2 -2.2
v -1.3 0.2 -2.2
v -1.3 0.3 -2.2
v -1.3 0.4 -2.2
v -1.3 0.7 -2.2
v -1.3 1.7 -2.2
v -1.3 1.8 -2.2
v -1.2 0 -2.2
v -1.2 0.1 -2.2
v -1.2 0.2 -2.2
v -1.2 0.3 -2.2
v -1.2 0.4 -2.2
v -1.2 0.5 -2.2
v -1.2 0.7 -2.2
v -1.2 0.9 -2.2
v -1.2 2.5 -2.2
v -1.2 2.6 -2.2
v -1.1 0.4 -2.2
v -1.1 0.5 -2.2
v -1.1 0.7 -2.2
v -1.1 0.8 -2.2
v -1.1 1.1 -2.2
v -1.1 1.2 -2.2
v -1.1 2.4 -2.2
v -1.1 2.5 -2.2
v -1.1 2.6 -2.2
v -1 0 -2.2
v -1 0.1 -2.2
v -1 0.7 -2.2
v -1 0.8 -2.2
v -1 0.9 -2.2
v -1 1 -2.2
v -1 1.1 -2.2
v -1 1.2 -2.2
v -1 2.4 -2.2
v -1 2.5 -2.2
v -0.9 0 -2.2
v -0.9 0.1 -2.2
v -0.9 0.9 -2.2
v -0.9 1 -2.2
v -0.8 0 -2.2
v -0.8 0.1 -2.2
v -0.3 1.7 -2.2
v -0.3 1.8 -2.2
v -0.2 1.7 -2.2
v -0.2 1.8 -2.2
v 0.1 1.6 -2.2
v 0.1 1.8 -2.2
v 0.1 1.9 -2.2
v 0.1 2.6 -2.2
v 0.4 1.6 -2.2
v 0.4 1.7 -2.2
v 0.5 1.6 -2.2
v 0.5 1.7 -2.2
v 0.6 1.6 -2.2
v 0.6 1.8 -2.2
v 0.6 1.9 -2.2
v 0.6 2.6 -2.2
v -1.9 1.6 -2.3
v -1.9 1.9 -2.3
v -1.8 1.6 -2.3
v -1.8 1.9 -2.3
v -1.8 2.2 -2.3
v -1.7 1.9 -2.3
v -1.7 2.1 -2.3
v -1.7 2.2 -2.3
v -1.7 2.3 -2.3
v -1.6 1.4 -2.3
v -1.6 1.5 -2.3
v -1.6 1.6 -2.3
v -1.5 1.2 -2.3
v -1.5 1.3 -2.3
v -1.5 1.4 -2.3
v -1.5 1.6 -2.3
v -1.5 1.7 -2.3
v -1.4 1.2 -2.3
v -1.4 1.4 -2.3
v -1.4 1.6 -2.3
v -1.4 1.7 -2.3
v -1.4 2.2 -2.3
v -1.4 2.3 -2.3
v -1.3 2.4 -2.3
v -1.3 2.6 -2.3
v -1.2 2.3 -2.3
v -1.2 2.4 -2.3
v -1.2 2.5 -2.3
v -1.2 2.6 -2.3
v -1.2 2.7 -2.3
v -1.1 2.2 -2.3
v -1.1 2.3 -2.3
v -1.1 2.4 -2.3
v -1.1 2.5 -2.3
v -1.1 2.6 -2.3
v -1.1 2.7 -2.3
v -1 2.2 -2.3
v -1 2.3 -2.3
v -1 2.4 -2.3
v -1 2.5 -2.3
v -1 2.6 -2.3
v -1 2.7 -2.3
v -0.9 2.1 -2.3
v -0.9 2.2 -2.3
v -0.9 2.3 -2.3
v -0.9 2.4 -2.3
v -0.9 2.5 -2.3
v -0.9 2.6 -2.3
v -0.9 2.7 -2.3
v -0.8 2.1 -2.3
v -0.8 2.2 -2.3
v -0.8 2.3 -2.3
v -0.8 2.4 -2.3
v -0.8 2.5 -2.3
v -0.8 2.6 -2.3
v -0.7 2.2 -2.3
v -0.7 2.4 -2.3
v -0.7 2.5 -2.3
v -0.2 1.7 -2.3
v -0.2 1.8 -2.3
v -0.0999999 1.7 -2.3
v -0.0999999 1.8 -2.3
v 2.38419e-007 2 -2.3
v 2.38419e-007 2.5 -2.3
v 0.1 2 -2.3
v 0.1 2.5 -2.3
v 0.2 1.8 -2.3
v 0.2 1.9 -2.3
v 0.5 1.8 -2.3
v 0.5 1.9 -2.3
v -1.8 0.9 -2.4
v -1.8 1 -2.4
v -1.8 2.2 -2.4
v -1.8 2.3 -2.4
v -1.7 0.9 -2.4
v -1.7 1 -2.4
v -1.7 2.2 -2.4
v -1.7 2.3 -2.4
v -1.6 2.3 -2.4
v -1.6 2.4 -2.4
v -1.5 2.4 -2.4
v -1.5 2.5 -2.4
v -1.4 1.3 -2.4
v -1.4 1.4 -2.4
v -1.4 1.6 -2.4
v -1.4 1.7 -2.4
v -1.4 2.1 -2.4
v -1.4 2.2 -2.4
v -1.4 2.3 -2.4
v -1.4 2.4 -2.4
v -1.4 2.5 -2.4
v -1.3 1.3 -2.4
v -1.3 1.7 -2.4
v -1.3 2.1 -2.4
v -1.3 2.2 -2.4
v -1.3 2.3 -2.4
v -1.3 2.4 -2.4
v -1.3 2.5 -2.4
v -1.2 2.2 -2.4
v -1.2 2.3 -2.4
v -1.2 2.4 -2.4
v -1.1 2.2 -2.4
v -1.1 2.3 -2.4
v -0.9 2.6 -2.4
v -0.9 2.7 -2.4
v -0.8 2.5 -2.4
v -0.8 2.6 -2.4
v -0.8 2.7 -2.4
v -0.7 2.5 -2.4
v -0.7 2.6 -2.4
v -0.3 1.7 -2.4
v -0.3 1.8 -2.4
v -0.2 1.7 -2.4
v -0.2 1.8 -2.4
v -0.2 1.7 -2.5
v -0.2 1.8 -2.5
v -0.0999999 1.7 -2.5
v -0.0999999 1.8 -2.5
v -1.4 0 -2.6
v -1.4 0.1 -2.6
v -1.4 0.3 -2.6
v -1.4 0.4 -2.6
v -1.4 0.9 -2.6
v -1.4 1.1 -2.6
v -1.3 0.2 -2.6
v -1.3 0.3 -2.6
v -1.3 0.4 -2.6
v -1.3 0.7 -2.6
v -1.2 0 -2.6
v -1.2 0.1 -2.6
v -1.2 0.2 -2.6
v -1.2 0.3 -2.6
v -1.2 0.4 -2.6
v -1.2 0.5 -2.6
v -1.2 0.7 -2.6
v -1.2 0.9 -2.6
v -1.1 0.4 -2.6
v -1.1 0.5 -2.6
v -1.1 0.7 -2.6
v -1.1 0.8 -2.6
v -1.1 1 -2.6
v -1.1 1.1 -2.6
v -1.1 1.2 -2.6
v -1 0.7 -2.6
v -1 0.8 -2.6
v -1 0.9 -2.6
v -1 1 -2.6
v -1 1.1 -2.6
v -1 1.2 -2.6
v -0.9 0.9 -2.6
v -0.9 1 -2.6
v -0.8 0 -2.6
v -0.8 0.1 -2.6
v -0.3 1.7 -2.6
v -0.3 1.8 -2.6
v -0.2 1.7 -2.6
v -0.2 1.8 -2.6
v 2.38419e-007 1.6 -2.6
v 2.38419e-007 1.7 -2.6
v 0.1 1.6 -2.6
v 0.1 1.7 -2.6
v -0.2 1.7 -2.7
v -0.2 1.8 -2.7
v -0.0999999 1.7 -2.7
v -0.0999999 1.8 -2.7
v -2 0 -2.8
v -2 0.8 -2.8
v -1.9 0 -2.8
v -1.9 0.8 -2.8
v -1.5 0 -2.8
v -1.5 0.8 -2.8
v -1.4 0 -2.8
v -1.4 0.1 -2.8
v -1.4 0.3 -2.8
v -1.4 0.4 -2.8
v -1.4 0.8 -2.8
v -1.4 2.1 -2.8
v -1.4 2.2 -2.8
v -1.3 1.7 -2.8
v -1.3 2 -2.8
v -1.3 2.1 -2.8
v -1.3 2.2 -2.8
v -1.2 1.6 -2.8
v -1.2 1.7 -2.8
v -1.2 1.9 -2.8
v -1.2 2 -2.8
v -1.2 2.1 -2.8
v -1.1 1.6 -2.8
v -1.1 1.7 -2.8
v -1.1 1.8 -2.8
v -1.1 1.9 -2.8
v -0.9 1.6 -2.8
v -0.7 1.6 -2.8
v -0.7 1.8 -2.8
v -0.6 1.6 -2.8
v -0.6 1.8 -2.8
v -0.5 1.6 -2.8
v -0.5 1.7 -2.8
v -0.4 1.6 -2.8
v -0.4 1.7 -2.8
v -0.4 1.8 -2.8
v -0.3 1.7 -2.8
v -0.3 1.8 -2.8
v -0.7 1.7 -2.9
v -0.7 1.8 -2.9
v -0.6 1.7 -2.9
v -0.6 1.8 -2.9
v 0.3 1.6 -3
v 0.3 1.9 -3
v 0.5 1.6 -3
v 0.5 1.9 -3
v -0.9 0 -3.4
v -0.9 1.5 -3.4
v -0.8 0 -3.4
v -0.8 1.5 -3.4
v 0.5 0 -3.4
v 0.5 1.5 -3.4
v 0.6 0 -3.4
v 0.6 1.5 -3.4
v -0.9 0 -1.7
v -0.9 1.5 -1.7
v -0.8 0 -1.7
v -0.8 1.5 -1.7
v 0.5 0 -1.7
v 0.5 1.5 -1.7
v 0.6 0 -1.7
v 0.6 1.5 -1.7
v -1.9 0 -1.8
v -1.9 0.5 -1.8
v -1.7 0.5 -1.8
v -1.7 0.6 -1.8
v -1.7 0.7 -1.8
v -1.6 0.5 -1.8
v -1.6 0.6 -1.8
v -1.4 0.5 -1.8
v -1.4 0.6 -1.8
v -1.3 0.5 -1.8
v -1.3 0.6 -1.8
v -1.3 0.7 -1.8
v -1.1 0 -1.8
v -1.1 0.5 -1.8
v 0.1 1.6 -1.8
v 0.1 1.7 -1.8
v 0.3 1.6 -1.8
v 0.3 1.7 -1.8
v 2.38419e-007 1.6 -1.9
v 2.38419e-007 1.7 -1.9
v 0.1 1.6 -1.9
v 0.1 1.7 -1.9
v 0.3 1.6 -1.9
v 0.3 1.7 -1.9
v 0.4 1.6 -1.9
v 0.4 1.7 -1.9
v -0.4 1.6 -2
v -0.4 1.7 -2
v -0.3 1.7 -2
v -0.2 1.7 -2
v -0.2 1.8 -2
v -0.0999999 1.6 -2
v -0.0999999 1.7 -2
v -0.0999999 1.8 -2
v 2.38419e-007 1.6 -2
v 2.38419e-007 1.7 -2
v -0.7 1.7 -2.1
v -0.7 1.8 -2.1
v -0.6 1.7 -2.1
v -0.6 1.8 -2.1
v -2 0 -2.2
v -2 0.8 -2.2
v -1.9 0 -2.2
v -1.9 0.8 -2.2
v -1.5 0 -2.2
v -1.5 0.8 -2.2
v -1.4 0 -2.2
v -1.4 0.1 -2.2
v -1.4 0.3 -2.2
v -1.4 0.4 -2.2
v -1.4 0.8 -2.2
v -1.4 2.1 -2.2
v -1.4 2.2 -2.2
v -1.3 1.7 -2.2
v -1.3 2 -2.2
v -1.3 2.1 -2.2
v -1.3 2.2 -2.2
v -1.2 1.6 -2.2
v -1.2 1.7 -2.2
v -1.2 1.9 -2.2
v -1.2 2 -2.2
v -1.2 2.1 -2.2
v -1.1 1.6 -2.2
v -1.1 1.7 -2.2
v -1.1 1.8 -2.2
v -1.1 1.9 -2.2
v -0.9 1.6 -2.2
v -0.7 1.6 -2.2
v -0.7 1.8 -2.2
v -0.6 1.6 -2.2
v -0.6 1.8 -2.2
v -0.5 1.6 -2.2
v -0.5 1.7 -2.2
v -0.4 1.6 -2.2
v -0.4 1.7 -2.2
v -0.4 1.8 -2.2
v -0.3 1.7 -2.2
v -0.3 1.8 -2.2
v -0.3 1.7 -2.3
v -0.3 1.8 -2.3
v -0.2 1.7 -2.3
v -0.2 1.8 -2.3
v -1.4 0 -2.4
v -1.4 0.1 -2.4
v -1.4 0.3 -2.4
v -1.4 0.4 -2.4
v -1.4 0.9 -2.4
v -1.4 1.1 -2.4
v -1.3 0.2 -2.4
v -1.3 0.3 -2.4
v -1.3 0.4 -2.4
v -1.3 0.7 -2.4
v -1.2 0 -2.4
v -1.2 0.1 -2.4
v -1.2 0.2 -2.4
v -1.2 0.3 -2.4
v -1.2 0.4 -2.4
v -1.2 0.5 -2.4
v -1.2 0.7 -2.4
v -1.2 0.9 -2.4
v -1.1 0.4 -2.4
v -1.1 0.5 -2.4
v -1.1 0.7 -2.4
v -1.1 0.8 -2.4
v -1.1 1 -2.4
v -1.1 1.1 -2.4
v -1.1 1.2 -2.4
v -1 0.7 -2.4
v -1 0.8 -2.4
v -1 0.9 -2.4
v -1 1 -2.4
v -1 1.1 -2.4
v -1 1.2 -2.4
v -0.9 0 -2.4
v -0.9 0.1 -2.4
v -0.9 0.9 -2.4
v -0.9 1 -2.4
v -0.8 0 -2.4
v -0.8 0.1 -2.4
v -0.2 1.7 -2.4
v -0.2 1.8 -2.4
v -0.0999999 1.7 -2.4
v -0.0999999 1.8 -2.4
v -0.3 1.7 -2.5
v -0.3 1.8 -2.5
v -0.2 1.7 -2.5
v -0.2 1.8 -2.5
v -1.8 0.9 -2.6
v -1.8 1 -2.6
v -1.8 2.2 -2.6
v -1.8 2.3 -2.6
v -1.7 0.9 -2.6
v -1.7 1 -2.6
v -1.7 2.2 -2.6
v -1.7 2.3 -2.6
v -1.6 2.3 -2.6
v -1.6 2.4 -2.6
v -1.5 2.4 -2.6
v -1.5 2.5 -2.6
v -1.4 1.3 -2.6
v -1.4 1.4 -2.6
v -1.4 1.6 -2.6
v -1.4 1.7 -2.6
v -1.4 2.1 -2.6
v -1.4 2.2 -2.6
v -1.4 2.3 -2.6
v -1.4 2.4 -2.6
v -1.4 2.5 -2.6
v -1.3 1.3 -2.6
v -1.3 1.7 -2.6
v -1.3 2.1 -2.6
v -1.3 2.2 -2.6
v -1.3 2.3 -2.6
v -1.3 2.4 -2.6
v -1.3 2.5 -2.6
v -1.2 2.2 -2.6
v -1.2 2.3 -2.6
v -1.2 2.4 -2.6
v -1.1 2.2 -2.6
v -1.1 2.3 -2.6
v -0.9 2.6 -2.6
v -0.9 2.7 -2.6
v -0.8 2.5 -2.6
v -0.8 2.6 -2.6
v -0.8 2.7 -2.6
v -0.7 2.5 -2.6
v -0.7 2.6 -2.6
v -0.2 1.7 -2.6
v -0.2 1.8 -2.6
v -0.0999999 1.7 -2.6
v -0.0999999 1.8 -2.6
v -1.9 1.6 -2.7
v -1.9 1.9 -2.7
v -1.8 1.6 -2.7
v -1.8 1.9 -2.7
v -1.8 2.2 -2.7
v -1.7 1.9 -2.7
v -1.7 2.1 -2.7
v -1.7 2.2 -2.7
v -1.7 2.3 -2.7
v -1.6 1.4 -2.7
v -1.6 1.5 -2.7
v -1.6 1.6 -2.7
v -1.5 1.2 -2.7
v -1.5 1.3 -2.7
v -1.5 1.4 -2.7
v -1.5 1.6 -2.7
v -1.5 1.7 -2.7
v -1.4 1.2 -2.7
v -1.4 1.4 -2.7
v -1.4 1.6 -2.7
v -1.4 1.7 -2.7
v -1.4 2.2 -2.7
v -1.4 2.3 -2.7
v -1.3 2.4 -2.7
v -1.3 2.6 -2.7
v -1.2 2.3 -2.7
v -1.2 2.4 -2.7
v -1.2 2.5 -2.7
v -1.2 2.6 -2.7
v -1.2 2.7 -2.7
v -1.1 2.2 -2.7
v -1.1 2.3 -2.7
v -1.1 2.4 -2.7
v -1.1 2.5 -2.7
v -1.1 2.6 -2.7
v -1.1 2.7 -2.7
v -1 2.2 -2.7
v -1 2.3 -2.7
v -1 2.4 -2.7
v -1 2.5 -2.7
v -1 2.6 -2.7
v -0.9 2.1 -2.7
v -0.9 2.2 -2.7
v -0.9 2.3 -2.7
v -0.9 2.4 -2.7
v -0.9 2.5 -2.7
v -0.9 2.6 -2.7
v -0.9 2.7 -2.7
v -0.8 2.1 -2.7
v -0.8 2.2 -2.7
v -0.8 2.3 -2.7
v -0.8 2.4 -2.7
v -0.8 2.5 -2.7
v -0.8 2.6 -2.7
v -0.7 2.2 -2.7
v -0.7 2.4 -2.7
v -0.7 2.5 -2.7
v -0.3 1.7 -2.7
v -0.3 1.8 -2.7
v -0.2 1.7 -2.7
v -0.2 1.8 -2.7
v 2.38419e-007 1.6 -2.7
v 2.38419e-007 1.7 -2.7
v 2.38419e-007 2 -2.7
v 2.38419e-007 2.5 -2.7
v 0.1 1.6 -2.7
v 0.1 1.7 -2.7
v 0.1 2 -2.7
v 0.1 2.5 -2.7
v 0.2 1.8 -2.7
v 0.2 1.9 -2.7
v 0.5 1.8 -2.7
v 0.5 1.9 -2.7
v -1.9 1.3 -2.8
v -1.9 1.4 -2.8
v -1.9 1.6 -2.8
v -1.8 1 -2.8
v -1.8 1.2 -2.8
v -1.8 1.3 -2.8
v -1.8 1.4 -2.8
v -1.8 1.6 -2.8
v -1.8 1.9 -2.8
v -1.7 0.9 -2.8
v -1.7 1 -2.8
v -1.7 1.2 -2.8
v -1.7 1.5 -2.8
v -1.7 1.6 -2.8
v -1.7 1.8 -2.8
v -1.7 1.9 -2.8
v -1.7 2.1 -2.8
v -1.7 2.2 -2.8
v -1.6 0.9 -2.8
v -1.6 1 -2.8
v -1.6 1.2 -2.8
v -1.6 1.3 -2.8
v -1.6 1.4 -2.8
v -1.6 1.5 -2.8
v -1.6 1.6 -2.8
v -1.6 1.7 -2.8
v -1.6 1.8 -2.8
v -1.6 1.9 -2.8
v -1.6 2 -2.8
v -1.6 2.1 -2.8
v -1.5 1.2 -2.8
v -1.5 1.3 -2.8
v -1.5 1.4 -2.8
v -1.5 1.6 -2.8
v -1.5 1.7 -2.8
v -1.5 1.9 -2.8
v -1.5 2 -2.8
v -1.5 2.2 -2.8
v -1.4 0 -2.8
v -1.4 0.1 -2.8
v -1.4 0.3 -2.8
v -1.4 0.4 -2.8
v -1.4 0.9 -2.8
v -1.4 1.1 -2.8
v -1.4 1.2 -2.8
v -1.4 1.8 -2.8
v -1.4 1.9 -2.8
v -1.4 2 -2.8
v -1.3 0.2 -2.8
v -1.3 0.3 -2.8
v -1.3 0.4 -2.8
v -1.3 0.7 -2.8
v -1.3 1.7 -2.8
v -1.3 1.8 -2.8
v -1.2 0 -2.8
v -1.2 0.1 -2.8
v -1.2 0.2 -2.8
v -1.2 0.3 -2.8
v -1.2 0.4 -2.8
v -1.2 0.5 -2.8
v -1.2 0.7 -2.8
v -1.2 0.9 -2.8
v -1.2 2.5 -2.8
v -1.2 2.6 -2.8
v -1.1 0.4 -2.8
v -1.1 0.5 -2.8
v -1.1 0.7 -2.8
v -1.1 0.8 -2.8
v -1.1 1.1 -2.8
v -1.1 1.2 -2.8
v -1.1 2.4 -2.8
v -1.1 2.5 -2.8
v -1.1 2.6 -2.8
v -1 0.7 -2.8
v -1 0.8 -2.8
v -1 0.9 -2.8
v -1 1 -2.8
v -1 1.1 -2.8
v -1 1.2 -2.8
v -1 2.4 -2.8
v -1 2.5 -2.8
v -0.9 0 -2.8
v -0.9 0.1 -2.8
v -0.9 0.9 -2.8
v -0.9 1 -2.8
v -0.8 0 -2.8
v -0.8 0.1 -2.8
v -0.2 1.7 -2.8
v -0.2 1.8 -2.8
v -0.0999999 1.7 -2.8
v -0.0999999 1.8 -2.8
v 0.1 1.6 -2.8
v 0.1 1.8 -2.8
v 0.1 1.9 -2.8
v 0.1 2.6 -2.8
v 0.6 1.6 -2.8
v 0.6 1.8 -2.8
v 0.6 1.9 -2.8
v 0.6 2.6 -2.8
v -2 0 -2.9
v -2 1.9 -2.9
v -1.9 0 -2.9
v -1.9 0.8 -2.9
v -1.9 0.9 -2.9
v -1.9 1.9 -2.9
v -1.5 0 -2.9
v -1.5 0.8 -2.9
v -1.4 0 -2.9
v -1.4 0.9 -2.9
v -0.5 1.6 -2.9
v -0.5 1.7 -2.9
v -0.4 1.6 -2.9
v -0.4 1.7 -2.9
v -0.3 1.7 -2.9
v 2.38419e-007 1.6 -2.9
v 2.38419e-007 1.7 -2.9
v -1.5 2 -3
v -1.5 2.2 -3
v -1.4 1.8 -3
v -1.4 2 -3
v -1.3 1.7 -3
v -1.3 1.8 -3
v -1.3 2.1 -3
v -1.3 2.2 -3
v -1.2 1.6 -3
v -1.2 1.7 -3
v -1.2 1.9 -3
v -1.2 2.1 -3
v -1.1 1.6 -3
v -1.1 1.7 -3
v -1.1 1.8 -3
v -1.1 1.9 -3
v -0.9 1.6 -3
v -0.7 1.6 -3
v -0.7 1.7 -3
v -0.7 1.8 -3
v -0.6 1.6 -3
v -0.6 1.7 -3
v -0.5 1.6 -3
v -0.5 1.7 -3
v -0.5 1.8 -3
v -0.3 1.7 -3
v -0.3 1.8 -3
v 0.3 1.6 -3.4
v 0.3 1.7 -3.4
v 0.3 1.8 -3.4
v 0.3 1.9 -3.4
v 0.4 1.7 -3.4
v 0.4 1.8 -3.4
v 0.5 1.6 -3.4
v 0.5 1.9 -3.4
v -0.9 0 -3.5
v -0.9 1.6 -3.5
v -0.8 0 -3.5
v -0.8 1.5 -3.5
v 0.5 0 -3.5
v 0.5 1.5 -3.5
v 0.6 0 -3.5
v 0.6 1.6 -3.5
v -1.9 0 -1.5
v -1.1 0 -1.5
v -1.9 0 -1.6
v -1.8 0 -1.6
v -1.2 0 -1.6
v -1.1 0 -1.6
v -0.9 0 -1.6
v -0.8 0 -1.6
v 0.5 0 -1.6
v 0.6 0 -1.6
v -1.9 0 -1.7
v -1.8 0 -1.7
v -1.2 0 -1.7
v -1.1 0 -1.7
v -0.9 0 -1.7
v -0.8 0 -1.7
v 0.5 0 -1.7
v 0.6 0 -1.7
v -1.9 0 -1.8
v -1.1 0 -1.8
v -2 0 -2.1
v -1.9 0 -2.1
v -1.5 0 -2.1
v -1.4 0 -2.1
v -2 0 -2.2
v -1.9 0 -2.2
v -1.5 0 -2.2
v -1.4 0 -2.2
v -1.2 0 -2.2
v -1 0 -2.2
v -0.9 0 -2.2
v -0.8 0 -2.2
v -1 0 -2.3
v -0.9 0 -2.3
v -0.8 0 -2.3
v -1.4 0 -2.4
v -1.2 0 -2.4
v -0.9 0 -2.4
v -0.8 0 -2.4
v -1.4 0 -2.6
v -1.2 0 -2.6
v -0.8 0 -2.6
v -0.9 0 -2.7
v -0.8 0 -2.7
v -2 0 -2.8
v -1.9 0 -2.8
v -1.5 0 -2.8
v -1.4 0 -2.8
v -1.2 0 -2.8
v -0.9 0 -2.8
v -0.8 0 -2.8
v -2 0 -2.9
v -1.9 0 -2.9
v -1.5 0 -2.9
v -1.4 0 -2.9
v -0.9 0 -3.4
v -0.8 0 -3.4
v 0.5 0 -3.4
v 0.6 0 -3.4
v -0.9 0 -3.5
v -0.8 0 -3.5
v 0.5 0 -3.5
v 0.6 0 -3.5
v -1.3 0.3 -2.2
v -1.2 0.3 -2.2
v -1.3 0.3 -2.4
v -1.2 0.3 -2.4
v -1.3 0.3 -2.6
v -1.2 0.3 -2.6
v -1.3 0.3 -2.8
v -1.2 0.3 -2.8
v -1.2 0.4 -2.2
v -1.1 0.4 -2.2
v -1.2 0.4 -2.4
v -1.1 0.4 -2.4
v -1.2 0.4 -2.6
v -1.1 0.4 -2.6
v -1.2 0.4 -2.8
v -1.1 0.4 -2.8
v -1.6 0.6 -1.7
v -1.4 0.6 -1.7
v -1.6 0.6 -1.8
v -1.4 0.6 -1.8
v -1.1 0.7 -2.2
v -1 0.7 -2.2
v -1.1 0.7 -2.4
v -1 0.7 -2.4
v -1.1 0.7 -2.6
v -1 0.7 -2.6
v -1.1 0.7 -2.8
v -1 0.7 -2.8
v -1.9 0.8 -2.1
v -1.5 0.8 -2.1
v -2 0.8 -2.2
v -1.9 0.8 -2.2
v -1.5 0.8 -2.2
v -1.4 0.8 -2.2
v -2 0.8 -2.8
v -1.9 0.8 -2.8
v -1.5 0.8 -2.8
v -1.4 0.8 -2.8
v -1.9 0.8 -2.9
v -1.5 0.8 -2.9
v -1.4 0.9 -2.2
v -1.2 0.9 -2.2
v -1 0.9 -2.2
v -0.9 0.9 -2.2
v -1.4 0.9 -2.4
v -1.2 0.9 -2.4
v -1 0.9 -2.4
v -0.9 0.9 -2.4
v -1.4 0.9 -2.6
v -1.2 0.9 -2.6
v -1 0.9 -2.6
v -0.9 0.9 -2.6
v -1.4 0.9 -2.8
v -1.2 0.9 -2.8
v -1 0.9 -2.8
v -0.9 0.9 -2.8
v -1.8 1 -2.2
v -1.7 1 -2.2
v -1.8 1 -2.4
v -1.7 1 -2.4
v -1.8 1 -2.6
v -1.7 1 -2.6
v -1.8 1 -2.8
v -1.7 1 -2.8
v -1.9 1.3 -2.2
v -1.8 1.3 -2.2
v -1.4 1.3 -2.4
v -1.3 1.3 -2.4
v -1.4 1.3 -2.6
v -1.3 1.3 -2.6
v -1.9 1.3 -2.8
v -1.8 1.3 -2.8
v -0.8 1.5 -1.6
v 0.5 1.5 -1.6
v -0.9 1.5 -1.7
v -0.8 1.5 -1.7
v 0.5 1.5 -1.7
v 0.6 1.5 -1.7
v -0.9 1.5 -3.4
v -0.8 1.5 -3.4
v 0.5 1.5 -3.4
v 0.6 1.5 -3.4
v -0.8 1.5 -3.5
v 0.5 1.5 -3.5
v -1.2 1.6 -2
v -1.1 1.6 -2
v -0.9 1.6 -2
v -1.2 1.6 -2.1
v -1.1 1.6 -2.1
v -1.6 1.6 -2.2
v -1.5 1.6 -2.2
v -1.2 1.6 -2.2
v -1.1 1.6 -2.2
v -0.9 1.6 -2.2
v -1.6 1.6 -2.3
v -1.5 1.6 -2.3
v -1.4 1.6 -2.3
v -1.4 1.6 -2.4
v -1.4 1.6 -2.6
v -1.6 1.6 -2.7
v -1.5 1.6 -2.7
v -1.4 1.6 -2.7
v -1.6 1.6 -2.8
v -1.5 1.6 -2.8
v -1.2 1.6 -2.8
v -1.1 1.6 -2.8
v -0.9 1.6 -2.8
v -1.2 1.6 -2.9
v -1.1 1.6 -2.9
v -1.2 1.6 -3
v -1.1 1.6 -3
v -0.9 1.6 -3
v -1.3 1.7 -2
v -1.2 1.7 -2
v -0.7 1.7 -2
v -0.6 1.7 -2
v -0.5 1.7 -2
v -0.4 1.7 -2
v -0.3 1.7 -2
v -1.2 1.7 -2.1
v -0.7 1.7 -2.1
v -0.6 1.7 -2.1
v -0.5 1.7 -2.1
v -0.4 1.7 -2.1
v -0.3 1.7 -2.1
v -1.5 1.7 -2.2
v -1.3 1.7 -2.2
v -1.2 1.7 -2.2
v -1.5 1.7 -2.3
v -1.4 1.7 -2.3
v -1.4 1.7 -2.4
v -1.3 1.7 -2.4
v -1.4 1.7 -2.6
v -1.3 1.7 -2.6
v -1.5 1.7 -2.7
v -1.4 1.7 -2.7
v -1.5 1.7 -2.8
v -1.3 1.7 -2.8
v -1.2 1.7 -2.8
v -1.2 1.7 -2.9
v -0.7 1.7 -2.9
v -0.6 1.7 -2.9
v -0.5 1.7 -2.9
v -0.4 1.7 -2.9
v -0.3 1.7 -2.9
v -1.3 1.7 -3
v -1.2 1.7 -3
v -0.7 1.7 -3
v -0.6 1.7 -3
v -0.5 1.7 -3
v -0.3 1.7 -3
v -1.4 1.8 -2
v -1.3 1.8 -2
v -1.4 1.8 -2.2
v -1.3 1.8 -2.2
v -1.4 1.8 -2.8
v -1.3 1.8 -2.8
v -1.4 1.8 -3
v -1.3 1.8 -3
v 0.1 1.9 -2.2
v 0.6 1.9 -2.2
v 0.2 1.9 -2.3
v 0.5 1.9 -2.3
v 0.2 1.9 -2.7
v 0.5 1.9 -2.7
v 0.1 1.9 -2.8
v 0.6 1.9 -2.8
v -1.5 2 -2
v -1.4 2 -2
v -1.5 2 -2.2
v -1.4 2 -2.2
v 2.38419e-007 2 -2.3
v 0.1 2 -2.3
v 2.38419e-007 2 -2.7
v 0.1 2 -2.7
v -1.5 2 -2.8
v -1.4 2 -2.8
v -1.5 2 -3
v -1.4 2 -3
v -0.9 2.1 -2.3
v -0.8 2.1 -2.3
v -0.9 2.1 -2.7
v -0.8 2.1 -2.7
v -1.1 2.2 -2.3
v -1 2.2 -2.3
v -0.9 2.2 -2.3
v -0.8 2.2 -2.3
v -0.7 2.2 -2.3
v -1.2 2.2 -2.4
v -1.1 2.2 -2.4
v -0.8 2.2 -2.5
v -0.7 2.2 -2.5
v -1.2 2.2 -2.6
v -1.1 2.2 -2.6
v -0.8 2.2 -2.6
v -0.7 2.2 -2.6
v -1.1 2.2 -2.7
v -1 2.2 -2.7
v -0.9 2.2 -2.7
v -0.8 2.2 -2.7
v -0.7 2.2 -2.7
v -1.2 2.3 -2.3
v -1.1 2.3 -2.3
v -1.3 2.3 -2.4
v -1.2 2.3 -2.4
v -1.1 2.3 -2.4
v -1.3 2.3 -2.6
v -1.2 2.3 -2.6
v -1.1 2.3 -2.6
v -1.2 2.3 -2.7
v -1.1 2.3 -2.7
v -1.1 2.4 -2.2
v -1 2.4 -2.2
v -1.3 2.4 -2.3
v -1.2 2.4 -2.3
v -1.1 2.4 -2.3
v -1 2.4 -2.3
v -1.4 2.4 -2.4
v -1.3 2.4 -2.4
v -1.2 2.4 -2.4
v -1.4 2.4 -2.6
v -1.3 2.4 -2.6
v -1.2 2.4 -2.6
v -1.3 2.4 -2.7
v -1.2 2.4 -2.7
v -1.1 2.4 -2.7
v -1 2.4 -2.7
v -1.1 2.4 -2.8
v -1 2.4 -2.8
v -1.2 2.5 -2.2
v -1.1 2.5 -2.2
v -1.2 2.5 -2.3
v -1.1 2.5 -2.3
v -1.2 2.5 -2.7
v -1.1 2.5 -2.7
v -1.2 2.5 -2.8
v -1.1 2.5 -2.8
v -1.2 0.1 -2.2
v -1 0.1 -2.2
v -0.9 0.1 -2.2
v -0.8 0.1 -2.2
v -1 0.1 -2.3
v -0.9 0.1 -2.3
v -0.8 0.1 -2.3
v -1.2 0.1 -2.4
v -0.9 0.1 -2.4
v -0.8 0.1 -2.4
v -1.2 0.1 -2.6
v -0.8 0.1 -2.6
v -0.9 0.1 -2.7
v -0.8 0.1 -2.7
v -1.2 0.1 -2.8
v -0.9 0.1 -2.8
v -0.8 0.1 -2.8
v -1.3 0.2 -2.2
v -1.2 0.2 -2.2
v -1.3 0.2 -2.4
v -1.2 0.2 -2.4
v -1.3 0.2 -2.6
v -1.2 0.2 -2.6
v -1.3 0.2 -2.8
v -1.2 0.2 -2.8
v -1.4 0.4 -2.2
v -1.3 0.4 -2.2
v -1.4 0.4 -2.4
v -1.3 0.4 -2.4
v -1.4 0.4 -2.6
v -1.3 0.4 -2.6
v -1.4 0.4 -2.8
v -1.3 0.4 -2.8
v -1.9 0.5 -1.5
v -1.7 0.5 -1.5
v -1.6 0.5 -1.5
v -1.4 0.5 -1.5
v -1.3 0.5 -1.5
v -1.1 0.5 -1.5
v -1.7 0.5 -1.6
v -1.6 0.5 -1.6
v -1.4 0.5 -1.6
v -1.3 0.5 -1.6
v -1.7 0.5 -1.7
v -1.6 0.5 -1.7
v -1.4 0.5 -1.7
v -1.3 0.5 -1.7
v -1.9 0.5 -1.8
v -1.7 0.5 -1.8
v -1.6 0.5 -1.8
v -1.4 0.5 -1.8
v -1.3 0.5 -1.8
v -1.1 0.5 -1.8
v -1.7 0.7 -1.7
v -1.3 0.7 -1.7
v -1.7 0.7 -1.8
v -1.3 0.7 -1.8
v -1.3 0.7 -2.2
v -1.2 0.7 -2.2
v -1.3 0.7 -2.4
v -1.2 0.7 -2.4
v -1.3 0.7 -2.6
v -1.2 0.7 -2.6
v -1.3 0.7 -2.8
v -1.2 0.7 -2.8
v -1.9 0.9 -2.1
v -1.4 0.9 -2.1
v -1.7 0.9 -2.2
v -1.6 0.9 -2.2
v -1.4 0.9 -2.2
v -1.8 0.9 -2.4
v -1.7 0.9 -2.4
v -1.8 0.9 -2.6
v -1.7 0.9 -2.6
v -1.7 0.9 -2.8
v -1.6 0.9 -2.8
v -1.4 0.9 -2.8
v -1.9 0.9 -2.9
v -1.4 0.9 -2.9
v -1 1 -2.2
v -0.9 1 -2.2
v -1 1 -2.3
v -1 1 -2.4
v -0.9 1 -2.4
v -1 1 -2.6
v -0.9 1 -2.6
v -1 1 -2.7
v -1 1 -2.8
v -0.9 1 -2.8
v -1.4 1.1 -2.2
v -1.1 1.1 -2.2
v -1.4 1.1 -2.4
v -1.1 1.1 -2.4
v -1.4 1.1 -2.6
v -1.1 1.1 -2.6
v -1.4 1.1 -2.8
v -1.1 1.1 -2.8
v -1.5 1.2 -2.2
v -1.4 1.2 -2.2
v -1.1 1.2 -2.2
v -1 1.2 -2.2
v -1.5 1.2 -2.3
v -1.4 1.2 -2.3
v -1.1 1.2 -2.4
v -1 1.2 -2.4
v -1.1 1.2 -2.6
v -1 1.2 -2.6
v -1.5 1.2 -2.7
v -1.4 1.2 -2.7
v -1.5 1.2 -2.8
v -1.4 1.2 -2.8
v -1.1 1.2 -2.8
v -1 1.2 -2.8
v -1.6 1.4 -2.2
v -1.5 1.4 -2.2
v -1.6 1.4 -2.3
v -1.5 1.4 -2.3
v -1.4 1.4 -2.3
v -1.4 1.4 -2.4
v -1.4 1.4 -2.6
v -1.6 1.4 -2.7
v -1.5 1.4 -2.7
v -1.4 1.4 -2.7
v -1.6 1.4 -2.8
v -1.5 1.4 -2.8
v -0.9 1.6 -1.6
v 0.6 1.6 -1.6
v 0.1 1.6 -1.7
v 0.3 1.6 -1.7
v -0.4 1.6 -1.8
v -0.0999999 1.6 -1.8
v 0.1 1.6 -1.8
v 0.3 1.6 -1.8
v 0.4 1.6 -1.8
v 2.38419e-007 1.6 -1.9
v 0.1 1.6 -1.9
v 0.3 1.6 -1.9
v 0.4 1.6 -1.9
v 0.5 1.6 -1.9
v -0.9 1.6 -2
v -0.7 1.6 -2
v -0.6 1.6 -2
v -0.5 1.6 -2
v -0.4 1.6 -2
v -0.0999999 1.6 -2
v 2.38419e-007 1.6 -2
v -0.5 1.6 -2.1
v -0.4 1.6 -2.1
v 2.38419e-007 1.6 -2.1
v -1.9 1.6 -2.2
v -1.8 1.6 -2.2
v -0.9 1.6 -2.2
v -0.7 1.6 -2.2
v -0.6 1.6 -2.2
v -0.5 1.6 -2.2
v -0.4 1.6 -2.2
v 0.1 1.6 -2.2
v 0.4 1.6 -2.2
v 0.5 1.6 -2.2
v 0.6 1.6 -2.2
v -1.9 1.6 -2.3
v -1.8 1.6 -2.3
v 2.38419e-007 1.6 -2.6
v 0.1 1.6 -2.6
v -1.9 1.6 -2.7
v -1.8 1.6 -2.7
v 2.38419e-007 1.6 -2.7
v 0.1 1.6 -2.7
v -1.9 1.6 -2.8
v -1.8 1.6 -2.8
v -0.9 1.6 -2.8
v -0.7 1.6 -2.8
v -0.6 1.6 -2.8
v -0.5 1.6 -2.8
v -0.4 1.6 -2.8
v 0.1 1.6 -2.8
v 0.6 1.6 -2.8
v -0.5 1.6 -2.9
v -0.4 1.6 -2.9
v 2.38419e-007 1.6 -2.9
v -0.9 1.6 -3
v -0.7 1.6 -3
v -0.6 1.6 -3
v -0.5 1.6 -3
v 0.3 1.6 -3
v 0.5 1.6 -3
v 0.3 1.6 -3.4
v 0.5 1.6 -3.4
v -0.9 1.6 -3.5
v 0.6 1.6 -3.5
v 0.1 1.7 -1.7
v 0.3 1.7 -1.7
v -0.4 1.7 -1.8
v -0.0999999 1.7 -1.8
v 0.1 1.7 -1.8
v 0.3 1.7 -1.8
v 0.4 1.7 -1.8
v -0.2 1.7 -1.9
v -0.0999999 1.7 -1.9
v 2.38419e-007 1.7 -1.9
v 0.1 1.7 -1.9
v 0.3 1.7 -1.9
v 0.4 1.7 -1.9
v 0.5 1.7 -1.9
v -0.4 1.7 -2
v -0.3 1.7 -2
v -0.2 1.7 -2
v -0.0999999 1.7 -2
v 2.38419e-007 1.7 -2
v -0.3 1.7 -2.1
v 2.38419e-007 1.7 -2.1
v -0.4 1.7 -2.2
v -0.3 1.7 -2.2
v -0.2 1.7 -2.2
v 0.4 1.7 -2.2
v 0.5 1.7 -2.2
v -0.3 1.7 -2.3
v -0.2 1.7 -2.3
v -0.0999999 1.7 -2.3
v -0.3 1.7 -2.4
v -0.2 1.7 -2.4
v -0.0999999 1.7 -2.4
v -0.3 1.7 -2.5
v -0.2 1.7 -2.5
v -0.0999999 1.7 -2.5
v -0.3 1.7 -2.6
v -0.2 1.7 -2.6
v -0.0999999 1.7 -2.6
v 2.38419e-007 1.7 -2.6
v 0.1 1.7 -2.6
v -0.3 1.7 -2.7
v -0.2 1.7 -2.7
v -0.0999999 1.7 -2.7
v 2.38419e-007 1.7 -2.7
v 0.1 1.7 -2.7
v -0.4 1.7 -2.8
v -0.3 1.7 -2.8
v -0.2 1.7 -2.8
v -0.0999999 1.7 -2.8
v -0.3 1.7 -2.9
v 2.38419e-007 1.7 -2.9
v -0.2 1.8 -1.9
v -0.0999999 1.8 -1.9
v -1.1 1.8 -2
v -0.7 1.8 -2
v -0.5 1.8 -2
v -0.3 1.8 -2
v -0.2 1.8 -2
v -0.0999999 1.8 -2
v -0.7 1.8 -2.1
v -0.6 1.8 -2.1
v -0.5 1.8 -2.1
v -0.4 1.8 -2.1
v -1.1 1.8 -2.2
v -0.7 1.8 -2.2
v -0.6 1.8 -2.2
v -0.4 1.8 -2.2
v -0.3 1.8 -2.2
v -0.2 1.8 -2.2
v 0.1 1.8 -2.2
v 0.6 1.8 -2.2
v -0.3 1.8 -2.3
v -0.2 1.8 -2.3
v -0.0999999 1.8 -2.3
v 0.2 1.8 -2.3
v 0.5 1.8 -2.3
v -0.3 1.8 -2.4
v -0.2 1.8 -2.4
v -0.0999999 1.8 -2.4
v -0.3 1.8 -2.5
v -0.2 1.8 -2.5
v -0.0999999 1.8 -2.5
v -0.3 1.8 -2.6
v -0.2 1.8 -2.6
v -0.0999999 1.8 -2.6
v -0.3 1.8 -2.7
v -0.2 1.8 -2.7
v -0.0999999 1.8 -2.7
v 0.2 1.8 -2.7
v 0.5 1.8 -2.7
v -1.1 1.8 -2.8
v -0.7 1.8 -2.8
v -0.6 1.8 -2.8
v -0.4 1.8 -2.8
v -0.3 1.8 -2.8
v -0.2 1.8 -2.8
v -0.0999999 1.8 -2.8
v 0.1 1.8 -2.8
v 0.6 1.8 -2.8
v -0.7 1.8 -2.9
v -0.6 1.8 -2.9
v -0.5 1.8 -2.9
v -0.4 1.8 -2.9
v -1.1 1.8 -3
v -0.7 1.8 -3
v -0.5 1.8 -3
v -0.3 1.8 -3
v -1.2 1.9 -2
v -1.1 1.9 -2
v -2 1.9 -2.1
v -1.9 1.9 -2.1
v -1.8 1.9 -2.2
v -1.7 1.9 -2.2
v -1.2 1.9 -2.2
v -1.1 1.9 -2.2
v -1.9 1.9 -2.3
v -1.8 1.9 -2.3
v -1.7 1.9 -2.3
v -1.9 1.9 -2.7
v -1.8 1.9 -2.7
v -1.7 1.9 -2.7
v -1.8 1.9 -2.8
v -1.7 1.9 -2.8
v -1.2 1.9 -2.8
v -1.1 1.9 -2.8
v -2 1.9 -2.9
v -1.9 1.9 -2.9
v -1.2 1.9 -3
v -1.1 1.9 -3
v 0.3 1.9 -3
v 0.5 1.9 -3
v 0.3 1.9 -3.4
v 0.5 1.9 -3.4
v -1.3 2.1 -2
v -1.2 2.1 -2
v -1.3 2.1 -2.1
v -1.2 2.1 -2.1
v -1.4 2.1 -2.2
v -1.3 2.1 -2.2
v -1.2 2.1 -2.2
v -1.4 2.1 -2.3
v -1.3 2.1 -2.3
v -1.4 2.1 -2.4
v -1.3 2.1 -2.4
v -1.4 2.1 -2.6
v -1.3 2.1 -2.6
v -1.4 2.1 -2.7
v -1.3 2.1 -2.7
v -1.4 2.1 -2.8
v -1.3 2.1 -2.8
v -1.2 2.1 -2.8
v -1.3 2.1 -2.9
v -1.2 2.1 -2.9
v -1.3 2.1 -3
v -1.2 2.1 -3
v -1.5 2.2 -2
v -1.3 2.2 -2
v -1.4 2.2 -2.1
v -1.3 2.2 -2.1
v -1.7 2.2 -2.2
v -1.5 2.2 -2.2
v -1.4 2.2 -2.2
v -1.3 2.2 -2.2
v -1.8 2.2 -2.3
v -1.7 2.2 -2.3
v -1.4 2.2 -2.3
v -1.8 2.2 -2.4
v -1.7 2.2 -2.4
v -1.4 2.2 -2.4
v -1.3 2.2 -2.4
v -1.8 2.2 -2.6
v -1.7 2.2 -2.6
v -1.4 2.2 -2.6
v -1.3 2.2 -2.6
v -1.8 2.2 -2.7
v -1.7 2.2 -2.7
v -1.4 2.2 -2.7
v -1.7 2.2 -2.8
v -1.5 2.2 -2.8
v -1.4 2.2 -2.8
v -1.3 2.2 -2.8
v -1.4 2.2 -2.9
v -1.3 2.2 -2.9
v -1.5 2.2 -3
v -1.3 2.2 -3
v -1.7 2.3 -2.3
v -1.4 2.3 -2.3
v -1.8 2.3 -2.4
v -1.7 2.3 -2.4
v -1.6 2.3 -2.4
v -1.4 2.3 -2.4
v -1.8 2.3 -2.6
v -1.7 2.3 -2.6
v -1.6 2.3 -2.6
v -1.4 2.3 -2.6
v -1.7 2.3 -2.7
v -1.4 2.3 -2.7
v -1.6 2.4 -2.4
v -1.5 2.4 -2.4
v -1.6 2.4 -2.6
v -1.5 2.4 -2.6
v -1.1 2.5 -2.2
v -1 2.5 -2.2
v -1.1 2.5 -2.3
v -1 2.5 -2.3
v -0.8 2.5 -2.3
v -0.7 2.5 -2.3
v 2.38419e-007 2.5 -2.3
v 0.1 2.5 -2.3
v -1.5 2.5 -2.4
v -1.4 2.5 -2.4
v -1.3 2.5 -2.4
v -0.8 2.5 -2.4
v -0.7 2.5 -2.4
v -1.5 2.5 -2.6
v -1.4 2.5 -2.6
v -1.3 2.5 -2.6
v -0.8 2.5 -2.6
v -0.7 2.5 -2.6
v -1.1 2.5 -2.7
v -1 2.5 -2.7
v -0.8 2.5 -2.7
v -0.7 2.5 -2.7
v 2.38419e-007 2.5 -2.7
v 0.1 2.5 -2.7
v -1.1 2.5 -2.8
v -1 2.5 -2.8
v -1.2 2.6 -2.2
v -1.1 2.6 -2.2
v 0.1 2.6 -2.2
v 0.6 2.6 -2.2
v -1.3 2.6 -2.3
v -1.2 2.6 -2.3
v -1.1 2.6 -2.3
v -0.9 2.6 -2.3
v -0.8 2.6 -2.3
v -1.2 2.6 -2.4
v -0.9 2.6 -2.4
v -0.8 2.6 -2.4
v -0.7 2.6 -2.4
v -0.8 2.6 -2.5
v -0.7 2.6 -2.5
v -1.2 2.6 -2.6
v -0.9 2.6 -2.6
v -0.8 2.6 -2.6
v -0.7 2.6 -2.6
v -1.3 2.6 -2.7
v -1.2 2.6 -2.7
v -1.1 2.6 -2.7
v -0.9 2.6 -2.7
v -0.8 2.6 -2.7
v -1.2 2.6 -2.8
v -1.1 2.6 -2.8
v 0.1 2.6 -2.8
v 0.6 2.6 -2.8
v -1.2 2.7 -2.3
v -1.1 2.7 -2.3
v -1 2.7 -2.3
v -0.9 2.7 -2.3
v -1.2 2.7 -2.4
v -1.1 2.7 -2.4
v -1 2.7 -2.4
v -0.9 2.7 -2.4
v -0.8 2.7 -2.4
v -0.9 2.7 -2.5
v -0.8 2.7 -2.5
v -1.2 2.7 -2.6
v -1.1 2.7 -2.6
v -0.9 2.7 -2.6
v -0.8 2.7 -2.6
v -1.2 2.7 -2.7
v -1.1 2.7 -2.7
v -0.9 2.7 -2.7

# faces
f 5/11/1 2/11/1 1/11/1
f 6/11/1 4/11/1 3/11/1
f 7/11/1 5/11/1 1/11/1
f 7/11/1 6/11/1 5/11/1
f 8/11/1 4/11/1 6/11/1
f 8/11/1 6/11/1 7/11/1
f 13/4/1 10/4/1 9/4/1
f 14/3/1 11/3/1 10/3/1
f 14/4/1 10/4/1 13/4/1
f 15/3/1 14/3/1 13/3/1
f 16/4/1 12/4/1 11/4/1
f 16/3/1 14/3/1 15/3/1
f 16/3/1 11/3/1 14/3/1
f 17/4/1 16/4/1 15/4/1
f 18/4/1 12/4/1 16/4/1
f 18/4/1 16/4/1 17/4/1
f 22/6/1 20/6/1 19/6/1
f 23/6/1 20/6/1 22/6/1
f 25/6/1 22/6/1 21/6/1
f 25/6/1 24/6/1 23/6/1
f 25/6/1 23/6/1 22/6/1
f 26/6/1 24/6/1 25/6/1
f 27/6/1 25/6/1 21/6/1
f 28/5/1 26/5/1 25/5/1
f 28/6/1 25/6/1 27/6/1
f 29/6/1 24/6/1 26/6/1
f 29/5/1 26/5/1 28/5/1
f 30/6/1 24/6/1 29/6/1
f 31/5/1 28/5/1 27/5/1
f 31/5/1 29/5/1 28/5/1
f 31/5/1 30/5/1 29/5/1
f 32/5/1 30/5/1 31/5/1
f 37/4/1 34/4/1 33/4/1
f 38/4/1 34/4/1 37/4/1
f 39/4/1 36/4/1 35/4/1
f 40/4/1 36/4/1 39/4/1
f 41/5/1 39/5/1 38/5/1
f 42/5/1 39/5/1 41/5/1
f 43/5/1 39/5/1 42/5/1
f 44/5/1 39/5/1 43/5/1
f 45/5/1 43/5/1 42/5/1
f 46/5/1 43/5/1 45/5/1
f 49/2/1 48/2/1 47/2/1
f 50/2/1 48/2/1 49/2/1
f 51/1/1 50/1/1 49/1/1
f 52/1/1 50/1/1 51/1/1
f 57/6/1 54/6/1 53/6/1
f 58/6/1 54/6/1 57/6/1
f 59/6/1 56/6/1 55/6/1
f 60/6/1 56/6/1 59/6/1
f 65/4/1 62/4/1 61/4/1
f 66/4/1 62/4/1 65/4/1
f 67/4/1 64/4/1 63/4/1
f 68/4/1 64/4/1 67/4/1
f 69/5/1 66/5/1 65/5/1
f 70/5/1 66/5/1 69/5/1
f 73/5/1 68/5/1 67/5/1
f 74/5/1 68/5/1 73/5/1
f 75/5/1 71/5/1 70/5/1
f 76/5/1 71/5/1 75/5/1
f 77/5/1 73/5/1 72/5/1
f 78/5/1 73/5/1 77/5/1
f 81/13/1 80/13/1 79/13/1
f 82/13/1 80/13/1 81/13/1
f 87/11/1 84/11/1 83/11/1
f 88/11/1 84/11/1 87/11/1
f 89/11/1 86/11/1 85/11/1
f 90/11/1 86/11/1 89/11/1
f 95/5/1 92/5/1 91/5/1
f 96/5/1 92/5/1 95/5/1
f 97/5/1 94/5/1 93/5/1
f 98/5/1 94/5/1 97/5/1
f 101/13/1 100/13/1 99/13/1
f 102/13/1 100/13/1 101/13/1
f 107/15/1 104/15/1 103/15/1
f 108/15/1 104/15/1 107/15/1
f 109/15/1 106/15/1 105/15/1
f 110/15/1 106/15/1 109/15/1
f 111/6/1 108/6/1 107/6/1
f 112/6/1 108/6/1 111/6/1
f 113/6/1 110/6/1 109/6/1
f 114/6/1 110/6/1 113/6/1
f 115/7/1 112/7/1 111/7/1
f 116/7/1 112/7/1 115/7/1
f 117/7/1 114/7/1 113/7/1
f 118/7/1 114/7/1 117/7/1
f 121/2/1 120/2/1 119/2/1
f 122/2/1 120/2/1 121/2/1
f 125/8/1 124/8/1 123/8/1
f 126/8/1 124/8/1 125/8/1
f 131/5/1 130/5/1 129/5/1
f 132/5/1 128/5/1 127/5/1
f 133/5/1 128/5/1 132/5/1
f 134/5/1 130/5/1 131/5/1
f 135/5/1 130/5/1 134/5/1
f 140/7/1 137/7/1 136/7/1
f 141/7/1 137/7/1 140/7/1
f 142/7/1 139/7/1 138/7/1
f 143/7/1 139/7/1 142/7/1
f 148/5/1 145/5/1 144/5/1
f 149/5/1 145/5/1 148/5/1
f 150/5/1 147/5/1 146/5/1
f 151/5/1 147/5/1 150/5/1
f 155/13/1 153/13/1 152/13/1
f 156/13/1 153/13/1 155/13/1
f 158/13/1 155/13/1 154/13/1
f 159/13/1 157/13/1 156/13/1
f 160/13/1 158/13/1 154/13/1
f 160/13/1 159/13/1 158/13/1
f 161/13/1 157/13/1 159/13/1
f 161/13/1 159/13/1 160/13/1
f 166/7/1 163/7/1 162/7/1
f 167/7/1 163/7/1 166/7/1
f 168/7/1 165/7/1 164/7/1
f 169/7/1 165/7/1 168/7/1
f 176/4/1 171/4/1 170/4/1
f 177/3/1 172/3/1 171/3/1
f 177/4/1 171/4/1 176/4/1
f 178/3/1 172/3/1 177/3/1
f 179/3/1 174/3/1 173/3/1
f 180/4/1 175/4/1 174/4/1
f 180/3/1 174/3/1 179/3/1
f 181/4/1 175/4/1 180/4/1
f 185/14/1 183/14/1 182/14/1
f 186/14/1 183/14/1 185/14/1
f 188/14/1 185/14/1 184/14/1
f 189/14/1 185/14/1 188/14/1
f 190/14/1 187/14/1 186/14/1
f 191/14/1 187/14/1 190/14/1
f 196/14/1 193/14/1 192/14/1
f 197/14/1 193/14/1 196/14/1
f 200/14/1 195/14/1 194/14/1
f 201/14/1 195/14/1 200/14/1
f 202/13/1 198/13/1 197/13/1
f 203/16/1 199/16/1 198/16/1
f 203/13/1 198/13/1 202/13/1
f 204/13/1 200/13/1 199/13/1
f 204/16/1 199/16/1 203/16/1
f 205/13/1 200/13/1 204/13/1
f 210/7/1 207/7/1 206/7/1
f 211/7/1 207/7/1 210/7/1
f 212/7/1 209/7/1 208/7/1
f 213/7/1 209/7/1 212/7/1
f 218/14/1 215/14/1 214/14/1
f 219/14/1 215/14/1 218/14/1
f 220/14/1 217/14/1 216/14/1
f 221/14/1 217/14/1 220/14/1
f 226/14/1 223/14/1 222/14/1
f 227/14/1 223/14/1 226/14/1
f 228/14/1 225/14/1 224/14/1
f 229/14/1 225/14/1 228/14/1
f 234/11/1 231/11/1 230/11/1
f 235/11/1 233/11/1 232/11/1
f 236/11/1 234/11/1 230/11/1
f 236/11/1 235/11/1 234/11/1
f 237/11/1 235/11/1 236/11/1
f 238/11/1 235/11/1 237/11/1
f 239/11/1 235/11/1 238/11/1
f 240/11/1 235/11/1 239/11/1
f 241/11/1 233/11/1 235/11/1
f 241/11/1 235/11/1 240/11/1
f 244/14/1 243/14/1 242/14/1
f 245/14/1 243/14/1 244/14/1
f 250/13/1 247/13/1 246/13/1
f 251/13/1 247/13/1 250/13/1
f 252/13/1 249/13/1 248/13/1
f 253/13/1 249/13/1 252/13/1
f 254/13/1 247/13/1 251/13/1
f 255/13/1 247/13/1 254/13/1
f 256/13/1 252/13/1 248/13/1
f 257/13/1 252/13/1 256/13/1
f 262/2/1 259/2/1 258/2/1
f 263/2/1 259/2/1 262/2/1
f 264/2/1 261/2/1 260/2/1
f 265/2/1 261/2/1 264/2/1
f 272/2/1 267/2/1 266/2/1
f 273/2/1 267/2/1 272/2/1
f 274/2/1 269/2/1 268/2/1
f 275/2/1 269/2/1 274/2/1
f 276/2/1 271/2/1 270/2/1
f 277/2/1 271/2/1 276/2/1
f 286/2/1 279/2/1 278/2/1
f 287/2/1 279/2/1 286/2/1
f 288/2/1 281/2/1 280/2/1
f 289/2/1 281/2/1 288/2/1
f 290/2/1 283/2/1 282/2/1
f 291/2/1 283/2/1 290/2/1
f 292/2/1 285/2/1 284/2/1
f 293/2/1 285/2/1 292/2/1
f 296/9/1 295/9/1 294/9/1
f 297/9/1 295/9/1 296/9/1
f 304/5/1 299/5/1 298/5/1
f 305/5/1 299/5/1 304/5/1
f 306/2/1 301/2/1 300/2/1
f 307/2/1 303/2/1 302/2/1
f 308/2/1 306/2/1 300/2/1
f 308/2/1 307/2/1 306/2/1
f 309/2/1 303/2/1 307/2/1
f 309/2/1 307/2/1 308/2/1
f 312/2/1 311/2/1 310/2/1
f 313/2/1 311/2/1 312/2/1
f 314/2/1 312/2/1 310/2/1
f 315/2/1 311/2/1 313/2/1
f 316/2/1 314/2/1 310/2/1
f 316/2/1 315/2/1 314/2/1
f 317/2/1 311/2/1 315/2/1
f 317/2/1 315/2/1 316/2/1
f 320/2/1 319/2/1 318/2/1
f 321/2/1 319/2/1 320/2/1
f 326/5/1 323/5/1 322/5/1
f 327/5/1 323/5/1 326/5/1
f 328/2/1 325/2/1 324/2/1
f 329/2/1 325/2/1 328/2/1
f 330/2/1 325/2/1 329/2/1
f 331/2/1 328/2/1 324/2/1
f 331/10/1 329/10/1 328/10/1
f 332/9/1 330/9/1 329/9/1
f 332/10/1 329/10/1 331/10/1
f 333/9/1 330/9/1 332/9/1
f 334/2/1 331/2/1 324/2/1
f 334/2/1 332/2/1 331/2/1
f 334/2/1 333/2/1 332/2/1
f 335/2/1 333/2/1 334/2/1
f 338/5/1 337/5/1 336/5/1
f 339/5/1 337/5/1 338/5/1
f 344/11/1 341/11/1 340/11/1
f 345/11/1 341/11/1 344/11/1
f 346/11/1 343/11/1 342/11/1
f 347/11/1 343/11/1 346/11/1
f 348/11/2 349/11/2 352/11/2
f 352/11/2 349/11/2 353/11/2
f 350/11/2 351/11/2 354/11/2
f 354/11/2 351/11/2 355/11/2
f 356/11/2 357/11/2 358/11/2
f 358/11/2 357/11/2 359/11/2
f 356/11/2 358/11/2 360/11/2
f 359/11/2 357/11/2 361/11/2
f 356/11/2 360/11/2 362/11/2
f 361/11/2 357/11/2 365/11/2
f 362/11/2 363/11/2 366/11/2
f 356/11/2 362/11/2 366/11/2
f 366/11/2 363/11/2 367/11/2
f 364/11/2 365/11/2 368/11/2
f 365/11/2 357/11/2 369/11/2
f 368/11/2 365/11/2 369/11/2
f 370/2/2 371/2/2 372/2/2
f 372/2/2 371/2/2 373/2/2
f 374/5/2 375/5/2 378/5/2
f 378/5/2 375/5/2 379/5/2
f 376/5/2 377/5/2 380/5/2
f 380/5/2 377/5/2 381/5/2
f 378/4/2 379/4/2 382/4/2
f 382/4/2 379/4/2 383/4/2
f 380/4/2 381/4/2 384/4/2
f 384/4/2 381/4/2 385/4/2
f 386/4/2 387/4/2 390/4/2
f 390/4/2 387/4/2 391/4/2
f 388/4/2 389/4/2 392/4/2
f 392/4/2 389/4/2 393/4/2
f 390/5/2 391/5/2 394/5/2
f 394/5/2 391/5/2 395/5/2
f 392/5/2 393/5/2 396/5/2
f 396/5/2 393/5/2 397/5/2
f 395/5/2 396/5/2 399/5/2
f 399/5/2 396/5/2 400/5/2
f 398/4/2 399/4/2 402/4/2
f 402/4/2 399/4/2 403/4/2
f 400/4/2 401/4/2 404/4/2
f 404/4/2 401/4/2 405/4/2
f 406/11/2 407/11/2 410/11/2
f 408/11/2 409/11/2 411/11/2
f 406/11/2 410/11/2 412/11/2
f 411/11/2 409/11/2 413/11/2
f 406/11/2 412/11/2 414/11/2
f 413/11/2 409/11/2 415/11/2
f 406/11/2 414/11/2 416/11/2
f 415/11/2 409/11/2 417/11/2
f 406/11/2 416/11/2 418/11/2
f 416/11/2 417/11/2 418/11/2
f 418/11/2 417/11/2 419/11/2
f 419/11/2 417/11/2 420/11/2
f 420/11/2 417/11/2 421/11/2
f 417/11/2 409/11/2 422/11/2
f 421/11/2 417/11/2 422/11/2
f 422/11/2 409/11/2 423/11/2
f 420/6/2 421/6/2 425/6/2
f 425/6/2 421/6/2 426/6/2
f 424/7/2 425/7/2 428/7/2
f 426/7/2 427/7/2 428/7/2
f 425/7/2 426/7/2 428/7/2
f 428/7/2 427/7/2 429/7/2
f 429/7/2 427/7/2 430/7/2
f 430/7/2 427/7/2 431/7/2
f 429/5/2 430/5/2 432/5/2
f 432/5/2 430/5/2 433/5/2
f 429/5/2 432/5/2 434/5/2
f 434/5/2 432/5/2 435/5/2
f 433/5/2 430/5/2 436/5/2
f 436/5/2 430/5/2 437/5/2
f 438/5/2 439/5/2 442/5/2
f 442/5/2 439/5/2 443/5/2
f 440/5/2 441/5/2 444/5/2
f 444/5/2 441/5/2 445/5/2
f 446/5/2 447/5/2 452/5/2
f 447/4/2 448/4/2 453/4/2
f 452/5/2 447/5/2 453/5/2
f 453/4/2 448/4/2 454/4/2
f 449/4/2 450/4/2 455/4/2
f 450/5/2 451/5/2 456/5/2
f 455/4/2 450/4/2 456/4/2
f 456/5/2 451/5/2 457/5/2
f 453/5/2 454/5/2 458/5/2
f 454/12/2 455/12/2 459/12/2
f 458/5/2 454/5/2 459/5/2
f 455/5/2 456/5/2 460/5/2
f 459/12/2 455/12/2 460/12/2
f 460/5/2 456/5/2 461/5/2
f 459/13/2 460/13/2 462/13/2
f 462/13/2 460/13/2 463/13/2
f 464/6/2 465/6/2 468/6/2
f 468/6/2 465/6/2 469/6/2
f 466/6/2 467/6/2 470/6/2
f 470/6/2 467/6/2 471/6/2
f 472/2/2 473/2/2 474/2/2
f 474/2/2 473/2/2 475/2/2
f 474/1/2 475/1/2 476/1/2
f 476/1/2 475/1/2 477/1/2
f 478/8/2 479/8/2 481/8/2
f 481/8/2 479/8/2 482/8/2
f 480/5/2 481/5/2 484/5/2
f 484/5/2 481/5/2 485/5/2
f 481/8/2 482/8/2 486/8/2
f 485/5/2 481/5/2 486/5/2
f 482/5/2 483/5/2 487/5/2
f 486/8/2 482/8/2 487/8/2
f 487/5/2 483/5/2 488/5/2
f 488/5/2 483/5/2 489/5/2
f 484/5/2 485/5/2 492/5/2
f 485/8/2 486/8/2 493/8/2
f 486/8/2 487/8/2 493/8/2
f 492/5/2 485/5/2 493/5/2
f 487/8/2 488/8/2 493/8/2
f 493/8/2 488/8/2 494/8/2
f 494/8/2 488/8/2 495/8/2
f 488/5/2 489/5/2 496/5/2
f 495/8/2 488/8/2 496/8/2
f 496/5/2 489/5/2 497/5/2
f 490/5/2 491/5/2 500/5/2
f 491/3/2 492/3/2 501/3/2
f 500/5/2 491/5/2 501/5/2
f 501/3/2 492/3/2 502/3/2
f 494/8/2 495/8/2 503/8/2
f 503/8/2 495/8/2 504/8/2
f 497/3/2 498/3/2 505/3/2
f 498/5/2 499/5/2 506/5/2
f 505/3/2 498/3/2 506/3/2
f 506/5/2 499/5/2 507/5/2
f 508/6/2 509/6/2 512/6/2
f 512/6/2 509/6/2 513/6/2
f 510/6/2 511/6/2 514/6/2
f 514/6/2 511/6/2 515/6/2
f 516/6/2 517/6/2 520/6/2
f 520/6/2 517/6/2 521/6/2
f 518/6/2 519/6/2 522/6/2
f 522/6/2 519/6/2 523/6/2
f 524/5/2 525/5/2 528/5/2
f 528/5/2 525/5/2 529/5/2
f 526/5/2 527/5/2 530/5/2
f 530/5/2 527/5/2 531/5/2
f 524/5/2 528/5/2 532/5/2
f 528/4/2 529/4/2 533/4/2
f 532/5/2 528/5/2 533/5/2
f 533/4/2 529/4/2 534/4/2
f 530/4/2 531/4/2 535/4/2
f 531/5/2 527/5/2 536/5/2
f 535/4/2 531/4/2 536/4/2
f 536/5/2 527/5/2 537/5/2
f 538/4/2 539/4/2 542/4/2
f 539/3/2 540/3/2 543/3/2
f 542/4/2 539/4/2 543/4/2
f 542/3/2 543/3/2 544/3/2
f 540/4/2 541/4/2 545/4/2
f 544/3/2 543/3/2 545/3/2
f 543/3/2 540/3/2 545/3/2
f 544/4/2 545/4/2 550/4/2
f 545/4/2 541/4/2 551/4/2
f 550/4/2 545/4/2 551/4/2
f 546/7/2 547/7/2 552/7/2
f 552/7/2 547/7/2 553/7/2
f 548/7/2 549/7/2 554/7/2
f 554/7/2 549/7/2 555/7/2
f 552/6/2 553/6/2 556/6/2
f 556/6/2 553/6/2 557/6/2
f 554/6/2 555/6/2 558/6/2
f 558/6/2 555/6/2 559/6/2
f 560/5/2 561/5/2 564/5/2
f 564/5/2 561/5/2 565/5/2
f 562/5/2 563/5/2 566/5/2
f 566/5/2 563/5/2 567/5/2
f 568/14/2 569/14/2 572/14/2
f 572/14/2 569/14/2 573/14/2
f 570/14/2 571/14/2 574/14/2
f 574/14/2 571/14/2 575/14/2
f 576/7/2 577/7/2 580/7/2
f 580/7/2 577/7/2 581/7/2
f 578/7/2 579/7/2 582/7/2
f 582/7/2 579/7/2 583/7/2
f 580/6/2 581/6/2 584/6/2
f 584/6/2 581/6/2 585/6/2
f 582/6/2 583/6/2 586/6/2
f 586/6/2 583/6/2 587/6/2
f 588/6/2 589/6/2 594/6/2
f 589/5/2 590/5/2 595/5/2
f 594/6/2 589/6/2 595/6/2
f 595/5/2 590/5/2 596/5/2
f 591/5/2 592/5/2 597/5/2
f 592/6/2 593/6/2 598/6/2
f 597/5/2 592/5/2 598/5/2
f 598/6/2 593/6/2 599/6/2
f 595/7/2 596/7/2 600/7/2
f 594/7/2 595/7/2 600/7/2
f 600/7/2 596/7/2 601/7/2
f 598/7/2 599/7/2 602/7/2
f 597/7/2 598/7/2 602/7/2
f 602/7/2 599/7/2 603/7/2
f 604/14/2 605/14/2 608/14/2
f 608/14/2 605/14/2 609/14/2
f 606/14/2 607/14/2 610/14/2
f 610/14/2 607/14/2 611/14/2
f 612/7/2 613/7/2 616/7/2
f 616/7/2 613/7/2 617/7/2
f 614/7/2 615/7/2 618/7/2
f 618/7/2 615/7/2 619/7/2
f 620/17/2 621/17/2 624/17/2
f 624/17/2 621/17/2 625/17/2
f 622/16/2 623/16/2 626/16/2
f 626/16/2 623/16/2 627/16/2
f 630/16/2 631/16/2 638/16/2
f 631/17/2 632/17/2 639/17/2
f 638/16/2 631/16/2 639/16/2
f 639/17/2 632/17/2 640/17/2
f 633/16/2 634/16/2 641/16/2
f 634/17/2 635/17/2 642/17/2
f 641/16/2 634/16/2 642/16/2
f 642/17/2 635/17/2 643/17/2
f 628/11/2 629/11/2 644/11/2
f 644/11/2 629/11/2 645/11/2
f 636/11/2 637/11/2 646/11/2
f 646/11/2 637/11/2 647/11/2
f 648/14/2 649/14/2 650/14/2
f 650/14/2 649/14/2 651/14/2
f 651/14/2 649/14/2 652/14/2
f 652/14/2 649/14/2 653/14/2
f 654/16/2 655/16/2 658/16/2
f 658/16/2 655/16/2 659/16/2
f 656/16/2 657/16/2 661/16/2
f 661/16/2 657/16/2 662/16/2
f 659/16/2 660/16/2 663/16/2
f 660/17/2 661/17/2 664/17/2
f 663/16/2 660/16/2 664/16/2
f 664/17/2 661/17/2 665/17/2
f 666/5/2 667/5/2 670/5/2
f 670/5/2 667/5/2 671/5/2
f 668/5/2 669/5/2 672/5/2
f 672/5/2 669/5/2 673/5/2
f 671/5/2 667/5/2 674/5/2
f 674/5/2 667/5/2 675/5/2
f 668/5/2 672/5/2 676/5/2
f 676/5/2 672/5/2 677/5/2
f 678/16/2 679/16/2 682/16/2
f 679/17/2 680/17/2 683/17/2
f 682/16/2 679/16/2 683/16/2
f 680/16/2 681/16/2 684/16/2
f 683/17/2 680/17/2 684/17/2
f 678/16/2 682/16/2 685/16/2
f 682/17/2 683/17/2 686/17/2
f 685/16/2 682/16/2 686/16/2
f 683/16/2 684/16/2 687/16/2
f 686/17/2 683/17/2 687/17/2
f 684/16/2 681/16/2 688/16/2
f 687/16/2 684/16/2 688/16/2
f 688/16/2 681/16/2 689/16/2
f 685/17/2 686/17/2 690/17/2
f 686/16/2 687/16/2 691/16/2
f 690/17/2 686/17/2 691/17/2
f 687/16/2 688/16/2 691/16/2
f 691/16/2 688/16/2 692/16/2
f 688/17/2 689/17/2 693/17/2
f 692/16/2 688/16/2 693/16/2
f 693/17/2 689/17/2 694/17/2
f 691/17/2 692/17/2 695/17/2
f 692/16/2 693/16/2 696/16/2
f 695/17/2 692/17/2 696/17/2
f 696/16/2 693/16/2 697/16/2
f 698/13/2 699/13/2 702/13/2
f 702/13/2 699/13/2 703/13/2
f 700/13/2 701/13/2 704/13/2
f 704/13/2 701/13/2 705/13/2
f 706/14/2 707/14/2 712/14/2
f 707/14/2 708/14/2 712/14/2
f 712/14/2 708/14/2 713/14/2
f 710/14/2 711/14/2 714/14/2
f 709/14/2 710/14/2 714/14/2
f 714/14/2 711/14/2 715/14/2
f 716/2/2 717/2/2 722/2/2
f 722/2/2 717/2/2 723/2/2
f 718/2/2 719/2/2 724/2/2
f 724/2/2 719/2/2 725/2/2
f 720/2/2 721/2/2 726/2/2
f 726/2/2 721/2/2 727/2/2
f 728/2/2 729/2/2 736/2/2
f 736/2/2 729/2/2 737/2/2
f 730/2/2 731/2/2 738/2/2
f 738/2/2 731/2/2 739/2/2
f 732/2/2 733/2/2 740/2/2
f 740/2/2 733/2/2 741/2/2
f 734/2/2 735/2/2 742/2/2
f 742/2/2 735/2/2 743/2/2
f 744/5/2 745/5/2 750/5/2
f 750/5/2 745/5/2 751/5/2
f 746/2/2 747/2/2 752/2/2
f 752/2/2 747/2/2 753/2/2
f 748/2/2 749/2/2 754/2/2
f 754/2/2 749/2/2 755/2/2
f 756/5/2 757/5/2 758/5/2
f 758/5/2 757/5/2 759/5/2
f 760/5/2 761/5/2 762/5/2
f 762/5/2 761/5/2 763/5/2
f 764/5/2 765/5/2 766/5/2
f 766/5/2 765/5/2 767/5/2
f 768/5/2 769/5/2 772/5/2
f 772/5/2 769/5/2 773/5/2
f 774/2/2 775/2/2 776/2/2
f 776/2/2 775/2/2 777/2/2
f 770/2/2 771/2/2 778/2/2
f 778/2/2 771/2/2 779/2/2
f 780/11/2 781/11/2 784/11/2
f 782/11/2 783/11/2 785/11/2
f 780/11/2 784/11/2 786/11/2
f 784/11/2 785/11/2 786/11/2
f 786/11/2 785/11/2 787/11/2
f 787/11/2 785/11/2 788/11/2
f 785/11/2 783/11/2 789/11/2
f 788/11/2 785/11/2 789/11/2
f 787/2/2 788/2/2 790/2/2
f 790/2/2 788/2/2 791/2/2
f 792/2/2 793/2/2 794/2/2
f 794/2/2 793/2/2 795/2/2
f 800/3/3 798/3/3 797/3/3
f 800/4/3 799/4/3 798/4/3
f 801/4/3 799/4/3 800/4/3
f 802/4/3 799/4/3 801/4/3
f 803/3/3 800/3/3 797/3/3
f 803/2/3 801/2/3 800/2/3
f 804/1/3 802/1/3 801/1/3
f 804/2/3 801/2/3 803/2/3
f 805/1/3 802/1/3 804/1/3
f 806/3/3 803/3/3 797/3/3
f 806/4/3 804/4/3 803/4/3
f 806/4/3 805/4/3 804/4/3
f 807/4/3 805/4/3 806/4/3
f 808/4/3 805/4/3 807/4/3
f 809/3/3 806/3/3 797/3/3
f 809/2/3 807/2/3 806/2/3
f 810/1/3 808/1/3 807/1/3
f 810/2/3 807/2/3 809/2/3
f 811/1/3 808/1/3 810/1/3
f 812/4/3 797/4/3 796/4/3
f 813/3/3 809/3/3 797/3/3
f 813/4/3 797/4/3 812/4/3
f 814/4/3 810/4/3 809/4/3
f 814/3/3 809/3/3 813/3/3
f 814/4/3 811/4/3 810/4/3
f 815/4/3 811/4/3 814/4/3
f 818/11/3 817/11/3 816/11/3
f 819/11/3 817/11/3 818/11/3
f 821/11/3 817/11/3 819/11/3
f 822/11/3 821/11/3 820/11/3
f 823/11/3 817/11/3 821/11/3
f 823/11/3 821/11/3 822/11/3
f 827/2/3 825/2/3 824/2/3
f 828/1/3 826/1/3 825/1/3
f 828/2/3 825/2/3 827/2/3
f 830/1/3 826/1/3 828/1/3
f 831/2/3 830/2/3 829/2/3
f 832/1/3 826/1/3 830/1/3
f 832/2/3 830/2/3 831/2/3
f 833/1/3 826/1/3 832/1/3
f 836/5/3 835/5/3 834/5/3
f 837/5/3 835/5/3 836/5/3
f 840/2/3 839/2/3 838/2/3
f 841/2/3 839/2/3 840/2/3
f 842/5/3 841/5/3 840/5/3
f 843/5/3 841/5/3 842/5/3
f 846/5/3 845/5/3 844/5/3
f 847/5/3 845/5/3 846/5/3
f 850/2/3 849/2/3 848/2/3
f 851/2/3 849/2/3 850/2/3
f 854/5/3 853/5/3 852/5/3
f 855/5/3 853/5/3 854/5/3
f 859/5/3 857/5/3 856/5/3
f 861/5/3 859/5/3 858/5/3
f 862/5/3 857/5/3 859/5/3
f 862/5/3 859/5/3 861/5/3
f 863/5/3 857/5/3 862/5/3
f 865/5/3 861/5/3 860/5/3
f 865/5/3 862/5/3 861/5/3
f 866/5/3 862/5/3 865/5/3
f 867/5/3 862/5/3 866/5/3
f 868/4/3 865/4/3 864/4/3
f 869/5/3 866/5/3 865/5/3
f 869/4/3 865/4/3 868/4/3
f 870/5/3 866/5/3 869/5/3
f 871/5/3 866/5/3 870/5/3
f 872/5/3 869/5/3 868/5/3
f 872/5/3 870/5/3 869/5/3
f 873/5/3 870/5/3 872/5/3
f 874/5/3 870/5/3 873/5/3
f 875/5/3 870/5/3 874/5/3
f 877/13/3 875/13/3 874/13/3
f 878/13/3 877/13/3 876/13/3
f 879/13/3 875/13/3 877/13/3
f 879/13/3 877/13/3 878/13/3
f 880/13/3 875/13/3 879/13/3
f 881/14/3 880/14/3 879/14/3
f 882/14/3 880/14/3 881/14/3
f 883/14/3 880/14/3 882/14/3
f 886/11/3 885/11/3 884/11/3
f 887/11/3 885/11/3 886/11/3
f 888/11/3 885/11/3 887/11/3
f 889/11/3 885/11/3 888/11/3
f 891/11/3 888/11/3 887/11/3
f 892/11/3 891/11/3 890/11/3
f 893/11/3 888/11/3 891/11/3
f 893/11/3 891/11/3 892/11/3
f 896/14/3 895/14/3 894/14/3
f 897/14/3 895/14/3 896/14/3
f 898/2/3 897/2/3 896/2/3
f 899/2/3 898/2/3 896/2/3
f 900/2/3 898/2/3 899/2/3
f 906/5/3 902/5/3 901/5/3
f 907/4/3 903/4/3 902/4/3
f 907/5/3 902/5/3 906/5/3
f 908/4/3 903/4/3 907/4/3
f 911/6/3 905/6/3 904/6/3
f 912/5/3 906/5/3 905/5/3
f 912/5/3 907/5/3 906/5/3
f 912/6/3 905/6/3 911/6/3
f 912/5/3 908/5/3 907/5/3
f 913/5/3 908/5/3 912/5/3
f 914/4/3 909/4/3 908/4/3
f 914/5/3 908/5/3 913/5/3
f 915/4/3 909/4/3 914/4/3
f 916/4/3 909/4/3 915/4/3
f 917/4/3 909/4/3 916/4/3
f 920/6/3 911/6/3 910/6/3
f 921/7/3 912/7/3 911/7/3
f 921/6/3 911/6/3 920/6/3
f 922/5/3 913/5/3 912/5/3
f 922/7/3 912/7/3 921/7/3
f 923/5/3 913/5/3 922/5/3
f 924/5/3 913/5/3 923/5/3
f 925/4/3 914/4/3 913/4/3
f 925/5/3 913/5/3 924/5/3
f 926/5/3 915/5/3 914/5/3
f 926/4/3 914/4/3 925/4/3
f 927/4/3 916/4/3 915/4/3
f 927/5/3 915/5/3 926/5/3
f 928/12/3 917/12/3 916/12/3
f 928/4/3 916/4/3 927/4/3
f 929/4/3 918/4/3 917/4/3
f 929/12/3 917/12/3 928/12/3
f 930/4/3 918/4/3 929/4/3
f 931/5/3 919/5/3 918/5/3
f 931/4/3 918/4/3 930/4/3
f 932/7/3 921/7/3 920/7/3
f 932/7/3 922/7/3 921/7/3
f 932/4/3 923/4/3 922/4/3
f 933/5/3 924/5/3 923/5/3
f 933/4/3 923/4/3 932/4/3
f 934/5/3 924/5/3 933/5/3
f 935/4/3 927/4/3 926/4/3
f 936/5/3 928/5/3 927/5/3
f 936/4/3 927/4/3 935/4/3
f 937/4/3 930/4/3 929/4/3
f 937/5/3 928/5/3 936/5/3
f 937/4/3 929/4/3 928/4/3
f 938/5/3 931/5/3 930/5/3
f 938/4/3 930/4/3 937/4/3
f 939/5/3 919/5/3 931/5/3
f 939/5/3 931/5/3 938/5/3
f 944/7/3 932/7/3 920/7/3
f 945/7/3 932/7/3 944/7/3
f 946/7/3 932/7/3 945/7/3
f 947/5/3 938/5/3 937/5/3
f 947/5/3 937/5/3 936/5/3
f 948/5/3 938/5/3 947/5/3
f 949/6/3 942/6/3 941/6/3
f 950/7/3 943/7/3 942/7/3
f 950/6/3 942/6/3 949/6/3
f 951/7/3 943/7/3 950/7/3
f 953/5/3 947/5/3 936/5/3
f 954/5/3 947/5/3 953/5/3
f 955/15/3 941/15/3 940/15/3
f 956/6/3 949/6/3 941/6/3
f 956/15/3 941/15/3 955/15/3
f 957/6/3 949/6/3 956/6/3
f 958/6/3 951/6/3 950/6/3
f 959/7/3 952/7/3 951/7/3
f 959/6/3 951/6/3 958/6/3
f 960/7/3 952/7/3 959/7/3
f 961/7/3 952/7/3 960/7/3
f 962/7/3 945/7/3 944/7/3
f 965/7/3 960/7/3 959/7/3
f 966/6/3 961/6/3 960/6/3
f 966/7/3 960/7/3 965/7/3
f 967/7/3 962/7/3 961/7/3
f 967/6/3 961/6/3 966/6/3
f 968/7/3 962/7/3 967/7/3
f 969/7/3 945/7/3 962/7/3
f 969/7/3 962/7/3 968/7/3
f 972/14/3 964/14/3 963/14/3
f 973/14/3 964/14/3 972/14/3
f 974/16/3 956/16/3 955/16/3
f 975/16/3 956/16/3 974/16/3
f 976/7/3 968/7/3 967/7/3
f 977/6/3 969/6/3 968/6/3
f 977/7/3 968/7/3 976/7/3
f 978/6/3 969/6/3 977/6/3
f 979/6/3 969/6/3 978/6/3
f 980/7/3 970/7/3 969/7/3
f 980/6/3 969/6/3 979/6/3
f 981/7/3 970/7/3 980/7/3
f 982/14/3 972/14/3 971/14/3
f 983/14/3 972/14/3 982/14/3
f 984/17/3 975/17/3 974/17/3
f 985/17/3 975/17/3 984/17/3
f 986/7/3 979/7/3 978/7/3
f 987/7/3 979/7/3 986/7/3
f 988/16/3 985/16/3 984/16/3
f 989/16/3 985/16/3 988/16/3
f 992/2/3 991/2/3 990/2/3
f 993/2/3 991/2/3 992/2/3
f 998/2/3 995/2/3 994/2/3
f 999/2/3 995/2/3 998/2/3
f 1001/2/3 995/2/3 999/2/3
f 1002/2/3 1001/2/3 1000/2/3
f 1003/2/3 995/2/3 1001/2/3
f 1003/2/3 1001/2/3 1002/2/3
f 1004/2/3 997/2/3 996/2/3
f 1005/2/3 997/2/3 1004/2/3
f 1008/5/3 1007/5/3 1006/5/3
f 1009/5/3 1007/5/3 1008/5/3
f 1011/5/3 1010/5/3 1009/5/3
f 1012/5/3 1010/5/3 1011/5/3
f 1013/5/3 1010/5/3 1012/5/3
f 1020/5/3 1016/5/3 1015/5/3
f 1020/5/3 1017/5/3 1016/5/3
f 1021/5/3 1017/5/3 1020/5/3
f 1023/5/3 1019/5/3 1018/5/3
f 1023/5/3 1020/5/3 1019/5/3
f 1024/5/3 1020/5/3 1023/5/3
f 1025/5/3 1022/5/3 1021/5/3
f 1026/5/3 1022/5/3 1025/5/3
f 1027/5/3 1014/5/3 1013/5/3
f 1028/5/3 1014/5/3 1027/5/3
f 1032/13/3 1030/13/3 1029/13/3
f 1033/13/3 1030/13/3 1032/13/3
f 1034/13/3 1030/13/3 1033/13/3
f 1037/14/3 1032/14/3 1031/14/3
f 1038/12/3 1033/12/3 1032/12/3
f 1038/14/3 1032/14/3 1037/14/3
f 1039/12/3 1033/12/3 1038/12/3
f 1040/13/3 1035/13/3 1034/13/3
f 1041/13/3 1035/13/3 1040/13/3
f 1042/14/3 1037/14/3 1036/14/3
f 1042/14/3 1038/14/3 1037/14/3
f 1043/14/3 1038/14/3 1042/14/3
f 1044/14/3 1038/14/3 1043/14/3
f 1045/16/3 1041/16/3 1040/16/3
f 1045/16/3 1040/16/3 1039/16/3
f 1046/16/3 1041/16/3 1045/16/3
f 1047/16/3 1041/16/3 1046/16/3
f 1049/13/3 1043/13/3 1042/13/3
f 1050/16/3 1044/16/3 1043/16/3
f 1050/13/3 1043/13/3 1049/13/3
f 1051/13/3 1045/13/3 1044/13/3
f 1051/16/3 1044/16/3 1050/16/3
f 1052/16/3 1046/16/3 1045/16/3
f 1052/13/3 1045/13/3 1051/13/3
f 1053/17/3 1047/17/3 1046/17/3
f 1053/16/3 1046/16/3 1052/16/3
f 1054/17/3 1047/17/3 1053/17/3
f 1055/14/3 1049/14/3 1048/14/3
f 1055/14/3 1050/14/3 1049/14/3
f 1056/14/3 1050/14/3 1055/14/3
f 1057/16/3 1053/16/3 1052/16/3
f 1057/14/3 1050/14/3 1056/14/3
f 1057/16/3 1051/16/3 1050/16/3
f 1057/16/3 1052/16/3 1051/16/3
f 1058/16/3 1053/16/3 1057/16/3
f 1059/16/3 1053/16/3 1058/16/3
f 1060/16/3 1053/16/3 1059/16/3
f 1061/16/3 1057/16/3 1056/16/3
f 1061/16/3 1058/16/3 1057/16/3
f 1062/17/3 1059/17/3 1058/17/3
f 1062/16/3 1058/16/3 1061/16/3
f 1063/17/3 1059/17/3 1062/17/3
f 1066/2/3 1065/2/3 1064/2/3
f 1067/2/3 1065/2/3 1066/2/3
f 1070/9/3 1069/9/3 1068/9/3
f 1071/9/3 1069/9/3 1070/9/3
f 1074/2/3 1073/2/3 1072/2/3
f 1075/2/3 1073/2/3 1074/2/3
f 1080/6/3 1077/6/3 1076/6/3
f 1081/6/3 1077/6/3 1080/6/3
f 1082/5/3 1079/5/3 1078/5/3
f 1083/5/3 1079/5/3 1082/5/3
f 1086/13/3 1085/13/3 1084/13/3
f 1094/13/3 1086/13/3 1084/13/3
f 1094/13/3 1087/13/3 1086/13/3
f 1095/13/3 1087/13/3 1094/13/3
f 1096/13/3 1087/13/3 1095/13/3
f 1097/8/3 1091/8/3 1090/8/3
f 1097/8/3 1089/8/3 1088/8/3
f 1097/8/3 1090/8/3 1089/8/3
f 1098/8/3 1091/8/3 1097/8/3
f 1099/8/3 1093/8/3 1092/8/3
f 1100/8/3 1093/8/3 1099/8/3
f 1102/12/3 1096/12/3 1095/12/3
f 1103/12/3 1096/12/3 1102/12/3
f 1105/13/3 1102/13/3 1101/13/3
f 1106/13/3 1102/13/3 1105/13/3
f 1107/14/3 1105/14/3 1104/14/3
f 1108/14/3 1105/14/3 1107/14/3
f 1112/16/3 1110/16/3 1109/16/3
f 1113/16/3 1110/16/3 1112/16/3
f 1114/17/3 1112/17/3 1111/17/3
f 1115/17/3 1112/17/3 1114/17/3
f 1118/2/3 1117/2/3 1116/2/3
f 1119/2/3 1117/2/3 1118/2/3
f 1122/2/3 1121/2/3 1120/2/3
f 1123/2/3 1121/2/3 1122/2/3
f 1130/6/3 1126/6/3 1125/6/3
f 1131/7/3 1127/7/3 1126/7/3
f 1131/6/3 1126/6/3 1130/6/3
f 1132/7/3 1127/7/3 1131/7/3
f 1134/15/3 1125/15/3 1124/15/3
f 1135/6/3 1130/6/3 1125/6/3
f 1135/15/3 1125/15/3 1134/15/3
f 1136/6/3 1130/6/3 1135/6/3
f 1137/6/3 1132/6/3 1131/6/3
f 1138/7/3 1133/7/3 1132/7/3
f 1138/6/3 1132/6/3 1137/6/3
f 1139/7/3 1133/7/3 1138/7/3
f 1140/7/3 1133/7/3 1139/7/3
f 1141/7/3 1129/7/3 1128/7/3
f 1142/7/3 1139/7/3 1138/7/3
f 1143/6/3 1140/6/3 1139/6/3
f 1143/7/3 1139/7/3 1142/7/3
f 1144/7/3 1141/7/3 1140/7/3
f 1144/6/3 1140/6/3 1143/6/3
f 1145/7/3 1141/7/3 1144/7/3
f 1146/7/3 1129/7/3 1141/7/3
f 1146/7/3 1141/7/3 1145/7/3
f 1147/7/3 1129/7/3 1146/7/3
f 1149/7/3 1145/7/3 1144/7/3
f 1150/6/3 1146/6/3 1145/6/3
f 1150/7/3 1145/7/3 1149/7/3
f 1151/6/3 1146/6/3 1150/6/3
f 1152/5/3 1147/5/3 1146/5/3
f 1152/6/3 1146/6/3 1151/6/3
f 1153/7/3 1148/7/3 1147/7/3
f 1153/5/3 1147/5/3 1152/5/3
f 1154/7/3 1148/7/3 1153/7/3
f 1155/7/3 1152/7/3 1151/7/3
f 1156/7/3 1152/7/3 1155/7/3
f 1157/16/3 1135/16/3 1134/16/3
f 1158/16/3 1135/16/3 1157/16/3
f 1161/2/3 1160/2/3 1159/2/3
f 1162/2/3 1160/2/3 1161/2/3
f 1165/5/3 1164/5/3 1163/5/3
f 1166/5/3 1164/5/3 1165/5/3
f 1169/2/3 1168/2/3 1167/2/3
f 1170/2/3 1168/2/3 1169/2/3
f 1173/11/3 1172/11/3 1171/11/3
f 1174/11/3 1172/11/3 1173/11/3
f 1177/11/3 1176/11/3 1175/11/3
f 1178/11/3 1176/11/3 1177/11/3
f 1179/11/3 1176/11/3 1178/11/3
f 1180/11/3 1176/11/3 1179/11/3
f 1181/11/3 1176/11/3 1180/11/3
f 1186/3/3 1183/3/3 1182/3/3
f 1187/3/3 1183/3/3 1186/3/3
f 1189/5/3 1185/5/3 1184/5/3
f 1190/5/3 1185/5/3 1189/5/3
f 1191/4/3 1186/4/3 1185/4/3
f 1191/5/3 1185/5/3 1190/5/3
f 1192/4/3 1186/4/3 1191/4/3
f 1193/3/3 1189/3/3 1188/3/3
f 1194/5/3 1190/5/3 1189/5/3
f 1194/3/3 1189/3/3 1193/3/3
f 1195/5/3 1190/5/3 1194/5/3
f 1196/5/3 1190/5/3 1195/5/3
f 1197/5/3 1194/5/3 1193/5/3
f 1197/5/3 1195/5/3 1194/5/3
f 1198/5/3 1195/5/3 1197/5/3
f 1199/5/3 1195/5/3 1198/5/3
f 1202/13/3 1201/13/3 1200/13/3
f 1203/13/3 1201/13/3 1202/13/3
f 1204/14/3 1203/14/3 1202/14/3
f 1205/13/3 1201/13/3 1203/13/3
f 1205/14/3 1203/14/3 1204/14/3
f 1206/13/3 1201/13/3 1205/13/3
f 1207/14/3 1206/14/3 1205/14/3
f 1208/14/3 1206/14/3 1207/14/3
f 1211/13/3 1210/13/3 1209/13/3
f 1212/13/3 1210/13/3 1211/13/3
f 1215/2/3 1214/2/3 1213/2/3
f 1216/2/3 1214/2/3 1215/2/3
f 1219/11/3 1218/11/3 1217/11/3
f 1220/11/3 1218/11/3 1219/11/3
f 1223/11/3 1222/11/3 1221/11/3
f 1224/11/3 1222/11/3 1223/11/3
f 1225/11/4 1226/11/4 1227/11/4
f 1227/11/4 1226/11/4 1228/11/4
f 1229/11/4 1230/11/4 1231/11/4
f 1231/11/4 1230/11/4 1232/11/4
f 1233/4/4 1234/4/4 1235/4/4
f 1233/4/4 1235/4/4 1238/4/4
f 1235/2/4 1236/2/4 1238/2/4
f 1236/1/4 1237/1/4 1239/1/4
f 1238/2/4 1236/2/4 1239/2/4
f 1233/4/4 1238/4/4 1240/4/4
f 1239/1/4 1237/1/4 1241/1/4
f 1233/4/4 1240/4/4 1242/4/4
f 1240/2/4 1241/2/4 1242/2/4
f 1241/1/4 1237/1/4 1243/1/4
f 1242/2/4 1241/2/4 1243/2/4
f 1243/1/4 1237/1/4 1244/1/4
f 1233/4/4 1242/4/4 1245/4/4
f 1245/4/4 1242/4/4 1246/4/4
f 1247/5/4 1248/5/4 1249/5/4
f 1249/5/4 1248/5/4 1250/5/4
f 1251/5/4 1252/5/4 1253/5/4
f 1253/5/4 1252/5/4 1254/5/4
f 1255/5/4 1256/5/4 1257/5/4
f 1257/5/4 1256/5/4 1258/5/4
f 1259/2/4 1260/2/4 1261/2/4
f 1259/2/4 1261/2/4 1262/2/4
f 1259/2/4 1262/2/4 1264/2/4
f 1262/2/4 1263/2/4 1264/2/4
f 1264/2/4 1263/2/4 1265/2/4
f 1265/2/4 1263/2/4 1266/2/4
f 1264/5/4 1265/5/4 1267/5/4
f 1267/5/4 1265/5/4 1268/5/4
f 1269/13/4 1270/13/4 1271/13/4
f 1271/13/4 1270/13/4 1272/13/4
f 1273/11/4 1274/11/4 1275/11/4
f 1275/11/4 1274/11/4 1276/11/4
f 1277/11/4 1278/11/4 1279/11/4
f 1279/11/4 1278/11/4 1280/11/4
f 1280/11/4 1278/11/4 1281/11/4
f 1281/11/4 1278/11/4 1282/11/4
f 1282/11/4 1278/11/4 1283/11/4
f 1284/3/4 1285/3/4 1288/3/4
f 1288/3/4 1285/3/4 1289/3/4
f 1286/5/4 1287/5/4 1291/5/4
f 1291/5/4 1287/5/4 1292/5/4
f 1287/4/4 1288/4/4 1293/4/4
f 1292/5/4 1287/5/4 1293/5/4
f 1293/4/4 1288/4/4 1294/4/4
f 1290/3/4 1291/3/4 1295/3/4
f 1291/5/4 1292/5/4 1296/5/4
f 1295/3/4 1291/3/4 1296/3/4
f 1296/5/4 1292/5/4 1297/5/4
f 1297/5/4 1292/5/4 1298/5/4
f 1295/5/4 1296/5/4 1299/5/4
f 1296/5/4 1297/5/4 1299/5/4
f 1299/5/4 1297/5/4 1300/5/4
f 1300/5/4 1297/5/4 1301/5/4
f 1302/13/4 1303/13/4 1304/13/4
f 1304/13/4 1303/13/4 1305/13/4
f 1304/14/4 1305/14/4 1306/14/4
f 1305/13/4 1303/13/4 1307/13/4
f 1306/14/4 1305/14/4 1307/14/4
f 1307/13/4 1303/13/4 1308/13/4
f 1307/14/4 1308/14/4 1309/14/4
f 1309/14/4 1308/14/4 1310/14/4
f 1311/2/4 1312/2/4 1313/2/4
f 1313/2/4 1312/2/4 1314/2/4
f 1316/6/4 1317/6/4 1321/6/4
f 1317/7/4 1318/7/4 1322/7/4
f 1321/6/4 1317/6/4 1322/6/4
f 1322/7/4 1318/7/4 1323/7/4
f 1315/15/4 1316/15/4 1325/15/4
f 1316/6/4 1321/6/4 1326/6/4
f 1325/15/4 1316/15/4 1326/15/4
f 1326/6/4 1321/6/4 1327/6/4
f 1322/6/4 1323/6/4 1328/6/4
f 1323/7/4 1324/7/4 1329/7/4
f 1328/6/4 1323/6/4 1329/6/4
f 1329/7/4 1324/7/4 1330/7/4
f 1330/7/4 1324/7/4 1331/7/4
f 1319/7/4 1320/7/4 1332/7/4
f 1329/7/4 1330/7/4 1333/7/4
f 1330/6/4 1331/6/4 1334/6/4
f 1333/7/4 1330/7/4 1334/7/4
f 1331/7/4 1332/7/4 1335/7/4
f 1334/6/4 1331/6/4 1335/6/4
f 1335/7/4 1332/7/4 1336/7/4
f 1332/7/4 1320/7/4 1337/7/4
f 1336/7/4 1332/7/4 1337/7/4
f 1337/7/4 1320/7/4 1338/7/4
f 1335/7/4 1336/7/4 1340/7/4
f 1336/6/4 1337/6/4 1341/6/4
f 1340/7/4 1336/7/4 1341/7/4
f 1341/6/4 1337/6/4 1342/6/4
f 1337/5/4 1338/5/4 1343/5/4
f 1342/6/4 1337/6/4 1343/6/4
f 1338/7/4 1339/7/4 1344/7/4
f 1343/5/4 1338/5/4 1344/5/4
f 1344/7/4 1339/7/4 1345/7/4
f 1325/16/4 1326/16/4 1346/16/4
f 1346/16/4 1326/16/4 1347/16/4
f 1342/7/4 1343/7/4 1348/7/4
f 1348/7/4 1343/7/4 1349/7/4
f 1346/17/4 1347/17/4 1350/17/4
f 1350/17/4 1347/17/4 1351/17/4
f 1352/2/4 1353/2/4 1354/2/4
f 1354/2/4 1353/2/4 1355/2/4
f 1356/2/4 1357/2/4 1358/2/4
f 1358/2/4 1357/2/4 1359/2/4
f 1360/6/4 1361/6/4 1364/6/4
f 1364/6/4 1361/6/4 1365/6/4
f 1362/5/4 1363/5/4 1366/5/4
f 1366/5/4 1363/5/4 1367/5/4
f 1368/13/4 1369/13/4 1370/13/4
f 1368/13/4 1370/13/4 1378/13/4
f 1370/13/4 1371/13/4 1378/13/4
f 1378/13/4 1371/13/4 1379/13/4
f 1379/13/4 1371/13/4 1380/13/4
f 1374/8/4 1375/8/4 1381/8/4
f 1372/8/4 1373/8/4 1381/8/4
f 1373/8/4 1374/8/4 1381/8/4
f 1381/8/4 1375/8/4 1382/8/4
f 1376/8/4 1377/8/4 1383/8/4
f 1383/8/4 1377/8/4 1384/8/4
f 1379/12/4 1380/12/4 1386/12/4
f 1386/12/4 1380/12/4 1387/12/4
f 1385/13/4 1386/13/4 1389/13/4
f 1389/13/4 1386/13/4 1390/13/4
f 1388/14/4 1389/14/4 1391/14/4
f 1391/14/4 1389/14/4 1392/14/4
f 1393/17/4 1394/17/4 1396/17/4
f 1396/17/4 1394/17/4 1397/17/4
f 1395/16/4 1396/16/4 1398/16/4
f 1398/16/4 1396/16/4 1399/16/4
f 1400/2/4 1401/2/4 1402/2/4
f 1402/2/4 1401/2/4 1403/2/4
f 1404/5/4 1405/5/4 1406/5/4
f 1406/5/4 1405/5/4 1407/5/4
f 1407/5/4 1408/5/4 1409/5/4
f 1409/5/4 1408/5/4 1410/5/4
f 1410/5/4 1408/5/4 1411/5/4
f 1413/5/4 1414/5/4 1418/5/4
f 1414/5/4 1415/5/4 1418/5/4
f 1418/5/4 1415/5/4 1419/5/4
f 1416/5/4 1417/5/4 1421/5/4
f 1417/5/4 1418/5/4 1421/5/4
f 1421/5/4 1418/5/4 1422/5/4
f 1419/5/4 1420/5/4 1423/5/4
f 1423/5/4 1420/5/4 1424/5/4
f 1411/5/4 1412/5/4 1425/5/4
f 1425/5/4 1412/5/4 1426/5/4
f 1427/13/4 1428/13/4 1430/13/4
f 1430/13/4 1428/13/4 1431/13/4
f 1431/13/4 1428/13/4 1432/13/4
f 1429/14/4 1430/14/4 1435/14/4
f 1430/12/4 1431/12/4 1436/12/4
f 1435/14/4 1430/14/4 1436/14/4
f 1436/12/4 1431/12/4 1437/12/4
f 1432/13/4 1433/13/4 1438/13/4
f 1438/13/4 1433/13/4 1439/13/4
f 1434/14/4 1435/14/4 1440/14/4
f 1435/14/4 1436/14/4 1440/14/4
f 1440/14/4 1436/14/4 1441/14/4
f 1441/14/4 1436/14/4 1442/14/4
f 1438/16/4 1439/16/4 1443/16/4
f 1437/16/4 1438/16/4 1443/16/4
f 1443/16/4 1439/16/4 1444/16/4
f 1440/13/4 1441/13/4 1446/13/4
f 1441/16/4 1442/16/4 1447/16/4
f 1446/13/4 1441/13/4 1447/13/4
f 1442/13/4 1443/13/4 1448/13/4
f 1447/16/4 1442/16/4 1448/16/4
f 1443/17/4 1444/17/4 1449/17/4
f 1448/13/4 1443/13/4 1449/13/4
f 1444/16/4 1439/16/4 1450/16/4
f 1449/17/4 1444/17/4 1450/17/4
f 1450/16/4 1439/16/4 1451/16/4
f 1445/14/4 1446/14/4 1452/14/4
f 1446/14/4 1447/14/4 1452/14/4
f 1452/14/4 1447/14/4 1453/14/4
f 1448/16/4 1449/16/4 1454/16/4
f 1453/14/4 1447/14/4 1454/14/4
f 1449/16/4 1450/16/4 1454/16/4
f 1447/16/4 1448/16/4 1454/16/4
f 1454/16/4 1450/16/4 1455/16/4
f 1455/16/4 1450/16/4 1456/16/4
f 1456/16/4 1450/16/4 1457/16/4
f 1453/16/4 1454/16/4 1458/16/4
f 1454/16/4 1455/16/4 1458/16/4
f 1455/17/4 1456/17/4 1459/17/4
f 1458/16/4 1455/16/4 1459/16/4
f 1459/17/4 1456/17/4 1460/17/4
f 1461/2/4 1462/2/4 1463/2/4
f 1463/2/4 1462/2/4 1464/2/4
f 1465/5/4 1466/5/4 1469/5/4
f 1469/5/4 1466/5/4 1470/5/4
f 1467/9/4 1468/9/4 1471/9/4
f 1471/9/4 1468/9/4 1472/9/4
f 1473/2/4 1474/2/4 1475/2/4
f 1475/2/4 1474/2/4 1476/2/4
f 1477/5/4 1478/5/4 1482/5/4
f 1478/4/4 1479/4/4 1483/4/4
f 1482/5/4 1478/5/4 1483/5/4
f 1483/4/4 1479/4/4 1484/4/4
f 1480/6/4 1481/6/4 1487/6/4
f 1481/5/4 1482/5/4 1488/5/4
f 1482/5/4 1483/5/4 1488/5/4
f 1487/6/4 1481/6/4 1488/6/4
f 1483/5/4 1484/5/4 1488/5/4
f 1488/5/4 1484/5/4 1489/5/4
f 1484/4/4 1485/4/4 1490/4/4
f 1489/5/4 1484/5/4 1490/5/4
f 1490/4/4 1485/4/4 1491/4/4
f 1491/4/4 1485/4/4 1492/4/4
f 1486/6/4 1487/6/4 1495/6/4
f 1487/7/4 1488/7/4 1496/7/4
f 1495/6/4 1487/6/4 1496/6/4
f 1488/5/4 1489/5/4 1497/5/4
f 1496/7/4 1488/7/4 1497/7/4
f 1497/5/4 1489/5/4 1498/5/4
f 1498/5/4 1489/5/4 1499/5/4
f 1489/4/4 1490/4/4 1500/4/4
f 1499/5/4 1489/5/4 1500/5/4
f 1490/5/4 1491/5/4 1501/5/4
f 1500/4/4 1490/4/4 1501/4/4
f 1501/5/4 1491/5/4 1502/5/4
f 1491/4/4 1492/4/4 1503/4/4
f 1502/5/4 1491/5/4 1503/5/4
f 1492/4/4 1493/4/4 1503/4/4
f 1503/4/4 1493/4/4 1504/4/4
f 1504/4/4 1493/4/4 1505/4/4
f 1493/5/4 1494/5/4 1506/5/4
f 1505/4/4 1493/4/4 1506/4/4
f 1495/7/4 1496/7/4 1507/7/4
f 1496/7/4 1497/7/4 1507/7/4
f 1497/4/4 1498/4/4 1507/4/4
f 1498/5/4 1499/5/4 1508/5/4
f 1507/4/4 1498/4/4 1508/4/4
f 1508/5/4 1499/5/4 1509/5/4
f 1501/4/4 1502/4/4 1510/4/4
f 1503/5/4 1504/5/4 1511/5/4
f 1510/4/4 1502/4/4 1511/4/4
f 1502/5/4 1503/5/4 1511/5/4
f 1504/12/4 1505/12/4 1512/12/4
f 1511/5/4 1504/5/4 1512/5/4
f 1505/5/4 1506/5/4 1513/5/4
f 1512/12/4 1505/12/4 1513/12/4
f 1506/5/4 1494/5/4 1514/5/4
f 1513/5/4 1506/5/4 1514/5/4
f 1495/7/4 1507/7/4 1519/7/4
f 1519/7/4 1507/7/4 1520/7/4
f 1520/7/4 1507/7/4 1521/7/4
f 1511/5/4 1512/5/4 1522/5/4
f 1512/4/4 1513/4/4 1523/4/4
f 1522/5/4 1512/5/4 1523/5/4
f 1523/4/4 1513/4/4 1524/4/4
f 1516/6/4 1517/6/4 1525/6/4
f 1517/7/4 1518/7/4 1526/7/4
f 1525/6/4 1517/6/4 1526/6/4
f 1526/7/4 1518/7/4 1527/7/4
f 1511/5/4 1522/5/4 1529/5/4
f 1529/5/4 1522/5/4 1530/5/4
f 1515/15/4 1516/15/4 1531/15/4
f 1516/6/4 1525/6/4 1532/6/4
f 1531/15/4 1516/15/4 1532/15/4
f 1532/6/4 1525/6/4 1533/6/4
f 1526/6/4 1527/6/4 1534/6/4
f 1527/7/4 1528/7/4 1535/7/4
f 1534/6/4 1527/6/4 1535/6/4
f 1535/7/4 1528/7/4 1536/7/4
f 1536/7/4 1528/7/4 1537/7/4
f 1519/7/4 1520/7/4 1538/7/4
f 1535/7/4 1536/7/4 1541/7/4
f 1536/6/4 1537/6/4 1542/6/4
f 1541/7/4 1536/7/4 1542/7/4
f 1537/7/4 1538/7/4 1543/7/4
f 1542/6/4 1537/6/4 1543/6/4
f 1543/7/4 1538/7/4 1544/7/4
f 1538/7/4 1520/7/4 1545/7/4
f 1544/7/4 1538/7/4 1545/7/4
f 1539/14/4 1540/14/4 1548/14/4
f 1548/14/4 1540/14/4 1549/14/4
f 1543/7/4 1544/7/4 1550/7/4
f 1544/6/4 1545/6/4 1551/6/4
f 1550/7/4 1544/7/4 1551/7/4
f 1551/6/4 1545/6/4 1552/6/4
f 1552/6/4 1545/6/4 1553/6/4
f 1545/7/4 1546/7/4 1554/7/4
f 1553/6/4 1545/6/4 1554/6/4
f 1554/7/4 1546/7/4 1555/7/4
f 1547/14/4 1548/14/4 1556/14/4
f 1556/14/4 1548/14/4 1557/14/4
f 1531/16/4 1532/16/4 1558/16/4
f 1558/16/4 1532/16/4 1559/16/4
f 1552/7/4 1553/7/4 1560/7/4
f 1560/7/4 1553/7/4 1561/7/4
f 1558/17/4 1559/17/4 1562/17/4
f 1562/17/4 1559/17/4 1563/17/4
f 1564/2/4 1565/2/4 1566/2/4
f 1566/2/4 1565/2/4 1567/2/4
f 1568/2/4 1569/2/4 1572/2/4
f 1572/2/4 1569/2/4 1573/2/4
f 1570/2/4 1571/2/4 1574/2/4
f 1574/2/4 1571/2/4 1575/2/4
f 1576/11/4 1577/11/4 1578/11/4
f 1578/11/4 1577/11/4 1579/11/4
f 1579/11/4 1577/11/4 1580/11/4
f 1580/11/4 1577/11/4 1581/11/4
f 1579/11/4 1580/11/4 1583/11/4
f 1582/11/4 1583/11/4 1584/11/4
f 1583/11/4 1580/11/4 1585/11/4
f 1584/11/4 1583/11/4 1585/11/4
f 1586/14/4 1587/14/4 1588/14/4
f 1588/14/4 1587/14/4 1589/14/4
f 1588/2/4 1589/2/4 1590/2/4
f 1588/2/4 1590/2/4 1591/2/4
f 1591/2/4 1590/2/4 1592/2/4
f 1593/5/4 1594/5/4 1596/5/4
f 1595/5/4 1596/5/4 1598/5/4
f 1596/5/4 1594/5/4 1599/5/4
f 1598/5/4 1596/5/4 1599/5/4
f 1599/5/4 1594/5/4 1600/5/4
f 1597/5/4 1598/5/4 1602/5/4
f 1598/5/4 1599/5/4 1602/5/4
f 1602/5/4 1599/5/4 1603/5/4
f 1603/5/4 1599/5/4 1604/5/4
f 1601/4/4 1602/4/4 1605/4/4
f 1602/5/4 1603/5/4 1606/5/4
f 1605/4/4 1602/4/4 1606/4/4
f 1606/5/4 1603/5/4 1607/5/4
f 1607/5/4 1603/5/4 1608/5/4
f 1605/5/4 1606/5/4 1609/5/4
f 1606/5/4 1607/5/4 1609/5/4
f 1609/5/4 1607/5/4 1610/5/4
f 1610/5/4 1607/5/4 1611/5/4
f 1611/5/4 1607/5/4 1612/5/4
f 1611/13/4 1612/13/4 1614/13/4
f 1613/13/4 1614/13/4 1615/13/4
f 1614/13/4 1612/13/4 1616/13/4
f 1615/13/4 1614/13/4 1616/13/4
f 1616/13/4 1612/13/4 1617/13/4
f 1616/14/4 1617/14/4 1618/14/4
f 1618/14/4 1617/14/4 1619/14/4
f 1620/2/4 1621/2/4 1624/2/4
f 1621/9/4 1622/9/4 1624/9/4
f 1622/2/4 1623/2/4 1625/2/4
f 1624/9/4 1622/9/4 1625/9/4
f 1620/2/4 1624/2/4 1626/2/4
f 1624/2/4 1625/2/4 1626/2/4
f 1625/2/4 1623/2/4 1627/2/4
f 1626/2/4 1625/2/4 1627/2/4
f 1628/11/4 1629/11/4 1630/11/4
f 1630/11/4 1629/11/4 1631/11/4
f 1631/11/4 1629/11/4 1633/11/4
f 1632/11/4 1633/11/4 1634/11/4
f 1633/11/4 1629/11/4 1635/11/4
f 1634/11/4 1633/11/4 1635/11/4
f 1638/4/5 1637/4/5 1636/4/5
f 1639/4/5 1637/4/5 1638/4/5
f 1640/4/5 1637/4/5 1639/4/5
f 1641/4/5 1637/4/5 1640/4/5
f 1646/3/5 1639/3/5 1638/3/5
f 1647/4/5 1640/4/5 1639/4/5
f 1647/3/5 1639/3/5 1646/3/5
f 1648/3/5 1641/3/5 1640/3/5
f 1648/4/5 1640/4/5 1647/4/5
f 1649/3/5 1641/3/5 1648/3/5
f 1650/11/5 1643/11/5 1642/11/5
f 1651/11/5 1643/11/5 1650/11/5
f 1652/11/5 1645/11/5 1644/11/5
f 1653/11/5 1645/11/5 1652/11/5
f 1654/4/5 1647/4/5 1646/4/5
f 1654/4/5 1649/4/5 1648/4/5
f 1654/4/5 1648/4/5 1647/4/5
f 1655/4/5 1649/4/5 1654/4/5
f 1660/11/5 1657/11/5 1656/11/5
f 1661/11/5 1657/11/5 1660/11/5
f 1662/11/5 1659/11/5 1658/11/5
f 1663/11/5 1659/11/5 1662/11/5
f 1668/17/5 1666/17/5 1665/17/5
f 1668/16/5 1665/16/5 1664/16/5
f 1669/16/5 1667/16/5 1666/16/5
f 1669/17/5 1666/17/5 1668/17/5
f 1670/16/5 1667/16/5 1669/16/5
f 1671/15/5 1664/15/5 1663/15/5
f 1672/16/5 1668/16/5 1664/16/5
f 1672/15/5 1664/15/5 1671/15/5
f 1672/16/5 1669/16/5 1668/16/5
f 1673/17/5 1670/17/5 1669/17/5
f 1673/16/5 1669/16/5 1672/16/5
f 1674/17/5 1670/17/5 1673/17/5
f 1678/16/5 1677/16/5 1676/16/5
f 1679/16/5 1677/16/5 1678/16/5
f 1683/15/5 1676/15/5 1675/15/5
f 1684/16/5 1678/16/5 1676/16/5
f 1684/15/5 1676/15/5 1683/15/5
f 1685/17/5 1679/17/5 1678/17/5
f 1685/16/5 1678/16/5 1684/16/5
f 1686/17/5 1679/17/5 1685/17/5
f 1687/11/5 1681/11/5 1680/11/5
f 1688/11/5 1681/11/5 1687/11/5
f 1689/11/5 1683/11/5 1682/11/5
f 1690/11/5 1683/11/5 1689/11/5
f 1695/11/5 1692/11/5 1691/11/5
f 1696/11/5 1692/11/5 1695/11/5
f 1697/11/5 1694/11/5 1693/11/5
f 1698/11/5 1694/11/5 1697/11/5
f 1701/6/5 1700/6/5 1699/6/5
f 1702/6/5 1700/6/5 1701/6/5
f 1705/6/5 1704/6/5 1703/6/5
f 1706/6/5 1704/6/5 1705/6/5
f 1709/7/5 1708/7/5 1707/7/5
f 1710/7/5 1708/7/5 1709/7/5
f 1713/7/5 1712/7/5 1711/7/5
f 1714/7/5 1712/7/5 1713/7/5
f 1717/1/5 1716/1/5 1715/1/5
f 1718/1/5 1716/1/5 1717/1/5
f 1721/7/5 1720/7/5 1719/7/5
f 1722/7/5 1720/7/5 1721/7/5
f 1725/7/5 1724/7/5 1723/7/5
f 1726/7/5 1724/7/5 1725/7/5
f 1730/11/5 1728/11/5 1727/11/5
f 1731/11/5 1728/11/5 1730/11/5
f 1733/11/5 1730/11/5 1729/11/5
f 1733/11/5 1732/11/5 1731/11/5
f 1733/11/5 1731/11/5 1730/11/5
f 1734/11/5 1732/11/5 1733/11/5
f 1735/11/5 1732/11/5 1734/11/5
f 1736/11/5 1732/11/5 1735/11/5
f 1737/11/5 1735/11/5 1734/11/5
f 1738/11/5 1735/11/5 1737/11/5
f 1743/7/5 1740/7/5 1739/7/5
f 1744/7/5 1740/7/5 1743/7/5
f 1745/7/5 1742/7/5 1741/7/5
f 1746/7/5 1742/7/5 1745/7/5
f 1751/7/5 1748/7/5 1747/7/5
f 1752/7/5 1748/7/5 1751/7/5
f 1753/7/5 1750/7/5 1749/7/5
f 1754/7/5 1750/7/5 1753/7/5
f 1757/6/5 1756/6/5 1755/6/5
f 1758/6/5 1756/6/5 1757/6/5
f 1761/6/5 1760/6/5 1759/6/5
f 1762/6/5 1760/6/5 1761/6/5
f 1767/8/5 1766/8/5 1765/8/5
f 1768/8/5 1766/8/5 1767/8/5
f 1769/5/5 1764/5/5 1763/5/5
f 1770/5/5 1764/5/5 1769/5/5
f 1774/11/5 1772/11/5 1771/11/5
f 1775/11/5 1772/11/5 1774/11/5
f 1777/11/5 1774/11/5 1773/11/5
f 1777/11/5 1776/11/5 1775/11/5
f 1777/11/5 1775/11/5 1774/11/5
f 1778/11/5 1776/11/5 1777/11/5
f 1779/11/5 1776/11/5 1778/11/5
f 1780/11/5 1776/11/5 1779/11/5
f 1781/11/5 1779/11/5 1778/11/5
f 1782/11/5 1779/11/5 1781/11/5
f 1786/4/5 1784/4/5 1783/4/5
f 1787/5/5 1785/5/5 1784/5/5
f 1787/4/5 1784/4/5 1786/4/5
f 1790/3/5 1787/3/5 1786/3/5
f 1791/5/5 1785/5/5 1787/5/5
f 1791/3/5 1787/3/5 1790/3/5
f 1792/5/5 1785/5/5 1791/5/5
f 1793/4/5 1789/4/5 1788/4/5
f 1794/4/5 1789/4/5 1793/4/5
f 1796/5/5 1795/5/5 1794/5/5
f 1797/5/5 1796/5/5 1794/5/5
f 1799/5/5 1797/5/5 1794/5/5
f 1800/5/5 1797/5/5 1799/5/5
f 1801/4/5 1799/4/5 1798/4/5
f 1802/4/5 1799/4/5 1801/4/5
f 1806/3/5 1804/3/5 1803/3/5
f 1807/5/5 1805/5/5 1804/5/5
f 1807/3/5 1804/3/5 1806/3/5
f 1808/4/5 1807/4/5 1806/4/5
f 1809/5/5 1805/5/5 1807/5/5
f 1809/4/5 1807/4/5 1808/4/5
f 1810/5/5 1805/5/5 1809/5/5
f 1818/5/5 1812/5/5 1811/5/5
f 1819/13/5 1814/13/5 1813/13/5
f 1820/13/5 1814/13/5 1819/13/5
f 1821/14/5 1817/14/5 1816/14/5
f 1821/14/5 1816/14/5 1815/14/5
f 1822/14/5 1817/14/5 1821/14/5
f 1823/14/5 1817/14/5 1822/14/5
f 1825/5/5 1818/5/5 1811/5/5
f 1826/5/5 1818/5/5 1825/5/5
f 1827/5/5 1825/5/5 1824/5/5
f 1828/5/5 1825/5/5 1827/5/5
f 1829/5/5 1825/5/5 1828/5/5
f 1830/5/5 1825/5/5 1829/5/5
f 1834/5/5 1832/5/5 1831/5/5
f 1835/5/5 1834/5/5 1833/5/5
f 1836/5/5 1832/5/5 1834/5/5
f 1836/5/5 1834/5/5 1835/5/5
f 1838/5/5 1837/5/5 1836/5/5
f 1844/5/5 1838/5/5 1836/5/5
f 1845/5/5 1838/5/5 1844/5/5
f 1846/13/5 1840/13/5 1839/13/5
f 1847/13/5 1840/13/5 1846/13/5
f 1848/14/5 1843/14/5 1842/14/5
f 1848/14/5 1842/14/5 1841/14/5
f 1849/14/5 1843/14/5 1848/14/5
f 1852/5/5 1851/5/5 1850/5/5
f 1853/5/5 1851/5/5 1852/5/5
f 1856/5/5 1855/5/5 1854/5/5
f 1857/5/5 1855/5/5 1856/5/5
f 1860/2/5 1859/2/5 1858/2/5
f 1861/2/5 1859/2/5 1860/2/5
f 1862/2/5 1860/2/5 1858/2/5
f 1863/2/5 1859/2/5 1861/2/5
f 1864/2/5 1862/2/5 1858/2/5
f 1864/2/5 1863/2/5 1862/2/5
f 1865/2/5 1859/2/5 1863/2/5
f 1865/2/5 1863/2/5 1864/2/5
f 1868/5/5 1867/5/5 1866/5/5
f 1869/5/5 1867/5/5 1868/5/5
f 1872/9/5 1871/9/5 1870/9/5
f 1873/9/5 1871/9/5 1872/9/5
f 1876/5/5 1875/5/5 1874/5/5
f 1877/5/5 1875/5/5 1876/5/5
f 1880/14/5 1879/14/5 1878/14/5
f 1881/14/5 1879/14/5 1880/14/5
f 1888/14/5 1883/14/5 1882/14/5
f 1889/16/5 1886/16/5 1885/16/5
f 1890/16/5 1886/16/5 1889/16/5
f 1891/14/5 1888/14/5 1887/14/5
f 1892/14/5 1883/14/5 1888/14/5
f 1892/14/5 1888/14/5 1891/14/5
f 1893/17/5 1890/17/5 1889/17/5
f 1894/17/5 1890/17/5 1893/17/5
f 1895/14/5 1883/14/5 1892/14/5
f 1896/13/5 1884/13/5 1883/13/5
f 1896/14/5 1883/14/5 1895/14/5
f 1897/13/5 1884/13/5 1896/13/5
f 1898/16/5 1894/16/5 1893/16/5
f 1899/16/5 1894/16/5 1898/16/5
f 1903/14/5 1901/14/5 1900/14/5
f 1904/14/5 1901/14/5 1903/14/5
f 1905/13/5 1903/13/5 1902/13/5
f 1906/13/5 1903/13/5 1905/13/5
f 1908/14/5 1907/14/5 1906/14/5
f 1909/14/5 1907/14/5 1908/14/5
f 1914/14/5 1911/14/5 1910/14/5
f 1915/14/5 1911/14/5 1914/14/5
f 1917/13/5 1913/13/5 1912/13/5
f 1918/13/5 1913/13/5 1917/13/5
f 1919/12/5 1917/12/5 1916/12/5
f 1920/12/5 1917/12/5 1919/12/5
f 1922/13/5 1921/13/5 1920/13/5
f 1923/13/5 1921/13/5 1922/13/5
f 1926/14/5 1925/14/5 1924/14/5
f 1927/14/5 1925/14/5 1926/14/5
f 1930/14/5 1929/14/5 1928/14/5
f 1931/14/5 1929/14/5 1930/14/5
f 1934/14/5 1933/14/5 1932/14/5
f 1935/14/5 1933/14/5 1934/14/5
f 1936/16/6 1937/16/6 1940/16/6
f 1937/17/6 1938/17/6 1940/17/6
f 1938/16/6 1939/16/6 1941/16/6
f 1940/17/6 1938/17/6 1941/17/6
f 1941/16/6 1939/16/6 1942/16/6
f 1936/16/6 1940/16/6 1943/16/6
f 1940/16/6 1941/16/6 1943/16/6
f 1941/17/6 1942/17/6 1944/17/6
f 1943/16/6 1941/16/6 1944/16/6
f 1944/17/6 1942/17/6 1945/17/6
f 1946/16/6 1947/16/6 1948/16/6
f 1948/16/6 1947/16/6 1949/16/6
f 1946/16/6 1948/16/6 1950/16/6
f 1948/17/6 1949/17/6 1951/17/6
f 1950/16/6 1948/16/6 1951/16/6
f 1951/17/6 1949/17/6 1952/17/6
f 1953/6/6 1954/6/6 1955/6/6
f 1955/6/6 1954/6/6 1956/6/6
f 1957/6/6 1958/6/6 1959/6/6
f 1959/6/6 1958/6/6 1960/6/6
f 1961/7/6 1962/7/6 1963/7/6
f 1963/7/6 1962/7/6 1964/7/6
f 1965/7/6 1966/7/6 1967/7/6
f 1967/7/6 1966/7/6 1968/7/6
f 1969/4/6 1970/4/6 1975/4/6
f 1970/1/6 1971/1/6 1975/1/6
f 1971/4/6 1972/4/6 1976/4/6
f 1975/1/6 1971/1/6 1976/1/6
f 1972/1/6 1973/1/6 1977/1/6
f 1976/4/6 1972/4/6 1977/4/6
f 1973/4/6 1974/4/6 1978/4/6
f 1977/1/6 1973/1/6 1978/1/6
f 1976/4/6 1977/4/6 1979/4/6
f 1975/4/6 1976/4/6 1979/4/6
f 1977/4/6 1978/4/6 1979/4/6
f 1969/4/6 1975/4/6 1979/4/6
f 1979/4/6 1978/4/6 1980/4/6
f 1980/4/6 1978/4/6 1981/4/6
f 1978/4/6 1974/4/6 1982/4/6
f 1981/4/6 1978/4/6 1982/4/6
f 1969/4/6 1979/4/6 1983/4/6
f 1983/4/6 1979/4/6 1984/4/6
f 1980/4/6 1981/4/6 1985/4/6
f 1985/4/6 1981/4/6 1986/4/6
f 1982/4/6 1974/4/6 1987/4/6
f 1987/4/6 1974/4/6 1988/4/6
f 1989/1/6 1990/1/6 1991/1/6
f 1991/1/6 1990/1/6 1992/1/6
f 1993/7/6 1994/7/6 1995/7/6
f 1995/7/6 1994/7/6 1996/7/6
f 1997/7/6 1998/7/6 1999/7/6
f 1999/7/6 1998/7/6 2000/7/6
f 2001/11/6 2002/11/6 2003/11/6
f 2003/11/6 2002/11/6 2004/11/6
f 2004/11/6 2002/11/6 2005/11/6
f 2001/11/6 2003/11/6 2006/11/6
f 2006/11/6 2003/11/6 2007/11/6
f 2001/11/6 2006/11/6 2008/11/6
f 2008/11/6 2009/11/6 2010/11/6
f 2008/11/6 2010/11/6 2013/11/6
f 2011/11/6 2012/11/6 2013/11/6
f 2010/11/6 2011/11/6 2013/11/6
f 2001/11/6 2008/11/6 2013/11/6
f 2013/11/6 2012/11/6 2014/11/6
f 2015/7/6 2016/7/6 2017/7/6
f 2017/7/6 2016/7/6 2018/7/6
f 2018/7/6 2016/7/6 2019/7/6
f 2020/7/6 2021/7/6 2022/7/6
f 2022/7/6 2021/7/6 2023/7/6
f 2023/7/6 2021/7/6 2024/7/6
f 2025/7/6 2026/7/6 2027/7/6
f 2027/7/6 2026/7/6 2028/7/6
f 2029/7/6 2030/7/6 2031/7/6
f 2031/7/6 2030/7/6 2032/7/6
f 2033/7/6 2034/7/6 2037/7/6
f 2037/7/6 2034/7/6 2038/7/6
f 2035/7/6 2036/7/6 2039/7/6
f 2039/7/6 2036/7/6 2040/7/6
f 2043/7/6 2044/7/6 2045/7/6
f 2045/7/6 2044/7/6 2046/7/6
f 2041/7/6 2042/7/6 2047/7/6
f 2047/7/6 2042/7/6 2048/7/6
f 2049/5/6 2050/5/6 2051/5/6
f 2051/5/6 2050/5/6 2052/5/6
f 2052/5/6 2053/5/6 2054/5/6
f 2052/5/6 2054/5/6 2055/5/6
f 2052/5/6 2055/5/6 2057/5/6
f 2057/5/6 2055/5/6 2058/5/6
f 2056/5/6 2057/5/6 2059/5/6
f 2059/5/6 2057/5/6 2060/5/6
f 2061/11/6 2062/11/6 2063/11/6
f 2063/11/6 2062/11/6 2064/11/6
f 2061/11/6 2063/11/6 2065/11/6
f 2065/11/6 2063/11/6 2066/11/6
f 2066/11/6 2063/11/6 2067/11/6
f 2064/11/6 2062/11/6 2068/11/6
f 2068/11/6 2062/11/6 2069/11/6
f 2067/11/6 2068/11/6 2071/11/6
f 2071/11/6 2068/11/6 2072/11/6
f 2069/11/6 2062/11/6 2073/11/6
f 2073/11/6 2062/11/6 2074/11/6
f 2061/11/6 2065/11/6 2075/11/6
f 2075/11/6 2065/11/6 2076/11/6
f 2076/11/6 2065/11/6 2077/11/6
f 2077/11/6 2065/11/6 2078/11/6
f 2078/11/6 2065/11/6 2079/11/6
f 2071/11/6 2072/11/6 2081/11/6
f 2070/11/6 2071/11/6 2081/11/6
f 2072/11/6 2073/11/6 2081/11/6
f 2079/11/6 2080/11/6 2082/11/6
f 2080/11/6 2081/11/6 2082/11/6
f 2078/11/6 2079/11/6 2082/11/6
f 2082/11/6 2081/11/6 2083/11/6
f 2081/11/6 2073/11/6 2084/11/6
f 2083/11/6 2081/11/6 2084/11/6
f 2076/11/6 2077/11/6 2088/11/6
f 2088/11/6 2077/11/6 2089/11/6
f 2084/11/6 2073/11/6 2092/11/6
f 2092/11/6 2073/11/6 2093/11/6
f 2074/11/6 2062/11/6 2094/11/6
f 2094/11/6 2062/11/6 2095/11/6
f 2085/4/6 2086/4/6 2096/4/6
f 2096/4/6 2086/4/6 2097/4/6
f 2084/11/6 2092/11/6 2098/11/6
f 2098/11/6 2092/11/6 2099/11/6
f 2100/4/6 2101/4/6 2104/4/6
f 2104/4/6 2101/4/6 2105/4/6
f 2090/11/6 2091/11/6 2106/11/6
f 2087/11/6 2088/11/6 2106/11/6
f 2088/11/6 2089/11/6 2106/11/6
f 2089/11/6 2090/11/6 2106/11/6
f 2106/11/6 2091/11/6 2107/11/6
f 2107/11/6 2091/11/6 2108/11/6
f 2108/11/6 2091/11/6 2109/11/6
f 2109/11/6 2091/11/6 2110/11/6
f 2102/11/6 2103/11/6 2111/11/6
f 2111/11/6 2112/11/6 2115/11/6
f 2102/11/6 2111/11/6 2115/11/6
f 2107/11/6 2108/11/6 2117/11/6
f 2117/11/6 2108/11/6 2118/11/6
f 2113/11/6 2114/11/6 2119/11/6
f 2114/11/6 2115/11/6 2119/11/6
f 2115/11/6 2112/11/6 2120/11/6
f 2119/11/6 2115/11/6 2120/11/6
f 2120/11/6 2112/11/6 2121/11/6
f 2117/11/6 2118/11/6 2122/11/6
f 2116/11/6 2117/11/6 2122/11/6
f 2119/11/6 2120/11/6 2122/11/6
f 2118/11/6 2119/11/6 2122/11/6
f 2121/11/6 2112/11/6 2123/11/6
f 2116/11/6 2122/11/6 2124/11/6
f 2122/11/6 2123/11/6 2124/11/6
f 2123/11/6 2112/11/6 2125/11/6
f 2124/11/6 2123/11/6 2125/11/6
f 2126/5/6 2127/5/6 2130/5/6
f 2130/5/6 2127/5/6 2131/5/6
f 2128/2/6 2129/2/6 2133/2/6
f 2129/5/6 2130/5/6 2134/5/6
f 2133/2/6 2129/2/6 2134/2/6
f 2134/5/6 2130/5/6 2135/5/6
f 2135/5/6 2130/5/6 2136/5/6
f 2131/5/6 2132/5/6 2137/5/6
f 2137/5/6 2132/5/6 2138/5/6
f 2128/2/6 2133/2/6 2140/2/6
f 2140/2/6 2133/2/6 2141/2/6
f 2141/2/6 2133/2/6 2142/2/6
f 2134/5/6 2135/5/6 2143/5/6
f 2143/5/6 2135/5/6 2144/5/6
f 2145/2/6 2146/2/6 2148/2/6
f 2148/2/6 2146/2/6 2149/2/6
f 2138/5/6 2139/5/6 2150/5/6
f 2150/5/6 2139/5/6 2151/5/6
f 2147/2/6 2148/2/6 2152/2/6
f 2149/2/6 2146/2/6 2153/2/6
f 2153/2/6 2146/2/6 2154/2/6
f 2147/2/6 2152/2/6 2155/2/6
f 2152/2/6 2153/2/6 2155/2/6
f 2155/2/6 2153/2/6 2156/2/6
f 2154/2/6 2146/2/6 2157/2/6
f 2147/2/6 2155/2/6 2158/2/6
f 2156/2/6 2157/2/6 2159/2/6
f 2157/2/6 2146/2/6 2160/2/6
f 2159/2/6 2157/2/6 2160/2/6
f 2147/2/6 2158/2/6 2161/2/6
f 2158/2/6 2159/2/6 2161/2/6
f 2161/2/6 2159/2/6 2162/2/6
f 2160/2/6 2146/2/6 2163/2/6
f 2163/2/6 2146/2/6 2164/2/6
f 2147/2/6 2161/2/6 2166/2/6
f 2163/2/6 2164/2/6 2167/2/6
f 2162/2/6 2163/2/6 2167/2/6
f 2167/2/6 2164/2/6 2168/2/6
f 2164/5/6 2165/5/6 2169/5/6
f 2168/2/6 2164/2/6 2169/2/6
f 2169/5/6 2165/5/6 2170/5/6
f 2147/2/6 2166/2/6 2171/2/6
f 2166/2/6 2167/2/6 2171/2/6
f 2171/2/6 2167/2/6 2172/2/6
f 2172/2/6 2167/2/6 2173/2/6
f 2168/2/6 2169/2/6 2174/2/6
f 2172/2/6 2173/2/6 2175/2/6
f 2173/2/6 2174/2/6 2175/2/6
f 2174/2/6 2169/2/6 2176/2/6
f 2175/2/6 2174/2/6 2176/2/6
f 2177/2/6 2178/2/6 2183/2/6
f 2183/2/6 2178/2/6 2184/2/6
f 2179/5/6 2180/5/6 2185/5/6
f 2180/13/6 2181/13/6 2185/13/6
f 2185/13/6 2181/13/6 2186/13/6
f 2181/14/6 2182/14/6 2187/14/6
f 2186/13/6 2181/13/6 2187/13/6
f 2187/14/6 2182/14/6 2188/14/6
f 2179/5/6 2185/5/6 2189/5/6
f 2189/5/6 2185/5/6 2190/5/6
f 2187/13/6 2188/13/6 2191/13/6
f 2186/13/6 2187/13/6 2191/13/6
f 2188/14/6 2182/14/6 2192/14/6
f 2191/13/6 2188/13/6 2192/13/6
f 2192/14/6 2182/14/6 2193/14/6
f 2193/2/6 2194/2/6 2197/2/6
f 2197/2/6 2194/2/6 2198/2/6
f 2195/2/6 2196/2/6 2200/2/6
f 2200/2/6 2196/2/6 2201/2/6
f 2198/2/6 2199/2/6 2203/2/6
f 2203/2/6 2199/2/6 2204/2/6
f 2202/2/6 2203/2/6 2205/2/6
f 2205/2/6 2203/2/6 2206/2/6
f 2206/2/6 2207/2/6 2209/2/6
f 2209/2/6 2207/2/6 2210/2/6
f 2208/2/6 2209/2/6 2211/2/6
f 2211/2/6 2209/2/6 2212/2/6
f 2195/2/6 2200/2/6 2214/2/6
f 2201/2/6 2196/2/6 2215/2/6
f 2212/2/6 2213/2/6 2221/2/6
f 2221/2/6 2213/2/6 2222/2/6
f 2195/2/6 2214/2/6 2223/2/6
f 2214/2/6 2215/2/6 2223/2/6
f 2215/2/6 2196/2/6 2224/2/6
f 2223/2/6 2215/2/6 2224/2/6
f 2216/5/6 2217/5/6 2225/5/6
f 2218/13/6 2219/13/6 2226/13/6
f 2226/13/6 2219/13/6 2227/13/6
f 2219/14/6 2220/14/6 2228/14/6
f 2227/13/6 2219/13/6 2228/13/6
f 2216/5/6 2225/5/6 2229/5/6
f 2226/13/6 2227/13/6 2230/13/6
f 2229/5/6 2225/5/6 2230/5/6
f 2225/13/6 2226/13/6 2230/13/6
f 2227/14/6 2228/14/6 2231/14/6
f 2230/13/6 2227/13/6 2231/13/6
f 2228/14/6 2220/14/6 2232/14/6
f 2231/14/6 2228/14/6 2232/14/6
f 2233/5/6 2234/5/6 2239/5/6
f 2239/5/6 2234/5/6 2240/5/6
f 2235/11/6 2236/11/6 2241/11/6
f 2237/4/6 2238/4/6 2242/4/6
f 2242/4/6 2238/4/6 2243/4/6
f 2235/11/6 2241/11/6 2244/11/6
f 2241/5/6 2242/5/6 2244/5/6
f 2244/5/6 2242/5/6 2245/5/6
f 2245/4/6 2246/4/6 2247/4/6
f 2247/4/6 2246/4/6 2248/4/6
f 2235/11/6 2244/11/6 2251/11/6
f 2251/11/6 2244/11/6 2252/11/6
f 2249/5/6 2250/5/6 2253/5/6
f 2253/5/6 2250/5/6 2254/5/6
f 2255/2/6 2256/2/6 2257/2/6
f 2257/2/6 2256/2/6 2258/2/6
f 2259/5/6 2260/5/6 2261/5/6
f 2261/5/6 2260/5/6 2262/5/6
f 2261/4/6 2262/4/6 2264/4/6
f 2264/4/6 2262/4/6 2265/4/6
f 2263/5/6 2264/5/6 2266/5/6
f 2266/5/6 2264/5/6 2267/5/6
f 2266/8/6 2267/8/6 2268/8/6
f 2268/8/6 2267/8/6 2269/8/6
f 2270/8/6 2271/8/6 2272/8/6
f 2272/8/6 2271/8/6 2273/8/6
f 2272/5/6 2273/5/6 2274/5/6
f 2274/5/6 2273/5/6 2275/5/6
f 2275/4/6 2276/4/6 2277/4/6
f 2277/4/6 2276/4/6 2278/4/6
f 2277/5/6 2278/5/6 2279/5/6
f 2279/5/6 2278/5/6 2280/5/6
f 2281/5/6 2282/5/6 2283/5/6
f 2283/5/6 2282/5/6 2284/5/6
f 2281/5/6 2283/5/6 2286/5/6
f 2283/3/6 2284/3/6 2287/3/6
f 2286/5/6 2283/5/6 2287/5/6
f 2287/3/6 2284/3/6 2288/3/6
f 2285/5/6 2286/5/6 2290/5/6
f 2286/5/6 2287/5/6 2290/5/6
f 2290/5/6 2287/5/6 2291/5/6
f 2289/5/6 2290/5/6 2292/5/6
f 2292/5/6 2290/5/6 2293/5/6
f 2294/8/6 2295/8/6 2298/8/6
f 2298/8/6 2295/8/6 2299/8/6
f 2296/5/6 2297/5/6 2300/5/6
f 2300/5/6 2297/5/6 2301/5/6
f 2301/5/6 2302/5/6 2303/5/6
f 2303/5/6 2302/5/6 2304/5/6
f 2304/5/6 2302/5/6 2305/5/6
f 2305/3/6 2306/3/6 2307/3/6
f 2304/5/6 2305/5/6 2307/5/6
f 2307/3/6 2306/3/6 2308/3/6
f 2304/5/6 2307/5/6 2309/5/6
f 2307/5/6 2308/5/6 2309/5/6
f 2309/5/6 2308/5/6 2310/5/6
f 2311/5/6 2312/5/6 2314/5/6
f 2314/5/6 2312/5/6 2315/5/6
f 2315/5/6 2312/5/6 2316/5/6
f 2313/5/6 2314/5/6 2317/5/6
f 2314/14/6 2315/14/6 2318/14/6
f 2317/5/6 2314/5/6 2318/5/6
f 2318/14/6 2315/14/6 2319/14/6
f 2319/5/6 2320/5/6 2321/5/6
f 2318/5/6 2319/5/6 2321/5/6
f 2321/5/6 2320/5/6 2322/5/6
f 2323/13/6 2324/13/6 2325/13/6
f 2325/13/6 2324/13/6 2326/13/6
f 2327/14/6 2328/14/6 2329/14/6
f 2329/14/6 2328/14/6 2330/14/6
f 2331/17/6 2332/17/6 2338/17/6
f 2338/17/6 2332/17/6 2339/17/6
f 2335/13/6 2336/13/6 2340/13/6
f 2336/12/6 2337/12/6 2341/12/6
f 2340/13/6 2336/13/6 2341/13/6
f 2341/12/6 2337/12/6 2342/12/6
f 2343/17/6 2344/17/6 2347/17/6
f 2347/17/6 2344/17/6 2348/17/6
f 2333/9/6 2334/9/6 2349/9/6
f 2349/9/6 2334/9/6 2350/9/6
f 2345/14/6 2346/14/6 2351/14/6
f 2351/14/6 2346/14/6 2352/14/6
f 2353/14/6 2354/14/6 2358/14/6
f 2358/14/6 2354/14/6 2359/14/6
f 2357/13/6 2358/13/6 2362/13/6
f 2360/16/6 2361/16/6 2363/16/6
f 2363/16/6 2361/16/6 2364/16/6
f 2364/17/6 2365/17/6 2366/17/6
f 2366/17/6 2365/17/6 2367/17/6
f 2357/13/6 2362/13/6 2368/13/6
f 2366/16/6 2367/16/6 2370/16/6
f 2370/16/6 2367/16/6 2371/16/6
f 2357/13/6 2368/13/6 2372/13/6
f 2372/13/6 2368/13/6 2373/13/6
f 2369/16/6 2370/16/6 2375/16/6
f 2375/16/6 2370/16/6 2376/16/6
f 2373/14/6 2374/14/6 2377/14/6
f 2377/14/6 2374/14/6 2378/14/6
f 2355/2/6 2356/2/6 2379/2/6
f 2379/2/6 2356/2/6 2380/2/6
f 2381/13/6 2382/13/6 2385/13/6
f 2382/16/6 2383/16/6 2386/16/6
f 2385/13/6 2382/13/6 2386/13/6
f 2383/17/6 2384/17/6 2387/17/6
f 2386/16/6 2383/16/6 2387/16/6
f 2387/17/6 2384/17/6 2388/17/6
f 2385/16/6 2386/16/6 2390/16/6
f 2388/16/6 2389/16/6 2390/16/6
f 2387/16/6 2388/16/6 2390/16/6
f 2386/16/6 2387/16/6 2390/16/6
f 2390/16/6 2389/16/6 2391/16/6
f 2385/16/6 2390/16/6 2392/16/6
f 2392/16/6 2390/16/6 2393/16/6
f 2390/17/6 2391/17/6 2394/17/6
f 2393/16/6 2390/16/6 2394/16/6
f 2394/17/6 2391/17/6 2395/17/6
f 2392/13/6 2393/13/6 2396/13/6
f 2393/16/6 2394/16/6 2397/16/6
f 2396/13/6 2393/13/6 2397/13/6
f 2397/16/6 2394/16/6 2398/16/6
