%YAML 1.1
%TAG !u! tag:unity3d.com,2011:
--- !u!114 &11400000
MonoBehaviour:
  m_ObjectHideFlags: 0
  m_CorrespondingSourceObject: {fileID: 0}
  m_PrefabInstance: {fileID: 0}
  m_PrefabAsset: {fileID: 0}
  m_GameObject: {fileID: 0}
  m_Enabled: 1
  m_EditorHideFlags: 0
  m_Script: {fileID: 11500000, guid: 44e80b5269d492b44a45a22c64a9caf2, type: 3}
  m_Name: AkWwiseProjectData
  m_EditorClassIdentifier: 
  AcousticTextureWwu:
  - PhysicalPath: Virtual Acoustics\Default Work Unit.wwu
    PathAndIcons:
    - ElementName: Virtual Acoustics
      ObjectType: 5
      guid: 00000000000000000000000000000000
    - ElementName: Default Work Unit
      ObjectType: 12
      guid: 93f499864fc8c342a2d4fcb1f9ae29db
    ParentPath: Virtual Acoustics\Default Work Unit
    guid: 93f499864fc8c342a2d4fcb1f9ae29db
    GuidInternal: 
    m_lastTime: -8585553858230683459
    List: []
  AuxBusWwu:
  - PhysicalPath: Master-Mixer Hierarchy\Default Work Unit.wwu
    PathAndIcons:
    - ElementName: Master-Mixer Hierarchy
      ObjectType: 5
      guid: 00000000000000000000000000000000
    - ElementName: Default Work Unit
      ObjectType: 12
      guid: b02b334ae8eedc40a631bc365d71d48e
    ParentPath: Master-Mixer Hierarchy\Default Work Unit
    guid: b02b334ae8eedc40a631bc365d71d48e
    GuidInternal: 
    m_lastTime: -8585552024050425355
    List:
    - name: Master Audio Bus
      guid: d8a41415a61d2a41a17e75ca0c2149f3
      id: 3803692087
      PathAndIcons:
      - ElementName: Master-Mixer Hierarchy
        ObjectType: 5
        guid: 00000000000000000000000000000000
      - ElementName: Default Work Unit
        ObjectType: 12
        guid: b02b334ae8eedc40a631bc365d71d48e
      - ElementName: Master Audio Bus
        ObjectType: 2
        guid: d8a41415a61d2a41a17e75ca0c2149f3
      Path: Master-Mixer Hierarchy\Default Work Unit\Master Audio Bus
  BankWwu:
  - PhysicalPath: SoundBanks\Default Work Unit.wwu
    PathAndIcons:
    - ElementName: SoundBanks
      ObjectType: 5
      guid: 00000000000000000000000000000000
    - ElementName: Default Work Unit
      ObjectType: 12
      guid: 98c9811654e98e4a9148307ca8beb516
    ParentPath: SoundBanks\Default Work Unit
    guid: 98c9811654e98e4a9148307ca8beb516
    GuidInternal: 
    m_lastTime: -8585549499367127840
    List:
    - name: Main
      guid: ab18d6c9f8096a4ea493a344a09d79e7
      id: 3161908922
      PathAndIcons:
      - ElementName: SoundBanks
        ObjectType: 5
        guid: 00000000000000000000000000000000
      - ElementName: Default Work Unit
        ObjectType: 12
        guid: 98c9811654e98e4a9148307ca8beb516
      - ElementName: Main
        ObjectType: 7
        guid: ab18d6c9f8096a4ea493a344a09d79e7
      Path: SoundBanks\Default Work Unit\Main
  EventWwu:
  - PhysicalPath: Events\Default Work Unit.wwu
    PathAndIcons:
    - ElementName: Events
      ObjectType: 5
      guid: 00000000000000000000000000000000
    - ElementName: Default Work Unit
      ObjectType: 12
      guid: fd5c28f1b72cdc4c89f6afd2821f0806
    ParentPath: Events\Default Work Unit
    guid: fd5c28f1b72cdc4c89f6afd2821f0806
    GuidInternal: 
    m_lastTime: -8585549499367137848
    List:
    - name: ButtonClick
      guid: 0ee8020d659f124da7ca4c4b4eeda594
      id: 4051332235
      PathAndIcons:
      - ElementName: Events
        ObjectType: 5
        guid: 00000000000000000000000000000000
      - ElementName: Default Work Unit
        ObjectType: 12
        guid: fd5c28f1b72cdc4c89f6afd2821f0806
      - ElementName: ButtonClick
        ObjectType: 3
        guid: 0ee8020d659f124da7ca4c4b4eeda594
      Path: Events\Default Work Unit\ButtonClick
      maxAttenuation: 0
      maxDuration: 0.294263
      minDuration: 0.219252
    - name: ButtonClickLeave
      guid: 1b285baaa0afaf44b292cad1184c51e3
      id: 3779573004
      PathAndIcons:
      - ElementName: Events
        ObjectType: 5
        guid: 00000000000000000000000000000000
      - ElementName: Default Work Unit
        ObjectType: 12
        guid: fd5c28f1b72cdc4c89f6afd2821f0806
      - ElementName: ButtonClickLeave
        ObjectType: 3
        guid: 1b285baaa0afaf44b292cad1184c51e3
      Path: Events\Default Work Unit\ButtonClickLeave
      maxAttenuation: 0
      maxDuration: 0.936848
      minDuration: 0.936848
    - name: ButtonClickStart
      guid: f1f606894678404d80b07fa81c50cea8
      id: 2102458801
      PathAndIcons:
      - ElementName: Events
        ObjectType: 5
        guid: 00000000000000000000000000000000
      - ElementName: Default Work Unit
        ObjectType: 12
        guid: fd5c28f1b72cdc4c89f6afd2821f0806
      - ElementName: ButtonClickStart
        ObjectType: 3
        guid: f1f606894678404d80b07fa81c50cea8
      Path: Events\Default Work Unit\ButtonClickStart
      maxAttenuation: 0
      maxDuration: 4.422676
      minDuration: 4.422676
    - name: Fire
      guid: 32c6344f1f03704cadd8368a27f9e018
      id: 2678880713
      PathAndIcons:
      - ElementName: Events
        ObjectType: 5
        guid: 00000000000000000000000000000000
      - ElementName: Default Work Unit
        ObjectType: 12
        guid: fd5c28f1b72cdc4c89f6afd2821f0806
      - ElementName: Fire
        ObjectType: 3
        guid: 32c6344f1f03704cadd8368a27f9e018
      Path: Events\Default Work Unit\Fire
      maxAttenuation: 40
      maxDuration: -1
      minDuration: -1
    - name: Footstep
      guid: a4211a03691bc74ead23e25a7449721c
      id: 1866025847
      PathAndIcons:
      - ElementName: Events
        ObjectType: 5
        guid: 00000000000000000000000000000000
      - ElementName: Default Work Unit
        ObjectType: 12
        guid: fd5c28f1b72cdc4c89f6afd2821f0806
      - ElementName: Footstep
        ObjectType: 3
        guid: a4211a03691bc74ead23e25a7449721c
      Path: Events\Default Work Unit\Footstep
      maxAttenuation: 20
      maxDuration: 0.592792
      minDuration: 0.382396
    - name: Key
      guid: 75e046354bcb1d48b3b019025785d6e9
      id: 1183067778
      PathAndIcons:
      - ElementName: Events
        ObjectType: 5
        guid: 00000000000000000000000000000000
      - ElementName: Default Work Unit
        ObjectType: 12
        guid: fd5c28f1b72cdc4c89f6afd2821f0806
      - ElementName: Key
        ObjectType: 3
        guid: 75e046354bcb1d48b3b019025785d6e9
      Path: Events\Default Work Unit\Key
      maxAttenuation: 0
      maxDuration: 2.645351
      minDuration: 1.045352
    - name: MusicGame
      guid: 54c9beb3910eee40ad1f7a3074c691e6
      id: 3558471344
      PathAndIcons:
      - ElementName: Events
        ObjectType: 5
        guid: 00000000000000000000000000000000
      - ElementName: Default Work Unit
        ObjectType: 12
        guid: fd5c28f1b72cdc4c89f6afd2821f0806
      - ElementName: MusicGame
        ObjectType: 3
        guid: 54c9beb3910eee40ad1f7a3074c691e6
      Path: Events\Default Work Unit\MusicGame
      maxAttenuation: 0
      maxDuration: -1
      minDuration: -1
    - name: MusicMenu
      guid: 02a8aa8f12da044b85f5d40ba8f0ef43
      id: 4082046343
      PathAndIcons:
      - ElementName: Events
        ObjectType: 5
        guid: 00000000000000000000000000000000
      - ElementName: Default Work Unit
        ObjectType: 12
        guid: fd5c28f1b72cdc4c89f6afd2821f0806
      - ElementName: MusicMenu
        ObjectType: 3
        guid: 02a8aa8f12da044b85f5d40ba8f0ef43
      Path: Events\Default Work Unit\MusicMenu
      maxAttenuation: 0
      maxDuration: -1
      minDuration: -1
    - name: SwordHit
      guid: c1c1a80201b34a45a90232ed48a13988
      id: 1566564139
      PathAndIcons:
      - ElementName: Events
        ObjectType: 5
        guid: 00000000000000000000000000000000
      - ElementName: Default Work Unit
        ObjectType: 12
        guid: fd5c28f1b72cdc4c89f6afd2821f0806
      - ElementName: SwordHit
        ObjectType: 3
        guid: c1c1a80201b34a45a90232ed48a13988
      Path: Events\Default Work Unit\SwordHit
      maxAttenuation: 0
      maxDuration: 2
      minDuration: 2
  RtpcWwu:
  - PhysicalPath: Game Parameters\Default Work Unit.wwu
    PathAndIcons:
    - ElementName: Game Parameters
      ObjectType: 5
      guid: 00000000000000000000000000000000
    - ElementName: Default Work Unit
      ObjectType: 12
      guid: 0bb7aadd1d222c4ca3098fce1489181d
    ParentPath: Game Parameters\Default Work Unit
    guid: 0bb7aadd1d222c4ca3098fce1489181d
    GuidInternal: 
    m_lastTime: -8585552024050495419
    List:
    - name: MasterVolume
      guid: 2e966a0935514c40a29fc576f00cf730
      id: 2918011349
      PathAndIcons:
      - ElementName: Game Parameters
        ObjectType: 5
        guid: 00000000000000000000000000000000
      - ElementName: Default Work Unit
        ObjectType: 12
        guid: 0bb7aadd1d222c4ca3098fce1489181d
      - ElementName: MasterVolume
        ObjectType: 13
        guid: 2e966a0935514c40a29fc576f00cf730
      Path: Game Parameters\Default Work Unit\MasterVolume
  StateWwu:
  - PhysicalPath: States\Default Work Unit.wwu
    PathAndIcons:
    - ElementName: States
      ObjectType: 5
      guid: 00000000000000000000000000000000
    - ElementName: Default Work Unit
      ObjectType: 12
      guid: ea8a4d7cc2bcc74bb4a322cc61de363b
    ParentPath: States\Default Work Unit
    guid: ea8a4d7cc2bcc74bb4a322cc61de363b
    GuidInternal: 
    m_lastTime: -8585553858230693457
    List: []
  SwitchWwu:
  - PhysicalPath: Switches\Default Work Unit.wwu
    PathAndIcons:
    - ElementName: Switches
      ObjectType: 5
      guid: 00000000000000000000000000000000
    - ElementName: Default Work Unit
      ObjectType: 12
      guid: 86244a2596a50740b92d344d017b3b80
    ParentPath: Switches\Default Work Unit
    guid: 86244a2596a50740b92d344d017b3b80
    GuidInternal: 
    m_lastTime: -8585552024050415344
    List:
    - name: Material
      guid: 608b43fdbd2b254b9d2dad40167e70be
      id: 3865314626
      PathAndIcons:
      - ElementName: Switches
        ObjectType: 5
        guid: 00000000000000000000000000000000
      - ElementName: Default Work Unit
        ObjectType: 12
        guid: 86244a2596a50740b92d344d017b3b80
      - ElementName: Material
        ObjectType: 11
        guid: 608b43fdbd2b254b9d2dad40167e70be
      Path: Switches\Default Work Unit\Material
      values:
      - name: Metal
        guid: 978949337f2fb541b9edba52dc7b05ce
        id: 2473969246
        PathAndIcons:
        - ElementName: Switches
          ObjectType: 5
          guid: 00000000000000000000000000000000
        - ElementName: Default Work Unit
          ObjectType: 12
          guid: 86244a2596a50740b92d344d017b3b80
        - ElementName: Material
          ObjectType: 11
          guid: 608b43fdbd2b254b9d2dad40167e70be
        - ElementName: Metal
          ObjectType: 10
          guid: 978949337f2fb541b9edba52dc7b05ce
      - name: Wood
        guid: 081b299594297b4e9630af1270ca4eca
        id: 2058049674
        PathAndIcons:
        - ElementName: Switches
          ObjectType: 5
          guid: 00000000000000000000000000000000
        - ElementName: Default Work Unit
          ObjectType: 12
          guid: 86244a2596a50740b92d344d017b3b80
        - ElementName: Material
          ObjectType: 11
          guid: 608b43fdbd2b254b9d2dad40167e70be
        - ElementName: Wood
          ObjectType: 10
          guid: 081b299594297b4e9630af1270ca4eca
      ValueGuids: []
      ValueIcons: []
      valuesInternal: []
  TriggerWwu:
  - PhysicalPath: Triggers\Default Work Unit.wwu
    PathAndIcons:
    - ElementName: Triggers
      ObjectType: 5
      guid: 00000000000000000000000000000000
    - ElementName: Default Work Unit
      ObjectType: 12
      guid: f8995ce8bf4de14dbdb326dc839c8280
    ParentPath: Triggers\Default Work Unit
    guid: f8995ce8bf4de14dbdb326dc839c8280
    GuidInternal: 
    m_lastTime: -8585553858230683459
    List: []
  ExpandedFileSystemItemIds: 
  ExpandedWaapiItemIds: 
  AutoSyncSelection: 0
  autoPopulateEnabled: 1
  currentDataSource: 0
  CurrentPluginConfig: 
