%YAML 1.1
%TAG !u! tag:unity3d.com,2011:
--- !u!1 &4471558139827117479
GameObject:
  m_ObjectHideFlags: 0
  m_CorrespondingSourceObject: {fileID: 0}
  m_PrefabInstance: {fileID: 0}
  m_PrefabAsset: {fileID: 0}
  serializedVersion: 6
  m_Component:
  - component: {fileID: 4471558139827117478}
  m_Layer: 0
  m_Name: AcidPool_Side_with_White_Walls
  m_TagString: Untagged
  m_Icon: {fileID: 0}
  m_NavMeshLayer: 0
  m_StaticEditorFlags: 2147483647
  m_IsActive: 1
--- !u!4 &4471558139827117478
Transform:
  m_ObjectHideFlags: 0
  m_CorrespondingSourceObject: {fileID: 0}
  m_PrefabInstance: {fileID: 0}
  m_PrefabAsset: {fileID: 0}
  m_GameObject: {fileID: 4471558139827117479}
  m_LocalRotation: {x: 0, y: 0, z: 0, w: 1}
  m_LocalPosition: {x: 0, y: 0, z: 0}
  m_LocalScale: {x: 1, y: 1, z: 1}
  m_ConstrainProportionsScale: 0
  m_Children:
  - {fileID: 1422929860083638060}
  - {fileID: 4471558139827362627}
  m_Father: {fileID: 0}
  m_RootOrder: 0
  m_LocalEulerAnglesHint: {x: 0, y: 0, z: 0}
--- !u!1001 &4978788326950404060
PrefabInstance:
  m_ObjectHideFlags: 0
  serializedVersion: 2
  m_Modification:
    m_TransformParent: {fileID: 4471558139827117478}
    m_Modifications:
    - target: {fileID: 8869311653604746368, guid: 602e49a0ec6b8ff4aaecd927093936c4, type: 3}
      propertyPath: m_Name
      value: Wall_white_3_x_1_with_Corner
      objectReference: {fileID: 0}
    - target: {fileID: 8869311653604746399, guid: 602e49a0ec6b8ff4aaecd927093936c4, type: 3}
      propertyPath: m_RootOrder
      value: 1
      objectReference: {fileID: 0}
    - target: {fileID: 8869311653604746399, guid: 602e49a0ec6b8ff4aaecd927093936c4, type: 3}
      propertyPath: m_LocalPosition.x
      value: 0
      objectReference: {fileID: 0}
    - target: {fileID: 8869311653604746399, guid: 602e49a0ec6b8ff4aaecd927093936c4, type: 3}
      propertyPath: m_LocalPosition.y
      value: 0
      objectReference: {fileID: 0}
    - target: {fileID: 8869311653604746399, guid: 602e49a0ec6b8ff4aaecd927093936c4, type: 3}
      propertyPath: m_LocalPosition.z
      value: 0
      objectReference: {fileID: 0}
    - target: {fileID: 8869311653604746399, guid: 602e49a0ec6b8ff4aaecd927093936c4, type: 3}
      propertyPath: m_LocalRotation.w
      value: 1
      objectReference: {fileID: 0}
    - target: {fileID: 8869311653604746399, guid: 602e49a0ec6b8ff4aaecd927093936c4, type: 3}
      propertyPath: m_LocalRotation.x
      value: -0
      objectReference: {fileID: 0}
    - target: {fileID: 8869311653604746399, guid: 602e49a0ec6b8ff4aaecd927093936c4, type: 3}
      propertyPath: m_LocalRotation.y
      value: -0
      objectReference: {fileID: 0}
    - target: {fileID: 8869311653604746399, guid: 602e49a0ec6b8ff4aaecd927093936c4, type: 3}
      propertyPath: m_LocalRotation.z
      value: -0
      objectReference: {fileID: 0}
    - target: {fileID: 8869311653604746399, guid: 602e49a0ec6b8ff4aaecd927093936c4, type: 3}
      propertyPath: m_LocalEulerAnglesHint.x
      value: 0
      objectReference: {fileID: 0}
    - target: {fileID: 8869311653604746399, guid: 602e49a0ec6b8ff4aaecd927093936c4, type: 3}
      propertyPath: m_LocalEulerAnglesHint.y
      value: 0
      objectReference: {fileID: 0}
    - target: {fileID: 8869311653604746399, guid: 602e49a0ec6b8ff4aaecd927093936c4, type: 3}
      propertyPath: m_LocalEulerAnglesHint.z
      value: 0
      objectReference: {fileID: 0}
    m_RemovedComponents: []
  m_SourcePrefab: {fileID: 100100000, guid: 602e49a0ec6b8ff4aaecd927093936c4, type: 3}
--- !u!4 &4471558139827362627 stripped
Transform:
  m_CorrespondingSourceObject: {fileID: 8869311653604746399, guid: 602e49a0ec6b8ff4aaecd927093936c4, type: 3}
  m_PrefabInstance: {fileID: 4978788326950404060}
  m_PrefabAsset: {fileID: 0}
--- !u!1001 &7244469634592524197
PrefabInstance:
  m_ObjectHideFlags: 0
  serializedVersion: 2
  m_Modification:
    m_TransformParent: {fileID: 4471558139827117478}
    m_Modifications:
    - target: {fileID: 3086841874971515712, guid: 4c20a3feadbe18e42930840d7473fdad, type: 3}
      propertyPath: m_Name
      value: Acid_Pool_3_x_1_with_corner
      objectReference: {fileID: 0}
    - target: {fileID: 8590270581946521737, guid: 4c20a3feadbe18e42930840d7473fdad, type: 3}
      propertyPath: m_RootOrder
      value: 0
      objectReference: {fileID: 0}
    - target: {fileID: 8590270581946521737, guid: 4c20a3feadbe18e42930840d7473fdad, type: 3}
      propertyPath: m_LocalPosition.x
      value: -38.399994
      objectReference: {fileID: 0}
    - target: {fileID: 8590270581946521737, guid: 4c20a3feadbe18e42930840d7473fdad, type: 3}
      propertyPath: m_LocalPosition.y
      value: -0
      objectReference: {fileID: 0}
    - target: {fileID: 8590270581946521737, guid: 4c20a3feadbe18e42930840d7473fdad, type: 3}
      propertyPath: m_LocalPosition.z
      value: 0
      objectReference: {fileID: 0}
    - target: {fileID: 8590270581946521737, guid: 4c20a3feadbe18e42930840d7473fdad, type: 3}
      propertyPath: m_LocalRotation.w
      value: 1
      objectReference: {fileID: 0}
    - target: {fileID: 8590270581946521737, guid: 4c20a3feadbe18e42930840d7473fdad, type: 3}
      propertyPath: m_LocalRotation.x
      value: -0
      objectReference: {fileID: 0}
    - target: {fileID: 8590270581946521737, guid: 4c20a3feadbe18e42930840d7473fdad, type: 3}
      propertyPath: m_LocalRotation.y
      value: -0
      objectReference: {fileID: 0}
    - target: {fileID: 8590270581946521737, guid: 4c20a3feadbe18e42930840d7473fdad, type: 3}
      propertyPath: m_LocalRotation.z
      value: -0
      objectReference: {fileID: 0}
    - target: {fileID: 8590270581946521737, guid: 4c20a3feadbe18e42930840d7473fdad, type: 3}
      propertyPath: m_LocalEulerAnglesHint.x
      value: 0
      objectReference: {fileID: 0}
    - target: {fileID: 8590270581946521737, guid: 4c20a3feadbe18e42930840d7473fdad, type: 3}
      propertyPath: m_LocalEulerAnglesHint.y
      value: 0
      objectReference: {fileID: 0}
    - target: {fileID: 8590270581946521737, guid: 4c20a3feadbe18e42930840d7473fdad, type: 3}
      propertyPath: m_LocalEulerAnglesHint.z
      value: 0
      objectReference: {fileID: 0}
    m_RemovedComponents: []
  m_SourcePrefab: {fileID: 100100000, guid: 4c20a3feadbe18e42930840d7473fdad, type: 3}
--- !u!4 &1422929860083638060 stripped
Transform:
  m_CorrespondingSourceObject: {fileID: 8590270581946521737, guid: 4c20a3feadbe18e42930840d7473fdad, type: 3}
  m_PrefabInstance: {fileID: 7244469634592524197}
  m_PrefabAsset: {fileID: 0}
