%YAML 1.1
%TAG !u! tag:unity3d.com,2011:
--- !u!1 &5153833014984436356
GameObject:
  m_ObjectHideFlags: 0
  m_CorrespondingSourceObject: {fileID: 0}
  m_PrefabInstance: {fileID: 0}
  m_PrefabAsset: {fileID: 0}
  serializedVersion: 6
  m_Component:
  - component: {fileID: 5153833014984436359}
  m_Layer: 0
  m_Name: Brown_Wall_With_Ceiling
  m_TagString: Untagged
  m_Icon: {fileID: 0}
  m_NavMeshLayer: 0
  m_StaticEditorFlags: 2147483647
  m_IsActive: 1
--- !u!4 &5153833014984436359
Transform:
  m_ObjectHideFlags: 0
  m_CorrespondingSourceObject: {fileID: 0}
  m_PrefabInstance: {fileID: 0}
  m_PrefabAsset: {fileID: 0}
  m_GameObject: {fileID: 5153833014984436356}
  m_LocalRotation: {x: 0, y: 0, z: 0, w: 1}
  m_LocalPosition: {x: 0, y: 0, z: 130.5998}
  m_LocalScale: {x: 1, y: 1, z: 1}
  m_ConstrainProportionsScale: 0
  m_Children:
  - {fileID: 4615255785706126548}
  - {fileID: 8992173198750085797}
  m_Father: {fileID: 0}
  m_RootOrder: 0
  m_LocalEulerAnglesHint: {x: 0, y: 0, z: 0}
--- !u!1001 &3883052228571861083
PrefabInstance:
  m_ObjectHideFlags: 0
  serializedVersion: 2
  m_Modification:
    m_TransformParent: {fileID: 5153833014984436359}
    m_Modifications:
    - target: {fileID: 8498276839792635023, guid: 3e6acc4abcd03b740b27f1ffb9709c53, type: 3}
      propertyPath: m_RootOrder
      value: 0
      objectReference: {fileID: 0}
    - target: {fileID: 8498276839792635023, guid: 3e6acc4abcd03b740b27f1ffb9709c53, type: 3}
      propertyPath: m_LocalPosition.x
      value: -51.200005
      objectReference: {fileID: 0}
    - target: {fileID: 8498276839792635023, guid: 3e6acc4abcd03b740b27f1ffb9709c53, type: 3}
      propertyPath: m_LocalPosition.y
      value: 25.599998
      objectReference: {fileID: 0}
    - target: {fileID: 8498276839792635023, guid: 3e6acc4abcd03b740b27f1ffb9709c53, type: 3}
      propertyPath: m_LocalPosition.z
      value: 25.950134
      objectReference: {fileID: 0}
    - target: {fileID: 8498276839792635023, guid: 3e6acc4abcd03b740b27f1ffb9709c53, type: 3}
      propertyPath: m_LocalRotation.w
      value: 0
      objectReference: {fileID: 0}
    - target: {fileID: 8498276839792635023, guid: 3e6acc4abcd03b740b27f1ffb9709c53, type: 3}
      propertyPath: m_LocalRotation.x
      value: 0
      objectReference: {fileID: 0}
    - target: {fileID: 8498276839792635023, guid: 3e6acc4abcd03b740b27f1ffb9709c53, type: 3}
      propertyPath: m_LocalRotation.y
      value: 0
      objectReference: {fileID: 0}
    - target: {fileID: 8498276839792635023, guid: 3e6acc4abcd03b740b27f1ffb9709c53, type: 3}
      propertyPath: m_LocalRotation.z
      value: 1
      objectReference: {fileID: 0}
    - target: {fileID: 8498276839792635023, guid: 3e6acc4abcd03b740b27f1ffb9709c53, type: 3}
      propertyPath: m_LocalEulerAnglesHint.x
      value: 0
      objectReference: {fileID: 0}
    - target: {fileID: 8498276839792635023, guid: 3e6acc4abcd03b740b27f1ffb9709c53, type: 3}
      propertyPath: m_LocalEulerAnglesHint.y
      value: 0
      objectReference: {fileID: 0}
    - target: {fileID: 8498276839792635023, guid: 3e6acc4abcd03b740b27f1ffb9709c53, type: 3}
      propertyPath: m_LocalEulerAnglesHint.z
      value: 180
      objectReference: {fileID: 0}
    - target: {fileID: 9125455501632779829, guid: 3e6acc4abcd03b740b27f1ffb9709c53, type: 3}
      propertyPath: m_Name
      value: Brown_Ceiling
      objectReference: {fileID: 0}
    m_RemovedComponents: []
  m_SourcePrefab: {fileID: 100100000, guid: 3e6acc4abcd03b740b27f1ffb9709c53, type: 3}
--- !u!4 &4615255785706126548 stripped
Transform:
  m_CorrespondingSourceObject: {fileID: 8498276839792635023, guid: 3e6acc4abcd03b740b27f1ffb9709c53, type: 3}
  m_PrefabInstance: {fileID: 3883052228571861083}
  m_PrefabAsset: {fileID: 0}
--- !u!1001 &5153833015847633672
PrefabInstance:
  m_ObjectHideFlags: 0
  serializedVersion: 2
  m_Modification:
    m_TransformParent: {fileID: 5153833014984436359}
    m_Modifications:
    - target: {fileID: 3460834479512120087, guid: c015a5f0fb69ad9458168ae6e6c5028a, type: 3}
      propertyPath: m_Name
      value: Brown_Wall_Energy
      objectReference: {fileID: 0}
    - target: {fileID: 4272942102059299245, guid: c015a5f0fb69ad9458168ae6e6c5028a, type: 3}
      propertyPath: m_RootOrder
      value: 1
      objectReference: {fileID: 0}
    - target: {fileID: 4272942102059299245, guid: c015a5f0fb69ad9458168ae6e6c5028a, type: 3}
      propertyPath: m_LocalPosition.x
      value: -57.300003
      objectReference: {fileID: 0}
    - target: {fileID: 4272942102059299245, guid: c015a5f0fb69ad9458168ae6e6c5028a, type: 3}
      propertyPath: m_LocalPosition.y
      value: 12.8
      objectReference: {fileID: 0}
    - target: {fileID: 4272942102059299245, guid: c015a5f0fb69ad9458168ae6e6c5028a, type: 3}
      propertyPath: m_LocalPosition.z
      value: 25.950134
      objectReference: {fileID: 0}
    - target: {fileID: 4272942102059299245, guid: c015a5f0fb69ad9458168ae6e6c5028a, type: 3}
      propertyPath: m_LocalRotation.w
      value: 1
      objectReference: {fileID: 0}
    - target: {fileID: 4272942102059299245, guid: c015a5f0fb69ad9458168ae6e6c5028a, type: 3}
      propertyPath: m_LocalRotation.x
      value: -0
      objectReference: {fileID: 0}
    - target: {fileID: 4272942102059299245, guid: c015a5f0fb69ad9458168ae6e6c5028a, type: 3}
      propertyPath: m_LocalRotation.y
      value: -0
      objectReference: {fileID: 0}
    - target: {fileID: 4272942102059299245, guid: c015a5f0fb69ad9458168ae6e6c5028a, type: 3}
      propertyPath: m_LocalRotation.z
      value: -0
      objectReference: {fileID: 0}
    - target: {fileID: 4272942102059299245, guid: c015a5f0fb69ad9458168ae6e6c5028a, type: 3}
      propertyPath: m_LocalEulerAnglesHint.x
      value: 0
      objectReference: {fileID: 0}
    - target: {fileID: 4272942102059299245, guid: c015a5f0fb69ad9458168ae6e6c5028a, type: 3}
      propertyPath: m_LocalEulerAnglesHint.y
      value: 0
      objectReference: {fileID: 0}
    - target: {fileID: 4272942102059299245, guid: c015a5f0fb69ad9458168ae6e6c5028a, type: 3}
      propertyPath: m_LocalEulerAnglesHint.z
      value: 0
      objectReference: {fileID: 0}
    m_RemovedComponents: []
  m_SourcePrefab: {fileID: 100100000, guid: c015a5f0fb69ad9458168ae6e6c5028a, type: 3}
--- !u!4 &8992173198750085797 stripped
Transform:
  m_CorrespondingSourceObject: {fileID: 4272942102059299245, guid: c015a5f0fb69ad9458168ae6e6c5028a, type: 3}
  m_PrefabInstance: {fileID: 5153833015847633672}
  m_PrefabAsset: {fileID: 0}
