%YAML 1.1
%TAG !u! tag:unity3d.com,2011:
--- !u!1 &8253884314524736930
GameObject:
  m_ObjectHideFlags: 0
  m_CorrespondingSourceObject: {fileID: 0}
  m_PrefabInstance: {fileID: 0}
  m_PrefabAsset: {fileID: 0}
  serializedVersion: 6
  m_Component:
  - component: {fileID: 8253884314524736931}
  m_Layer: 0
  m_Name: Ceiling_2_x_1
  m_TagString: Untagged
  m_Icon: {fileID: 0}
  m_NavMeshLayer: 0
  m_StaticEditorFlags: 2147483647
  m_IsActive: 1
--- !u!4 &8253884314524736931
Transform:
  m_ObjectHideFlags: 0
  m_CorrespondingSourceObject: {fileID: 0}
  m_PrefabInstance: {fileID: 0}
  m_PrefabAsset: {fileID: 0}
  m_GameObject: {fileID: 8253884314524736930}
  m_LocalRotation: {x: 0, y: 0, z: 0, w: 1}
  m_LocalPosition: {x: 56.349995, y: 2.8599997, z: 88.74502}
  m_LocalScale: {x: 1, y: 1, z: 1}
  m_ConstrainProportionsScale: 0
  m_Children:
  - {fileID: 1355281667832965515}
  - {fileID: 1355281668014373315}
  m_Father: {fileID: 0}
  m_RootOrder: 0
  m_LocalEulerAnglesHint: {x: 0, y: 0, z: 0}
--- !u!1001 &8253884315374931021
PrefabInstance:
  m_ObjectHideFlags: 0
  serializedVersion: 2
  m_Modification:
    m_TransformParent: {fileID: 8253884314524736931}
    m_Modifications:
    - target: {fileID: 6937053548578284998, guid: 59174fc1b528fe142a1171db638bf549, type: 3}
      propertyPath: m_RootOrder
      value: 0
      objectReference: {fileID: 0}
    - target: {fileID: 6937053548578284998, guid: 59174fc1b528fe142a1171db638bf549, type: 3}
      propertyPath: m_LocalPosition.x
      value: 0
      objectReference: {fileID: 0}
    - target: {fileID: 6937053548578284998, guid: 59174fc1b528fe142a1171db638bf549, type: 3}
      propertyPath: m_LocalPosition.y
      value: 0
      objectReference: {fileID: 0}
    - target: {fileID: 6937053548578284998, guid: 59174fc1b528fe142a1171db638bf549, type: 3}
      propertyPath: m_LocalPosition.z
      value: 0
      objectReference: {fileID: 0}
    - target: {fileID: 6937053548578284998, guid: 59174fc1b528fe142a1171db638bf549, type: 3}
      propertyPath: m_LocalRotation.w
      value: 1
      objectReference: {fileID: 0}
    - target: {fileID: 6937053548578284998, guid: 59174fc1b528fe142a1171db638bf549, type: 3}
      propertyPath: m_LocalRotation.x
      value: 0
      objectReference: {fileID: 0}
    - target: {fileID: 6937053548578284998, guid: 59174fc1b528fe142a1171db638bf549, type: 3}
      propertyPath: m_LocalRotation.y
      value: 0
      objectReference: {fileID: 0}
    - target: {fileID: 6937053548578284998, guid: 59174fc1b528fe142a1171db638bf549, type: 3}
      propertyPath: m_LocalRotation.z
      value: 0
      objectReference: {fileID: 0}
    - target: {fileID: 6937053548578284998, guid: 59174fc1b528fe142a1171db638bf549, type: 3}
      propertyPath: m_LocalEulerAnglesHint.x
      value: 0
      objectReference: {fileID: 0}
    - target: {fileID: 6937053548578284998, guid: 59174fc1b528fe142a1171db638bf549, type: 3}
      propertyPath: m_LocalEulerAnglesHint.y
      value: 0
      objectReference: {fileID: 0}
    - target: {fileID: 6937053548578284998, guid: 59174fc1b528fe142a1171db638bf549, type: 3}
      propertyPath: m_LocalEulerAnglesHint.z
      value: 0
      objectReference: {fileID: 0}
    - target: {fileID: 7714259197905305468, guid: 59174fc1b528fe142a1171db638bf549, type: 3}
      propertyPath: m_Name
      value: room_ceiling_see_through
      objectReference: {fileID: 0}
    m_RemovedComponents: []
  m_SourcePrefab: {fileID: 100100000, guid: 59174fc1b528fe142a1171db638bf549, type: 3}
--- !u!4 &1355281667832965515 stripped
Transform:
  m_CorrespondingSourceObject: {fileID: 6937053548578284998, guid: 59174fc1b528fe142a1171db638bf549, type: 3}
  m_PrefabInstance: {fileID: 8253884315374931021}
  m_PrefabAsset: {fileID: 0}
--- !u!1001 &8253884315696847877
PrefabInstance:
  m_ObjectHideFlags: 0
  serializedVersion: 2
  m_Modification:
    m_TransformParent: {fileID: 8253884314524736931}
    m_Modifications:
    - target: {fileID: 6937053548578284998, guid: 59174fc1b528fe142a1171db638bf549, type: 3}
      propertyPath: m_RootOrder
      value: 1
      objectReference: {fileID: 0}
    - target: {fileID: 6937053548578284998, guid: 59174fc1b528fe142a1171db638bf549, type: 3}
      propertyPath: m_LocalPosition.x
      value: 12.700001
      objectReference: {fileID: 0}
    - target: {fileID: 6937053548578284998, guid: 59174fc1b528fe142a1171db638bf549, type: 3}
      propertyPath: m_LocalPosition.y
      value: 0
      objectReference: {fileID: 0}
    - target: {fileID: 6937053548578284998, guid: 59174fc1b528fe142a1171db638bf549, type: 3}
      propertyPath: m_LocalPosition.z
      value: 0
      objectReference: {fileID: 0}
    - target: {fileID: 6937053548578284998, guid: 59174fc1b528fe142a1171db638bf549, type: 3}
      propertyPath: m_LocalRotation.w
      value: 1
      objectReference: {fileID: 0}
    - target: {fileID: 6937053548578284998, guid: 59174fc1b528fe142a1171db638bf549, type: 3}
      propertyPath: m_LocalRotation.x
      value: 0
      objectReference: {fileID: 0}
    - target: {fileID: 6937053548578284998, guid: 59174fc1b528fe142a1171db638bf549, type: 3}
      propertyPath: m_LocalRotation.y
      value: 0
      objectReference: {fileID: 0}
    - target: {fileID: 6937053548578284998, guid: 59174fc1b528fe142a1171db638bf549, type: 3}
      propertyPath: m_LocalRotation.z
      value: 0
      objectReference: {fileID: 0}
    - target: {fileID: 6937053548578284998, guid: 59174fc1b528fe142a1171db638bf549, type: 3}
      propertyPath: m_LocalEulerAnglesHint.x
      value: 0
      objectReference: {fileID: 0}
    - target: {fileID: 6937053548578284998, guid: 59174fc1b528fe142a1171db638bf549, type: 3}
      propertyPath: m_LocalEulerAnglesHint.y
      value: 0
      objectReference: {fileID: 0}
    - target: {fileID: 6937053548578284998, guid: 59174fc1b528fe142a1171db638bf549, type: 3}
      propertyPath: m_LocalEulerAnglesHint.z
      value: 0
      objectReference: {fileID: 0}
    - target: {fileID: 7714259197905305468, guid: 59174fc1b528fe142a1171db638bf549, type: 3}
      propertyPath: m_Name
      value: room_ceiling_see_through (1)
      objectReference: {fileID: 0}
    m_RemovedComponents: []
  m_SourcePrefab: {fileID: 100100000, guid: 59174fc1b528fe142a1171db638bf549, type: 3}
--- !u!4 &1355281668014373315 stripped
Transform:
  m_CorrespondingSourceObject: {fileID: 6937053548578284998, guid: 59174fc1b528fe142a1171db638bf549, type: 3}
  m_PrefabInstance: {fileID: 8253884315696847877}
  m_PrefabAsset: {fileID: 0}
