%YAML 1.1
%TAG !u! tag:unity3d.com,2011:
--- !u!1 &9083963625453704795
GameObject:
  m_ObjectHideFlags: 0
  m_CorrespondingSourceObject: {fileID: 0}
  m_PrefabInstance: {fileID: 0}
  m_PrefabAsset: {fileID: 0}
  serializedVersion: 6
  m_Component:
  - component: {fileID: 9083963625453704794}
  m_Layer: 0
  m_Name: Small_Corridor_Horizontal
  m_TagString: Untagged
  m_Icon: {fileID: 0}
  m_NavMeshLayer: 0
  m_StaticEditorFlags: 2147483647
  m_IsActive: 1
--- !u!4 &9083963625453704794
Transform:
  m_ObjectHideFlags: 0
  m_CorrespondingSourceObject: {fileID: 0}
  m_PrefabInstance: {fileID: 0}
  m_PrefabAsset: {fileID: 0}
  m_GameObject: {fileID: 9083963625453704795}
  m_LocalRotation: {x: 0, y: 0, z: 0, w: 1}
  m_LocalPosition: {x: 46.447502, y: -25.629858, z: 80.13286}
  m_LocalScale: {x: 1, y: 1, z: 1}
  m_ConstrainProportionsScale: 0
  m_Children:
  - {fileID: 2542199760328477816}
  - {fileID: 2542199759060563146}
  m_Father: {fileID: 0}
  m_RootOrder: 0
  m_LocalEulerAnglesHint: {x: 0, y: 0, z: 0}
--- !u!1001 &9083963624887852984
PrefabInstance:
  m_ObjectHideFlags: 0
  serializedVersion: 2
  m_Modification:
    m_TransformParent: {fileID: 9083963625453704794}
    m_Modifications:
    - target: {fileID: 6205077735670395336, guid: f8f33aa3bc73f224ea6ef6e986e4379e, type: 3}
      propertyPath: m_Name
      value: Corridor_normal_horizontal (1)
      objectReference: {fileID: 0}
    - target: {fileID: 6725859959598345074, guid: f8f33aa3bc73f224ea6ef6e986e4379e, type: 3}
      propertyPath: m_RootOrder
      value: 1
      objectReference: {fileID: 0}
    - target: {fileID: 6725859959598345074, guid: f8f33aa3bc73f224ea6ef6e986e4379e, type: 3}
      propertyPath: m_LocalPosition.x
      value: 22.70251
      objectReference: {fileID: 0}
    - target: {fileID: 6725859959598345074, guid: f8f33aa3bc73f224ea6ef6e986e4379e, type: 3}
      propertyPath: m_LocalPosition.y
      value: 15.389856
      objectReference: {fileID: 0}
    - target: {fileID: 6725859959598345074, guid: f8f33aa3bc73f224ea6ef6e986e4379e, type: 3}
      propertyPath: m_LocalPosition.z
      value: 8.792137
      objectReference: {fileID: 0}
    - target: {fileID: 6725859959598345074, guid: f8f33aa3bc73f224ea6ef6e986e4379e, type: 3}
      propertyPath: m_LocalRotation.w
      value: 0.7071068
      objectReference: {fileID: 0}
    - target: {fileID: 6725859959598345074, guid: f8f33aa3bc73f224ea6ef6e986e4379e, type: 3}
      propertyPath: m_LocalRotation.x
      value: -0
      objectReference: {fileID: 0}
    - target: {fileID: 6725859959598345074, guid: f8f33aa3bc73f224ea6ef6e986e4379e, type: 3}
      propertyPath: m_LocalRotation.y
      value: 0.7071068
      objectReference: {fileID: 0}
    - target: {fileID: 6725859959598345074, guid: f8f33aa3bc73f224ea6ef6e986e4379e, type: 3}
      propertyPath: m_LocalRotation.z
      value: -0
      objectReference: {fileID: 0}
    - target: {fileID: 6725859959598345074, guid: f8f33aa3bc73f224ea6ef6e986e4379e, type: 3}
      propertyPath: m_LocalEulerAnglesHint.x
      value: 0
      objectReference: {fileID: 0}
    - target: {fileID: 6725859959598345074, guid: f8f33aa3bc73f224ea6ef6e986e4379e, type: 3}
      propertyPath: m_LocalEulerAnglesHint.y
      value: 90
      objectReference: {fileID: 0}
    - target: {fileID: 6725859959598345074, guid: f8f33aa3bc73f224ea6ef6e986e4379e, type: 3}
      propertyPath: m_LocalEulerAnglesHint.z
      value: 0
      objectReference: {fileID: 0}
    m_RemovedComponents: []
  m_SourcePrefab: {fileID: 100100000, guid: f8f33aa3bc73f224ea6ef6e986e4379e, type: 3}
--- !u!4 &2542199759060563146 stripped
Transform:
  m_CorrespondingSourceObject: {fileID: 6725859959598345074, guid: f8f33aa3bc73f224ea6ef6e986e4379e, type: 3}
  m_PrefabInstance: {fileID: 9083963624887852984}
  m_PrefabAsset: {fileID: 0}
--- !u!1001 &9083963626038470410
PrefabInstance:
  m_ObjectHideFlags: 0
  serializedVersion: 2
  m_Modification:
    m_TransformParent: {fileID: 9083963625453704794}
    m_Modifications:
    - target: {fileID: 6205077735670395336, guid: f8f33aa3bc73f224ea6ef6e986e4379e, type: 3}
      propertyPath: m_Name
      value: Corridor_normal_horizontal
      objectReference: {fileID: 0}
    - target: {fileID: 6725859959598345074, guid: f8f33aa3bc73f224ea6ef6e986e4379e, type: 3}
      propertyPath: m_RootOrder
      value: 0
      objectReference: {fileID: 0}
    - target: {fileID: 6725859959598345074, guid: f8f33aa3bc73f224ea6ef6e986e4379e, type: 3}
      propertyPath: m_LocalPosition.x
      value: 9.902508
      objectReference: {fileID: 0}
    - target: {fileID: 6725859959598345074, guid: f8f33aa3bc73f224ea6ef6e986e4379e, type: 3}
      propertyPath: m_LocalPosition.y
      value: 15.389856
      objectReference: {fileID: 0}
    - target: {fileID: 6725859959598345074, guid: f8f33aa3bc73f224ea6ef6e986e4379e, type: 3}
      propertyPath: m_LocalPosition.z
      value: 8.792137
      objectReference: {fileID: 0}
    - target: {fileID: 6725859959598345074, guid: f8f33aa3bc73f224ea6ef6e986e4379e, type: 3}
      propertyPath: m_LocalRotation.w
      value: 0.7071068
      objectReference: {fileID: 0}
    - target: {fileID: 6725859959598345074, guid: f8f33aa3bc73f224ea6ef6e986e4379e, type: 3}
      propertyPath: m_LocalRotation.x
      value: -0
      objectReference: {fileID: 0}
    - target: {fileID: 6725859959598345074, guid: f8f33aa3bc73f224ea6ef6e986e4379e, type: 3}
      propertyPath: m_LocalRotation.y
      value: 0.7071068
      objectReference: {fileID: 0}
    - target: {fileID: 6725859959598345074, guid: f8f33aa3bc73f224ea6ef6e986e4379e, type: 3}
      propertyPath: m_LocalRotation.z
      value: -0
      objectReference: {fileID: 0}
    - target: {fileID: 6725859959598345074, guid: f8f33aa3bc73f224ea6ef6e986e4379e, type: 3}
      propertyPath: m_LocalEulerAnglesHint.x
      value: 0
      objectReference: {fileID: 0}
    - target: {fileID: 6725859959598345074, guid: f8f33aa3bc73f224ea6ef6e986e4379e, type: 3}
      propertyPath: m_LocalEulerAnglesHint.y
      value: 90
      objectReference: {fileID: 0}
    - target: {fileID: 6725859959598345074, guid: f8f33aa3bc73f224ea6ef6e986e4379e, type: 3}
      propertyPath: m_LocalEulerAnglesHint.z
      value: 0
      objectReference: {fileID: 0}
    m_RemovedComponents: []
  m_SourcePrefab: {fileID: 100100000, guid: f8f33aa3bc73f224ea6ef6e986e4379e, type: 3}
--- !u!4 &2542199760328477816 stripped
Transform:
  m_CorrespondingSourceObject: {fileID: 6725859959598345074, guid: f8f33aa3bc73f224ea6ef6e986e4379e, type: 3}
  m_PrefabInstance: {fileID: 9083963626038470410}
  m_PrefabAsset: {fileID: 0}
