# Blender MTL File: 'None'
# Material Count: 1

newmtl palette
Ns 0.000000
Ka 1.000000 1.000000 1.000000
Kd 1.000000 1.000000 1.000000
Ks 0.000000 0.000000 0.000000
Ke 0.000000 0.000000 0.000000
Ni 1.450000
d 1.000000
illum 1
map_Kd Room_Ceiling-0-Room_Asset.png
