# MagicaVoxel @ Ephtracy

# group
o 

# material
mtllib Stairs_without_walls-0.mtl
usemtl palette

# normals
vn -1 0 0
vn 1 0 0
vn 0 0 1
vn 0 0 -1
vn 0 -1 0
vn 0 1 0

# texcoords
vt 0.373047 0.5
vt 0.498047 0.5
vt 0.771484 0.5

# verts
v -6.4 0 12.8
v -6.4 0 -12.8
v -6.4 0.3 12.8
v -6.4 0.3 11.5
v -6.4 0.9 11.5
v -6.4 0.9 10.4
v -6.4 1.5 10.4
v -6.4 1.5 9.4
v -6.4 2.2 9.4
v -6.4 2.2 8.6
v -6.4 2.9 8.6
v -6.4 2.9 7.1
v -6.4 3.6 7.1
v -6.4 3.6 5.9
v -6.4 4.1 5.9
v -6.4 4.1 4.6
v -6.4 4.9 4.6
v -6.4 4.9 3.4
v -6.4 5.5 3.4
v -6.4 5.5 2.2
v -6.4 6.3 2.2
v -6.4 6.3 0.700001
v -6.4 6.8 0.700001
v -6.4 6.8 -0.5
v -6.4 7.6 -0.5
v -6.4 7.6 -1.9
v -6.4 8.4 -1.9
v -6.4 8.4 -3.2
v -6.4 9 -3.2
v -6.4 9 -4.7
v -6.4 9.8 -4.7
v -6.4 9.8 -5.8
v -6.4 10.3 -5.8
v -6.4 10.3 -7.1
v -6.4 11.1 -7.1
v -6.4 11.1 -8.4
v -6.4 11.7 -8.4
v -6.4 11.7 -9.9
v -6.4 12.4 -9.9
v -6.4 12.4 -11.1
v -6.4 12.8 -11.1
v -6.4 12.8 -12.8
v -2.5 7.5 -1.5
v -2.5 7.5 -1.7
v -2.5 7.6 -1.5
v -2.5 7.6 -1.7
v -2.4 7.5 -1.7
v -2.4 7.5 -1.9
v -2.4 7.6 -1.7
v -2.4 7.6 -1.9
v -2.3 7.6 -1.9
v -2.3 7.6 -2
v -2.3 7.8 -1.9
v -2.3 7.8 -2
v -2.3 11.6 -9.1
v -2.3 11.6 -9.3
v -2.3 11.7 -9.1
v -2.3 11.7 -9.3
v -2.2 7.8 -1.9
v -2.2 7.8 -2
v -2.2 7.9 -1.9
v -2.2 7.9 -2
v -2.2 7.9 -2.2
v -2.2 8 -2.2
v -2.2 8 -2.3
v -2.2 8.1 -2
v -2.2 8.1 -2.1
v -2.2 8.2 -2.2
v -2.2 8.2 -2.3
v -2.2 8.3 -2.1
v -2.2 8.3 -2.2
v -2.2 11.6 -9.3
v -2.2 11.6 -9.4
v -2.2 11.7 -9.3
v -2.2 11.7 -9.4
v -2.1 8.1 -2
v -2.1 8.1 -2.1
v -2.1 8.2 -2
v -2.1 8.2 -2.1
v -2.1 8.2 -2.2
v -2.1 8.2 -2.3
v -2.1 8.3 -2.2
v -2.1 8.3 -2.3
v -2.1 8.3 -2.4
v -2.1 8.4 -2.2
v -2.1 8.4 -2.4
v -2 7.9 -1.9
v -2 7.9 -2
v -2 8 -1.9
v -2 8 -2
v -2 8.2 -2
v -2 8.2 -2.2
v -2 8.3 -2
v -2 8.3 -2.1
v -2 8.4 -2.1
v -2 8.4 -2.2
v -2 11.6 -9.4
v -2 11.6 -9.5
v -2 11.7 -9.4
v -2 11.7 -9.5
v -1.9 11.6 -9.5
v -1.9 11.6 -9.6
v -1.9 11.7 -9.5
v -1.9 11.7 -9.6
v -1.8 8 -1.9
v -1.8 8 -2
v -1.8 8 -2.1
v -1.8 8.1 -1.9
v -1.8 8.1 -2
v -1.8 8.3 -2
v -1.8 8.3 -2.1
v -1.7 7.5 -1.8
v -1.7 7.5 -1.9
v -1.7 7.6 -1.8
v -1.7 7.6 -1.9
v -1.7 7.6 -2
v -1.7 7.6 -2.1
v -1.7 7.7 -1.9
v -1.7 7.7 -2
v -1.7 7.8 -1.9
v -1.7 7.8 -2
v -1.7 7.9 -2
v -1.7 7.9 -2.1
v -1.7 8.1 -1.9
v -1.7 8.1 -2
v -1.7 8.3 -2
v -1.7 8.3 -2.2
v -1.7 8.4 -1.9
v -1.7 8.4 -2.2
v -1.7 11.6 -9.6
v -1.7 11.6 -9.7
v -1.7 11.7 -9.6
v -1.7 11.7 -9.7
v -1.6 7.6 -1.9
v -1.6 7.6 -2
v -1.6 7.7 -1.9
v -1.6 7.7 -2
v -1.6 11.6 -8.7
v -1.6 11.6 -8.8
v -1.6 11.6 -9.7
v -1.6 11.6 -9.8
v -1.6 11.7 -8.7
v -1.6 11.7 -8.8
v -1.6 11.7 -9.7
v -1.6 11.7 -9.8
v -1.5 7.7 -1.9
v -1.5 7.7 -2
v -1.5 7.9 -1.9
v -1.5 7.9 -2
v -1.5 8 -2
v -1.5 8 -2.1
v -1.5 8.1 -1.9
v -1.5 8.1 -2
v -1.5 8.1 -2.1
v -1.5 8.2 -1.9
v -1.5 8.2 -2
v -1.5 11.6 -8.8
v -1.5 11.6 -9
v -1.5 11.6 -9.8
v -1.5 11.6 -9.9
v -1.5 11.7 -8.8
v -1.5 11.7 -9
v -1.5 11.7 -9.8
v -1.5 11.7 -9.9
v -1.4 8.2 -1.9
v -1.4 8.2 -2
v -1.4 8.4 -1.9
v -1.4 8.4 -2
v -1.4 11.6 -9
v -1.4 11.6 -9.2
v -1.4 11.7 -9
v -1.4 11.7 -9.2
v -1.4 12.1 -9.9
v -1.4 12.1 -10
v -1.4 12.4 -9.9
v -1.4 12.4 -10
v -1.3 7.9 -1.9
v -1.3 7.9 -2
v -1.3 8.1 -1.9
v -1.3 8.1 -2
v -1.3 11.6 -9.2
v -1.3 11.6 -9.3
v -1.3 11.6 -9.6
v -1.3 11.6 -9.7
v -1.3 11.7 -9.2
v -1.3 11.7 -9.3
v -1.3 11.7 -9.6
v -1.3 11.7 -9.7
v -1.3 11.8 -9.9
v -1.3 11.8 -10
v -1.3 12.1 -9.9
v -1.3 12.1 -10
v -1.2 11.6 -9.3
v -1.2 11.6 -9.4
v -1.2 11.6 -9.7
v -1.2 11.6 -9.9
v -1.2 11.7 -9.3
v -1.2 11.7 -9.4
v -1.2 11.7 -9.7
v -1.2 11.7 -9.9
v -1.2 11.7 -10
v -1.2 11.8 -9.9
v -1.2 11.8 -10
v -1.1 11.6 -9.4
v -1.1 11.6 -9.6
v -1.1 11.7 -9.4
v -1.1 11.7 -9.6
v -1 11.6 -9.6
v -1 11.6 -9.8
v -1 11.7 -9.6
v -1 11.7 -9.8
v -0.9 11.6 -9.8
v -0.9 11.6 -9.9
v -0.9 11.7 -9.8
v -0.9 11.7 -9.9
v -0.9 11.7 -10
v -0.9 11.9 -9.9
v -0.9 11.9 -10
v -0.8 6.2 2.2
v -0.8 6.2 2.1
v -0.8 6.3 2.2
v -0.8 6.3 2.1
v -0.8 11.9 -9.9
v -0.8 11.9 -10
v -0.8 12.1 -9.9
v -0.8 12.1 -10
v -0.7 4.3 3.2
v -0.7 4.3 3.1
v -0.7 4.4 3.2
v -0.7 4.4 3.1
v -0.7 12.1 -9.9
v -0.7 12.1 -10
v -0.7 12.4 -9.9
v -0.7 12.4 -10
v -0.4 4.4 3.2
v -0.4 4.4 3.1
v -0.4 4.5 3.2
v -0.4 4.5 3.1
v -0.3 6 1.5
v -0.3 6 1.4
v -0.3 6.1 1.5
v -0.3 6.1 1.4
v -0.2 4.1 3.4
v -0.2 4.1 3.3
v -0.2 4.2 3.4
v -0.2 4.2 3.3
v -0.2 4.5 3.2
v -0.2 4.5 3.1
v -0.2 4.6 3.2
v -0.2 4.6 3.1
v -0.0999999 4.6 3.2
v -0.0999999 4.6 3.1
v -0.0999999 4.7 3.2
v -0.0999999 4.7 3.1
v -0.0999999 6 1.6
v -0.0999999 6 1.5
v -0.0999999 6.1 1.6
v -0.0999999 6.1 1.5
v 0 4.7 3.2
v 0 4.7 3.1
v 0 4.8 3.2
v 0 4.8 3.1
v 0 6.2 2.1
v 0 6.2 2
v 0 6.3 2.1
v 0 6.3 2
v 0.0999999 4.2 3.4
v 0.0999999 4.2 3.3
v 0.0999999 4.3 3.4
v 0.0999999 4.3 3.3
v 0.0999999 4.8 3.2
v 0.0999999 4.8 3.1
v 0.0999999 4.9 3.2
v 0.0999999 4.9 3.1
v 0.0999999 6 1.7
v 0.0999999 6 1.6
v 0.0999999 6.1 1.7
v 0.0999999 6.1 1.6
v 0.2 4.9 3.2
v 0.2 4.9 3.1
v 0.2 5.1 3.2
v 0.2 5.1 3.1
v 0.2 6 1.8
v 0.2 6 1.7
v 0.2 6.1 1.8
v 0.2 6.1 1.7
v 0.2 6.2 2.2
v 0.2 6.2 2.1
v 0.2 6.3 2.2
v 0.2 6.3 2.1
v 0.3 4.3 3.4
v 0.3 4.3 3.3
v 0.3 4.4 3.4
v 0.3 4.4 3.3
v 0.3 5.1 3.2
v 0.3 5.1 3.1
v 0.3 5.4 3.2
v 0.3 5.4 3.1
v 0.3 6 1.9
v 0.3 6 1.8
v 0.3 6.1 1.9
v 0.3 6.1 1.8
v 0.4 4.7 3.3
v 0.4 4.7 3.2
v 0.4 4.8 3.3
v 0.4 4.8 3.2
v 0.4 5.4 3.2
v 0.4 5.4 3.1
v 0.4 5.5 3.2
v 0.4 5.5 3.1
v 0.4 6 2.1
v 0.4 6 1.9
v 0.4 6.1 2.1
v 0.4 6.1 1.9
v 0.5 4.4 3.4
v 0.5 4.4 3.3
v 0.5 4.5 3.4
v 0.5 4.5 3.3
v 0.5 6 2.2
v 0.5 6 2.1
v 0.5 6.1 2.2
v 0.5 6.1 2.1
v 0.5 12.7 -11.1
v 0.5 12.7 -11.3
v 0.5 12.8 -11.1
v 0.5 12.8 -11.3
v 0.6 4.5 3.4
v 0.6 4.5 3.3
v 0.6 4.6 3.4
v 0.6 4.6 3.3
v 0.6 4.8 3.3
v 0.6 4.8 3.2
v 0.6 4.9 3.3
v 0.6 4.9 3.2
v 0.6 12.7 -11.3
v 0.6 12.7 -11.5
v 0.6 12.8 -11.3
v 0.6 12.8 -11.5
v 0.7 4.6 3.4
v 0.7 4.6 3.3
v 0.7 4.7 3.4
v 0.7 4.7 3.3
v 0.7 12.7 -11.5
v 0.7 12.7 -11.6
v 0.7 12.8 -11.5
v 0.7 12.8 -11.6
v 0.8 4.7 3.4
v 0.8 4.7 3.3
v 0.8 4.8 3.4
v 0.8 4.8 3.3
v 0.8 4.9 3.3
v 0.8 4.9 3.2
v 0.8 5 3.3
v 0.8 5 3.2
v 0.9 4.8 3.4
v 0.9 4.8 3.3
v 0.9 4.9 3.4
v 0.9 4.9 3.3
v 0.9 5 3.3
v 0.9 5 3.2
v 0.9 5.1 3.3
v 0.9 5.1 3.2
v 1 4.9 3.4
v 1 4.9 3.3
v 1 5 3.4
v 1 5 3.3
v 1 5.1 3.3
v 1 5.1 3.2
v 1 5.2 3.3
v 1 5.2 3.2
v 1.1 5 3.4
v 1.1 5 3.3
v 1.1 5.2 3.4
v 1.1 5.2 3.3
v 1.1 5.2 3.2
v 1.1 5.4 3.3
v 1.1 5.4 3.2
v 1.2 5.2 3.4
v 1.2 5.2 3.3
v 1.2 5.4 3.4
v 1.2 5.4 3.3
v 1.2 5.4 3.2
v 1.2 5.5 3.3
v 1.2 5.5 3.2
v 1.3 5.4 3.4
v 1.3 5.4 3.3
v 1.3 5.5 3.4
v 1.3 5.5 3.3
v 1.7 2.8 8.6
v 1.7 2.8 8.5
v 1.7 2.9 8.6
v 1.7 2.9 8.5
v 1.8 2.6 8.6
v 1.8 2.6 8.5
v 1.8 2.8 8.6
v 1.8 2.8 8.5
v 2 2.5 8.6
v 2 2.5 8.5
v 2 2.7 8.6
v 2 2.7 8.5
v 2.1 2.8 8.6
v 2.1 2.8 8.5
v 2.1 2.9 8.6
v 2.1 2.9 8.5
v 2.2 2.5 8.6
v 2.2 2.5 8.5
v 2.2 2.8 8.6
v 2.2 2.8 8.5
v 2.3 2.3 8.6
v 2.3 2.3 8.5
v 2.3 2.5 8.6
v 2.3 2.5 8.5
v 2.4 2.1 9
v 2.4 2.1 8.6
v 2.4 2.2 9
v 2.4 2.2 8.6
v 2.4 2.2 8.5
v 2.4 2.3 8.6
v 2.4 2.3 8.5
v -2.7 7.5 -1.7
v -2.7 7.5 -1.8
v -2.7 7.6 -1.7
v -2.7 7.6 -1.8
v -2.7 8.3 -1.9
v -2.7 8.3 -2
v -2.7 8.4 -1.9
v -2.7 8.4 -2
v -2.6 5.4 3.4
v -2.6 5.4 3.3
v -2.6 5.5 3.4
v -2.6 5.5 3.3
v -2.6 7.5 -1.5
v -2.6 7.5 -1.7
v -2.6 7.5 -1.8
v -2.6 7.5 -1.9
v -2.6 7.6 -1.5
v -2.6 7.6 -1.7
v -2.6 7.6 -1.8
v -2.6 7.6 -1.9
v -2.6 7.6 -2
v -2.6 7.7 -1.9
v -2.6 7.7 -2
v -2.6 8.1 -1.9
v -2.6 8.1 -2
v -2.6 8.3 -1.9
v -2.6 8.3 -2
v -2.5 5.2 3.4
v -2.5 5.2 3.3
v -2.5 5.4 3.4
v -2.5 5.4 3.3
v -2.5 5.4 3.2
v -2.5 5.4 3.1
v -2.5 5.5 3.2
v -2.5 5.5 3.1
v -2.5 7.7 -1.9
v -2.5 7.7 -2
v -2.5 7.9 -1.9
v -2.5 7.9 -2
v -2.4 5 3.4
v -2.4 5 3.3
v -2.4 5.1 3.2
v -2.4 5.1 3.1
v -2.4 5.2 3.4
v -2.4 5.2 3.3
v -2.4 5.4 3.2
v -2.4 5.4 3.1
v -2.4 7.9 -1.9
v -2.4 7.9 -2
v -2.4 7.9 -2.1
v -2.4 8.1 -1.9
v -2.4 8.1 -2
v -2.4 8.1 -2.1
v -2.4 8.2 -2
v -2.4 8.2 -2.1
v -2.4 8.4 -2
v -2.4 8.4 -2.1
v -2.4 11.6 -9.1
v -2.4 11.6 -9.3
v -2.4 11.7 -9.1
v -2.4 11.7 -9.3
v -2.3 4.9 3.4
v -2.3 4.9 3.3
v -2.3 4.9 3.2
v -2.3 4.9 3.1
v -2.3 5 3.4
v -2.3 5 3.3
v -2.3 5.1 3.2
v -2.3 5.1 3.1
v -2.3 7.9 -2.1
v -2.3 7.9 -2.2
v -2.3 8 -2.2
v -2.3 8 -2.3
v -2.3 8.1 -2
v -2.3 8.1 -2.1
v -2.3 8.2 -2
v -2.3 8.2 -2.1
v -2.3 8.3 -2.1
v -2.3 8.3 -2.3
v -2.3 11.6 -9.3
v -2.3 11.6 -9.4
v -2.3 11.7 -9.3
v -2.3 11.7 -9.4
v -2.2 4.8 3.4
v -2.2 4.8 3.3
v -2.2 4.8 3.2
v -2.2 4.8 3.1
v -2.2 4.9 3.4
v -2.2 4.9 3.3
v -2.2 4.9 3.2
v -2.2 4.9 3.1
v -2.2 8.3 -2.1
v -2.2 8.3 -2.2
v -2.2 8.3 -2.3
v -2.2 8.3 -2.4
v -2.2 8.4 -2.1
v -2.2 8.4 -2.4
v -2.2 11.6 -9.4
v -2.2 11.6 -9.5
v -2.2 11.7 -9.4
v -2.2 11.7 -9.5
v -2.1 4.7 3.4
v -2.1 4.7 3.3
v -2.1 4.7 3.2
v -2.1 4.7 3.1
v -2.1 4.8 3.4
v -2.1 4.8 3.3
v -2.1 4.8 3.2
v -2.1 4.8 3.1
v -2.1 8.2 -2.1
v -2.1 8.2 -2.2
v -2.1 8.3 -2.1
v -2.1 8.3 -2.2
v -2 4.6 3.4
v -2 4.6 3.3
v -2 4.6 3.2
v -2 4.6 3.1
v -2 4.7 3.4
v -2 4.7 3.3
v -2 4.7 3.2
v -2 4.7 3.1
v -2 7.8 -1.9
v -2 7.8 -2
v -2 7.9 -1.9
v -2 7.9 -2
v -2 11.6 -9.5
v -2 11.6 -9.6
v -2 11.7 -9.5
v -2 11.7 -9.6
v -1.9 4.5 3.4
v -1.9 4.5 3.3
v -1.9 4.5 3.2
v -1.9 4.5 3.1
v -1.9 4.6 3.4
v -1.9 4.6 3.3
v -1.9 4.6 3.2
v -1.9 4.6 3.1
v -1.9 7.7 -1.9
v -1.9 7.7 -2
v -1.9 7.8 -1.9
v -1.9 7.8 -2
v -1.9 7.8 -2.1
v -1.9 7.9 -1.9
v -1.9 7.9 -2
v -1.9 7.9 -2.1
v -1.9 8 -1.9
v -1.9 8 -2
v -1.9 8 -2.1
v -1.9 8.3 -2
v -1.9 8.3 -2.1
v -1.9 11.6 -9.6
v -1.9 11.6 -9.7
v -1.9 11.7 -9.6
v -1.9 11.7 -9.7
v -1.8 4.4 3.4
v -1.8 4.4 3.3
v -1.8 4.5 3.4
v -1.8 4.5 3.3
v -1.8 6 2.2
v -1.8 6 2.1
v -1.8 6.1 2.2
v -1.8 6.1 2.1
v -1.8 7.5 -1.8
v -1.8 7.5 -1.9
v -1.8 7.6 -1.8
v -1.8 7.6 -1.9
v -1.8 7.6 -2.1
v -1.8 7.7 -1.9
v -1.8 7.7 -2
v -1.8 7.8 -2
v -1.8 7.8 -2.1
v -1.8 8.3 -2.1
v -1.8 8.3 -2.2
v -1.8 8.4 -2.1
v -1.8 8.4 -2.2
v -1.8 11.6 -9.7
v -1.8 11.6 -9.8
v -1.8 11.7 -9.7
v -1.8 11.7 -9.8
v -1.7 4.4 3.2
v -1.7 4.4 3.1
v -1.7 4.5 3.2
v -1.7 4.5 3.1
v -1.7 6 2.1
v -1.7 6 1.9
v -1.7 6.1 2.1
v -1.7 6.1 1.9
v -1.7 8 -1.9
v -1.7 8 -2
v -1.7 8.1 -1.9
v -1.7 8.1 -2
v -1.7 11.6 -8.7
v -1.7 11.6 -8.8
v -1.7 11.6 -9.8
v -1.7 11.6 -9.9
v -1.7 11.7 -8.7
v -1.7 11.7 -8.8
v -1.7 11.7 -9.8
v -1.7 11.7 -9.9
v -1.6 4.3 3.4
v -1.6 4.3 3.3
v -1.6 4.4 3.4
v -1.6 4.4 3.3
v -1.6 6 1.9
v -1.6 6 1.8
v -1.6 6.1 1.9
v -1.6 6.1 1.8
v -1.6 7.7 -1.9
v -1.6 7.7 -2
v -1.6 7.8 -1.9
v -1.6 7.8 -2
v -1.6 8 -2
v -1.6 8 -2.1
v -1.6 8.1 -1.9
v -1.6 8.1 -2
v -1.6 8.1 -2.1
v -1.6 8.2 -1.9
v -1.6 8.2 -2
v -1.6 11.6 -8.8
v -1.6 11.6 -9
v -1.6 11.7 -8.8
v -1.6 11.7 -9
v -1.5 6 1.8
v -1.5 6 1.7
v -1.5 6.1 1.8
v -1.5 6.1 1.7
v -1.5 8.2 -1.9
v -1.5 8.2 -2
v -1.5 8.4 -1.9
v -1.5 8.4 -2
v -1.5 11.6 -9
v -1.5 11.6 -9.2
v -1.5 11.7 -9
v -1.5 11.7 -9.2
v -1.5 12.1 -9.9
v -1.5 12.1 -10
v -1.5 12.4 -9.9
v -1.5 12.4 -10
v -1.4 4.2 3.4
v -1.4 4.2 3.3
v -1.4 4.3 3.4
v -1.4 4.3 3.3
v -1.4 4.3 3.2
v -1.4 4.3 3.1
v -1.4 4.4 3.2
v -1.4 4.4 3.1
v -1.4 6 1.7
v -1.4 6 1.6
v -1.4 6.1 1.7
v -1.4 6.1 1.6
v -1.4 11.6 -9.2
v -1.4 11.6 -9.4
v -1.4 11.6 -9.6
v -1.4 11.6 -9.7
v -1.4 11.7 -9.2
v -1.4 11.7 -9.4
v -1.4 11.7 -9.6
v -1.4 11.7 -9.7
v -1.4 11.7 -9.9
v -1.4 11.7 -10
v -1.4 12.1 -9.9
v -1.4 12.1 -10
v -1.3 6.2 2.2
v -1.3 6.2 2.1
v -1.3 6.3 2.2
v -1.3 6.3 2.1
v -1.3 11.6 -9.7
v -1.3 11.6 -9.9
v -1.3 11.7 -9.7
v -1.3 11.7 -9.9
v -1.2 6 1.6
v -1.2 6 1.5
v -1.2 6.1 1.6
v -1.2 6.1 1.5
v -1.2 11.6 -9.4
v -1.2 11.6 -9.6
v -1.2 11.7 -9.4
v -1.2 11.7 -9.6
v -1.1 4.1 3.4
v -1.1 4.1 3.3
v -1.1 4.2 3.4
v -1.1 4.2 3.3
v -1.1 5.4 3.3
v -1.1 5.4 3.2
v -1.1 5.5 3.3
v -1.1 5.5 3.2
v -1.1 11.6 -9.6
v -1.1 11.6 -9.8
v -1.1 11.7 -9.6
v -1.1 11.7 -9.8
v -1 5.2 3.3
v -1 5.2 3.2
v -1 5.4 3.3
v -1 5.4 3.2
v -1 6 1.5
v -1 6 1.4
v -1 6.1 1.5
v -1 6.1 1.4
v -1 11.6 -9.8
v -1 11.6 -9.9
v -1 11.7 -9.8
v -1 11.7 -9.9
v -1 11.7 -10
v -1 11.9 -9.9
v -1 11.9 -10
v -0.9 5.1 3.3
v -0.9 5.1 3.2
v -0.9 5.2 3.3
v -0.9 5.2 3.2
v -0.9 11.9 -9.9
v -0.9 11.9 -10
v -0.9 12.1 -9.9
v -0.9 12.1 -10
v -0.8 5 3.3
v -0.8 5 3.2
v -0.8 5.1 3.3
v -0.8 5.1 3.2
v -0.8 12.1 -9.9
v -0.8 12.1 -10
v -0.8 12.4 -9.9
v -0.8 12.4 -10
v -0.7 4.9 3.3
v -0.7 4.9 3.2
v -0.7 5 3.3
v -0.7 5 3.2
v -0.7 6.2 2.2
v -0.7 6.2 2.1
v -0.7 6.3 2.2
v -0.7 6.3 2.1
v -0.5 4.8 3.3
v -0.5 4.8 3.2
v -0.5 4.9 3.3
v -0.5 4.9 3.2
v -0.5 6.2 2.1
v -0.5 6.2 2
v -0.5 6.3 2.1
v -0.5 6.3 2
v -0.3 4.7 3.3
v -0.3 4.7 3.2
v -0.3 4.8 3.3
v -0.3 4.8 3.2
v 0.4 12.7 -11.1
v 0.4 12.7 -11.3
v 0.4 12.8 -11.1
v 0.4 12.8 -11.3
v 0.5 12.7 -11.3
v 0.5 12.7 -11.5
v 0.5 12.8 -11.3
v 0.5 12.8 -11.5
v 0.6 12.7 -11.5
v 0.6 12.7 -11.6
v 0.6 12.8 -11.5
v 0.6 12.8 -11.6
v 1.6 2.8 8.6
v 1.6 2.8 8.5
v 1.6 2.9 8.6
v 1.6 2.9 8.5
v 1.7 2.6 8.6
v 1.7 2.6 8.5
v 1.7 2.8 8.6
v 1.7 2.8 8.5
v 1.9 2.5 8.6
v 1.9 2.5 8.5
v 1.9 2.9 8.6
v 1.9 2.9 8.5
v 2.1 2.5 8.6
v 2.1 2.5 8.5
v 2.1 2.7 8.6
v 2.1 2.7 8.5
v 2.2 2.3 8.6
v 2.2 2.3 8.5
v 2.2 2.5 8.6
v 2.2 2.5 8.5
v 2.3 2.1 9
v 2.3 2.1 8.6
v 2.3 2.2 9
v 2.3 2.2 8.6
v 2.3 2.2 8.5
v 2.3 2.3 8.6
v 2.3 2.3 8.5
v 6.4 0 12.8
v 6.4 0 -12.8
v 6.4 0.3 12.8
v 6.4 0.3 11.5
v 6.4 0.9 11.5
v 6.4 0.9 10.4
v 6.4 1.5 10.4
v 6.4 1.5 9.4
v 6.4 2.2 9.4
v 6.4 2.2 8.6
v 6.4 2.9 8.6
v 6.4 2.9 7.1
v 6.4 3.6 7.1
v 6.4 3.6 5.9
v 6.4 4.1 5.9
v 6.4 4.1 4.6
v 6.4 4.9 4.6
v 6.4 4.9 3.4
v 6.4 5.5 3.4
v 6.4 5.5 2.2
v 6.4 6.3 2.2
v 6.4 6.3 0.700001
v 6.4 6.8 0.700001
v 6.4 6.8 -0.5
v 6.4 7.6 -0.5
v 6.4 7.6 -1.9
v 6.4 8.4 -1.9
v 6.4 8.4 -3.2
v 6.4 9 -3.2
v 6.4 9 -4.7
v 6.4 9.8 -4.7
v 6.4 9.8 -5.8
v 6.4 10.3 -5.8
v 6.4 10.3 -7.1
v 6.4 11.1 -7.1
v 6.4 11.1 -8.4
v 6.4 11.7 -8.4
v 6.4 11.7 -9.9
v 6.4 12.4 -9.9
v 6.4 12.4 -11.1
v 6.4 12.8 -11.1
v 6.4 12.8 -12.8
v -6.4 0 12.8
v -6.4 0.3 12.8
v 6.4 0 12.8
v 6.4 0.3 12.8
v -6.4 0.3 11.5
v -6.4 0.9 11.5
v 6.4 0.3 11.5
v 6.4 0.9 11.5
v -6.4 0.9 10.4
v -6.4 1.5 10.4
v 6.4 0.9 10.4
v 6.4 1.5 10.4
v -6.4 1.5 9.4
v -6.4 2.2 9.4
v 6.4 1.5 9.4
v 6.4 2.2 9.4
v -6.4 2.2 8.6
v -6.4 2.9 8.6
v 1.6 2.8 8.6
v 1.6 2.9 8.6
v 1.7 2.6 8.6
v 1.7 2.8 8.6
v 1.7 2.9 8.6
v 1.8 2.6 8.6
v 1.8 2.8 8.6
v 1.9 2.5 8.6
v 1.9 2.9 8.6
v 2 2.5 8.6
v 2 2.7 8.6
v 2.1 2.5 8.6
v 2.1 2.7 8.6
v 2.1 2.8 8.6
v 2.1 2.9 8.6
v 2.2 2.3 8.6
v 2.2 2.5 8.6
v 2.2 2.8 8.6
v 2.3 2.1 8.6
v 2.3 2.2 8.6
v 2.3 2.3 8.6
v 2.3 2.5 8.6
v 2.4 2.1 8.6
v 2.4 2.2 8.6
v 2.4 2.3 8.6
v 6.4 2.2 8.6
v 6.4 2.9 8.6
v 1.6 2.8 8.5
v 1.6 2.9 8.5
v 1.7 2.6 8.5
v 1.7 2.8 8.5
v 1.7 2.9 8.5
v 1.8 2.6 8.5
v 1.8 2.8 8.5
v 1.9 2.5 8.5
v 1.9 2.9 8.5
v 2 2.5 8.5
v 2 2.7 8.5
v 2.1 2.5 8.5
v 2.1 2.7 8.5
v 2.1 2.8 8.5
v 2.1 2.9 8.5
v 2.2 2.3 8.5
v 2.2 2.5 8.5
v 2.2 2.8 8.5
v 2.3 2.2 8.5
v 2.3 2.3 8.5
v 2.3 2.5 8.5
v 2.4 2.2 8.5
v 2.4 2.3 8.5
v -6.4 2.9 7.1
v -6.4 3.6 7.1
v 6.4 2.9 7.1
v 6.4 3.6 7.1
v -6.4 3.6 5.9
v -6.4 4.1 5.9
v 6.4 3.6 5.9
v 6.4 4.1 5.9
v -6.4 4.1 4.6
v -6.4 4.9 4.6
v 6.4 4.1 4.6
v 6.4 4.9 4.6
v -6.4 4.9 3.4
v -6.4 5.5 3.4
v -2.6 5.4 3.4
v -2.6 5.5 3.4
v -2.5 5.2 3.4
v -2.5 5.4 3.4
v -2.4 5 3.4
v -2.4 5.2 3.4
v -2.3 4.9 3.4
v -2.3 5 3.4
v 1 4.9 3.4
v 1 5 3.4
v 1.1 5 3.4
v 1.1 5.2 3.4
v 1.2 5.2 3.4
v 1.2 5.4 3.4
v 1.3 5.4 3.4
v 1.3 5.5 3.4
v 6.4 4.9 3.4
v 6.4 5.5 3.4
v -2.6 5.4 3.3
v -2.6 5.5 3.3
v -2.5 5.2 3.3
v -2.5 5.4 3.3
v -2.4 5 3.3
v -2.4 5.2 3.3
v -2.3 4.9 3.3
v -2.3 5 3.3
v -2.2 4.8 3.3
v -2.2 4.9 3.3
v -2.1 4.7 3.3
v -2.1 4.8 3.3
v -2 4.6 3.3
v -2 4.7 3.3
v -1.9 4.5 3.3
v -1.9 4.6 3.3
v -1.8 4.4 3.3
v -1.8 4.5 3.3
v -1.6 4.3 3.3
v -1.6 4.4 3.3
v -1.4 4.2 3.3
v -1.4 4.3 3.3
v -1.1 4.1 3.3
v -1.1 4.2 3.3
v -1.1 5.4 3.3
v -1.1 5.5 3.3
v -1 5.2 3.3
v -1 5.4 3.3
v -0.9 5.1 3.3
v -0.9 5.2 3.3
v -0.8 5 3.3
v -0.8 5.1 3.3
v -0.7 4.9 3.3
v -0.7 5 3.3
v -0.5 4.8 3.3
v -0.5 4.9 3.3
v -0.3 4.7 3.3
v -0.3 4.8 3.3
v -0.2 4.1 3.3
v -0.2 4.2 3.3
v 0.0999999 4.2 3.3
v 0.0999999 4.3 3.3
v 0.3 4.3 3.3
v 0.3 4.4 3.3
v 0.4 4.7 3.3
v 0.4 4.8 3.3
v 0.5 4.4 3.3
v 0.5 4.5 3.3
v 0.6 4.5 3.3
v 0.6 4.6 3.3
v 0.6 4.8 3.3
v 0.6 4.9 3.3
v 0.7 4.6 3.3
v 0.7 4.7 3.3
v 0.8 4.7 3.3
v 0.8 4.8 3.3
v 0.8 4.9 3.3
v 0.8 5 3.3
v 0.9 4.8 3.3
v 0.9 4.9 3.3
v 0.9 5 3.3
v 0.9 5.1 3.3
v 1 4.9 3.3
v 1 5 3.3
v 1 5.1 3.3
v 1 5.2 3.3
v 1.1 5 3.3
v 1.1 5.2 3.3
v 1.1 5.4 3.3
v 1.2 5.2 3.3
v 1.2 5.4 3.3
v 1.2 5.5 3.3
v 1.3 5.4 3.3
v 1.3 5.5 3.3
v 0 4.7 3.2
v 0 4.8 3.2
v 0.0999999 4.8 3.2
v 0.0999999 4.9 3.2
v 0.2 4.9 3.2
v 0.2 5.1 3.2
v 0.3 5.1 3.2
v 0.3 5.4 3.2
v 0.4 4.7 3.2
v 0.4 4.8 3.2
v 0.4 5.4 3.2
v 0.4 5.5 3.2
v 0.6 4.8 3.2
v 0.6 4.9 3.2
v 0.8 4.9 3.2
v 0.8 5 3.2
v 0.9 5 3.2
v 0.9 5.1 3.2
v 1 5.1 3.2
v 1 5.2 3.2
v 1.1 5.2 3.2
v 1.1 5.4 3.2
v 1.2 5.4 3.2
v 1.2 5.5 3.2
v -2.5 5.4 3.1
v -2.5 5.5 3.1
v -2.4 5.1 3.1
v -2.4 5.4 3.1
v -2.3 4.9 3.1
v -2.3 5.1 3.1
v -2.2 4.8 3.1
v -2.2 4.9 3.1
v -2.1 4.7 3.1
v -2.1 4.8 3.1
v -2 4.6 3.1
v -2 4.7 3.1
v -1.9 4.5 3.1
v -1.9 4.6 3.1
v -1.7 4.4 3.1
v -1.7 4.5 3.1
v -1.4 4.3 3.1
v -1.4 4.4 3.1
v -0.7 4.3 3.1
v -0.7 4.4 3.1
v -0.4 4.4 3.1
v -0.4 4.5 3.1
v -0.2 4.5 3.1
v -0.2 4.6 3.1
v -0.0999999 4.6 3.1
v -0.0999999 4.7 3.1
v 0 4.7 3.1
v 0 4.8 3.1
v 0.0999999 4.8 3.1
v 0.0999999 4.9 3.1
v 0.2 4.9 3.1
v 0.2 5.1 3.1
v 0.3 5.1 3.1
v 0.3 5.4 3.1
v 0.4 5.4 3.1
v 0.4 5.5 3.1
v -6.4 5.5 2.2
v -6.4 6.3 2.2
v -1.8 6 2.2
v -1.8 6.1 2.2
v -1.3 6.2 2.2
v -1.3 6.3 2.2
v -0.8 6.2 2.2
v -0.8 6.3 2.2
v -0.7 6.2 2.2
v -0.7 6.3 2.2
v 0.2 6.2 2.2
v 0.2 6.3 2.2
v 0.5 6 2.2
v 0.5 6.1 2.2
v 6.4 5.5 2.2
v 6.4 6.3 2.2
v -1.8 6 2.1
v -1.8 6.1 2.1
v -1.7 6 2.1
v -1.7 6.1 2.1
v -1.3 6.2 2.1
v -1.3 6.3 2.1
v -0.8 6.2 2.1
v -0.8 6.3 2.1
v -0.7 6.2 2.1
v -0.7 6.3 2.1
v -0.5 6.2 2.1
v -0.5 6.3 2.1
v 0 6.2 2.1
v 0 6.3 2.1
v 0.2 6.2 2.1
v 0.2 6.3 2.1
v 0.4 6 2.1
v 0.4 6.1 2.1
v 0.5 6 2.1
v 0.5 6.1 2.1
v -0.5 6.2 2
v -0.5 6.3 2
v 0 6.2 2
v 0 6.3 2
v -1.7 6 1.9
v -1.7 6.1 1.9
v -1.6 6 1.9
v -1.6 6.1 1.9
v 0.3 6 1.9
v 0.3 6.1 1.9
v 0.4 6 1.9
v 0.4 6.1 1.9
v -1.6 6 1.8
v -1.6 6.1 1.8
v -1.5 6 1.8
v -1.5 6.1 1.8
v 0.2 6 1.8
v 0.2 6.1 1.8
v 0.3 6 1.8
v 0.3 6.1 1.8
v -1.5 6 1.7
v -1.5 6.1 1.7
v -1.4 6 1.7
v -1.4 6.1 1.7
v 0.0999999 6 1.7
v 0.0999999 6.1 1.7
v 0.2 6 1.7
v 0.2 6.1 1.7
v -1.4 6 1.6
v -1.4 6.1 1.6
v -1.2 6 1.6
v -1.2 6.1 1.6
v -0.0999999 6 1.6
v -0.0999999 6.1 1.6
v 0.0999999 6 1.6
v 0.0999999 6.1 1.6
v -1.2 6 1.5
v -1.2 6.1 1.5
v -1 6 1.5
v -1 6.1 1.5
v -0.3 6 1.5
v -0.3 6.1 1.5
v -0.0999999 6 1.5
v -0.0999999 6.1 1.5
v -1 6 1.4
v -1 6.1 1.4
v -0.3 6 1.4
v -0.3 6.1 1.4
v -6.4 6.3 0.700001
v -6.4 6.8 0.700001
v 6.4 6.3 0.700001
v 6.4 6.8 0.700001
v -6.4 6.8 -0.5
v -6.4 7.6 -0.5
v 6.4 6.8 -0.5
v 6.4 7.6 -0.5
v -2.7 7.5 -1.8
v -2.7 7.6 -1.8
v -2.6 7.5 -1.8
v -2.6 7.6 -1.8
v -6.4 7.6 -1.9
v -6.4 8.4 -1.9
v -2.7 8.3 -1.9
v -2.7 8.4 -1.9
v -2.6 7.5 -1.9
v -2.6 7.6 -1.9
v -2.6 7.7 -1.9
v -2.6 8.1 -1.9
v -2.6 8.3 -1.9
v -2.5 7.7 -1.9
v -2.5 7.9 -1.9
v -2.4 7.5 -1.9
v -2.4 7.6 -1.9
v -2.4 7.9 -1.9
v -2.4 8.1 -1.9
v -2.3 7.6 -1.9
v -2.3 7.8 -1.9
v -2.2 7.8 -1.9
v -2.2 7.9 -1.9
v -2 7.8 -1.9
v -2 7.9 -1.9
v -2 8 -1.9
v -1.9 7.7 -1.9
v -1.9 7.8 -1.9
v -1.9 7.9 -1.9
v -1.9 8 -1.9
v -1.8 7.5 -1.9
v -1.8 7.6 -1.9
v -1.8 7.7 -1.9
v -1.8 8 -1.9
v -1.8 8.1 -1.9
v -1.7 7.5 -1.9
v -1.7 7.6 -1.9
v -1.7 7.7 -1.9
v -1.7 7.8 -1.9
v -1.7 8 -1.9
v -1.7 8.1 -1.9
v -1.7 8.4 -1.9
v -1.6 7.6 -1.9
v -1.6 7.7 -1.9
v -1.6 7.8 -1.9
v -1.6 8.1 -1.9
v -1.6 8.2 -1.9
v -1.5 7.7 -1.9
v -1.5 7.9 -1.9
v -1.5 8.1 -1.9
v -1.5 8.2 -1.9
v -1.5 8.4 -1.9
v -1.4 8.2 -1.9
v -1.4 8.4 -1.9
v -1.3 7.9 -1.9
v -1.3 8.1 -1.9
v 6.4 7.6 -1.9
v 6.4 8.4 -1.9
v -2.7 8.3 -2
v -2.7 8.4 -2
v -2.6 7.6 -2
v -2.6 7.7 -2
v -2.6 8.1 -2
v -2.6 8.3 -2
v -2.5 7.7 -2
v -2.5 7.9 -2
v -2.4 7.9 -2
v -2.4 8.1 -2
v -2.4 8.2 -2
v -2.4 8.4 -2
v -2.3 7.6 -2
v -2.3 7.8 -2
v -2.3 8.1 -2
v -2.3 8.2 -2
v -2.2 7.8 -2
v -2.2 7.9 -2
v -2.2 8.1 -2
v -2.1 8.1 -2
v -2.1 8.2 -2
v -2 7.8 -2
v -2 7.9 -2
v -2 8 -2
v -2 8.2 -2
v -2 8.3 -2
v -1.9 7.7 -2
v -1.9 7.8 -2
v -1.9 7.9 -2
v -1.9 8 -2
v -1.9 8.3 -2
v -1.8 7.7 -2
v -1.8 7.8 -2
v -1.8 8 -2
v -1.8 8.1 -2
v -1.8 8.3 -2
v -1.7 7.6 -2
v -1.7 7.7 -2
v -1.7 7.8 -2
v -1.7 7.9 -2
v -1.7 8 -2
v -1.7 8.1 -2
v -1.7 8.3 -2
v -1.6 7.6 -2
v -1.6 7.7 -2
v -1.6 7.8 -2
v -1.6 8 -2
v -1.6 8.1 -2
v -1.6 8.2 -2
v -1.5 7.7 -2
v -1.5 7.9 -2
v -1.5 8 -2
v -1.5 8.1 -2
v -1.5 8.2 -2
v -1.5 8.4 -2
v -1.4 8.2 -2
v -1.4 8.4 -2
v -1.3 7.9 -2
v -1.3 8.1 -2
v -2.4 7.9 -2.1
v -2.4 8.1 -2.1
v -2.4 8.2 -2.1
v -2.4 8.4 -2.1
v -2.3 7.9 -2.1
v -2.3 8.1 -2.1
v -2.3 8.2 -2.1
v -2.3 8.3 -2.1
v -2.2 8.1 -2.1
v -2.2 8.3 -2.1
v -2.2 8.4 -2.1
v -2.1 8.1 -2.1
v -2.1 8.2 -2.1
v -2.1 8.3 -2.1
v -2 8.3 -2.1
v -2 8.4 -2.1
v -1.9 7.8 -2.1
v -1.9 7.9 -2.1
v -1.9 8 -2.1
v -1.9 8.3 -2.1
v -1.8 7.6 -2.1
v -1.8 7.8 -2.1
v -1.8 8 -2.1
v -1.8 8.3 -2.1
v -1.8 8.4 -2.1
v -1.7 7.6 -2.1
v -1.7 7.9 -2.1
v -1.6 8 -2.1
v -1.6 8.1 -2.1
v -1.5 8 -2.1
v -1.5 8.1 -2.1
v -2.3 7.9 -2.2
v -2.3 8 -2.2
v -2.2 7.9 -2.2
v -2.2 8 -2.2
v -2.1 8.2 -2.2
v -2.1 8.3 -2.2
v -2.1 8.4 -2.2
v -2 8.2 -2.2
v -2 8.4 -2.2
v -1.8 8.3 -2.2
v -1.8 8.4 -2.2
v -1.7 8.3 -2.2
v -1.7 8.4 -2.2
v -2.3 8 -2.3
v -2.3 8.3 -2.3
v -2.2 8 -2.3
v -2.2 8.2 -2.3
v -2.2 8.3 -2.3
v -2.1 8.2 -2.3
v -2.1 8.3 -2.3
v -2.2 8.3 -2.4
v -2.2 8.4 -2.4
v -2.1 8.3 -2.4
v -2.1 8.4 -2.4
v -6.4 8.4 -3.2
v -6.4 9 -3.2
v 6.4 8.4 -3.2
v 6.4 9 -3.2
v -6.4 9 -4.7
v -6.4 9.8 -4.7
v 6.4 9 -4.7
v 6.4 9.8 -4.7
v -6.4 9.8 -5.8
v -6.4 10.3 -5.8
v 6.4 9.8 -5.8
v 6.4 10.3 -5.8
v -6.4 10.3 -7.1
v -6.4 11.1 -7.1
v 6.4 10.3 -7.1
v 6.4 11.1 -7.1
v -6.4 11.1 -8.4
v -6.4 11.7 -8.4
v 6.4 11.1 -8.4
v 6.4 11.7 -8.4
v -1.7 11.6 -8.8
v -1.7 11.7 -8.8
v -1.6 11.6 -8.8
v -1.6 11.7 -8.8
v -1.6 11.6 -9
v -1.6 11.7 -9
v -1.5 11.6 -9
v -1.5 11.7 -9
v -1.5 11.6 -9.2
v -1.5 11.7 -9.2
v -1.4 11.6 -9.2
v -1.4 11.7 -9.2
v -2.4 11.6 -9.3
v -2.4 11.7 -9.3
v -2.3 11.6 -9.3
v -2.3 11.7 -9.3
v -2.3 11.6 -9.4
v -2.3 11.7 -9.4
v -2.2 11.6 -9.4
v -2.2 11.7 -9.4
v -1.4 11.6 -9.4
v -1.4 11.7 -9.4
v -1.2 11.6 -9.4
v -1.2 11.7 -9.4
v -2.2 11.6 -9.5
v -2.2 11.7 -9.5
v -2 11.6 -9.5
v -2 11.7 -9.5
v -2 11.6 -9.6
v -2 11.7 -9.6
v -1.9 11.6 -9.6
v -1.9 11.7 -9.6
v -1.2 11.6 -9.6
v -1.2 11.7 -9.6
v -1.1 11.6 -9.6
v -1.1 11.7 -9.6
v -1.9 11.6 -9.7
v -1.9 11.7 -9.7
v -1.8 11.6 -9.7
v -1.8 11.7 -9.7
v -1.4 11.6 -9.7
v -1.4 11.7 -9.7
v -1.3 11.6 -9.7
v -1.3 11.7 -9.7
v -1.8 11.6 -9.8
v -1.8 11.7 -9.8
v -1.7 11.6 -9.8
v -1.7 11.7 -9.8
v -1.1 11.6 -9.8
v -1.1 11.7 -9.8
v -1 11.6 -9.8
v -1 11.7 -9.8
v -6.4 11.7 -9.9
v -6.4 12.4 -9.9
v -1.7 11.6 -9.9
v -1.7 11.7 -9.9
v -1.5 11.6 -9.9
v -1.5 11.7 -9.9
v -1.5 12.1 -9.9
v -1.5 12.4 -9.9
v -1.4 11.7 -9.9
v -1.4 12.1 -9.9
v -1.4 12.4 -9.9
v -1.3 11.6 -9.9
v -1.3 11.7 -9.9
v -1.3 11.8 -9.9
v -1.3 12.1 -9.9
v -1.2 11.6 -9.9
v -1.2 11.7 -9.9
v -1.2 11.8 -9.9
v -1 11.6 -9.9
v -1 11.7 -9.9
v -1 11.9 -9.9
v -0.9 11.6 -9.9
v -0.9 11.7 -9.9
v -0.9 11.9 -9.9
v -0.9 12.1 -9.9
v -0.8 11.9 -9.9
v -0.8 12.1 -9.9
v -0.8 12.4 -9.9
v -0.7 12.1 -9.9
v -0.7 12.4 -9.9
v 6.4 11.7 -9.9
v 6.4 12.4 -9.9
v -1.5 12.1 -10
v -1.5 12.4 -10
v -1.4 11.7 -10
v -1.4 12.1 -10
v -1.4 12.4 -10
v -1.3 11.8 -10
v -1.3 12.1 -10
v -1.2 11.7 -10
v -1.2 11.8 -10
v -1 11.7 -10
v -1 11.9 -10
v -0.9 11.7 -10
v -0.9 11.9 -10
v -0.9 12.1 -10
v -0.8 11.9 -10
v -0.8 12.1 -10
v -0.8 12.4 -10
v -0.7 12.1 -10
v -0.7 12.4 -10
v -6.4 12.4 -11.1
v -6.4 12.8 -11.1
v 0.4 12.7 -11.1
v 0.4 12.8 -11.1
v 0.5 12.7 -11.1
v 0.5 12.8 -11.1
v 6.4 12.4 -11.1
v 6.4 12.8 -11.1
v 0.4 12.7 -11.3
v 0.4 12.8 -11.3
v 0.5 12.7 -11.3
v 0.5 12.8 -11.3
v 0.5 12.7 -11.5
v 0.5 12.8 -11.5
v 0.6 12.7 -11.5
v 0.6 12.8 -11.5
v 0.6 12.7 -11.6
v 0.6 12.8 -11.6
v 0.7 12.7 -11.6
v 0.7 12.8 -11.6
v 2.3 2.1 9
v 2.3 2.2 9
v 2.4 2.1 9
v 2.4 2.2 9
v -2.2 4.8 3.4
v -2.2 4.9 3.4
v -2.1 4.7 3.4
v -2.1 4.8 3.4
v -2 4.6 3.4
v -2 4.7 3.4
v -1.9 4.5 3.4
v -1.9 4.6 3.4
v -1.8 4.4 3.4
v -1.8 4.5 3.4
v -1.6 4.3 3.4
v -1.6 4.4 3.4
v -1.4 4.2 3.4
v -1.4 4.3 3.4
v -1.1 4.1 3.4
v -1.1 4.2 3.4
v -0.2 4.1 3.4
v -0.2 4.2 3.4
v 0.0999999 4.2 3.4
v 0.0999999 4.3 3.4
v 0.3 4.3 3.4
v 0.3 4.4 3.4
v 0.5 4.4 3.4
v 0.5 4.5 3.4
v 0.6 4.5 3.4
v 0.6 4.6 3.4
v 0.7 4.6 3.4
v 0.7 4.7 3.4
v 0.8 4.7 3.4
v 0.8 4.8 3.4
v 0.9 4.8 3.4
v 0.9 4.9 3.4
v -2.5 5.4 3.2
v -2.5 5.5 3.2
v -2.4 5.1 3.2
v -2.4 5.4 3.2
v -2.3 4.9 3.2
v -2.3 5.1 3.2
v -2.2 4.8 3.2
v -2.2 4.9 3.2
v -2.1 4.7 3.2
v -2.1 4.8 3.2
v -2 4.6 3.2
v -2 4.7 3.2
v -1.9 4.5 3.2
v -1.9 4.6 3.2
v -1.7 4.4 3.2
v -1.7 4.5 3.2
v -1.4 4.3 3.2
v -1.4 4.4 3.2
v -1.1 5.4 3.2
v -1.1 5.5 3.2
v -1 5.2 3.2
v -1 5.4 3.2
v -0.9 5.1 3.2
v -0.9 5.2 3.2
v -0.8 5 3.2
v -0.8 5.1 3.2
v -0.7 4.3 3.2
v -0.7 4.4 3.2
v -0.7 4.9 3.2
v -0.7 5 3.2
v -0.5 4.8 3.2
v -0.5 4.9 3.2
v -0.4 4.4 3.2
v -0.4 4.5 3.2
v -0.3 4.7 3.2
v -0.3 4.8 3.2
v -0.2 4.5 3.2
v -0.2 4.6 3.2
v -0.0999999 4.6 3.2
v -0.0999999 4.7 3.2
v -2.6 7.5 -1.5
v -2.6 7.6 -1.5
v -2.5 7.5 -1.5
v -2.5 7.6 -1.5
v -2.7 7.5 -1.7
v -2.7 7.6 -1.7
v -2.6 7.5 -1.7
v -2.6 7.6 -1.7
v -2.5 7.5 -1.7
v -2.5 7.6 -1.7
v -2.4 7.5 -1.7
v -2.4 7.6 -1.7
v -1.8 7.5 -1.8
v -1.8 7.6 -1.8
v -1.7 7.5 -1.8
v -1.7 7.6 -1.8
v -2.2 8.2 -2.2
v -2.2 8.3 -2.2
v -2.1 8.2 -2.2
v -2.1 8.3 -2.2
v -1.7 11.6 -8.7
v -1.7 11.7 -8.7
v -1.6 11.6 -8.7
v -1.6 11.7 -8.7
v -1.6 11.6 -8.8
v -1.6 11.7 -8.8
v -1.5 11.6 -8.8
v -1.5 11.7 -8.8
v -1.5 11.6 -9
v -1.5 11.7 -9
v -1.4 11.6 -9
v -1.4 11.7 -9
v -2.4 11.6 -9.1
v -2.4 11.7 -9.1
v -2.3 11.6 -9.1
v -2.3 11.7 -9.1
v -1.4 11.6 -9.2
v -1.4 11.7 -9.2
v -1.3 11.6 -9.2
v -1.3 11.7 -9.2
v -2.3 11.6 -9.3
v -2.3 11.7 -9.3
v -2.2 11.6 -9.3
v -2.2 11.7 -9.3
v -1.3 11.6 -9.3
v -1.3 11.7 -9.3
v -1.2 11.6 -9.3
v -1.2 11.7 -9.3
v -2.2 11.6 -9.4
v -2.2 11.7 -9.4
v -2 11.6 -9.4
v -2 11.7 -9.4
v -1.2 11.6 -9.4
v -1.2 11.7 -9.4
v -1.1 11.6 -9.4
v -1.1 11.7 -9.4
v -2 11.6 -9.5
v -2 11.7 -9.5
v -1.9 11.6 -9.5
v -1.9 11.7 -9.5
v -1.9 11.6 -9.6
v -1.9 11.7 -9.6
v -1.7 11.6 -9.6
v -1.7 11.7 -9.6
v -1.4 11.6 -9.6
v -1.4 11.7 -9.6
v -1.3 11.6 -9.6
v -1.3 11.7 -9.6
v -1.1 11.6 -9.6
v -1.1 11.7 -9.6
v -1 11.6 -9.6
v -1 11.7 -9.6
v -1.7 11.6 -9.7
v -1.7 11.7 -9.7
v -1.6 11.6 -9.7
v -1.6 11.7 -9.7
v -1.3 11.6 -9.7
v -1.3 11.7 -9.7
v -1.2 11.6 -9.7
v -1.2 11.7 -9.7
v -1.6 11.6 -9.8
v -1.6 11.7 -9.8
v -1.5 11.6 -9.8
v -1.5 11.7 -9.8
v -1 11.6 -9.8
v -1 11.7 -9.8
v -0.9 11.6 -9.8
v -0.9 11.7 -9.8
v 0.5 12.7 -11.3
v 0.5 12.8 -11.3
v 0.6 12.7 -11.3
v 0.6 12.8 -11.3
v 0.6 12.7 -11.5
v 0.6 12.8 -11.5
v 0.7 12.7 -11.5
v 0.7 12.8 -11.5
v -6.4 0 -12.8
v -6.4 12.8 -12.8
v 6.4 0 -12.8
v 6.4 12.8 -12.8
v -6.4 0 12.8
v 6.4 0 12.8
v -6.4 0 -12.8
v 6.4 0 -12.8
v 2.3 2.3 8.6
v 2.4 2.3 8.6
v 2.3 2.3 8.5
v 2.4 2.3 8.5
v 2.2 2.5 8.6
v 2.3 2.5 8.6
v 2.2 2.5 8.5
v 2.3 2.5 8.5
v 1.7 2.8 8.6
v 1.8 2.8 8.6
v 2.1 2.8 8.6
v 2.2 2.8 8.6
v 1.7 2.8 8.5
v 1.8 2.8 8.5
v 2.1 2.8 8.5
v 2.2 2.8 8.5
v -1.8 6.1 2.2
v 0.5 6.1 2.2
v -1.8 6.1 2.1
v -1.7 6.1 2.1
v 0.4 6.1 2.1
v 0.5 6.1 2.1
v -1.7 6.1 1.9
v -1.6 6.1 1.9
v 0.3 6.1 1.9
v 0.4 6.1 1.9
v -1.6 6.1 1.8
v -1.5 6.1 1.8
v 0.2 6.1 1.8
v 0.3 6.1 1.8
v -1.5 6.1 1.7
v -1.4 6.1 1.7
v 0.0999999 6.1 1.7
v 0.2 6.1 1.7
v -1.4 6.1 1.6
v -1.2 6.1 1.6
v -0.0999999 6.1 1.6
v 0.0999999 6.1 1.6
v -1.2 6.1 1.5
v -1 6.1 1.5
v -0.3 6.1 1.5
v -0.0999999 6.1 1.5
v -1 6.1 1.4
v -0.3 6.1 1.4
v -2.6 7.7 -1.9
v -2.5 7.7 -1.9
v -1.7 7.7 -1.9
v -1.6 7.7 -1.9
v -2.6 7.7 -2
v -2.5 7.7 -2
v -1.7 7.7 -2
v -1.6 7.7 -2
v -2.5 7.9 -1.9
v -2.4 7.9 -1.9
v -2 7.9 -1.9
v -1.9 7.9 -1.9
v -2.5 7.9 -2
v -2.4 7.9 -2
v -2 7.9 -2
v -1.9 7.9 -2
v -1.7 7.9 -2
v -1.9 7.9 -2.1
v -1.7 7.9 -2.1
v -1.8 8 -1.9
v -1.7 8 -1.9
v -1.8 8 -2
v -1.7 8 -2
v -1.7 8.1 -1.9
v -1.6 8.1 -1.9
v -1.5 8.1 -1.9
v -1.3 8.1 -1.9
v -2.4 8.1 -2
v -2.3 8.1 -2
v -1.7 8.1 -2
v -1.6 8.1 -2
v -1.5 8.1 -2
v -1.3 8.1 -2
v -2.4 8.1 -2.1
v -2.3 8.1 -2.1
v -1.6 8.1 -2.1
v -1.5 8.1 -2.1
v -1.6 8.2 -1.9
v -1.5 8.2 -1.9
v -1.6 8.2 -2
v -1.5 8.2 -2
v -2.3 8.3 -2.1
v -2.2 8.3 -2.1
v -2.2 8.3 -2.2
v -2.3 8.3 -2.3
v -2.2 8.3 -2.3
v -1.3 11.8 -9.9
v -1.2 11.8 -9.9
v -1.3 11.8 -10
v -1.2 11.8 -10
v -1 11.9 -9.9
v -0.9 11.9 -9.9
v -1 11.9 -10
v -0.9 11.9 -10
v -1.4 12.1 -9.9
v -1.3 12.1 -9.9
v -0.9 12.1 -9.9
v -0.8 12.1 -9.9
v -1.4 12.1 -10
v -1.3 12.1 -10
v -0.9 12.1 -10
v -0.8 12.1 -10
v -6.4 0.3 12.8
v 6.4 0.3 12.8
v -6.4 0.3 11.5
v 6.4 0.3 11.5
v -6.4 0.9 11.5
v 6.4 0.9 11.5
v -6.4 0.9 10.4
v 6.4 0.9 10.4
v -6.4 1.5 10.4
v 6.4 1.5 10.4
v -6.4 1.5 9.4
v 6.4 1.5 9.4
v 2.3 2.1 9
v 2.4 2.1 9
v 2.3 2.1 8.6
v 2.4 2.1 8.6
v -6.4 2.2 9.4
v 6.4 2.2 9.4
v 2.3 2.2 9
v 2.4 2.2 9
v -6.4 2.2 8.6
v 2.3 2.2 8.6
v 2.4 2.2 8.6
v 6.4 2.2 8.6
v 2.3 2.2 8.5
v 2.4 2.2 8.5
v 2.2 2.3 8.6
v 2.3 2.3 8.6
v 2.2 2.3 8.5
v 2.3 2.3 8.5
v 1.9 2.5 8.6
v 2 2.5 8.6
v 2.1 2.5 8.6
v 2.2 2.5 8.6
v 1.9 2.5 8.5
v 2 2.5 8.5
v 2.1 2.5 8.5
v 2.2 2.5 8.5
v 1.7 2.6 8.6
v 1.8 2.6 8.6
v 1.7 2.6 8.5
v 1.8 2.6 8.5
v 2 2.7 8.6
v 2.1 2.7 8.6
v 2 2.7 8.5
v 2.1 2.7 8.5
v 1.6 2.8 8.6
v 1.7 2.8 8.6
v 1.6 2.8 8.5
v 1.7 2.8 8.5
v -6.4 2.9 8.6
v 1.6 2.9 8.6
v 1.7 2.9 8.6
v 1.9 2.9 8.6
v 2.1 2.9 8.6
v 6.4 2.9 8.6
v 1.6 2.9 8.5
v 1.7 2.9 8.5
v 1.9 2.9 8.5
v 2.1 2.9 8.5
v -6.4 2.9 7.1
v 6.4 2.9 7.1
v -6.4 3.6 7.1
v 6.4 3.6 7.1
v -6.4 3.6 5.9
v 6.4 3.6 5.9
v -6.4 4.1 5.9
v 6.4 4.1 5.9
v -6.4 4.1 4.6
v 6.4 4.1 4.6
v -1.1 4.1 3.4
v -0.2 4.1 3.4
v -1.1 4.1 3.3
v -0.2 4.1 3.3
v -1.4 4.2 3.4
v -1.1 4.2 3.4
v -0.2 4.2 3.4
v 0.0999999 4.2 3.4
v -1.4 4.2 3.3
v -1.1 4.2 3.3
v -0.2 4.2 3.3
v 0.0999999 4.2 3.3
v -1.6 4.3 3.4
v -1.4 4.3 3.4
v 0.0999999 4.3 3.4
v 0.3 4.3 3.4
v -1.6 4.3 3.3
v -1.4 4.3 3.3
v 0.0999999 4.3 3.3
v 0.3 4.3 3.3
v -1.4 4.3 3.2
v -0.7 4.3 3.2
v -1.4 4.3 3.1
v -0.7 4.3 3.1
v -1.8 4.4 3.4
v -1.6 4.4 3.4
v 0.3 4.4 3.4
v 0.5 4.4 3.4
v -1.8 4.4 3.3
v -1.6 4.4 3.3
v 0.3 4.4 3.3
v 0.5 4.4 3.3
v -1.7 4.4 3.2
v -1.4 4.4 3.2
v -0.7 4.4 3.2
v -0.4 4.4 3.2
v -1.7 4.4 3.1
v -1.4 4.4 3.1
v -0.7 4.4 3.1
v -0.4 4.4 3.1
v -1.9 4.5 3.4
v -1.8 4.5 3.4
v 0.5 4.5 3.4
v 0.6 4.5 3.4
v -1.9 4.5 3.3
v -1.8 4.5 3.3
v 0.5 4.5 3.3
v 0.6 4.5 3.3
v -1.9 4.5 3.2
v -1.7 4.5 3.2
v -0.4 4.5 3.2
v -0.2 4.5 3.2
v -1.9 4.5 3.1
v -1.7 4.5 3.1
v -0.4 4.5 3.1
v -0.2 4.5 3.1
v -2 4.6 3.4
v -1.9 4.6 3.4
v 0.6 4.6 3.4
v 0.7 4.6 3.4
v -2 4.6 3.3
v -1.9 4.6 3.3
v 0.6 4.6 3.3
v 0.7 4.6 3.3
v -2 4.6 3.2
v -1.9 4.6 3.2
v -0.2 4.6 3.2
v -0.0999999 4.6 3.2
v -2 4.6 3.1
v -1.9 4.6 3.1
v -0.2 4.6 3.1
v -0.0999999 4.6 3.1
v -2.1 4.7 3.4
v -2 4.7 3.4
v 0.7 4.7 3.4
v 0.8 4.7 3.4
v -2.1 4.7 3.3
v -2 4.7 3.3
v -0.3 4.7 3.3
v 0.4 4.7 3.3
v 0.7 4.7 3.3
v 0.8 4.7 3.3
v -2.1 4.7 3.2
v -2 4.7 3.2
v -0.3 4.7 3.2
v -0.0999999 4.7 3.2
v 0 4.7 3.2
v 0.4 4.7 3.2
v -2.1 4.7 3.1
v -2 4.7 3.1
v -0.0999999 4.7 3.1
v 0 4.7 3.1
v -2.2 4.8 3.4
v -2.1 4.8 3.4
v 0.8 4.8 3.4
v 0.9 4.8 3.4
v -2.2 4.8 3.3
v -2.1 4.8 3.3
v -0.5 4.8 3.3
v -0.3 4.8 3.3
v 0.4 4.8 3.3
v 0.6 4.8 3.3
v 0.8 4.8 3.3
v 0.9 4.8 3.3
v -2.2 4.8 3.2
v -2.1 4.8 3.2
v -0.5 4.8 3.2
v -0.3 4.8 3.2
v 0 4.8 3.2
v 0.0999999 4.8 3.2
v 0.4 4.8 3.2
v 0.6 4.8 3.2
v -2.2 4.8 3.1
v -2.1 4.8 3.1
v 0 4.8 3.1
v 0.0999999 4.8 3.1
v -6.4 4.9 4.6
v 6.4 4.9 4.6
v -6.4 4.9 3.4
v -2.3 4.9 3.4
v -2.2 4.9 3.4
v 0.9 4.9 3.4
v 1 4.9 3.4
v 6.4 4.9 3.4
v -2.3 4.9 3.3
v -2.2 4.9 3.3
v -0.7 4.9 3.3
v -0.5 4.9 3.3
v 0.6 4.9 3.3
v 0.8 4.9 3.3
v 0.9 4.9 3.3
v 1 4.9 3.3
v -2.3 4.9 3.2
v -2.2 4.9 3.2
v -0.7 4.9 3.2
v -0.5 4.9 3.2
v 0.0999999 4.9 3.2
v 0.2 4.9 3.2
v 0.6 4.9 3.2
v 0.8 4.9 3.2
v -2.3 4.9 3.1
v -2.2 4.9 3.1
v 0.0999999 4.9 3.1
v 0.2 4.9 3.1
v -2.4 5 3.4
v -2.3 5 3.4
v 1 5 3.4
v 1.1 5 3.4
v -2.4 5 3.3
v -2.3 5 3.3
v -0.8 5 3.3
v -0.7 5 3.3
v 0.8 5 3.3
v 0.9 5 3.3
v 1 5 3.3
v 1.1 5 3.3
v -0.8 5 3.2
v -0.7 5 3.2
v 0.8 5 3.2
v 0.9 5 3.2
v -0.9 5.1 3.3
v -0.8 5.1 3.3
v 0.9 5.1 3.3
v 1 5.1 3.3
v -2.4 5.1 3.2
v -2.3 5.1 3.2
v -0.9 5.1 3.2
v -0.8 5.1 3.2
v 0.2 5.1 3.2
v 0.3 5.1 3.2
v 0.9 5.1 3.2
v 1 5.1 3.2
v -2.4 5.1 3.1
v -2.3 5.1 3.1
v 0.2 5.1 3.1
v 0.3 5.1 3.1
v -2.5 5.2 3.4
v -2.4 5.2 3.4
v 1.1 5.2 3.4
v 1.2 5.2 3.4
v -2.5 5.2 3.3
v -2.4 5.2 3.3
v -1 5.2 3.3
v -0.9 5.2 3.3
v 1 5.2 3.3
v 1.1 5.2 3.3
v 1.2 5.2 3.3
v -1 5.2 3.2
v -0.9 5.2 3.2
v 1 5.2 3.2
v 1.1 5.2 3.2
v -2.6 5.4 3.4
v -2.5 5.4 3.4
v 1.2 5.4 3.4
v 1.3 5.4 3.4
v -2.6 5.4 3.3
v -2.5 5.4 3.3
v -1.1 5.4 3.3
v -1 5.4 3.3
v 1.1 5.4 3.3
v 1.2 5.4 3.3
v 1.3 5.4 3.3
v -2.5 5.4 3.2
v -2.4 5.4 3.2
v -1.1 5.4 3.2
v -1 5.4 3.2
v 0.3 5.4 3.2
v 0.4 5.4 3.2
v 1.1 5.4 3.2
v 1.2 5.4 3.2
v -2.5 5.4 3.1
v -2.4 5.4 3.1
v 0.3 5.4 3.1
v 0.4 5.4 3.1
v -6.4 5.5 3.4
v -2.6 5.5 3.4
v 1.3 5.5 3.4
v 6.4 5.5 3.4
v -2.6 5.5 3.3
v -1.1 5.5 3.3
v 1.2 5.5 3.3
v 1.3 5.5 3.3
v -2.5 5.5 3.2
v -1.1 5.5 3.2
v 0.4 5.5 3.2
v 1.2 5.5 3.2
v -2.5 5.5 3.1
v 0.4 5.5 3.1
v -6.4 5.5 2.2
v 6.4 5.5 2.2
v -1.8 6 2.2
v 0.5 6 2.2
v -1.8 6 2.1
v -1.7 6 2.1
v 0.4 6 2.1
v 0.5 6 2.1
v -1.7 6 1.9
v -1.6 6 1.9
v 0.3 6 1.9
v 0.4 6 1.9
v -1.6 6 1.8
v -1.5 6 1.8
v 0.2 6 1.8
v 0.3 6 1.8
v -1.5 6 1.7
v -1.4 6 1.7
v 0.0999999 6 1.7
v 0.2 6 1.7
v -1.4 6 1.6
v -1.2 6 1.6
v -0.0999999 6 1.6
v 0.0999999 6 1.6
v -1.2 6 1.5
v -1 6 1.5
v -0.3 6 1.5
v -0.0999999 6 1.5
v -1 6 1.4
v -0.3 6 1.4
v -1.3 6.2 2.2
v -0.8 6.2 2.2
v -0.7 6.2 2.2
v 0.2 6.2 2.2
v -1.3 6.2 2.1
v -0.8 6.2 2.1
v -0.7 6.2 2.1
v -0.5 6.2 2.1
v 0 6.2 2.1
v 0.2 6.2 2.1
v -0.5 6.2 2
v 0 6.2 2
v -6.4 6.3 2.2
v -1.3 6.3 2.2
v -0.8 6.3 2.2
v -0.7 6.3 2.2
v 0.2 6.3 2.2
v 6.4 6.3 2.2
v -1.3 6.3 2.1
v -0.8 6.3 2.1
v -0.7 6.3 2.1
v -0.5 6.3 2.1
v 0 6.3 2.1
v 0.2 6.3 2.1
v -0.5 6.3 2
v 0 6.3 2
v -6.4 6.3 0.700001
v 6.4 6.3 0.700001
v -6.4 6.8 0.700001
v 6.4 6.8 0.700001
v -6.4 6.8 -0.5
v 6.4 6.8 -0.5
v -2.6 7.5 -1.5
v -2.5 7.5 -1.5
v -2.7 7.5 -1.7
v -2.6 7.5 -1.7
v -2.5 7.5 -1.7
v -2.4 7.5 -1.7
v -2.7 7.5 -1.8
v -2.6 7.5 -1.8
v -1.8 7.5 -1.8
v -1.7 7.5 -1.8
v -2.6 7.5 -1.9
v -2.4 7.5 -1.9
v -1.8 7.5 -1.9
v -1.7 7.5 -1.9
v -6.4 7.6 -0.5
v 6.4 7.6 -0.5
v -2.6 7.6 -1.5
v -2.5 7.6 -1.5
v -2.7 7.6 -1.7
v -2.6 7.6 -1.7
v -2.5 7.6 -1.7
v -2.4 7.6 -1.7
v -2.7 7.6 -1.8
v -2.6 7.6 -1.8
v -1.8 7.6 -1.8
v -1.7 7.6 -1.8
v -6.4 7.6 -1.9
v -2.6 7.6 -1.9
v -2.4 7.6 -1.9
v -2.3 7.6 -1.9
v -1.8 7.6 -1.9
v -1.7 7.6 -1.9
v -1.6 7.6 -1.9
v 6.4 7.6 -1.9
v -2.6 7.6 -2
v -2.3 7.6 -2
v -1.7 7.6 -2
v -1.6 7.6 -2
v -1.8 7.6 -2.1
v -1.7 7.6 -2.1
v -1.9 7.7 -1.9
v -1.8 7.7 -1.9
v -1.6 7.7 -1.9
v -1.5 7.7 -1.9
v -1.9 7.7 -2
v -1.8 7.7 -2
v -1.6 7.7 -2
v -1.5 7.7 -2
v -2.3 7.8 -1.9
v -2.2 7.8 -1.9
v -2 7.8 -1.9
v -1.9 7.8 -1.9
v -1.7 7.8 -1.9
v -1.6 7.8 -1.9
v -2.3 7.8 -2
v -2.2 7.8 -2
v -2 7.8 -2
v -1.9 7.8 -2
v -1.8 7.8 -2
v -1.7 7.8 -2
v -1.6 7.8 -2
v -1.9 7.8 -2.1
v -1.8 7.8 -2.1
v -2.2 7.9 -1.9
v -2 7.9 -1.9
v -1.5 7.9 -1.9
v -1.3 7.9 -1.9
v -2.4 7.9 -2
v -2.2 7.9 -2
v -2 7.9 -2
v -1.5 7.9 -2
v -1.3 7.9 -2
v -2.4 7.9 -2.1
v -2.3 7.9 -2.1
v -2.3 7.9 -2.2
v -2.2 7.9 -2.2
v -2 8 -1.9
v -1.9 8 -1.9
v -2 8 -2
v -1.9 8 -2
v -1.8 8 -2
v -1.6 8 -2
v -1.5 8 -2
v -1.9 8 -2.1
v -1.8 8 -2.1
v -1.6 8 -2.1
v -1.5 8 -2.1
v -2.3 8 -2.2
v -2.2 8 -2.2
v -2.3 8 -2.3
v -2.2 8 -2.3
v -2.6 8.1 -1.9
v -2.4 8.1 -1.9
v -1.8 8.1 -1.9
v -1.7 8.1 -1.9
v -2.6 8.1 -2
v -2.4 8.1 -2
v -2.2 8.1 -2
v -2.1 8.1 -2
v -1.8 8.1 -2
v -1.7 8.1 -2
v -2.2 8.1 -2.1
v -2.1 8.1 -2.1
v -1.5 8.2 -1.9
v -1.4 8.2 -1.9
v -2.4 8.2 -2
v -2.3 8.2 -2
v -2.1 8.2 -2
v -2 8.2 -2
v -1.5 8.2 -2
v -1.4 8.2 -2
v -2.4 8.2 -2.1
v -2.3 8.2 -2.1
v -2.1 8.2 -2.1
v -2.2 8.2 -2.2
v -2.1 8.2 -2.2
v -2 8.2 -2.2
v -2.2 8.2 -2.3
v -2.1 8.2 -2.3
v -2.7 8.3 -1.9
v -2.6 8.3 -1.9
v -2.7 8.3 -2
v -2.6 8.3 -2
v -2 8.3 -2
v -1.9 8.3 -2
v -1.8 8.3 -2
v -1.7 8.3 -2
v -2.2 8.3 -2.1
v -2.1 8.3 -2.1
v -2 8.3 -2.1
v -1.9 8.3 -2.1
v -1.8 8.3 -2.1
v -2.2 8.3 -2.2
v -2.1 8.3 -2.2
v -1.8 8.3 -2.2
v -1.7 8.3 -2.2
v -2.2 8.3 -2.3
v -2.1 8.3 -2.3
v -2.2 8.3 -2.4
v -2.1 8.3 -2.4
v -6.4 8.4 -1.9
v -2.7 8.4 -1.9
v -1.7 8.4 -1.9
v -1.5 8.4 -1.9
v -1.4 8.4 -1.9
v 6.4 8.4 -1.9
v -2.7 8.4 -2
v -2.4 8.4 -2
v -1.5 8.4 -2
v -1.4 8.4 -2
v -2.4 8.4 -2.1
v -2.2 8.4 -2.1
v -2 8.4 -2.1
v -1.8 8.4 -2.1
v -2.1 8.4 -2.2
v -2 8.4 -2.2
v -1.8 8.4 -2.2
v -1.7 8.4 -2.2
v -2.2 8.4 -2.4
v -2.1 8.4 -2.4
v -6.4 8.4 -3.2
v 6.4 8.4 -3.2
v -6.4 9 -3.2
v 6.4 9 -3.2
v -6.4 9 -4.7
v 6.4 9 -4.7
v -6.4 9.8 -4.7
v 6.4 9.8 -4.7
v -6.1 9.8 -4.8
v -6 9.8 -4.8
v 6 9.8 -4.8
v 6.1 9.8 -4.8
v -6.1 9.8 -4.9
v -6 9.8 -4.9
v 6 9.8 -4.9
v 6.1 9.8 -4.9
v -6.4 9.8 -5.8
v 6.4 9.8 -5.8
v -6.4 10.3 -5.8
v 6.4 10.3 -5.8
v -6.4 10.3 -7.1
v 6.4 10.3 -7.1
v -6.4 11.1 -7.1
v 6.4 11.1 -7.1
v -6.4 11.1 -8.4
v 6.4 11.1 -8.4
v -1.7 11.6 -8.7
v -1.6 11.6 -8.7
v -1.7 11.6 -8.8
v -1.6 11.6 -8.8
v -1.5 11.6 -8.8
v -1.6 11.6 -9
v -1.5 11.6 -9
v -1.4 11.6 -9
v -2.4 11.6 -9.1
v -2.3 11.6 -9.1
v -1.5 11.6 -9.2
v -1.4 11.6 -9.2
v -1.3 11.6 -9.2
v -2.4 11.6 -9.3
v -2.3 11.6 -9.3
v -2.2 11.6 -9.3
v -1.3 11.6 -9.3
v -1.2 11.6 -9.3
v -2.3 11.6 -9.4
v -2.2 11.6 -9.4
v -2 11.6 -9.4
v -1.4 11.6 -9.4
v -1.2 11.6 -9.4
v -1.1 11.6 -9.4
v -2.2 11.6 -9.5
v -2 11.6 -9.5
v -1.9 11.6 -9.5
v -2 11.6 -9.6
v -1.9 11.6 -9.6
v -1.7 11.6 -9.6
v -1.4 11.6 -9.6
v -1.3 11.6 -9.6
v -1.2 11.6 -9.6
v -1.1 11.6 -9.6
v -1 11.6 -9.6
v -1.9 11.6 -9.7
v -1.8 11.6 -9.7
v -1.7 11.6 -9.7
v -1.6 11.6 -9.7
v -1.4 11.6 -9.7
v -1.3 11.6 -9.7
v -1.2 11.6 -9.7
v -1.8 11.6 -9.8
v -1.7 11.6 -9.8
v -1.6 11.6 -9.8
v -1.5 11.6 -9.8
v -1.1 11.6 -9.8
v -1 11.6 -9.8
v -0.9 11.6 -9.8
v -1.7 11.6 -9.9
v -1.5 11.6 -9.9
v -1.3 11.6 -9.9
v -1.2 11.6 -9.9
v -1 11.6 -9.9
v -0.9 11.6 -9.9
v -6.4 11.7 -8.4
v 6.4 11.7 -8.4
v -1.7 11.7 -8.7
v -1.6 11.7 -8.7
v -1.7 11.7 -8.8
v -1.6 11.7 -8.8
v -1.5 11.7 -8.8
v -1.6 11.7 -9
v -1.5 11.7 -9
v -1.4 11.7 -9
v -2.4 11.7 -9.1
v -2.3 11.7 -9.1
v -1.5 11.7 -9.2
v -1.4 11.7 -9.2
v -1.3 11.7 -9.2
v -2.4 11.7 -9.3
v -2.3 11.7 -9.3
v -2.2 11.7 -9.3
v -1.3 11.7 -9.3
v -1.2 11.7 -9.3
v -2.3 11.7 -9.4
v -2.2 11.7 -9.4
v -2 11.7 -9.4
v -1.4 11.7 -9.4
v -1.2 11.7 -9.4
v -1.1 11.7 -9.4
v -2.2 11.7 -9.5
v -2 11.7 -9.5
v -1.9 11.7 -9.5
v -2 11.7 -9.6
v -1.9 11.7 -9.6
v -1.7 11.7 -9.6
v -1.4 11.7 -9.6
v -1.3 11.7 -9.6
v -1.2 11.7 -9.6
v -1.1 11.7 -9.6
v -1 11.7 -9.6
v -1.9 11.7 -9.7
v -1.8 11.7 -9.7
v -1.7 11.7 -9.7
v -1.6 11.7 -9.7
v -1.4 11.7 -9.7
v -1.3 11.7 -9.7
v -1.2 11.7 -9.7
v -1.8 11.7 -9.8
v -1.7 11.7 -9.8
v -1.6 11.7 -9.8
v -1.5 11.7 -9.8
v -1.1 11.7 -9.8
v -1 11.7 -9.8
v -0.9 11.7 -9.8
v -6.4 11.7 -9.9
v -1.7 11.7 -9.9
v -1.5 11.7 -9.9
v -1.4 11.7 -9.9
v -1.3 11.7 -9.9
v -1.2 11.7 -9.9
v -1 11.7 -9.9
v -0.9 11.7 -9.9
v 6.4 11.7 -9.9
v -1.4 11.7 -10
v -1.2 11.7 -10
v -1 11.7 -10
v -0.9 11.7 -10
v -0.9 11.9 -9.9
v -0.8 11.9 -9.9
v -0.9 11.9 -10
v -0.8 11.9 -10
v -1.5 12.1 -9.9
v -1.4 12.1 -9.9
v -0.8 12.1 -9.9
v -0.7 12.1 -9.9
v -1.5 12.1 -10
v -1.4 12.1 -10
v -0.8 12.1 -10
v -0.7 12.1 -10
v -6.4 12.4 -9.9
v -1.5 12.4 -9.9
v -1.4 12.4 -9.9
v -0.8 12.4 -9.9
v -0.7 12.4 -9.9
v 6.4 12.4 -9.9
v -1.5 12.4 -10
v -1.4 12.4 -10
v -0.8 12.4 -10
v -0.7 12.4 -10
v -6.4 12.4 -11.1
v 6.4 12.4 -11.1
v 0.4 12.7 -11.1
v 0.5 12.7 -11.1
v 0.4 12.7 -11.3
v 0.5 12.7 -11.3
v 0.6 12.7 -11.3
v 0.5 12.7 -11.5
v 0.6 12.7 -11.5
v 0.7 12.7 -11.5
v 0.6 12.7 -11.6
v 0.7 12.7 -11.6
v -6.4 12.8 -11.1
v 0.4 12.8 -11.1
v 0.5 12.8 -11.1
v 6.4 12.8 -11.1
v 0.4 12.8 -11.3
v 0.5 12.8 -11.3
v 0.6 12.8 -11.3
v 0.5 12.8 -11.5
v 0.6 12.8 -11.5
v 0.7 12.8 -11.5
v 0.6 12.8 -11.6
v 0.7 12.8 -11.6
v -6.4 12.8 -12.8
v 6.4 12.8 -12.8

# faces
f 3/2/1 2/2/1 1/2/1
f 4/2/1 2/2/1 3/2/1
f 5/2/1 2/2/1 4/2/1
f 6/2/1 2/2/1 5/2/1
f 7/2/1 2/2/1 6/2/1
f 8/2/1 2/2/1 7/2/1
f 9/2/1 2/2/1 8/2/1
f 10/2/1 2/2/1 9/2/1
f 11/2/1 2/2/1 10/2/1
f 12/2/1 2/2/1 11/2/1
f 13/2/1 2/2/1 12/2/1
f 14/2/1 2/2/1 13/2/1
f 15/2/1 2/2/1 14/2/1
f 16/2/1 2/2/1 15/2/1
f 17/2/1 2/2/1 16/2/1
f 18/2/1 2/2/1 17/2/1
f 19/2/1 2/2/1 18/2/1
f 20/2/1 2/2/1 19/2/1
f 21/2/1 2/2/1 20/2/1
f 22/2/1 2/2/1 21/2/1
f 23/2/1 2/2/1 22/2/1
f 24/2/1 2/2/1 23/2/1
f 25/2/1 2/2/1 24/2/1
f 26/2/1 2/2/1 25/2/1
f 27/2/1 2/2/1 26/2/1
f 28/2/1 2/2/1 27/2/1
f 29/2/1 2/2/1 28/2/1
f 30/2/1 2/2/1 29/2/1
f 31/2/1 2/2/1 30/2/1
f 32/2/1 2/2/1 31/2/1
f 33/2/1 2/2/1 32/2/1
f 34/2/1 2/2/1 33/2/1
f 35/2/1 2/2/1 34/2/1
f 36/2/1 2/2/1 35/2/1
f 37/2/1 2/2/1 36/2/1
f 38/2/1 2/2/1 37/2/1
f 39/2/1 2/2/1 38/2/1
f 40/2/1 2/2/1 39/2/1
f 41/2/1 2/2/1 40/2/1
f 42/2/1 2/2/1 41/2/1
f 45/2/1 44/2/1 43/2/1
f 46/2/1 44/2/1 45/2/1
f 49/2/1 48/2/1 47/2/1
f 50/2/1 48/2/1 49/2/1
f 53/2/1 52/2/1 51/2/1
f 54/2/1 52/2/1 53/2/1
f 57/2/1 56/2/1 55/2/1
f 58/2/1 56/2/1 57/2/1
f 61/2/1 60/2/1 59/2/1
f 62/2/1 60/2/1 61/2/1
f 64/2/1 63/2/1 62/2/1
f 66/2/1 64/2/1 62/2/1
f 66/2/1 65/2/1 64/2/1
f 67/2/1 65/2/1 66/2/1
f 68/2/1 65/2/1 67/2/1
f 69/2/1 65/2/1 68/2/1
f 70/2/1 68/2/1 67/2/1
f 71/2/1 68/2/1 70/2/1
f 74/2/1 73/2/1 72/2/1
f 75/2/1 73/2/1 74/2/1
f 78/2/1 77/2/1 76/2/1
f 79/2/1 77/2/1 78/2/1
f 82/2/1 81/2/1 80/2/1
f 83/2/1 81/2/1 82/2/1
f 85/2/1 83/2/1 82/2/1
f 85/2/1 84/2/1 83/2/1
f 86/2/1 84/2/1 85/2/1
f 89/2/1 88/2/1 87/2/1
f 90/2/1 88/2/1 89/2/1
f 93/2/1 92/2/1 91/2/1
f 94/2/1 92/2/1 93/2/1
f 95/2/1 92/2/1 94/2/1
f 96/2/1 92/2/1 95/2/1
f 99/2/1 98/2/1 97/2/1
f 100/2/1 98/2/1 99/2/1
f 103/2/1 102/2/1 101/2/1
f 104/2/1 102/2/1 103/2/1
f 108/2/1 106/2/1 105/2/1
f 108/2/1 107/2/1 106/2/1
f 109/2/1 107/2/1 108/2/1
f 110/2/1 107/2/1 109/2/1
f 111/2/1 107/2/1 110/2/1
f 114/2/1 113/2/1 112/2/1
f 115/2/1 113/2/1 114/2/1
f 119/2/1 117/2/1 116/2/1
f 120/2/1 119/2/1 118/2/1
f 121/2/1 117/2/1 119/2/1
f 121/2/1 119/2/1 120/2/1
f 122/2/1 117/2/1 121/2/1
f 123/2/1 117/2/1 122/2/1
f 126/2/1 125/2/1 124/2/1
f 128/2/1 126/2/1 124/2/1
f 128/2/1 127/2/1 126/2/1
f 129/2/1 127/2/1 128/2/1
f 132/2/1 131/2/1 130/2/1
f 133/2/1 131/2/1 132/2/1
f 136/2/1 135/2/1 134/2/1
f 137/2/1 135/2/1 136/2/1
f 142/2/1 139/2/1 138/2/1
f 143/2/1 139/2/1 142/2/1
f 144/2/1 141/2/1 140/2/1
f 145/2/1 141/2/1 144/2/1
f 148/2/1 147/2/1 146/2/1
f 149/2/1 147/2/1 148/2/1
f 153/2/1 151/2/1 150/2/1
f 154/2/1 151/2/1 153/2/1
f 155/2/1 153/2/1 152/2/1
f 156/2/1 153/2/1 155/2/1
f 161/2/1 158/2/1 157/2/1
f 162/2/1 158/2/1 161/2/1
f 163/2/1 160/2/1 159/2/1
f 164/2/1 160/2/1 163/2/1
f 167/2/1 166/2/1 165/2/1
f 168/2/1 166/2/1 167/2/1
f 171/2/1 170/2/1 169/2/1
f 172/2/1 170/2/1 171/2/1
f 175/2/1 174/2/1 173/2/1
f 176/2/1 174/2/1 175/2/1
f 179/2/1 178/2/1 177/2/1
f 180/2/1 178/2/1 179/2/1
f 185/2/1 182/2/1 181/2/1
f 186/2/1 182/2/1 185/2/1
f 187/2/1 184/2/1 183/2/1
f 188/2/1 184/2/1 187/2/1
f 191/2/1 190/2/1 189/2/1
f 192/2/1 190/2/1 191/2/1
f 197/2/1 194/2/1 193/2/1
f 198/2/1 194/2/1 197/2/1
f 199/2/1 196/2/1 195/2/1
f 200/2/1 196/2/1 199/2/1
f 202/2/1 201/2/1 200/2/1
f 203/2/1 201/2/1 202/2/1
f 206/2/1 205/2/1 204/2/1
f 207/2/1 205/2/1 206/2/1
f 210/2/1 209/2/1 208/2/1
f 211/2/1 209/2/1 210/2/1
f 214/2/1 213/2/1 212/2/1
f 215/2/1 213/2/1 214/2/1
f 217/2/1 216/2/1 215/2/1
f 218/2/1 216/2/1 217/2/1
f 221/2/1 220/2/1 219/2/1
f 222/2/1 220/2/1 221/2/1
f 225/2/1 224/2/1 223/2/1
f 226/2/1 224/2/1 225/2/1
f 229/2/1 228/2/1 227/2/1
f 230/2/1 228/2/1 229/2/1
f 233/2/1 232/2/1 231/2/1
f 234/2/1 232/2/1 233/2/1
f 237/2/1 236/2/1 235/2/1
f 238/2/1 236/2/1 237/2/1
f 241/2/1 240/2/1 239/2/1
f 242/2/1 240/2/1 241/2/1
f 245/2/1 244/2/1 243/2/1
f 246/2/1 244/2/1 245/2/1
f 249/2/1 248/2/1 247/2/1
f 250/2/1 248/2/1 249/2/1
f 253/2/1 252/2/1 251/2/1
f 254/2/1 252/2/1 253/2/1
f 257/2/1 256/2/1 255/2/1
f 258/2/1 256/2/1 257/2/1
f 261/2/1 260/2/1 259/2/1
f 262/2/1 260/2/1 261/2/1
f 265/2/1 264/2/1 263/2/1
f 266/2/1 264/2/1 265/2/1
f 269/2/1 268/2/1 267/2/1
f 270/2/1 268/2/1 269/2/1
f 273/2/1 272/2/1 271/2/1
f 274/2/1 272/2/1 273/2/1
f 277/2/1 276/2/1 275/2/1
f 278/2/1 276/2/1 277/2/1
f 281/2/1 280/2/1 279/2/1
f 282/2/1 280/2/1 281/2/1
f 285/2/1 284/2/1 283/2/1
f 286/2/1 284/2/1 285/2/1
f 289/2/1 288/2/1 287/2/1
f 290/2/1 288/2/1 289/2/1
f 293/2/1 292/2/1 291/2/1
f 294/2/1 292/2/1 293/2/1
f 297/2/1 296/2/1 295/2/1
f 298/2/1 296/2/1 297/2/1
f 301/2/1 300/2/1 299/2/1
f 302/2/1 300/2/1 301/2/1
f 305/2/1 304/2/1 303/2/1
f 306/2/1 304/2/1 305/2/1
f 309/2/1 308/2/1 307/2/1
f 310/2/1 308/2/1 309/2/1
f 313/2/1 312/2/1 311/2/1
f 314/2/1 312/2/1 313/2/1
f 317/2/1 316/2/1 315/2/1
f 318/2/1 316/2/1 317/2/1
f 321/2/1 320/2/1 319/2/1
f 322/2/1 320/2/1 321/2/1
f 325/2/1 324/2/1 323/2/1
f 326/2/1 324/2/1 325/2/1
f 329/2/1 328/2/1 327/2/1
f 330/2/1 328/2/1 329/2/1
f 333/2/1 332/2/1 331/2/1
f 334/2/1 332/2/1 333/2/1
f 337/2/1 336/2/1 335/2/1
f 338/2/1 336/2/1 337/2/1
f 341/2/1 340/2/1 339/2/1
f 342/2/1 340/2/1 341/2/1
f 345/2/1 344/2/1 343/2/1
f 346/2/1 344/2/1 345/2/1
f 349/2/1 348/2/1 347/2/1
f 350/2/1 348/2/1 349/2/1
f 353/2/1 352/2/1 351/2/1
f 354/2/1 352/2/1 353/2/1
f 357/2/1 356/2/1 355/2/1
f 358/2/1 356/2/1 357/2/1
f 361/2/1 360/2/1 359/2/1
f 362/2/1 360/2/1 361/2/1
f 365/2/1 364/2/1 363/2/1
f 366/2/1 364/2/1 365/2/1
f 369/2/1 368/2/1 367/2/1
f 370/2/1 368/2/1 369/2/1
f 373/2/1 372/2/1 371/2/1
f 374/2/1 372/2/1 373/2/1
f 376/2/1 375/2/1 374/2/1
f 377/2/1 375/2/1 376/2/1
f 380/2/1 379/2/1 378/2/1
f 381/2/1 379/2/1 380/2/1
f 383/2/1 382/2/1 381/2/1
f 384/2/1 382/2/1 383/2/1
f 387/2/1 386/2/1 385/2/1
f 388/2/1 386/2/1 387/2/1
f 391/2/1 390/2/1 389/2/1
f 392/2/1 390/2/1 391/2/1
f 395/2/1 394/2/1 393/2/1
f 396/2/1 394/2/1 395/2/1
f 399/2/1 398/2/1 397/2/1
f 400/2/1 398/2/1 399/2/1
f 403/2/1 402/2/1 401/2/1
f 404/2/1 402/2/1 403/2/1
f 407/2/1 406/2/1 405/2/1
f 408/2/1 406/2/1 407/2/1
f 411/2/1 410/2/1 409/2/1
f 412/2/1 410/2/1 411/2/1
f 415/2/1 414/2/1 413/2/1
f 416/2/1 414/2/1 415/2/1
f 418/2/1 417/2/1 416/2/1
f 419/2/1 417/2/1 418/2/1
f 420/2/2 421/2/2 422/2/2
f 422/2/2 421/2/2 423/2/2
f 424/2/2 425/2/2 426/2/2
f 426/2/2 425/2/2 427/2/2
f 428/2/2 429/2/2 430/2/2
f 430/2/2 429/2/2 431/2/2
f 432/2/2 433/2/2 436/2/2
f 436/2/2 433/2/2 437/2/2
f 434/2/2 435/2/2 438/2/2
f 438/2/2 435/2/2 439/2/2
f 439/2/2 440/2/2 441/2/2
f 441/2/2 440/2/2 442/2/2
f 443/2/2 444/2/2 445/2/2
f 445/2/2 444/2/2 446/2/2
f 447/2/2 448/2/2 449/2/2
f 449/2/2 448/2/2 450/2/2
f 451/2/2 452/2/2 453/2/2
f 453/2/2 452/2/2 454/2/2
f 455/2/2 456/2/2 457/2/2
f 457/2/2 456/2/2 458/2/2
f 459/2/2 460/2/2 463/2/2
f 463/2/2 460/2/2 464/2/2
f 461/2/2 462/2/2 465/2/2
f 465/2/2 462/2/2 466/2/2
f 467/2/2 468/2/2 470/2/2
f 468/2/2 469/2/2 470/2/2
f 470/2/2 469/2/2 471/2/2
f 471/2/2 469/2/2 472/2/2
f 473/2/2 474/2/2 475/2/2
f 475/2/2 474/2/2 476/2/2
f 477/2/2 478/2/2 479/2/2
f 479/2/2 478/2/2 480/2/2
f 481/2/2 482/2/2 485/2/2
f 485/2/2 482/2/2 486/2/2
f 483/2/2 484/2/2 487/2/2
f 487/2/2 484/2/2 488/2/2
f 489/2/2 490/2/2 491/2/2
f 489/2/2 491/2/2 494/2/2
f 491/2/2 492/2/2 494/2/2
f 493/2/2 494/2/2 495/2/2
f 494/2/2 492/2/2 496/2/2
f 495/2/2 494/2/2 496/2/2
f 496/2/2 492/2/2 497/2/2
f 497/2/2 492/2/2 498/2/2
f 499/2/2 500/2/2 501/2/2
f 501/2/2 500/2/2 502/2/2
f 503/2/2 504/2/2 507/2/2
f 507/2/2 504/2/2 508/2/2
f 505/2/2 506/2/2 509/2/2
f 509/2/2 506/2/2 510/2/2
f 511/2/2 512/2/2 515/2/2
f 513/2/2 514/2/2 515/2/2
f 512/2/2 513/2/2 515/2/2
f 515/2/2 514/2/2 516/2/2
f 517/2/2 518/2/2 519/2/2
f 519/2/2 518/2/2 520/2/2
f 521/2/2 522/2/2 525/2/2
f 525/2/2 522/2/2 526/2/2
f 523/2/2 524/2/2 527/2/2
f 527/2/2 524/2/2 528/2/2
f 529/2/2 530/2/2 531/2/2
f 531/2/2 530/2/2 532/2/2
f 533/2/2 534/2/2 537/2/2
f 537/2/2 534/2/2 538/2/2
f 535/2/2 536/2/2 539/2/2
f 539/2/2 536/2/2 540/2/2
f 541/2/2 542/2/2 543/2/2
f 543/2/2 542/2/2 544/2/2
f 545/2/2 546/2/2 547/2/2
f 547/2/2 546/2/2 548/2/2
f 549/2/2 550/2/2 553/2/2
f 553/2/2 550/2/2 554/2/2
f 551/2/2 552/2/2 555/2/2
f 555/2/2 552/2/2 556/2/2
f 557/2/2 558/2/2 559/2/2
f 559/2/2 558/2/2 560/2/2
f 560/2/2 561/2/2 563/2/2
f 563/2/2 561/2/2 564/2/2
f 562/2/2 563/2/2 565/2/2
f 565/2/2 563/2/2 566/2/2
f 566/2/2 567/2/2 568/2/2
f 568/2/2 567/2/2 569/2/2
f 570/2/2 571/2/2 572/2/2
f 572/2/2 571/2/2 573/2/2
f 574/2/2 575/2/2 576/2/2
f 576/2/2 575/2/2 577/2/2
f 578/2/2 579/2/2 580/2/2
f 580/2/2 579/2/2 581/2/2
f 582/2/2 583/2/2 584/2/2
f 584/2/2 583/2/2 585/2/2
f 585/2/2 586/2/2 587/2/2
f 587/2/2 586/2/2 588/2/2
f 588/2/2 586/2/2 589/2/2
f 589/2/2 586/2/2 590/2/2
f 591/2/2 592/2/2 593/2/2
f 593/2/2 592/2/2 594/2/2
f 595/2/2 596/2/2 597/2/2
f 597/2/2 596/2/2 598/2/2
f 599/2/2 600/2/2 601/2/2
f 601/2/2 600/2/2 602/2/2
f 603/2/2 604/2/2 605/2/2
f 605/2/2 604/2/2 606/2/2
f 607/2/2 608/2/2 609/2/2
f 609/2/2 608/2/2 610/2/2
f 611/2/2 612/2/2 615/2/2
f 615/2/2 612/2/2 616/2/2
f 613/2/2 614/2/2 617/2/2
f 617/2/2 614/2/2 618/2/2
f 619/2/2 620/2/2 621/2/2
f 621/2/2 620/2/2 622/2/2
f 623/2/2 624/2/2 625/2/2
f 625/2/2 624/2/2 626/2/2
f 627/2/2 628/2/2 629/2/2
f 629/2/2 628/2/2 630/2/2
f 631/2/2 632/2/2 634/2/2
f 634/2/2 632/2/2 635/2/2
f 633/2/2 634/2/2 636/2/2
f 636/2/2 634/2/2 637/2/2
f 638/2/2 639/2/2 640/2/2
f 640/2/2 639/2/2 641/2/2
f 642/2/2 643/2/2 644/2/2
f 644/2/2 643/2/2 645/2/2
f 646/2/2 647/2/2 648/2/2
f 648/2/2 647/2/2 649/2/2
f 650/2/2 651/2/2 652/2/2
f 652/2/2 651/2/2 653/2/2
f 654/2/2 655/2/2 656/2/2
f 656/2/2 655/2/2 657/2/2
f 658/2/2 659/2/2 660/2/2
f 660/2/2 659/2/2 661/2/2
f 662/2/2 663/2/2 664/2/2
f 664/2/2 663/2/2 665/2/2
f 666/2/2 667/2/2 668/2/2
f 668/2/2 667/2/2 669/2/2
f 670/2/2 671/2/2 674/2/2
f 674/2/2 671/2/2 675/2/2
f 672/2/2 673/2/2 676/2/2
f 676/2/2 673/2/2 677/2/2
f 678/2/2 679/2/2 680/2/2
f 680/2/2 679/2/2 681/2/2
f 682/2/2 683/2/2 684/2/2
f 684/2/2 683/2/2 685/2/2
f 686/2/2 687/2/2 688/2/2
f 688/2/2 687/2/2 689/2/2
f 690/2/2 691/2/2 692/2/2
f 692/2/2 691/2/2 693/2/2
f 694/2/2 695/2/2 696/2/2
f 696/2/2 695/2/2 697/2/2
f 698/2/2 699/2/2 700/2/2
f 700/2/2 699/2/2 701/2/2
f 702/2/2 703/2/2 704/2/2
f 704/2/2 703/2/2 705/2/2
f 706/2/2 707/2/2 708/2/2
f 708/2/2 707/2/2 709/2/2
f 710/2/2 711/2/2 712/2/2
f 712/2/2 711/2/2 713/2/2
f 714/2/2 715/2/2 716/2/2
f 716/2/2 715/2/2 717/2/2
f 718/2/2 719/2/2 720/2/2
f 720/2/2 719/2/2 721/2/2
f 721/2/2 722/2/2 723/2/2
f 723/2/2 722/2/2 724/2/2
f 725/2/2 726/2/2 727/2/2
f 727/2/2 726/2/2 728/2/2
f 729/2/2 730/2/2 731/2/2
f 731/2/2 730/2/2 732/2/2
f 733/2/2 734/2/2 735/2/2
f 735/2/2 734/2/2 736/2/2
f 737/2/2 738/2/2 739/2/2
f 739/2/2 738/2/2 740/2/2
f 741/2/2 742/2/2 743/2/2
f 743/2/2 742/2/2 744/2/2
f 745/2/2 746/2/2 747/2/2
f 747/2/2 746/2/2 748/2/2
f 749/2/2 750/2/2 751/2/2
f 751/2/2 750/2/2 752/2/2
f 753/2/2 754/2/2 755/2/2
f 755/2/2 754/2/2 756/2/2
f 757/2/2 758/2/2 759/2/2
f 759/2/2 758/2/2 760/2/2
f 761/2/2 762/2/2 763/2/2
f 763/2/2 762/2/2 764/2/2
f 765/2/2 766/2/2 767/2/2
f 767/2/2 766/2/2 768/2/2
f 769/2/2 770/2/2 771/2/2
f 771/2/2 770/2/2 772/2/2
f 773/2/2 774/2/2 775/2/2
f 775/2/2 774/2/2 776/2/2
f 777/2/2 778/2/2 779/2/2
f 779/2/2 778/2/2 780/2/2
f 781/2/2 782/2/2 783/2/2
f 783/2/2 782/2/2 784/2/2
f 785/2/2 786/2/2 787/2/2
f 787/2/2 786/2/2 788/2/2
f 789/2/2 790/2/2 791/2/2
f 791/2/2 790/2/2 792/2/2
f 793/2/2 794/2/2 795/2/2
f 795/2/2 794/2/2 796/2/2
f 796/2/2 797/2/2 798/2/2
f 798/2/2 797/2/2 799/2/2
f 800/2/2 801/2/2 802/2/2
f 802/2/2 801/2/2 803/2/2
f 803/2/2 801/2/2 804/2/2
f 804/2/2 801/2/2 805/2/2
f 805/2/2 801/2/2 806/2/2
f 806/2/2 801/2/2 807/2/2
f 807/2/2 801/2/2 808/2/2
f 808/2/2 801/2/2 809/2/2
f 809/2/2 801/2/2 810/2/2
f 810/2/2 801/2/2 811/2/2
f 811/2/2 801/2/2 812/2/2
f 812/2/2 801/2/2 813/2/2
f 813/2/2 801/2/2 814/2/2
f 814/2/2 801/2/2 815/2/2
f 815/2/2 801/2/2 816/2/2
f 816/2/2 801/2/2 817/2/2
f 817/2/2 801/2/2 818/2/2
f 818/2/2 801/2/2 819/2/2
f 819/2/2 801/2/2 820/2/2
f 820/2/2 801/2/2 821/2/2
f 821/2/2 801/2/2 822/2/2
f 822/2/2 801/2/2 823/2/2
f 823/2/2 801/2/2 824/2/2
f 824/2/2 801/2/2 825/2/2
f 825/2/2 801/2/2 826/2/2
f 826/2/2 801/2/2 827/2/2
f 827/2/2 801/2/2 828/2/2
f 828/2/2 801/2/2 829/2/2
f 829/2/2 801/2/2 830/2/2
f 830/2/2 801/2/2 831/2/2
f 831/2/2 801/2/2 832/2/2
f 832/2/2 801/2/2 833/2/2
f 833/2/2 801/2/2 834/2/2
f 834/2/2 801/2/2 835/2/2
f 835/2/2 801/2/2 836/2/2
f 836/2/2 801/2/2 837/2/2
f 837/2/2 801/2/2 838/2/2
f 838/2/2 801/2/2 839/2/2
f 839/2/2 801/2/2 840/2/2
f 840/2/2 801/2/2 841/2/2
f 844/2/3 843/2/3 842/2/3
f 845/2/3 843/2/3 844/2/3
f 848/2/3 847/2/3 846/2/3
f 849/2/3 847/2/3 848/2/3
f 852/2/3 851/2/3 850/2/3
f 853/2/3 851/2/3 852/2/3
f 856/2/3 855/2/3 854/2/3
f 857/2/3 855/2/3 856/2/3
f 860/2/3 859/2/3 858/2/3
f 861/2/3 859/2/3 860/2/3
f 862/2/3 860/2/3 858/2/3
f 863/2/3 860/2/3 862/2/3
f 865/2/3 862/2/3 858/2/3
f 866/2/3 864/2/3 863/2/3
f 867/2/3 865/2/3 858/2/3
f 867/2/3 866/2/3 865/2/3
f 868/2/3 864/2/3 866/2/3
f 868/2/3 866/2/3 867/2/3
f 869/2/3 867/2/3 858/2/3
f 871/2/3 869/2/3 858/2/3
f 871/2/3 870/2/3 869/2/3
f 872/2/3 870/2/3 871/2/3
f 875/2/3 871/2/3 858/2/3
f 876/2/3 871/2/3 875/2/3
f 877/2/3 874/2/3 873/2/3
f 879/2/3 875/2/3 858/2/3
f 880/2/3 875/2/3 879/2/3
f 881/2/3 877/2/3 876/2/3
f 882/2/3 879/2/3 878/2/3
f 883/2/3 879/2/3 882/2/3
f 884/2/3 881/2/3 880/2/3
f 885/2/3 884/2/3 883/2/3
f 886/2/3 881/2/3 884/2/3
f 886/2/3 884/2/3 885/2/3
f 886/2/3 874/2/3 877/2/3
f 886/2/3 877/2/3 881/2/3
f 890/2/3 888/2/3 887/2/3
f 891/2/3 888/2/3 890/2/3
f 892/2/3 890/2/3 889/2/3
f 893/2/3 890/2/3 892/2/3
f 896/2/3 895/2/3 894/2/3
f 897/2/3 895/2/3 896/2/3
f 899/2/3 895/2/3 897/2/3
f 900/2/3 895/2/3 899/2/3
f 901/2/3 895/2/3 900/2/3
f 903/2/3 899/2/3 898/2/3
f 903/2/3 900/2/3 899/2/3
f 904/2/3 900/2/3 903/2/3
f 906/2/3 903/2/3 902/2/3
f 907/2/3 903/2/3 906/2/3
f 908/2/3 906/2/3 905/2/3
f 909/2/3 906/2/3 908/2/3
f 912/2/3 911/2/3 910/2/3
f 913/2/3 911/2/3 912/2/3
f 916/2/3 915/2/3 914/2/3
f 917/2/3 915/2/3 916/2/3
f 920/2/3 919/2/3 918/2/3
f 921/2/3 919/2/3 920/2/3
f 924/2/3 923/2/3 922/2/3
f 925/2/3 923/2/3 924/2/3
f 926/2/3 924/2/3 922/2/3
f 927/2/3 924/2/3 926/2/3
f 928/2/3 926/2/3 922/2/3
f 929/2/3 926/2/3 928/2/3
f 930/2/3 928/2/3 922/2/3
f 931/2/3 928/2/3 930/2/3
f 934/2/3 933/2/3 932/2/3
f 936/2/3 935/2/3 934/2/3
f 938/2/3 937/2/3 936/2/3
f 940/2/3 938/2/3 936/2/3
f 940/2/3 939/2/3 938/2/3
f 940/2/3 934/2/3 932/2/3
f 940/2/3 936/2/3 934/2/3
f 941/2/3 939/2/3 940/2/3
f 945/2/3 943/2/3 942/2/3
f 947/2/3 945/2/3 944/2/3
f 949/2/3 947/2/3 946/2/3
f 951/2/3 949/2/3 948/2/3
f 953/2/3 951/2/3 950/2/3
f 955/2/3 953/2/3 952/2/3
f 957/2/3 955/2/3 954/2/3
f 959/2/3 957/2/3 956/2/3
f 961/2/3 959/2/3 958/2/3
f 963/2/3 961/2/3 960/2/3
f 965/2/3 963/2/3 962/2/3
f 966/2/3 943/2/3 945/2/3
f 966/2/3 945/2/3 947/2/3
f 966/2/3 963/2/3 965/2/3
f 966/2/3 947/2/3 949/2/3
f 966/2/3 961/2/3 963/2/3
f 966/2/3 949/2/3 951/2/3
f 966/2/3 959/2/3 961/2/3
f 966/2/3 951/2/3 953/2/3
f 966/2/3 957/2/3 959/2/3
f 966/2/3 953/2/3 955/2/3
f 966/2/3 955/2/3 957/2/3
f 967/2/3 943/2/3 966/2/3
f 968/2/3 965/2/3 964/2/3
f 968/2/3 966/2/3 965/2/3
f 969/2/3 966/2/3 968/2/3
f 970/2/3 968/2/3 964/2/3
f 971/2/3 968/2/3 970/2/3
f 972/2/3 970/2/3 964/2/3
f 973/2/3 970/2/3 972/2/3
f 974/2/3 972/2/3 964/2/3
f 975/2/3 972/2/3 974/2/3
f 976/2/3 974/2/3 964/2/3
f 977/2/3 974/2/3 976/2/3
f 978/2/3 976/2/3 964/2/3
f 979/2/3 976/2/3 978/2/3
f 980/2/3 978/2/3 964/2/3
f 981/2/3 978/2/3 980/2/3
f 982/2/3 978/2/3 981/2/3
f 983/2/3 978/2/3 982/2/3
f 984/2/3 978/2/3 983/2/3
f 985/2/3 978/2/3 984/2/3
f 986/2/3 978/2/3 985/2/3
f 988/2/3 986/2/3 985/2/3
f 988/2/3 987/2/3 986/2/3
f 989/2/3 987/2/3 988/2/3
f 990/2/3 987/2/3 989/2/3
f 991/2/3 987/2/3 990/2/3
f 992/2/3 987/2/3 991/2/3
f 994/2/3 992/2/3 991/2/3
f 994/2/3 993/2/3 992/2/3
f 995/2/3 993/2/3 994/2/3
f 996/2/3 993/2/3 995/2/3
f 997/2/3 993/2/3 996/2/3
f 998/2/3 993/2/3 997/2/3
f 1000/2/3 998/2/3 997/2/3
f 1000/2/3 999/2/3 998/2/3
f 1001/2/3 999/2/3 1000/2/3
f 1002/2/3 999/2/3 1001/2/3
f 1004/2/3 1002/2/3 1001/2/3
f 1004/2/3 1003/2/3 1002/2/3
f 1005/2/3 1003/2/3 1004/2/3
f 1006/2/3 1003/2/3 1005/2/3
f 1008/2/3 1006/2/3 1005/2/3
f 1008/2/3 1007/2/3 1006/2/3
f 1009/2/3 1007/2/3 1008/2/3
f 1011/2/3 1010/2/3 1009/2/3
f 1012/2/3 1010/2/3 1011/2/3
f 1014/2/3 1013/2/3 1012/2/3
f 1015/2/3 1013/2/3 1014/2/3
f 1018/2/3 1017/2/3 1016/2/3
f 1020/2/3 1019/2/3 1018/2/3
f 1022/2/3 1021/2/3 1020/2/3
f 1024/2/3 1018/2/3 1016/2/3
f 1024/2/3 1023/2/3 1022/2/3
f 1024/2/3 1022/2/3 1020/2/3
f 1024/2/3 1020/2/3 1018/2/3
f 1025/2/3 1023/2/3 1024/2/3
f 1026/2/3 1023/2/3 1025/2/3
f 1028/2/3 1027/2/3 1026/2/3
f 1028/2/3 1026/2/3 1025/2/3
f 1029/2/3 1027/2/3 1028/2/3
f 1030/2/3 1027/2/3 1029/2/3
f 1031/2/3 1027/2/3 1030/2/3
f 1032/2/3 1027/2/3 1031/2/3
f 1033/2/3 1027/2/3 1032/2/3
f 1034/2/3 1027/2/3 1033/2/3
f 1035/2/3 1027/2/3 1034/2/3
f 1036/2/3 1027/2/3 1035/2/3
f 1037/2/3 1027/2/3 1036/2/3
f 1038/2/3 1027/2/3 1037/2/3
f 1039/2/3 1027/2/3 1038/2/3
f 1043/2/3 1041/2/3 1040/2/3
f 1045/2/3 1043/2/3 1042/2/3
f 1047/2/3 1045/2/3 1044/2/3
f 1049/2/3 1047/2/3 1046/2/3
f 1051/2/3 1049/2/3 1048/2/3
f 1053/2/3 1051/2/3 1050/2/3
f 1055/2/3 1053/2/3 1052/2/3
f 1057/2/3 1055/2/3 1054/2/3
f 1058/2/3 1057/2/3 1056/2/3
f 1059/2/3 1055/2/3 1057/2/3
f 1059/2/3 1057/2/3 1058/2/3
f 1060/2/3 1055/2/3 1059/2/3
f 1061/2/3 1053/2/3 1055/2/3
f 1061/2/3 1055/2/3 1060/2/3
f 1062/2/3 1053/2/3 1061/2/3
f 1063/2/3 1051/2/3 1053/2/3
f 1063/2/3 1053/2/3 1062/2/3
f 1064/2/3 1051/2/3 1063/2/3
f 1065/2/3 1049/2/3 1051/2/3
f 1065/2/3 1051/2/3 1064/2/3
f 1066/2/3 1049/2/3 1065/2/3
f 1067/2/3 1047/2/3 1049/2/3
f 1067/2/3 1049/2/3 1066/2/3
f 1068/2/3 1047/2/3 1067/2/3
f 1069/2/3 1045/2/3 1047/2/3
f 1069/2/3 1047/2/3 1068/2/3
f 1070/2/3 1045/2/3 1069/2/3
f 1071/2/3 1043/2/3 1045/2/3
f 1071/2/3 1045/2/3 1070/2/3
f 1072/2/3 1043/2/3 1071/2/3
f 1073/2/3 1041/2/3 1043/2/3
f 1073/2/3 1043/2/3 1072/2/3
f 1074/2/3 1041/2/3 1073/2/3
f 1075/2/3 1041/2/3 1074/2/3
f 1078/2/3 1077/2/3 1076/2/3
f 1079/2/3 1077/2/3 1078/2/3
f 1080/2/3 1077/2/3 1079/2/3
f 1081/2/3 1077/2/3 1080/2/3
f 1082/2/3 1080/2/3 1079/2/3
f 1084/2/3 1082/2/3 1079/2/3
f 1084/2/3 1083/2/3 1082/2/3
f 1085/2/3 1083/2/3 1084/2/3
f 1086/2/3 1084/2/3 1079/2/3
f 1088/2/3 1078/2/3 1076/2/3
f 1089/2/3 1087/2/3 1086/2/3
f 1089/2/3 1086/2/3 1079/2/3
f 1090/2/3 1088/2/3 1076/2/3
f 1090/2/3 1089/2/3 1088/2/3
f 1091/2/3 1087/2/3 1089/2/3
f 1091/2/3 1089/2/3 1090/2/3
f 1094/2/3 1093/2/3 1092/2/3
f 1095/2/3 1093/2/3 1094/2/3
f 1098/2/3 1097/2/3 1096/2/3
f 1099/2/3 1097/2/3 1098/2/3
f 1102/2/3 1101/2/3 1100/2/3
f 1103/2/3 1101/2/3 1102/2/3
f 1106/2/3 1105/2/3 1104/2/3
f 1107/2/3 1105/2/3 1106/2/3
f 1110/2/3 1109/2/3 1108/2/3
f 1111/2/3 1109/2/3 1110/2/3
f 1114/2/3 1113/2/3 1112/2/3
f 1115/2/3 1113/2/3 1114/2/3
f 1118/2/3 1117/2/3 1116/2/3
f 1119/2/3 1117/2/3 1118/2/3
f 1122/2/3 1121/2/3 1120/2/3
f 1123/2/3 1121/2/3 1122/2/3
f 1126/2/3 1125/2/3 1124/2/3
f 1127/2/3 1125/2/3 1126/2/3
f 1130/2/3 1129/2/3 1128/2/3
f 1131/2/3 1129/2/3 1130/2/3
f 1134/2/3 1133/2/3 1132/2/3
f 1135/2/3 1133/2/3 1134/2/3
f 1138/2/3 1137/2/3 1136/2/3
f 1139/2/3 1137/2/3 1138/2/3
f 1142/2/3 1141/2/3 1140/2/3
f 1143/2/3 1141/2/3 1142/2/3
f 1146/2/3 1145/2/3 1144/2/3
f 1147/2/3 1145/2/3 1146/2/3
f 1150/2/3 1149/2/3 1148/2/3
f 1151/2/3 1149/2/3 1150/2/3
f 1154/2/3 1153/2/3 1152/2/3
f 1155/2/3 1153/2/3 1154/2/3
f 1158/2/3 1157/2/3 1156/2/3
f 1159/2/3 1157/2/3 1158/2/3
f 1162/2/3 1161/2/3 1160/2/3
f 1163/2/3 1161/2/3 1162/2/3
f 1166/2/3 1165/2/3 1164/2/3
f 1167/2/3 1165/2/3 1166/2/3
f 1170/2/3 1169/2/3 1168/2/3
f 1171/2/3 1169/2/3 1170/2/3
f 1174/2/3 1173/2/3 1172/2/3
f 1175/2/3 1173/2/3 1174/2/3
f 1177/2/3 1174/2/3 1172/2/3
f 1178/2/3 1174/2/3 1177/2/3
f 1179/2/3 1174/2/3 1178/2/3
f 1180/2/3 1174/2/3 1179/2/3
f 1181/2/3 1179/2/3 1178/2/3
f 1182/2/3 1179/2/3 1181/2/3
f 1183/2/3 1177/2/3 1176/2/3
f 1184/2/3 1177/2/3 1183/2/3
f 1185/2/3 1179/2/3 1182/2/3
f 1186/2/3 1179/2/3 1185/2/3
f 1189/2/3 1188/2/3 1187/2/3
f 1191/2/3 1189/2/3 1187/2/3
f 1191/2/3 1190/2/3 1189/2/3
f 1192/2/3 1190/2/3 1191/2/3
f 1194/2/3 1191/2/3 1187/2/3
f 1195/2/3 1191/2/3 1194/2/3
f 1196/2/3 1193/2/3 1192/2/3
f 1197/2/3 1193/2/3 1196/2/3
f 1199/2/3 1194/2/3 1187/2/3
f 1200/2/3 1194/2/3 1199/2/3
f 1203/2/3 1199/2/3 1198/2/3
f 1204/2/3 1199/2/3 1203/2/3
f 1207/2/3 1202/2/3 1201/2/3
f 1208/2/3 1202/2/3 1207/2/3
f 1211/2/3 1206/2/3 1205/2/3
f 1212/2/3 1206/2/3 1211/2/3
f 1213/2/3 1209/2/3 1208/2/3
f 1214/2/3 1209/2/3 1213/2/3
f 1215/2/3 1211/2/3 1210/2/3
f 1218/2/3 1209/2/3 1214/2/3
f 1219/2/3 1209/2/3 1218/2/3
f 1220/2/3 1218/2/3 1217/2/3
f 1222/2/3 1216/2/3 1215/2/3
f 1223/2/3 1221/2/3 1220/2/3
f 1223/2/3 1220/2/3 1217/2/3
f 1224/2/3 1222/2/3 1215/2/3
f 1224/2/3 1223/2/3 1222/2/3
f 1224/2/3 1215/2/3 1210/2/3
f 1225/2/3 1221/2/3 1223/2/3
f 1225/2/3 1223/2/3 1224/2/3
f 1231/2/3 1227/2/3 1226/2/3
f 1232/2/3 1229/2/3 1228/2/3
f 1234/2/3 1233/2/3 1232/2/3
f 1235/2/3 1231/2/3 1230/2/3
f 1236/2/3 1231/2/3 1235/2/3
f 1237/2/3 1227/2/3 1231/2/3
f 1237/2/3 1231/2/3 1236/2/3
f 1238/2/3 1234/2/3 1232/2/3
f 1238/2/3 1232/2/3 1228/2/3
f 1239/2/3 1234/2/3 1238/2/3
f 1240/2/3 1236/2/3 1235/2/3
f 1241/2/3 1236/2/3 1240/2/3
f 1242/2/3 1234/2/3 1239/2/3
f 1243/2/3 1234/2/3 1242/2/3
f 1245/2/3 1244/2/3 1243/2/3
f 1248/2/3 1245/2/3 1243/2/3
f 1248/2/3 1246/2/3 1245/2/3
f 1249/2/3 1246/2/3 1248/2/3
f 1250/2/3 1246/2/3 1249/2/3
f 1253/2/3 1248/2/3 1247/2/3
f 1254/2/3 1248/2/3 1253/2/3
f 1255/2/3 1250/2/3 1249/2/3
f 1255/2/3 1251/2/3 1250/2/3
f 1256/2/3 1251/2/3 1255/2/3
f 1257/2/3 1253/2/3 1252/2/3
f 1258/2/3 1253/2/3 1257/2/3
f 1259/2/3 1255/2/3 1254/2/3
f 1265/2/3 1259/2/3 1254/2/3
f 1266/2/3 1259/2/3 1265/2/3
f 1267/2/3 1261/2/3 1260/2/3
f 1268/2/3 1261/2/3 1267/2/3
f 1269/2/3 1263/2/3 1262/2/3
f 1270/2/3 1263/2/3 1269/2/3
f 1271/2/3 1266/2/3 1265/2/3
f 1271/2/3 1265/2/3 1264/2/3
f 1271/2/3 1267/2/3 1266/2/3
f 1272/2/3 1267/2/3 1271/2/3
f 1273/2/3 1267/2/3 1272/2/3
f 1275/2/3 1271/2/3 1270/2/3
f 1275/2/3 1272/2/3 1271/2/3
f 1276/2/3 1272/2/3 1275/2/3
f 1277/2/3 1272/2/3 1276/2/3
f 1278/2/3 1274/2/3 1273/2/3
f 1279/2/3 1274/2/3 1278/2/3
f 1281/2/3 1280/2/3 1279/2/3
f 1282/2/3 1280/2/3 1281/2/3
f 1283/2/3 1277/2/3 1276/2/3
f 1283/2/3 1278/2/3 1277/2/3
f 1284/2/3 1278/2/3 1283/2/3
f 1289/2/3 1286/2/3 1285/2/3
f 1290/2/3 1286/2/3 1289/2/3
f 1291/2/3 1288/2/3 1287/2/3
f 1292/2/3 1288/2/3 1291/2/3
f 1294/2/3 1288/2/3 1292/2/3
f 1295/2/3 1288/2/3 1294/2/3
f 1296/2/3 1294/2/3 1293/2/3
f 1297/2/3 1294/2/3 1296/2/3
f 1298/2/3 1294/2/3 1297/2/3
f 1304/2/3 1300/2/3 1299/2/3
f 1306/2/3 1302/2/3 1301/2/3
f 1307/2/3 1304/2/3 1303/2/3
f 1308/2/3 1300/2/3 1304/2/3
f 1308/2/3 1304/2/3 1307/2/3
f 1309/2/3 1300/2/3 1308/2/3
f 1310/2/3 1306/2/3 1305/2/3
f 1311/2/3 1302/2/3 1306/2/3
f 1311/2/3 1306/2/3 1310/2/3
f 1314/2/3 1313/2/3 1312/2/3
f 1315/2/3 1313/2/3 1314/2/3
f 1318/2/3 1317/2/3 1316/2/3
f 1319/2/3 1317/2/3 1318/2/3
f 1323/2/3 1321/2/3 1320/2/3
f 1323/2/3 1322/2/3 1321/2/3
f 1324/2/3 1322/2/3 1323/2/3
f 1327/2/3 1326/2/3 1325/2/3
f 1328/2/3 1326/2/3 1327/2/3
f 1331/2/3 1330/2/3 1329/2/3
f 1332/2/3 1330/2/3 1331/2/3
f 1333/2/3 1330/2/3 1332/2/3
f 1334/2/3 1333/2/3 1332/2/3
f 1335/2/3 1333/2/3 1334/2/3
f 1338/2/3 1337/2/3 1336/2/3
f 1339/2/3 1337/2/3 1338/2/3
f 1342/2/3 1341/2/3 1340/2/3
f 1343/2/3 1341/2/3 1342/2/3
f 1346/2/3 1345/2/3 1344/2/3
f 1347/2/3 1345/2/3 1346/2/3
f 1350/2/3 1349/2/3 1348/2/3
f 1351/2/3 1349/2/3 1350/2/3
f 1354/2/3 1353/2/3 1352/2/3
f 1355/2/3 1353/2/3 1354/2/3
f 1358/2/3 1357/2/3 1356/2/3
f 1359/2/3 1357/2/3 1358/2/3
f 1362/2/3 1361/2/3 1360/2/3
f 1363/2/3 1361/2/3 1362/2/3
f 1366/2/3 1365/2/3 1364/2/3
f 1367/2/3 1365/2/3 1366/2/3
f 1370/2/3 1369/2/3 1368/2/3
f 1371/2/3 1369/2/3 1370/2/3
f 1374/2/3 1373/2/3 1372/2/3
f 1375/2/3 1373/2/3 1374/2/3
f 1378/2/3 1377/2/3 1376/2/3
f 1379/2/3 1377/2/3 1378/2/3
f 1382/2/3 1381/2/3 1380/2/3
f 1383/2/3 1381/2/3 1382/2/3
f 1386/2/3 1385/2/3 1384/2/3
f 1387/2/3 1385/2/3 1386/2/3
f 1390/2/3 1389/2/3 1388/2/3
f 1391/2/3 1389/2/3 1390/2/3
f 1394/2/3 1393/2/3 1392/2/3
f 1395/2/3 1393/2/3 1394/2/3
f 1398/2/3 1397/2/3 1396/2/3
f 1399/2/3 1397/2/3 1398/2/3
f 1402/2/3 1401/2/3 1400/2/3
f 1403/2/3 1401/2/3 1402/2/3
f 1406/2/3 1405/2/3 1404/2/3
f 1407/2/3 1405/2/3 1406/2/3
f 1410/2/3 1409/2/3 1408/2/3
f 1411/2/3 1409/2/3 1410/2/3
f 1415/2/3 1413/2/3 1412/2/3
f 1416/2/3 1415/2/3 1414/2/3
f 1417/2/3 1413/2/3 1415/2/3
f 1417/2/3 1415/2/3 1416/2/3
f 1418/2/3 1413/2/3 1417/2/3
f 1419/2/3 1413/2/3 1418/2/3
f 1420/2/3 1418/2/3 1417/2/3
f 1421/2/3 1418/2/3 1420/2/3
f 1426/2/3 1422/2/3 1421/2/3
f 1427/2/3 1424/2/3 1423/2/3
f 1428/2/3 1424/2/3 1427/2/3
f 1429/2/3 1426/2/3 1425/2/3
f 1431/2/3 1429/2/3 1428/2/3
f 1432/2/3 1426/2/3 1429/2/3
f 1432/2/3 1429/2/3 1431/2/3
f 1433/2/3 1431/2/3 1430/2/3
f 1434/2/3 1431/2/3 1433/2/3
f 1435/2/3 1426/2/3 1432/2/3
f 1436/2/3 1422/2/3 1426/2/3
f 1436/2/3 1426/2/3 1435/2/3
f 1437/2/3 1435/2/3 1434/2/3
f 1438/2/3 1422/2/3 1436/2/3
f 1439/2/3 1422/2/3 1438/2/3
f 1440/2/3 1438/2/3 1437/2/3
f 1442/2/3 1437/2/3 1434/2/3
f 1442/2/3 1441/2/3 1440/2/3
f 1442/2/3 1440/2/3 1437/2/3
f 1443/2/3 1441/2/3 1442/2/3
f 1447/2/3 1445/2/3 1444/2/3
f 1448/2/3 1445/2/3 1447/2/3
f 1449/2/3 1447/2/3 1446/2/3
f 1450/2/3 1447/2/3 1449/2/3
f 1451/2/3 1449/2/3 1446/2/3
f 1452/2/3 1449/2/3 1451/2/3
f 1455/2/3 1454/2/3 1453/2/3
f 1456/2/3 1454/2/3 1455/2/3
f 1458/2/3 1457/2/3 1456/2/3
f 1459/2/3 1457/2/3 1458/2/3
f 1461/2/3 1460/2/3 1459/2/3
f 1462/2/3 1460/2/3 1461/2/3
f 1465/2/3 1464/2/3 1463/2/3
f 1466/2/3 1464/2/3 1465/2/3
f 1467/2/3 1465/2/3 1463/2/3
f 1469/2/3 1467/2/3 1463/2/3
f 1469/2/3 1468/2/3 1467/2/3
f 1470/2/3 1468/2/3 1469/2/3
f 1473/2/3 1472/2/3 1471/2/3
f 1474/2/3 1472/2/3 1473/2/3
f 1477/2/3 1476/2/3 1475/2/3
f 1478/2/3 1476/2/3 1477/2/3
f 1481/2/3 1480/2/3 1479/2/3
f 1482/2/3 1480/2/3 1481/2/3
f 1483/2/4 1484/2/4 1485/2/4
f 1485/2/4 1484/2/4 1486/2/4
f 1487/2/4 1488/2/4 1490/2/4
f 1489/2/4 1490/2/4 1492/2/4
f 1491/2/4 1492/2/4 1494/2/4
f 1493/2/4 1494/2/4 1496/2/4
f 1495/2/4 1496/2/4 1498/2/4
f 1497/2/4 1498/2/4 1500/2/4
f 1499/2/4 1500/2/4 1502/2/4
f 1501/2/4 1502/2/4 1503/2/4
f 1502/2/4 1500/2/4 1504/2/4
f 1503/2/4 1502/2/4 1504/2/4
f 1504/2/4 1500/2/4 1505/2/4
f 1500/2/4 1498/2/4 1506/2/4
f 1505/2/4 1500/2/4 1506/2/4
f 1506/2/4 1498/2/4 1507/2/4
f 1498/2/4 1496/2/4 1508/2/4
f 1507/2/4 1498/2/4 1508/2/4
f 1508/2/4 1496/2/4 1509/2/4
f 1496/2/4 1494/2/4 1510/2/4
f 1509/2/4 1496/2/4 1510/2/4
f 1510/2/4 1494/2/4 1511/2/4
f 1494/2/4 1492/2/4 1512/2/4
f 1511/2/4 1494/2/4 1512/2/4
f 1512/2/4 1492/2/4 1513/2/4
f 1492/2/4 1490/2/4 1514/2/4
f 1513/2/4 1492/2/4 1514/2/4
f 1514/2/4 1490/2/4 1515/2/4
f 1490/2/4 1488/2/4 1516/2/4
f 1515/2/4 1490/2/4 1516/2/4
f 1516/2/4 1488/2/4 1517/2/4
f 1517/2/4 1488/2/4 1518/2/4
f 1519/2/4 1520/2/4 1522/2/4
f 1521/2/4 1522/2/4 1524/2/4
f 1523/2/4 1524/2/4 1526/2/4
f 1525/2/4 1526/2/4 1528/2/4
f 1527/2/4 1528/2/4 1530/2/4
f 1529/2/4 1530/2/4 1532/2/4
f 1531/2/4 1532/2/4 1534/2/4
f 1533/2/4 1534/2/4 1536/2/4
f 1522/2/4 1520/2/4 1537/2/4
f 1535/2/4 1536/2/4 1537/2/4
f 1536/2/4 1534/2/4 1537/2/4
f 1524/2/4 1522/2/4 1537/2/4
f 1534/2/4 1532/2/4 1537/2/4
f 1526/2/4 1524/2/4 1537/2/4
f 1532/2/4 1530/2/4 1537/2/4
f 1528/2/4 1526/2/4 1537/2/4
f 1530/2/4 1528/2/4 1537/2/4
f 1537/2/4 1520/2/4 1538/2/4
f 1535/2/4 1537/2/4 1539/2/4
f 1539/2/4 1537/2/4 1540/2/4
f 1535/2/4 1539/2/4 1541/2/4
f 1541/2/4 1539/2/4 1542/2/4
f 1535/2/4 1541/2/4 1543/2/4
f 1543/2/4 1541/2/4 1544/2/4
f 1535/2/4 1543/2/4 1545/2/4
f 1545/2/4 1543/2/4 1546/2/4
f 1546/2/4 1543/2/4 1547/2/4
f 1547/2/4 1543/2/4 1548/2/4
f 1546/2/4 1547/2/4 1549/2/4
f 1549/2/4 1547/2/4 1550/2/4
f 1546/2/4 1549/2/4 1551/2/4
f 1551/2/4 1549/2/4 1552/2/4
f 1552/2/4 1549/2/4 1553/2/4
f 1553/2/4 1549/2/4 1554/2/4
f 1552/2/4 1553/2/4 1555/2/4
f 1555/2/4 1553/2/4 1556/2/4
f 1556/2/4 1553/2/4 1557/2/4
f 1557/2/4 1553/2/4 1558/2/4
f 1559/2/4 1560/2/4 1561/2/4
f 1561/2/4 1560/2/4 1562/2/4
f 1563/2/4 1564/2/4 1565/2/4
f 1565/2/4 1564/2/4 1566/2/4
f 1567/2/4 1568/2/4 1569/2/4
f 1569/2/4 1568/2/4 1570/2/4
f 1571/2/4 1572/2/4 1573/2/4
f 1573/2/4 1572/2/4 1574/2/4
f 1575/2/4 1576/2/4 1577/2/4
f 1577/2/4 1576/2/4 1578/2/4
f 1579/2/4 1580/2/4 1581/2/4
f 1581/2/4 1580/2/4 1582/2/4
f 1583/2/4 1584/2/4 1585/2/4
f 1585/2/4 1584/2/4 1586/2/4
f 1587/2/4 1588/2/4 1589/2/4
f 1589/2/4 1588/2/4 1590/2/4
f 1591/2/4 1592/2/4 1593/2/4
f 1593/2/4 1592/2/4 1594/2/4
f 1595/2/4 1596/2/4 1597/2/4
f 1597/2/4 1596/2/4 1598/2/4
f 1599/2/4 1600/2/4 1601/2/4
f 1601/2/4 1600/2/4 1602/2/4
f 1603/2/4 1604/2/4 1605/2/4
f 1605/2/4 1604/2/4 1606/2/4
f 1607/2/4 1608/2/4 1609/2/4
f 1609/2/4 1608/2/4 1610/2/4
f 1611/2/4 1612/2/4 1613/2/4
f 1613/2/4 1612/2/4 1614/2/4
f 1615/2/4 1616/2/4 1617/2/4
f 1617/2/4 1616/2/4 1618/2/4
f 1619/2/4 1620/2/4 1621/2/4
f 1621/2/4 1620/2/4 1622/2/4
f 1623/2/4 1624/2/4 1625/2/4
f 1625/2/4 1624/2/4 1626/2/4
f 1627/2/4 1628/2/4 1629/2/4
f 1629/2/4 1628/2/4 1630/2/4
f 1631/2/4 1632/2/4 1633/2/4
f 1633/2/4 1632/2/4 1634/2/4
f 1635/2/4 1636/2/4 1637/2/4
f 1637/2/4 1636/2/4 1638/2/4
f 1639/2/4 1640/2/4 1641/2/4
f 1641/2/4 1640/2/4 1642/2/4
f 1643/2/4 1644/2/4 1645/2/4
f 1645/2/4 1644/2/4 1646/2/4
f 1647/2/4 1648/2/4 1649/2/4
f 1649/2/4 1648/2/4 1650/2/4
f 1651/2/4 1652/2/4 1653/2/4
f 1653/2/4 1652/2/4 1654/2/4
f 1655/2/4 1656/2/4 1657/2/4
f 1657/2/4 1656/2/4 1658/2/4
f 1661/2/5 1660/2/5 1659/2/5
f 1662/2/5 1660/2/5 1661/2/5
f 1665/2/5 1664/2/5 1663/2/5
f 1666/2/5 1664/2/5 1665/2/5
f 1669/2/5 1668/2/5 1667/2/5
f 1670/2/5 1668/2/5 1669/2/5
f 1675/2/5 1672/2/5 1671/2/5
f 1676/2/5 1672/2/5 1675/2/5
f 1677/2/5 1674/2/5 1673/2/5
f 1678/2/5 1674/2/5 1677/2/5
f 1681/2/5 1680/2/5 1679/2/5
f 1682/2/5 1680/2/5 1681/2/5
f 1683/2/5 1680/2/5 1682/2/5
f 1684/2/5 1680/2/5 1683/2/5
f 1685/2/5 1683/2/5 1682/2/5
f 1686/2/5 1683/2/5 1685/2/5
f 1687/2/5 1683/2/5 1686/2/5
f 1688/2/5 1683/2/5 1687/2/5
f 1689/2/5 1687/2/5 1686/2/5
f 1690/2/5 1687/2/5 1689/2/5
f 1691/2/5 1687/2/5 1690/2/5
f 1692/2/5 1687/2/5 1691/2/5
f 1693/2/5 1691/2/5 1690/2/5
f 1694/2/5 1691/2/5 1693/2/5
f 1695/2/5 1691/2/5 1694/2/5
f 1696/2/5 1691/2/5 1695/2/5
f 1697/2/5 1695/2/5 1694/2/5
f 1698/2/5 1695/2/5 1697/2/5
f 1699/2/5 1695/2/5 1698/2/5
f 1700/2/5 1695/2/5 1699/2/5
f 1701/2/5 1699/2/5 1698/2/5
f 1702/2/5 1699/2/5 1701/2/5
f 1703/2/5 1699/2/5 1702/2/5
f 1704/2/5 1699/2/5 1703/2/5
f 1705/2/5 1703/2/5 1702/2/5
f 1706/2/5 1703/2/5 1705/2/5
f 1711/2/5 1708/2/5 1707/2/5
f 1712/2/5 1708/2/5 1711/2/5
f 1713/2/5 1710/2/5 1709/2/5
f 1714/2/5 1710/2/5 1713/2/5
f 1719/2/5 1716/2/5 1715/2/5
f 1720/2/5 1716/2/5 1719/2/5
f 1721/2/5 1718/2/5 1717/2/5
f 1722/2/5 1718/2/5 1721/2/5
f 1724/2/5 1723/2/5 1722/2/5
f 1725/2/5 1723/2/5 1724/2/5
f 1728/2/5 1727/2/5 1726/2/5
f 1729/2/5 1727/2/5 1728/2/5
f 1736/2/5 1731/2/5 1730/2/5
f 1737/2/5 1731/2/5 1736/2/5
f 1738/2/5 1733/2/5 1732/2/5
f 1739/2/5 1733/2/5 1738/2/5
f 1740/2/5 1735/2/5 1734/2/5
f 1741/2/5 1735/2/5 1740/2/5
f 1742/2/5 1738/2/5 1737/2/5
f 1743/2/5 1738/2/5 1742/2/5
f 1746/2/5 1745/2/5 1744/2/5
f 1747/2/5 1745/2/5 1746/2/5
f 1750/2/5 1749/2/5 1748/2/5
f 1751/2/5 1750/2/5 1748/2/5
f 1752/2/5 1750/2/5 1751/2/5
f 1755/2/5 1754/2/5 1753/2/5
f 1756/2/5 1754/2/5 1755/2/5
f 1759/2/5 1758/2/5 1757/2/5
f 1760/2/5 1758/2/5 1759/2/5
f 1765/2/5 1762/2/5 1761/2/5
f 1766/2/5 1762/2/5 1765/2/5
f 1767/2/5 1764/2/5 1763/2/5
f 1768/2/5 1764/2/5 1767/2/5
f 1769/2/6 1770/2/6 1771/2/6
f 1771/2/6 1770/2/6 1772/2/6
f 1773/2/6 1774/2/6 1775/2/6
f 1775/2/6 1774/2/6 1776/2/6
f 1777/2/6 1778/2/6 1779/2/6
f 1779/2/6 1778/2/6 1780/2/6
f 1781/2/6 1782/2/6 1783/2/6
f 1783/2/6 1782/2/6 1784/2/6
f 1785/2/6 1786/2/6 1787/2/6
f 1787/2/6 1786/2/6 1788/2/6
f 1785/2/6 1787/2/6 1789/2/6
f 1789/2/6 1787/2/6 1790/2/6
f 1788/2/6 1786/2/6 1791/2/6
f 1791/2/6 1786/2/6 1792/2/6
f 1790/2/6 1791/2/6 1793/2/6
f 1793/2/6 1791/2/6 1794/2/6
f 1795/2/6 1796/2/6 1797/2/6
f 1797/2/6 1796/2/6 1798/2/6
f 1799/2/6 1800/2/6 1803/2/6
f 1803/2/6 1800/2/6 1804/2/6
f 1801/2/6 1802/2/6 1805/2/6
f 1805/2/6 1802/2/6 1806/2/6
f 1807/2/6 1808/2/6 1809/2/6
f 1809/2/6 1808/2/6 1810/2/6
f 1811/2/6 1812/2/6 1813/2/6
f 1813/2/6 1812/2/6 1814/2/6
f 1815/2/6 1816/2/6 1817/2/6
f 1817/2/6 1816/2/6 1818/2/6
f 1819/2/6 1820/2/6 1825/2/6
f 1821/2/6 1822/2/6 1826/2/6
f 1826/2/6 1822/2/6 1827/2/6
f 1823/2/6 1824/2/6 1828/2/6
f 1826/2/6 1827/2/6 1829/2/6
f 1827/2/6 1828/2/6 1829/2/6
f 1819/2/6 1825/2/6 1829/2/6
f 1825/2/6 1826/2/6 1829/2/6
f 1828/2/6 1824/2/6 1830/2/6
f 1829/2/6 1828/2/6 1830/2/6
f 1831/2/6 1832/2/6 1833/2/6
f 1833/2/6 1832/2/6 1834/2/6
f 1835/2/6 1836/2/6 1837/2/6
f 1837/2/6 1836/2/6 1838/2/6
f 1839/2/6 1840/2/6 1841/2/6
f 1841/2/6 1840/2/6 1842/2/6
f 1843/2/6 1844/2/6 1847/2/6
f 1847/2/6 1844/2/6 1848/2/6
f 1845/2/6 1846/2/6 1849/2/6
f 1849/2/6 1846/2/6 1850/2/6
f 1851/2/6 1852/2/6 1855/2/6
f 1855/2/6 1852/2/6 1856/2/6
f 1853/2/6 1854/2/6 1857/2/6
f 1857/2/6 1854/2/6 1858/2/6
f 1859/2/6 1860/2/6 1861/2/6
f 1861/2/6 1860/2/6 1862/2/6
f 1863/2/6 1864/2/6 1867/2/6
f 1867/2/6 1864/2/6 1868/2/6
f 1865/2/6 1866/2/6 1869/2/6
f 1869/2/6 1866/2/6 1870/2/6
f 1871/2/6 1872/2/6 1875/2/6
f 1875/2/6 1872/2/6 1876/2/6
f 1873/2/6 1874/2/6 1877/2/6
f 1877/2/6 1874/2/6 1878/2/6
f 1879/2/6 1880/2/6 1883/2/6
f 1883/2/6 1880/2/6 1884/2/6
f 1881/2/6 1882/2/6 1885/2/6
f 1885/2/6 1882/2/6 1886/2/6
f 1887/2/6 1888/2/6 1891/2/6
f 1891/2/6 1888/2/6 1892/2/6
f 1889/2/6 1890/2/6 1893/2/6
f 1893/2/6 1890/2/6 1894/2/6
f 1895/2/6 1896/2/6 1899/2/6
f 1899/2/6 1896/2/6 1900/2/6
f 1897/2/6 1898/2/6 1901/2/6
f 1901/2/6 1898/2/6 1902/2/6
f 1903/2/6 1904/2/6 1907/2/6
f 1907/2/6 1904/2/6 1908/2/6
f 1905/2/6 1906/2/6 1909/2/6
f 1909/2/6 1906/2/6 1910/2/6
f 1911/2/6 1912/2/6 1915/2/6
f 1915/2/6 1912/2/6 1916/2/6
f 1913/2/6 1914/2/6 1919/2/6
f 1919/2/6 1914/2/6 1920/2/6
f 1917/2/6 1918/2/6 1923/2/6
f 1923/2/6 1918/2/6 1924/2/6
f 1924/2/6 1918/2/6 1925/2/6
f 1925/2/6 1918/2/6 1926/2/6
f 1921/2/6 1922/2/6 1927/2/6
f 1927/2/6 1922/2/6 1928/2/6
f 1924/2/6 1925/2/6 1929/2/6
f 1929/2/6 1925/2/6 1930/2/6
f 1931/2/6 1932/2/6 1935/2/6
f 1935/2/6 1932/2/6 1936/2/6
f 1933/2/6 1934/2/6 1941/2/6
f 1941/2/6 1934/2/6 1942/2/6
f 1937/2/6 1938/2/6 1945/2/6
f 1945/2/6 1938/2/6 1946/2/6
f 1939/2/6 1940/2/6 1949/2/6
f 1949/2/6 1940/2/6 1950/2/6
f 1943/2/6 1944/2/6 1951/2/6
f 1951/2/6 1944/2/6 1952/2/6
f 1947/2/6 1948/2/6 1953/2/6
f 1953/2/6 1948/2/6 1954/2/6
f 1955/2/6 1956/2/6 1957/2/6
f 1957/2/6 1956/2/6 1958/2/6
f 1958/2/6 1956/2/6 1959/2/6
f 1959/2/6 1956/2/6 1960/2/6
f 1960/2/6 1956/2/6 1961/2/6
f 1961/2/6 1956/2/6 1962/2/6
f 1958/2/6 1959/2/6 1963/2/6
f 1963/2/6 1959/2/6 1964/2/6
f 1960/2/6 1961/2/6 1969/2/6
f 1969/2/6 1961/2/6 1970/2/6
f 1965/2/6 1966/2/6 1973/2/6
f 1973/2/6 1966/2/6 1974/2/6
f 1967/2/6 1968/2/6 1977/2/6
f 1977/2/6 1968/2/6 1978/2/6
f 1971/2/6 1972/2/6 1979/2/6
f 1979/2/6 1972/2/6 1980/2/6
f 1975/2/6 1976/2/6 1981/2/6
f 1981/2/6 1976/2/6 1982/2/6
f 1983/2/6 1984/2/6 1987/2/6
f 1987/2/6 1984/2/6 1988/2/6
f 1985/2/6 1986/2/6 1993/2/6
f 1993/2/6 1986/2/6 1994/2/6
f 1989/2/6 1990/2/6 1995/2/6
f 1995/2/6 1990/2/6 1996/2/6
f 1991/2/6 1992/2/6 1997/2/6
f 1997/2/6 1992/2/6 1998/2/6
f 1999/2/6 2000/2/6 2005/2/6
f 2005/2/6 2000/2/6 2006/2/6
f 2001/2/6 2002/2/6 2009/2/6
f 2009/2/6 2002/2/6 2010/2/6
f 2003/2/6 2004/2/6 2011/2/6
f 2011/2/6 2004/2/6 2012/2/6
f 2007/2/6 2008/2/6 2013/2/6
f 2013/2/6 2008/2/6 2014/2/6
f 2015/2/6 2016/2/6 2019/2/6
f 2019/2/6 2016/2/6 2020/2/6
f 2017/2/6 2018/2/6 2024/2/6
f 2024/2/6 2018/2/6 2025/2/6
f 2021/2/6 2022/2/6 2026/2/6
f 2026/2/6 2022/2/6 2027/2/6
f 2023/2/6 2024/2/6 2028/2/6
f 2028/2/6 2024/2/6 2029/2/6
f 2030/2/6 2031/2/6 2034/2/6
f 2034/2/6 2031/2/6 2035/2/6
f 2032/2/6 2033/2/6 2039/2/6
f 2039/2/6 2033/2/6 2040/2/6
f 2036/2/6 2037/2/6 2043/2/6
f 2043/2/6 2037/2/6 2044/2/6
f 2038/2/6 2039/2/6 2047/2/6
f 2047/2/6 2039/2/6 2048/2/6
f 2041/2/6 2042/2/6 2049/2/6
f 2049/2/6 2042/2/6 2050/2/6
f 2045/2/6 2046/2/6 2051/2/6
f 2051/2/6 2046/2/6 2052/2/6
f 2053/2/6 2054/2/6 2057/2/6
f 2055/2/6 2056/2/6 2060/2/6
f 2057/2/6 2058/2/6 2061/2/6
f 2061/2/6 2058/2/6 2062/2/6
f 2059/2/6 2060/2/6 2064/2/6
f 2057/2/6 2061/2/6 2065/2/6
f 2063/2/6 2064/2/6 2066/2/6
f 2057/2/6 2065/2/6 2067/2/6
f 2065/2/6 2066/2/6 2067/2/6
f 2053/2/6 2057/2/6 2067/2/6
f 2066/2/6 2064/2/6 2068/2/6
f 2067/2/6 2066/2/6 2068/2/6
f 2060/2/6 2056/2/6 2068/2/6
f 2064/2/6 2060/2/6 2068/2/6
f 2069/2/6 2070/2/6 2071/2/6
f 2071/2/6 2070/2/6 2072/2/6
f 2072/2/6 2070/2/6 2073/2/6
f 2073/2/6 2070/2/6 2074/2/6
f 2072/2/6 2073/2/6 2075/2/6
f 2075/2/6 2073/2/6 2076/2/6
f 2076/2/6 2073/2/6 2077/2/6
f 2077/2/6 2073/2/6 2078/2/6
f 2076/2/6 2077/2/6 2079/2/6
f 2079/2/6 2077/2/6 2080/2/6
f 2080/2/6 2077/2/6 2081/2/6
f 2081/2/6 2077/2/6 2082/2/6
f 2080/2/6 2081/2/6 2083/2/6
f 2083/2/6 2081/2/6 2084/2/6
f 2084/2/6 2081/2/6 2085/2/6
f 2085/2/6 2081/2/6 2086/2/6
f 2084/2/6 2085/2/6 2087/2/6
f 2087/2/6 2085/2/6 2088/2/6
f 2088/2/6 2085/2/6 2089/2/6
f 2089/2/6 2085/2/6 2090/2/6
f 2088/2/6 2089/2/6 2091/2/6
f 2091/2/6 2089/2/6 2092/2/6
f 2092/2/6 2089/2/6 2093/2/6
f 2093/2/6 2089/2/6 2094/2/6
f 2092/2/6 2093/2/6 2095/2/6
f 2095/2/6 2093/2/6 2096/2/6
f 2097/2/6 2098/2/6 2101/2/6
f 2101/2/6 2098/2/6 2102/2/6
f 2099/2/6 2100/2/6 2103/2/6
f 2103/2/6 2100/2/6 2104/2/6
f 2104/2/6 2100/2/6 2105/2/6
f 2105/2/6 2100/2/6 2106/2/6
f 2104/2/6 2105/2/6 2107/2/6
f 2107/2/6 2105/2/6 2108/2/6
f 2109/2/6 2110/2/6 2115/2/6
f 2111/2/6 2112/2/6 2116/2/6
f 2116/2/6 2112/2/6 2117/2/6
f 2113/2/6 2114/2/6 2120/2/6
f 2117/2/6 2118/2/6 2121/2/6
f 2115/2/6 2116/2/6 2121/2/6
f 2116/2/6 2117/2/6 2121/2/6
f 2119/2/6 2120/2/6 2122/2/6
f 2115/2/6 2121/2/6 2123/2/6
f 2121/2/6 2122/2/6 2123/2/6
f 2109/2/6 2115/2/6 2123/2/6
f 2122/2/6 2120/2/6 2124/2/6
f 2123/2/6 2122/2/6 2124/2/6
f 2120/2/6 2114/2/6 2124/2/6
f 2125/2/6 2126/2/6 2127/2/6
f 2127/2/6 2126/2/6 2128/2/6
f 2129/2/6 2130/2/6 2132/2/6
f 2132/2/6 2130/2/6 2133/2/6
f 2131/2/6 2132/2/6 2135/2/6
f 2133/2/6 2134/2/6 2135/2/6
f 2132/2/6 2133/2/6 2135/2/6
f 2135/2/6 2134/2/6 2136/2/6
f 2136/2/6 2134/2/6 2139/2/6
f 2139/2/6 2134/2/6 2140/2/6
f 2137/2/6 2138/2/6 2141/2/6
f 2141/2/6 2138/2/6 2142/2/6
f 2143/2/6 2144/2/6 2145/2/6
f 2145/2/6 2144/2/6 2146/2/6
f 2143/2/6 2145/2/6 2147/2/6
f 2147/2/6 2145/2/6 2148/2/6
f 2146/2/6 2144/2/6 2149/2/6
f 2149/2/6 2144/2/6 2150/2/6
f 2143/2/6 2147/2/6 2151/2/6
f 2150/2/6 2144/2/6 2153/2/6
f 2153/2/6 2144/2/6 2154/2/6
f 2151/2/6 2152/2/6 2155/2/6
f 2143/2/6 2151/2/6 2155/2/6
f 2155/2/6 2152/2/6 2156/2/6
f 2150/2/6 2153/2/6 2157/2/6
f 2157/2/6 2153/2/6 2158/2/6
f 2158/2/6 2153/2/6 2159/2/6
f 2154/2/6 2144/2/6 2160/2/6
f 2160/2/6 2144/2/6 2161/2/6
f 2161/2/6 2144/2/6 2162/2/6
f 2156/2/6 2157/2/6 2163/2/6
f 2157/2/6 2158/2/6 2163/2/6
f 2163/2/6 2158/2/6 2164/2/6
f 2160/2/6 2161/2/6 2165/2/6
f 2159/2/6 2160/2/6 2165/2/6
f 2165/2/6 2161/2/6 2166/2/6
f 2159/2/6 2165/2/6 2167/2/6
f 2167/2/6 2165/2/6 2168/2/6
f 2169/2/6 2170/2/6 2173/2/6
f 2173/2/6 2170/2/6 2174/2/6
f 2171/2/6 2172/2/6 2175/2/6
f 2175/2/6 2172/2/6 2176/2/6
f 2177/2/6 2178/2/6 2183/2/6
f 2183/2/6 2178/2/6 2184/2/6
f 2179/2/6 2180/2/6 2185/2/6
f 2185/2/6 2180/2/6 2186/2/6
f 2181/2/6 2182/2/6 2188/2/6
f 2188/2/6 2182/2/6 2189/2/6
f 2186/2/6 2187/2/6 2190/2/6
f 2190/2/6 2187/2/6 2191/2/6
f 2192/2/6 2193/2/6 2197/2/6
f 2197/2/6 2193/2/6 2198/2/6
f 2194/2/6 2195/2/6 2199/2/6
f 2199/2/6 2195/2/6 2200/2/6
f 2196/2/6 2197/2/6 2201/2/6
f 2201/2/6 2197/2/6 2202/2/6
f 2202/2/6 2197/2/6 2203/2/6
f 2203/2/6 2197/2/6 2204/2/6
f 2205/2/6 2206/2/6 2207/2/6
f 2207/2/6 2206/2/6 2208/2/6
f 2208/2/6 2209/2/6 2212/2/6
f 2212/2/6 2209/2/6 2213/2/6
f 2210/2/6 2211/2/6 2214/2/6
f 2214/2/6 2211/2/6 2215/2/6
f 2216/2/6 2217/2/6 2218/2/6
f 2218/2/6 2217/2/6 2219/2/6
f 2220/2/6 2221/2/6 2224/2/6
f 2224/2/6 2221/2/6 2225/2/6
f 2222/2/6 2223/2/6 2228/2/6
f 2228/2/6 2223/2/6 2229/2/6
f 2226/2/6 2227/2/6 2230/2/6
f 2230/2/6 2227/2/6 2231/2/6
f 2232/2/6 2233/2/6 2238/2/6
f 2238/2/6 2233/2/6 2239/2/6
f 2234/2/6 2235/2/6 2240/2/6
f 2240/2/6 2235/2/6 2241/2/6
f 2236/2/6 2237/2/6 2242/2/6
f 2242/2/6 2237/2/6 2244/2/6
f 2244/2/6 2237/2/6 2245/2/6
f 2243/2/6 2244/2/6 2246/2/6
f 2246/2/6 2244/2/6 2247/2/6
f 2248/2/6 2249/2/6 2250/2/6
f 2250/2/6 2249/2/6 2251/2/6
f 2252/2/6 2253/2/6 2258/2/6
f 2258/2/6 2253/2/6 2259/2/6
f 2254/2/6 2255/2/6 2260/2/6
f 2256/2/6 2257/2/6 2261/2/6
f 2261/2/6 2257/2/6 2262/2/6
f 2260/2/6 2255/2/6 2263/2/6
f 2263/2/6 2255/2/6 2264/2/6
f 2265/2/6 2266/2/6 2267/2/6
f 2267/2/6 2266/2/6 2268/2/6
f 2269/2/6 2270/2/6 2275/2/6
f 2271/2/6 2272/2/6 2277/2/6
f 2273/2/6 2274/2/6 2278/2/6
f 2275/2/6 2276/2/6 2279/2/6
f 2281/2/6 2282/2/6 2284/2/6
f 2284/2/6 2282/2/6 2285/2/6
f 2271/2/6 2277/2/6 2286/2/6
f 2277/2/6 2278/2/6 2286/2/6
f 2279/2/6 2280/2/6 2287/2/6
f 2284/2/6 2285/2/6 2288/2/6
f 2283/2/6 2284/2/6 2288/2/6
f 2285/2/6 2286/2/6 2288/2/6
f 2279/2/6 2287/2/6 2289/2/6
f 2287/2/6 2288/2/6 2289/2/6
f 2269/2/6 2275/2/6 2289/2/6
f 2275/2/6 2279/2/6 2289/2/6
f 2288/2/6 2286/2/6 2290/2/6
f 2289/2/6 2288/2/6 2290/2/6
f 2286/2/6 2278/2/6 2290/2/6
f 2278/2/6 2274/2/6 2290/2/6
f 2291/2/6 2292/2/6 2293/2/6
f 2293/2/6 2292/2/6 2294/2/6
f 2295/2/6 2296/2/6 2297/2/6
f 2297/2/6 2296/2/6 2298/2/6
f 2298/2/6 2296/2/6 2299/2/6
f 2299/2/6 2296/2/6 2300/2/6
f 2295/2/6 2297/2/6 2301/2/6
f 2297/1/6 2298/1/6 2301/1/6
f 2298/2/6 2299/2/6 2302/2/6
f 2301/1/6 2298/1/6 2302/1/6
f 2299/1/6 2300/1/6 2303/1/6
f 2302/2/6 2299/2/6 2303/2/6
f 2300/2/6 2296/2/6 2304/2/6
f 2303/1/6 2300/1/6 2304/1/6
f 2302/2/6 2303/2/6 2305/2/6
f 2301/2/6 2302/2/6 2305/2/6
f 2303/2/6 2304/2/6 2305/2/6
f 2295/2/6 2301/2/6 2305/2/6
f 2304/2/6 2296/2/6 2306/2/6
f 2305/2/6 2304/2/6 2306/2/6
f 2307/2/6 2308/2/6 2309/2/6
f 2309/2/6 2308/2/6 2310/2/6
f 2311/2/6 2312/2/6 2313/2/6
f 2313/2/6 2312/2/6 2314/2/6
f 2315/2/6 2316/2/6 2317/2/6
f 2317/2/6 2316/2/6 2318/2/6
f 2318/2/6 2319/2/6 2320/2/6
f 2320/2/6 2319/2/6 2321/2/6
f 2321/2/6 2322/2/6 2325/2/6
f 2325/2/6 2322/2/6 2326/2/6
f 2323/2/6 2324/2/6 2328/2/6
f 2328/2/6 2324/2/6 2329/2/6
f 2326/2/6 2327/2/6 2331/2/6
f 2329/2/6 2330/2/6 2333/2/6
f 2333/2/6 2330/2/6 2334/2/6
f 2331/2/6 2332/2/6 2336/2/6
f 2326/2/6 2331/2/6 2336/2/6
f 2336/2/6 2332/2/6 2337/2/6
f 2334/2/6 2335/2/6 2339/2/6
f 2339/2/6 2335/2/6 2340/2/6
f 2340/2/6 2341/2/6 2342/2/6
f 2342/2/6 2341/2/6 2343/2/6
f 2337/2/6 2338/2/6 2347/2/6
f 2347/2/6 2338/2/6 2348/2/6
f 2343/2/6 2344/2/6 2350/2/6
f 2350/2/6 2344/2/6 2351/2/6
f 2351/2/6 2344/2/6 2352/2/6
f 2345/2/6 2346/2/6 2354/2/6
f 2354/2/6 2346/2/6 2355/2/6
f 2352/2/6 2353/2/6 2357/2/6
f 2351/2/6 2352/2/6 2357/2/6
f 2357/2/6 2353/2/6 2358/2/6
f 2358/2/6 2353/2/6 2359/2/6
f 2348/2/6 2349/2/6 2361/2/6
f 2361/2/6 2349/2/6 2362/2/6
f 2359/2/6 2360/2/6 2364/2/6
f 2358/2/6 2359/2/6 2364/2/6
f 2364/2/6 2360/2/6 2365/2/6
f 2355/2/6 2356/2/6 2366/2/6
f 2366/2/6 2356/2/6 2367/2/6
f 2362/2/6 2363/2/6 2368/2/6
f 2368/2/6 2363/2/6 2369/2/6
f 2370/2/6 2371/2/6 2372/2/6
f 2372/2/6 2371/2/6 2373/2/6
f 2370/2/6 2372/2/6 2374/2/6
f 2373/2/6 2371/2/6 2375/2/6
f 2375/2/6 2371/2/6 2376/2/6
f 2374/2/6 2375/2/6 2377/2/6
f 2376/2/6 2371/2/6 2378/2/6
f 2378/2/6 2371/2/6 2379/2/6
f 2370/2/6 2374/2/6 2380/2/6
f 2374/2/6 2377/2/6 2380/2/6
f 2377/2/6 2378/2/6 2380/2/6
f 2380/2/6 2378/2/6 2381/2/6
f 2381/2/6 2378/2/6 2382/2/6
f 2379/2/6 2371/2/6 2383/2/6
f 2383/2/6 2371/2/6 2384/2/6
f 2370/2/6 2380/2/6 2385/2/6
f 2381/2/6 2382/2/6 2386/2/6
f 2382/2/6 2383/2/6 2386/2/6
f 2386/2/6 2383/2/6 2387/2/6
f 2384/2/6 2371/2/6 2388/2/6
f 2388/2/6 2371/2/6 2389/2/6
f 2385/2/6 2386/2/6 2390/2/6
f 2387/2/6 2383/2/6 2391/2/6
f 2391/2/6 2383/2/6 2392/2/6
f 2392/2/6 2383/2/6 2393/2/6
f 2389/2/6 2371/2/6 2394/2/6
f 2394/2/6 2371/2/6 2395/2/6
f 2390/2/6 2391/2/6 2396/2/6
f 2392/2/6 2393/2/6 2397/2/6
f 2393/2/6 2394/2/6 2397/2/6
f 2397/2/6 2394/2/6 2398/2/6
f 2396/2/6 2397/2/6 2399/2/6
f 2398/2/6 2394/2/6 2400/2/6
f 2400/2/6 2394/2/6 2401/2/6
f 2401/2/6 2394/2/6 2402/2/6
f 2402/2/6 2394/2/6 2403/2/6
f 2403/2/6 2394/2/6 2404/2/6
f 2395/2/6 2371/2/6 2405/2/6
f 2405/2/6 2371/2/6 2406/2/6
f 2399/2/6 2400/2/6 2407/2/6
f 2401/2/6 2402/2/6 2409/2/6
f 2409/2/6 2402/2/6 2410/2/6
f 2410/2/6 2402/2/6 2411/2/6
f 2403/2/6 2404/2/6 2412/2/6
f 2404/2/6 2405/2/6 2412/2/6
f 2412/2/6 2405/2/6 2413/2/6
f 2407/2/6 2408/2/6 2414/2/6
f 2410/2/6 2411/2/6 2416/2/6
f 2411/2/6 2412/2/6 2416/2/6
f 2416/2/6 2412/2/6 2417/2/6
f 2413/2/6 2405/2/6 2418/2/6
f 2406/2/6 2371/2/6 2419/2/6
f 2419/2/6 2371/2/6 2420/2/6
f 2370/2/6 2385/2/6 2421/2/6
f 2385/2/6 2390/2/6 2421/2/6
f 2390/2/6 2396/2/6 2421/2/6
f 2414/2/6 2415/2/6 2421/2/6
f 2396/2/6 2399/2/6 2421/2/6
f 2407/2/6 2414/2/6 2421/2/6
f 2399/2/6 2407/2/6 2421/2/6
f 2421/2/6 2415/2/6 2422/2/6
f 2417/2/6 2412/2/6 2423/2/6
f 2423/2/6 2412/2/6 2424/2/6
f 2424/2/6 2412/2/6 2425/2/6
f 2418/2/6 2419/2/6 2426/2/6
f 2413/2/6 2418/2/6 2426/2/6
f 2426/2/6 2419/2/6 2427/2/6
f 2420/2/6 2371/2/6 2428/2/6
f 2428/2/6 2371/2/6 2429/2/6
f 2424/2/6 2425/2/6 2430/2/6
f 2425/2/6 2426/2/6 2430/2/6
f 2430/2/6 2426/2/6 2431/2/6
f 2427/2/6 2428/2/6 2432/2/6
f 2432/2/6 2428/2/6 2433/2/6
f 2434/2/6 2435/2/6 2436/2/6
f 2436/2/6 2435/2/6 2437/2/6
f 2438/2/6 2439/2/6 2442/2/6
f 2442/2/6 2439/2/6 2443/2/6
f 2440/2/6 2441/2/6 2444/2/6
f 2444/2/6 2441/2/6 2445/2/6
f 2446/2/6 2447/2/6 2452/2/6
f 2448/2/6 2449/2/6 2453/2/6
f 2453/2/6 2449/2/6 2454/2/6
f 2450/2/6 2451/2/6 2455/2/6
f 2453/2/6 2454/2/6 2456/2/6
f 2454/2/6 2455/2/6 2456/2/6
f 2446/2/6 2452/2/6 2456/2/6
f 2452/2/6 2453/2/6 2456/2/6
f 2455/2/6 2451/2/6 2457/2/6
f 2456/2/6 2455/2/6 2457/2/6
f 2458/2/6 2459/2/6 2460/2/6
f 2460/2/6 2459/2/6 2461/2/6
f 2461/2/6 2462/2/6 2463/2/6
f 2463/2/6 2462/2/6 2464/2/6
f 2464/2/6 2465/2/6 2466/2/6
f 2466/2/6 2465/2/6 2467/2/6
f 2468/2/6 2469/2/6 2472/2/6
f 2470/2/6 2471/2/6 2473/2/6
f 2473/2/6 2471/2/6 2474/2/6
f 2472/2/6 2473/2/6 2475/2/6
f 2474/2/6 2471/2/6 2476/2/6
f 2476/2/6 2471/2/6 2477/2/6
f 2475/2/6 2476/2/6 2478/2/6
f 2477/2/6 2471/2/6 2479/2/6
f 2468/2/6 2472/2/6 2480/2/6
f 2478/2/6 2479/2/6 2480/2/6
f 2472/2/6 2475/2/6 2480/2/6
f 2475/2/6 2478/2/6 2480/2/6
f 2479/2/6 2471/2/6 2481/2/6
f 2480/2/6 2479/2/6 2481/2/6
