%YAML 1.1
%TAG !u! tag:unity3d.com,2011:
--- !u!78 &1
TagManager:
  serializedVersion: 2
  tags:
  - CinemachineTarget
  - Obstacle
  - Enemy
  - toReplace
  - FxTemporaire
  - MovingPlatformBound
  - LockedShowcase
  - GoldenDoor
  - TextScroll
  - BookWithRune
  - ScrollWithRune
  layers:
  - Default
  - TransparentFX
  - Ignore Raycast
  - Character
  - Water
  - UI
  - Obstacle
  - PostProcessing
  - InspectionUILayer
  - 
  - 
  - 
  - 
  - 
  - 
  - 
  - 
  - 
  - 
  - 
  - 
  - 
  - 
  - 
  - 
  - 
  - 
  - 
  - 
  - 
  - 
  - 
  m_SortingLayers:
  - name: Default
    uniqueID: 0
    locked: 0
