# MagicaVoxel @ Ephtracy

# group
o 

# material
mtllib Alien_Sphere_Construct-0.mtl
usemtl palette

# normals
vn -1 0 0
vn 1 0 0
vn 0 0 1
vn 0 0 -1
vn 0 -1 0
vn 0 1 0

# texcoords
vt 0.498047 0.5
vt 0.537109 0.5
vt 0.923828 0.5

# verts
v -2.2 2.1 0.1
v -2.2 2.1 -0.1
v -2.2 2.3 0.1
v -2.2 2.3 -0.1
v -2 2 0.2
v -2 2 -0.2
v -2 2.1 0.1
v -2 2.1 -0.1
v -2 2.3 0.1
v -2 2.3 -0.1
v -2 2.4 0.2
v -2 2.4 -0.2
v -1.8 1.9 0.3
v -1.8 1.9 -0.3
v -1.8 2 0.2
v -1.8 2 -0.2
v -1.8 2.4 0.2
v -1.8 2.4 -0.2
v -1.8 2.5 0.3
v -1.8 2.5 -0.3
v -1.6 1.8 0.4
v -1.6 1.8 -0.4
v -1.6 1.9 0.3
v -1.6 1.9 -0.3
v -1.6 2.5 0.3
v -1.6 2.5 -0.3
v -1.6 2.6 0.4
v -1.6 2.6 -0.4
v -1.4 1.7 0.5
v -1.4 1.7 -0.5
v -1.4 1.8 0.4
v -1.4 1.8 -0.4
v -1.4 2.6 0.4
v -1.4 2.6 -0.4
v -1.4 2.7 0.5
v -1.4 2.7 -0.5
v -1.2 1.6 0.6
v -1.2 1.6 -0.6
v -1.2 1.7 0.5
v -1.2 1.7 -0.5
v -1.2 2.7 0.5
v -1.2 2.7 -0.5
v -1.2 2.8 0.6
v -1.2 2.8 -0.6
v -1 1.5 0.7
v -1 1.5 -0.7
v -1 1.6 0.6
v -1 1.6 -0.6
v -1 2.8 0.6
v -1 2.8 -0.6
v -1 2.9 0.7
v -1 2.9 -0.7
v -0.8 1.4 0.8
v -0.8 1.4 -0.8
v -0.8 1.5 0.7
v -0.8 1.5 -0.7
v -0.8 2.9 0.7
v -0.8 2.9 -0.7
v -0.8 3 0.8
v -0.8 3 -0.8
v -0.7 1.2 0.7
v -0.7 1.2 -0.7
v -0.7 1.4 0.7
v -0.7 1.4 -0.7
v -0.7 3 0.7
v -0.7 3 -0.7
v -0.7 3.2 0.7
v -0.7 3.2 -0.7
v -0.6 1 0.6
v -0.6 1 -0.6
v -0.6 1.2 0.6
v -0.6 1.2 -0.6
v -0.6 1.8 0.2
v -0.6 1.8 -0.2
v -0.6 1.9 0.3
v -0.6 1.9 0.2
v -0.6 1.9 0.1
v -0.6 1.9 -0.1
v -0.6 1.9 -0.2
v -0.6 1.9 -0.3
v -0.6 2 0.2
v -0.6 2 0.1
v -0.6 2 -0.1
v -0.6 2 -0.2
v -0.6 2.2 0.2
v -0.6 2.2 0.1
v -0.6 2.2 -0.1
v -0.6 2.2 -0.2
v -0.6 2.3 0.3
v -0.6 2.3 0.2
v -0.6 2.3 0.1
v -0.6 2.3 -0.1
v -0.6 2.3 -0.2
v -0.6 2.3 -0.3
v -0.6 2.4 0.2
v -0.6 2.4 -0.2
v -0.6 3.2 0.6
v -0.6 3.2 -0.6
v -0.6 3.4 0.6
v -0.6 3.4 -0.6
v -0.5 0.8 0.5
v -0.5 0.8 -0.5
v -0.5 1 0.5
v -0.5 1 -0.5
v -0.5 1.7 0.2
v -0.5 1.7 -0.2
v -0.5 1.8 0.3
v -0.5 1.8 0.2
v -0.5 1.8 -0.2
v -0.5 1.8 -0.3
v -0.5 1.9 0.4
v -0.5 1.9 0.3
v -0.5 1.9 0.2
v -0.5 1.9 -0.2
v -0.5 1.9 -0.3
v -0.5 2 -0.3
v -0.5 2 -0.4
v -0.5 2.2 -0.3
v -0.5 2.2 -0.4
v -0.5 2.3 0.4
v -0.5 2.3 0.3
v -0.5 2.3 0.2
v -0.5 2.3 -0.2
v -0.5 2.3 -0.3
v -0.5 2.4 0.3
v -0.5 2.4 0.2
v -0.5 2.4 0.1
v -0.5 2.4 -0.1
v -0.5 2.4 -0.2
v -0.5 2.4 -0.3
v -0.5 2.5 0.1
v -0.5 2.5 -0.1
v -0.5 3.4 0.5
v -0.5 3.4 -0.5
v -0.5 3.6 0.5
v -0.5 3.6 -0.5
v -0.4 0.6 0.4
v -0.4 0.6 -0.4
v -0.4 0.8 0.4
v -0.4 0.8 -0.4
v -0.4 1.6 0.4
v -0.4 1.6 -0.3
v -0.4 1.7 0.5
v -0.4 1.7 0.4
v -0.4 1.7 0.2
v -0.4 1.7 -0.2
v -0.4 1.7 -0.3
v -0.4 1.7 -0.4
v -0.4 1.8 0.3
v -0.4 1.8 0.2
v -0.4 1.8 -0.2
v -0.4 1.8 -0.3
v -0.4 1.8 -0.4
v -0.4 1.8 -0.5
v -0.4 1.9 0.4
v -0.4 1.9 0.3
v -0.4 2 -0.3
v -0.4 2 -0.4
v -0.4 2.2 -0.3
v -0.4 2.2 -0.4
v -0.4 2.3 0.4
v -0.4 2.3 0.3
v -0.4 2.4 0.5
v -0.4 2.4 0.4
v -0.4 2.4 0.3
v -0.4 2.4 0.1
v -0.4 2.4 -0.1
v -0.4 2.4 -0.3
v -0.4 2.4 -0.4
v -0.4 2.4 -0.5
v -0.4 2.5 0.4
v -0.4 2.5 0.3
v -0.4 2.5 0.1
v -0.4 2.5 -0.1
v -0.4 2.5 -0.3
v -0.4 2.5 -0.4
v -0.4 2.6 0.3
v -0.4 2.6 -0.3
v -0.4 3.6 0.4
v -0.4 3.6 -0.4
v -0.4 3.8 0.4
v -0.4 3.8 -0.4
v -0.3 0.4 0.3
v -0.3 0.4 -0.3
v -0.3 0.6 0.3
v -0.3 0.6 -0.3
v -0.3 1.5 0.2
v -0.3 1.5 -0.2
v -0.3 1.6 0.5
v -0.3 1.6 0.4
v -0.3 1.6 0.2
v -0.3 1.6 -0.2
v -0.3 1.6 -0.3
v -0.3 1.6 -0.4
v -0.3 1.7 0.5
v -0.3 1.7 0.4
v -0.3 1.7 -0.3
v -0.3 1.7 -0.4
v -0.3 1.7 -0.5
v -0.3 1.8 -0.4
v -0.3 1.8 -0.5
v -0.3 1.9 0.6
v -0.3 1.9 0.5
v -0.3 2.3 0.6
v -0.3 2.3 0.5
v -0.3 2.4 0.5
v -0.3 2.4 0.4
v -0.3 2.4 -0.4
v -0.3 2.4 -0.5
v -0.3 2.5 0.5
v -0.3 2.5 0.4
v -0.3 2.5 0.3
v -0.3 2.5 -0.3
v -0.3 2.5 -0.4
v -0.3 2.5 -0.5
v -0.3 2.6 0.4
v -0.3 2.6 0.3
v -0.3 2.6 -0.3
v -0.3 2.6 -0.4
v -0.3 3.8 0.3
v -0.3 3.8 -0.3
v -0.3 4 0.3
v -0.3 4 -0.3
v -0.2 0.2 0.2
v -0.2 0.2 -0.2
v -0.2 0.4 0.2
v -0.2 0.4 -0.2
v -0.2 1.5 0.3
v -0.2 1.5 0.2
v -0.2 1.5 -0.2
v -0.2 1.5 -0.3
v -0.2 1.6 0.3
v -0.2 1.6 0.2
v -0.2 1.6 -0.2
v -0.2 1.6 -0.3
v -0.2 1.6 -0.4
v -0.2 1.6 -0.5
v -0.2 1.7 -0.4
v -0.2 1.7 -0.5
v -0.2 1.8 0.6
v -0.2 1.8 0.5
v -0.2 1.9 0.7
v -0.2 1.9 0.6
v -0.2 1.9 0.5
v -0.2 1.9 -0.5
v -0.2 1.9 -0.6
v -0.2 2.3 0.7
v -0.2 2.3 0.6
v -0.2 2.3 0.5
v -0.2 2.3 -0.5
v -0.2 2.3 -0.6
v -0.2 2.4 0.6
v -0.2 2.4 0.5
v -0.2 2.5 0.5
v -0.2 2.5 0.4
v -0.2 2.5 -0.4
v -0.2 2.5 -0.5
v -0.2 2.6 0.5
v -0.2 2.6 0.4
v -0.2 2.6 0.2
v -0.2 2.6 -0.2
v -0.2 2.6 -0.4
v -0.2 2.6 -0.5
v -0.2 2.7 0.2
v -0.2 2.7 -0.2
v -0.2 4 0.2
v -0.2 4 -0.2
v -0.2 4.2 0.2
v -0.2 4.2 -0.2
v -0.0999999 0 0.1
v -0.0999999 0 -0.1
v -0.0999999 0.2 0.1
v -0.0999999 0.2 -0.1
v -0.0999999 1.5 0.4
v -0.0999999 1.5 0.3
v -0.0999999 1.6 0.4
v -0.0999999 1.6 0.3
v -0.0999999 1.7 0.6
v -0.0999999 1.7 0.5
v -0.0999999 1.8 0.7
v -0.0999999 1.8 0.6
v -0.0999999 1.8 0.5
v -0.0999999 1.8 -0.5
v -0.0999999 1.8 -0.6
v -0.0999999 1.9 0.7
v -0.0999999 1.9 0.6
v -0.0999999 1.9 -0.5
v -0.0999999 1.9 -0.6
v -0.0999999 2 0.8
v -0.0999999 2 0.7
v -0.0999999 2 -0.6
v -0.0999999 2 -0.7
v -0.0999999 2.2 0.8
v -0.0999999 2.2 0.7
v -0.0999999 2.2 -0.6
v -0.0999999 2.2 -0.7
v -0.0999999 2.3 0.7
v -0.0999999 2.3 0.6
v -0.0999999 2.3 -0.5
v -0.0999999 2.3 -0.6
v -0.0999999 2.4 0.7
v -0.0999999 2.4 0.6
v -0.0999999 2.4 -0.5
v -0.0999999 2.4 -0.6
v -0.0999999 2.6 0.3
v -0.0999999 2.6 0.2
v -0.0999999 2.6 -0.2
v -0.0999999 2.6 -0.3
v -0.0999999 2.7 0.3
v -0.0999999 2.7 0.2
v -0.0999999 2.7 0.1
v -0.0999999 2.7 -0.1
v -0.0999999 2.7 -0.2
v -0.0999999 2.7 -0.3
v -0.0999999 2.8 0.1
v -0.0999999 2.8 -0.1
v -0.0999999 4.2 0.1
v -0.0999999 4.2 -0.1
v -0.0999999 4.4 0.1
v -0.0999999 4.4 -0.1
v 0 1.5 -0.3
v 0 1.5 -0.4
v 0 1.6 -0.3
v 0 1.6 -0.4
v 0 1.9 0.8
v 0 1.9 0.7
v 0 1.9 -0.6
v 0 1.9 -0.7
v 0 2 0.8
v 0 2 0.7
v 0 2 -0.6
v 0 2 -0.7
v 0 2.2 0.8
v 0 2.2 0.7
v 0 2.2 -0.6
v 0 2.2 -0.7
v 0 2.3 0.8
v 0 2.3 0.7
v 0 2.3 -0.6
v 0 2.3 -0.7
v 0 2.4 0.6
v 0 2.4 0.5
v 0 2.5 0.6
v 0 2.5 0.5
v 0 2.7 0.2
v 0 2.7 0.1
v 0 2.7 -0.1
v 0 2.7 -0.2
v 0 2.8 0.2
v 0 2.8 0.1
v 0 2.8 -0.1
v 0 2.8 -0.2
v 0.8 1.5 0.8
v 0.8 1.5 -0.8
v 0.8 1.9 0.1
v 0.8 1.9 -0.1
v 0.8 2 0.2
v 0.8 2 0.1
v 0.8 2 -0.1
v 0.8 2 -0.2
v 0.8 2.2 0.2
v 0.8 2.2 0.1
v 0.8 2.2 -0.1
v 0.8 2.2 -0.2
v 0.8 2.3 0.1
v 0.8 2.3 -0.1
v 0.8 2.9 0.8
v 0.8 2.9 -0.8
v -0.7 1.5 0.8
v -0.7 1.5 -0.8
v -0.7 1.9 0.1
v -0.7 1.9 -0.1
v -0.7 2 0.2
v -0.7 2 0.1
v -0.7 2 -0.1
v -0.7 2 -0.2
v -0.7 2.2 0.2
v -0.7 2.2 0.1
v -0.7 2.2 -0.1
v -0.7 2.2 -0.2
v -0.7 2.3 0.1
v -0.7 2.3 -0.1
v -0.7 2.9 0.8
v -0.7 2.9 -0.8
v 0.1 0 0.1
v 0.1 0 -0.1
v 0.1 0.2 0.1
v 0.1 0.2 -0.1
v 0.1 4.2 0.1
v 0.1 4.2 -0.1
v 0.1 4.4 0.1
v 0.1 4.4 -0.1
v 0.2 0.2 0.2
v 0.2 0.2 -0.2
v 0.2 0.4 0.2
v 0.2 0.4 -0.2
v 0.2 1.5 -0.3
v 0.2 1.5 -0.4
v 0.2 1.6 -0.3
v 0.2 1.6 -0.4
v 0.2 1.9 0.8
v 0.2 1.9 0.7
v 0.2 1.9 -0.6
v 0.2 1.9 -0.7
v 0.2 2 0.8
v 0.2 2 0.7
v 0.2 2 -0.6
v 0.2 2 -0.7
v 0.2 2.2 0.8
v 0.2 2.2 0.7
v 0.2 2.2 -0.6
v 0.2 2.2 -0.7
v 0.2 2.3 0.8
v 0.2 2.3 0.7
v 0.2 2.3 -0.6
v 0.2 2.3 -0.7
v 0.2 2.4 0.6
v 0.2 2.4 0.5
v 0.2 2.5 0.6
v 0.2 2.5 0.5
v 0.2 2.7 0.2
v 0.2 2.7 0.1
v 0.2 2.7 -0.1
v 0.2 2.7 -0.2
v 0.2 2.8 0.2
v 0.2 2.8 0.1
v 0.2 2.8 -0.1
v 0.2 2.8 -0.2
v 0.2 4 0.2
v 0.2 4 -0.2
v 0.2 4.2 0.2
v 0.2 4.2 -0.2
v 0.3 0.4 0.3
v 0.3 0.4 -0.3
v 0.3 0.6 0.3
v 0.3 0.6 -0.3
v 0.3 1.5 0.4
v 0.3 1.5 0.3
v 0.3 1.6 0.4
v 0.3 1.6 0.3
v 0.3 1.7 0.6
v 0.3 1.7 0.5
v 0.3 1.8 0.7
v 0.3 1.8 0.6
v 0.3 1.8 0.5
v 0.3 1.8 -0.5
v 0.3 1.8 -0.6
v 0.3 1.9 0.7
v 0.3 1.9 0.6
v 0.3 1.9 -0.5
v 0.3 1.9 -0.6
v 0.3 2 0.8
v 0.3 2 0.7
v 0.3 2 -0.6
v 0.3 2 -0.7
v 0.3 2.2 0.8
v 0.3 2.2 0.7
v 0.3 2.2 -0.6
v 0.3 2.2 -0.7
v 0.3 2.3 0.7
v 0.3 2.3 0.6
v 0.3 2.3 -0.5
v 0.3 2.3 -0.6
v 0.3 2.4 0.7
v 0.3 2.4 0.6
v 0.3 2.4 -0.5
v 0.3 2.4 -0.6
v 0.3 2.6 0.3
v 0.3 2.6 0.2
v 0.3 2.6 -0.2
v 0.3 2.6 -0.3
v 0.3 2.7 0.3
v 0.3 2.7 0.2
v 0.3 2.7 0.1
v 0.3 2.7 -0.1
v 0.3 2.7 -0.2
v 0.3 2.7 -0.3
v 0.3 2.8 0.1
v 0.3 2.8 -0.1
v 0.3 3.8 0.3
v 0.3 3.8 -0.3
v 0.3 4 0.3
v 0.3 4 -0.3
v 0.4 0.6 0.4
v 0.4 0.6 -0.4
v 0.4 0.8 0.4
v 0.4 0.8 -0.4
v 0.4 1.5 0.3
v 0.4 1.5 0.1
v 0.4 1.5 -0.1
v 0.4 1.5 -0.3
v 0.4 1.6 0.5
v 0.4 1.6 0.4
v 0.4 1.6 0.3
v 0.4 1.6 0.1
v 0.4 1.6 -0.1
v 0.4 1.6 -0.3
v 0.4 1.6 -0.4
v 0.4 1.6 -0.5
v 0.4 1.7 0.5
v 0.4 1.7 0.4
v 0.4 1.7 -0.4
v 0.4 1.7 -0.5
v 0.4 1.8 0.6
v 0.4 1.8 0.5
v 0.4 1.9 0.7
v 0.4 1.9 0.6
v 0.4 1.9 -0.5
v 0.4 1.9 -0.6
v 0.4 2 0.6
v 0.4 2 0.5
v 0.4 2.2 0.6
v 0.4 2.2 0.5
v 0.4 2.3 0.7
v 0.4 2.3 0.6
v 0.4 2.3 -0.5
v 0.4 2.3 -0.6
v 0.4 2.4 0.6
v 0.4 2.4 0.5
v 0.4 2.4 -0.4
v 0.4 2.4 -0.5
v 0.4 2.5 0.5
v 0.4 2.5 0.4
v 0.4 2.5 -0.3
v 0.4 2.5 -0.4
v 0.4 2.6 0.5
v 0.4 2.6 0.4
v 0.4 2.6 0.2
v 0.4 2.6 -0.2
v 0.4 2.6 -0.3
v 0.4 2.6 -0.5
v 0.4 2.7 0.2
v 0.4 2.7 -0.2
v 0.4 3.6 0.4
v 0.4 3.6 -0.4
v 0.4 3.8 0.4
v 0.4 3.8 -0.4
v 0.5 0.8 0.5
v 0.5 0.8 -0.5
v 0.5 1 0.5
v 0.5 1 -0.5
v 0.5 1.5 0.1
v 0.5 1.5 -0.1
v 0.5 1.6 0.4
v 0.5 1.6 0.3
v 0.5 1.6 0.1
v 0.5 1.6 -0.1
v 0.5 1.6 -0.3
v 0.5 1.6 -0.4
v 0.5 1.7 0.5
v 0.5 1.7 0.4
v 0.5 1.7 0.3
v 0.5 1.7 -0.3
v 0.5 1.7 -0.4
v 0.5 1.7 -0.5
v 0.5 1.8 0.5
v 0.5 1.8 0.4
v 0.5 1.8 -0.4
v 0.5 1.8 -0.5
v 0.5 2 0.6
v 0.5 2 0.5
v 0.5 2.2 0.6
v 0.5 2.2 0.5
v 0.5 2.4 0.5
v 0.5 2.4 0.4
v 0.5 2.4 -0.3
v 0.5 2.4 -0.4
v 0.5 2.5 0.5
v 0.5 2.5 0.4
v 0.5 2.5 0.3
v 0.5 2.5 -0.3
v 0.5 2.5 -0.4
v 0.5 2.6 0.4
v 0.5 2.6 0.3
v 0.5 3.4 0.5
v 0.5 3.4 -0.5
v 0.5 3.6 0.5
v 0.5 3.6 -0.5
v 0.6 1 0.6
v 0.6 1 -0.6
v 0.6 1.2 0.6
v 0.6 1.2 -0.6
v 0.6 1.6 0.3
v 0.6 1.6 -0.3
v 0.6 1.7 0.4
v 0.6 1.7 0.3
v 0.6 1.7 -0.3
v 0.6 1.7 -0.4
v 0.6 1.8 0.5
v 0.6 1.8 0.4
v 0.6 1.8 0.2
v 0.6 1.8 -0.2
v 0.6 1.8 -0.4
v 0.6 1.8 -0.5
v 0.6 1.9 0.3
v 0.6 1.9 0.2
v 0.6 1.9 -0.2
v 0.6 1.9 -0.3
v 0.6 2.3 0.3
v 0.6 2.3 0.2
v 0.6 2.3 -0.2
v 0.6 2.3 -0.3
v 0.6 2.4 0.5
v 0.6 2.4 0.4
v 0.6 2.4 0.2
v 0.6 2.4 -0.2
v 0.6 2.4 -0.3
v 0.6 2.4 -0.5
v 0.6 2.5 0.4
v 0.6 2.5 0.3
v 0.6 2.6 0.3
v 0.6 2.6 -0.3
v 0.6 3.2 0.6
v 0.6 3.2 -0.6
v 0.6 3.4 0.6
v 0.6 3.4 -0.6
v 0.7 1.2 0.7
v 0.7 1.2 -0.7
v 0.7 1.4 0.7
v 0.7 1.4 -0.7
v 0.7 1.8 0.2
v 0.7 1.8 -0.2
v 0.7 1.9 0.3
v 0.7 1.9 0.2
v 0.7 1.9 0.1
v 0.7 1.9 -0.1
v 0.7 1.9 -0.2
v 0.7 1.9 -0.3
v 0.7 2 0.2
v 0.7 2 0.1
v 0.7 2 -0.1
v 0.7 2 -0.2
v 0.7 2.2 0.2
v 0.7 2.2 0.1
v 0.7 2.2 -0.1
v 0.7 2.2 -0.2
v 0.7 2.3 0.3
v 0.7 2.3 0.2
v 0.7 2.3 0.1
v 0.7 2.3 -0.1
v 0.7 2.3 -0.2
v 0.7 2.3 -0.3
v 0.7 2.4 0.2
v 0.7 2.4 -0.2
v 0.7 3 0.7
v 0.7 3 -0.7
v 0.7 3.2 0.7
v 0.7 3.2 -0.7
v 0.9 1.4 0.8
v 0.9 1.4 -0.8
v 0.9 1.5 0.7
v 0.9 1.5 -0.7
v 0.9 2.9 0.7
v 0.9 2.9 -0.7
v 0.9 3 0.8
v 0.9 3 -0.8
v 1.1 1.5 0.7
v 1.1 1.5 -0.7
v 1.1 1.6 0.6
v 1.1 1.6 -0.6
v 1.1 2.8 0.6
v 1.1 2.8 -0.6
v 1.1 2.9 0.7
v 1.1 2.9 -0.7
v 1.3 1.6 0.6
v 1.3 1.6 -0.6
v 1.3 1.7 0.5
v 1.3 1.7 -0.5
v 1.3 2.7 0.5
v 1.3 2.7 -0.5
v 1.3 2.8 0.6
v 1.3 2.8 -0.6
v 1.5 1.7 0.5
v 1.5 1.7 -0.5
v 1.5 1.8 0.4
v 1.5 1.8 -0.4
v 1.5 2.6 0.4
v 1.5 2.6 -0.4
v 1.5 2.7 0.5
v 1.5 2.7 -0.5
v 1.7 1.8 0.4
v 1.7 1.8 -0.4
v 1.7 1.9 0.3
v 1.7 1.9 -0.3
v 1.7 2.5 0.3
v 1.7 2.5 -0.3
v 1.7 2.6 0.4
v 1.7 2.6 -0.4
v 1.9 1.9 0.3
v 1.9 1.9 -0.3
v 1.9 2 0.2
v 1.9 2 -0.2
v 1.9 2.4 0.2
v 1.9 2.4 -0.2
v 1.9 2.5 0.3
v 1.9 2.5 -0.3
v 2.1 2 0.2
v 2.1 2 -0.2
v 2.1 2.1 0.1
v 2.1 2.1 -0.1
v 2.1 2.3 0.1
v 2.1 2.3 -0.1
v 2.1 2.4 0.2
v 2.1 2.4 -0.2
v 2.3 2.1 0.1
v 2.3 2.1 -0.1
v 2.3 2.3 0.1
v 2.3 2.3 -0.1
v -0.8 1.4 0.8
v -0.8 3 0.8
v -0.7 1.5 0.8
v -0.7 2.9 0.8
v -0.0999999 2 0.8
v -0.0999999 2.2 0.8
v 0 1.9 0.8
v 0 2 0.8
v 0 2.2 0.8
v 0 2.3 0.8
v 0.2 1.9 0.8
v 0.2 2 0.8
v 0.2 2.2 0.8
v 0.2 2.3 0.8
v 0.3 2 0.8
v 0.3 2.2 0.8
v 0.8 1.5 0.8
v 0.8 2.9 0.8
v 0.9 1.4 0.8
v 0.9 3 0.8
v -1 1.5 0.7
v -1 2.9 0.7
v -0.8 1.5 0.7
v -0.8 2.9 0.7
v -0.7 1.2 0.7
v -0.7 1.4 0.7
v -0.7 3 0.7
v -0.7 3.2 0.7
v -0.2 1.9 0.7
v -0.2 2.3 0.7
v -0.0999999 1.8 0.7
v -0.0999999 1.9 0.7
v -0.0999999 2 0.7
v -0.0999999 2.2 0.7
v -0.0999999 2.3 0.7
v -0.0999999 2.4 0.7
v 0 1.9 0.7
v 0 2 0.7
v 0 2.2 0.7
v 0 2.3 0.7
v 0.2 1.9 0.7
v 0.2 2 0.7
v 0.2 2.2 0.7
v 0.2 2.3 0.7
v 0.3 1.8 0.7
v 0.3 1.9 0.7
v 0.3 2 0.7
v 0.3 2.2 0.7
v 0.3 2.3 0.7
v 0.3 2.4 0.7
v 0.4 1.9 0.7
v 0.4 2.3 0.7
v 0.7 1.2 0.7
v 0.7 1.4 0.7
v 0.7 3 0.7
v 0.7 3.2 0.7
v 0.9 1.5 0.7
v 0.9 2.9 0.7
v 1.1 1.5 0.7
v 1.1 2.9 0.7
v -1.2 1.6 0.6
v -1.2 2.8 0.6
v -1 1.6 0.6
v -1 2.8 0.6
v -0.6 1 0.6
v -0.6 1.2 0.6
v -0.6 3.2 0.6
v -0.6 3.4 0.6
v -0.3 1.9 0.6
v -0.3 2.3 0.6
v -0.2 1.8 0.6
v -0.2 1.9 0.6
v -0.2 2.3 0.6
v -0.2 2.4 0.6
v -0.0999999 1.7 0.6
v -0.0999999 1.8 0.6
v -0.0999999 1.9 0.6
v -0.0999999 2.3 0.6
v -0.0999999 2.4 0.6
v 0 2.4 0.6
v 0 2.5 0.6
v 0.2 2.4 0.6
v 0.2 2.5 0.6
v 0.3 1.7 0.6
v 0.3 1.8 0.6
v 0.3 1.9 0.6
v 0.3 2.3 0.6
v 0.3 2.4 0.6
v 0.4 1.8 0.6
v 0.4 1.9 0.6
v 0.4 2 0.6
v 0.4 2.2 0.6
v 0.4 2.3 0.6
v 0.4 2.4 0.6
v 0.5 2 0.6
v 0.5 2.2 0.6
v 0.6 1 0.6
v 0.6 1.2 0.6
v 0.6 3.2 0.6
v 0.6 3.4 0.6
v 1.1 1.6 0.6
v 1.1 2.8 0.6
v 1.3 1.6 0.6
v 1.3 2.8 0.6
v -1.4 1.7 0.5
v -1.4 2.7 0.5
v -1.2 1.7 0.5
v -1.2 2.7 0.5
v -0.5 0.8 0.5
v -0.5 1 0.5
v -0.5 3.4 0.5
v -0.5 3.6 0.5
v -0.4 1.7 0.5
v -0.4 2.4 0.5
v -0.3 1.6 0.5
v -0.3 1.7 0.5
v -0.3 1.9 0.5
v -0.3 2.3 0.5
v -0.3 2.4 0.5
v -0.3 2.5 0.5
v -0.2 1.8 0.5
v -0.2 1.9 0.5
v -0.2 2.3 0.5
v -0.2 2.4 0.5
v -0.2 2.5 0.5
v -0.2 2.6 0.5
v -0.0999999 1.7 0.5
v -0.0999999 1.8 0.5
v 0 2.4 0.5
v 0 2.5 0.5
v 0.2 2.4 0.5
v 0.2 2.5 0.5
v 0.3 1.7 0.5
v 0.3 1.8 0.5
v 0.4 1.6 0.5
v 0.4 1.7 0.5
v 0.4 1.8 0.5
v 0.4 2 0.5
v 0.4 2.2 0.5
v 0.4 2.4 0.5
v 0.4 2.5 0.5
v 0.4 2.6 0.5
v 0.5 0.8 0.5
v 0.5 1 0.5
v 0.5 1.7 0.5
v 0.5 1.8 0.5
v 0.5 2 0.5
v 0.5 2.2 0.5
v 0.5 2.4 0.5
v 0.5 2.5 0.5
v 0.5 3.4 0.5
v 0.5 3.6 0.5
v 0.6 1.8 0.5
v 0.6 2.4 0.5
v 1.3 1.7 0.5
v 1.3 2.7 0.5
v 1.5 1.7 0.5
v 1.5 2.7 0.5
v -1.6 1.8 0.4
v -1.6 2.6 0.4
v -1.4 1.8 0.4
v -1.4 2.6 0.4
v -0.5 1.9 0.4
v -0.5 2.3 0.4
v -0.4 0.6 0.4
v -0.4 0.8 0.4
v -0.4 1.6 0.4
v -0.4 1.7 0.4
v -0.4 1.9 0.4
v -0.4 2.3 0.4
v -0.4 2.4 0.4
v -0.4 2.5 0.4
v -0.4 3.6 0.4
v -0.4 3.8 0.4
v -0.3 1.6 0.4
v -0.3 1.7 0.4
v -0.3 2.4 0.4
v -0.3 2.5 0.4
v -0.3 2.6 0.4
v -0.2 2.5 0.4
v -0.2 2.6 0.4
v -0.0999999 1.5 0.4
v -0.0999999 1.6 0.4
v 0.3 1.5 0.4
v 0.3 1.6 0.4
v 0.4 0.6 0.4
v 0.4 0.8 0.4
v 0.4 1.6 0.4
v 0.4 1.7 0.4
v 0.4 2.5 0.4
v 0.4 2.6 0.4
v 0.4 3.6 0.4
v 0.4 3.8 0.4
v 0.5 1.6 0.4
v 0.5 1.7 0.4
v 0.5 1.8 0.4
v 0.5 2.4 0.4
v 0.5 2.5 0.4
v 0.5 2.6 0.4
v 0.6 1.7 0.4
v 0.6 1.8 0.4
v 0.6 2.4 0.4
v 0.6 2.5 0.4
v 1.5 1.8 0.4
v 1.5 2.6 0.4
v 1.7 1.8 0.4
v 1.7 2.6 0.4
v -1.8 1.9 0.3
v -1.8 2.5 0.3
v -1.6 1.9 0.3
v -1.6 2.5 0.3
v -0.6 1.9 0.3
v -0.6 2.3 0.3
v -0.5 1.8 0.3
v -0.5 1.9 0.3
v -0.5 2.3 0.3
v -0.5 2.4 0.3
v -0.4 1.8 0.3
v -0.4 1.9 0.3
v -0.4 2.3 0.3
v -0.4 2.4 0.3
v -0.4 2.5 0.3
v -0.4 2.6 0.3
v -0.3 0.4 0.3
v -0.3 0.6 0.3
v -0.3 2.5 0.3
v -0.3 2.6 0.3
v -0.3 3.8 0.3
v -0.3 4 0.3
v -0.2 1.5 0.3
v -0.2 1.6 0.3
v -0.0999999 1.5 0.3
v -0.0999999 1.6 0.3
v -0.0999999 2.6 0.3
v -0.0999999 2.7 0.3
v 0.3 0.4 0.3
v 0.3 0.6 0.3
v 0.3 1.5 0.3
v 0.3 1.6 0.3
v 0.3 2.6 0.3
v 0.3 2.7 0.3
v 0.3 3.8 0.3
v 0.3 4 0.3
v 0.4 1.5 0.3
v 0.4 1.6 0.3
v 0.5 1.6 0.3
v 0.5 1.7 0.3
v 0.5 2.5 0.3
v 0.5 2.6 0.3
v 0.6 1.6 0.3
v 0.6 1.7 0.3
v 0.6 1.9 0.3
v 0.6 2.3 0.3
v 0.6 2.5 0.3
v 0.6 2.6 0.3
v 0.7 1.9 0.3
v 0.7 2.3 0.3
v 1.7 1.9 0.3
v 1.7 2.5 0.3
v 1.9 1.9 0.3
v 1.9 2.5 0.3
v -2 2 0.2
v -2 2.4 0.2
v -1.8 2 0.2
v -1.8 2.4 0.2
v -0.7 2 0.2
v -0.7 2.2 0.2
v -0.6 1.8 0.2
v -0.6 1.9 0.2
v -0.6 2 0.2
v -0.6 2.2 0.2
v -0.6 2.3 0.2
v -0.6 2.4 0.2
v -0.5 1.7 0.2
v -0.5 1.8 0.2
v -0.5 1.9 0.2
v -0.5 2.3 0.2
v -0.5 2.4 0.2
v -0.4 1.7 0.2
v -0.4 1.8 0.2
v -0.3 1.5 0.2
v -0.3 1.6 0.2
v -0.2 0.2 0.2
v -0.2 0.4 0.2
v -0.2 1.5 0.2
v -0.2 1.6 0.2
v -0.2 2.6 0.2
v -0.2 2.7 0.2
v -0.2 4 0.2
v -0.2 4.2 0.2
v -0.0999999 2.6 0.2
v -0.0999999 2.7 0.2
v 0 2.7 0.2
v 0 2.8 0.2
v 0.2 0.2 0.2
v 0.2 0.4 0.2
v 0.2 2.7 0.2
v 0.2 2.8 0.2
v 0.2 4 0.2
v 0.2 4.2 0.2
v 0.3 2.6 0.2
v 0.3 2.7 0.2
v 0.4 2.6 0.2
v 0.4 2.7 0.2
v 0.6 1.8 0.2
v 0.6 1.9 0.2
v 0.6 2.3 0.2
v 0.6 2.4 0.2
v 0.7 1.8 0.2
v 0.7 1.9 0.2
v 0.7 2 0.2
v 0.7 2.2 0.2
v 0.7 2.3 0.2
v 0.7 2.4 0.2
v 0.8 2 0.2
v 0.8 2.2 0.2
v 1.9 2 0.2
v 1.9 2.4 0.2
v 2.1 2 0.2
v 2.1 2.4 0.2
v -2.2 2.1 0.1
v -2.2 2.3 0.1
v -2 2.1 0.1
v -2 2.3 0.1
v -0.7 1.9 0.1
v -0.7 2 0.1
v -0.7 2.2 0.1
v -0.7 2.3 0.1
v -0.6 1.9 0.1
v -0.6 2 0.1
v -0.6 2.2 0.1
v -0.6 2.3 0.1
v -0.5 2.4 0.1
v -0.5 2.5 0.1
v -0.4 2.4 0.1
v -0.4 2.5 0.1
v -0.0999999 0 0.1
v -0.0999999 0.2 0.1
v -0.0999999 2.7 0.1
v -0.0999999 2.8 0.1
v -0.0999999 4.2 0.1
v -0.0999999 4.4 0.1
v 0 2.7 0.1
v 0 2.8 0.1
v 0.1 0 0.1
v 0.1 0.2 0.1
v 0.1 4.2 0.1
v 0.1 4.4 0.1
v 0.2 2.7 0.1
v 0.2 2.8 0.1
v 0.3 2.7 0.1
v 0.3 2.8 0.1
v 0.4 1.5 0.1
v 0.4 1.6 0.1
v 0.5 1.5 0.1
v 0.5 1.6 0.1
v 0.7 1.9 0.1
v 0.7 2 0.1
v 0.7 2.2 0.1
v 0.7 2.3 0.1
v 0.8 1.9 0.1
v 0.8 2 0.1
v 0.8 2.2 0.1
v 0.8 2.3 0.1
v 2.1 2.1 0.1
v 2.1 2.3 0.1
v 2.3 2.1 0.1
v 2.3 2.3 0.1
v -2.2 2.1 -0.1
v -2.2 2.3 -0.1
v -2 2.1 -0.1
v -2 2.3 -0.1
v -0.7 1.9 -0.1
v -0.7 2 -0.1
v -0.7 2.2 -0.1
v -0.7 2.3 -0.1
v -0.6 1.9 -0.1
v -0.6 2 -0.1
v -0.6 2.2 -0.1
v -0.6 2.3 -0.1
v -0.5 2.4 -0.1
v -0.5 2.5 -0.1
v -0.4 2.4 -0.1
v -0.4 2.5 -0.1
v -0.0999999 0 -0.1
v -0.0999999 0.2 -0.1
v -0.0999999 2.7 -0.1
v -0.0999999 2.8 -0.1
v -0.0999999 4.2 -0.1
v -0.0999999 4.4 -0.1
v 0 2.7 -0.1
v 0 2.8 -0.1
v 0.1 0 -0.1
v 0.1 0.2 -0.1
v 0.1 4.2 -0.1
v 0.1 4.4 -0.1
v 0.2 2.7 -0.1
v 0.2 2.8 -0.1
v 0.3 2.7 -0.1
v 0.3 2.8 -0.1
v 0.4 1.5 -0.1
v 0.4 1.6 -0.1
v 0.5 1.5 -0.1
v 0.5 1.6 -0.1
v 0.7 1.9 -0.1
v 0.7 2 -0.1
v 0.7 2.2 -0.1
v 0.7 2.3 -0.1
v 0.8 1.9 -0.1
v 0.8 2 -0.1
v 0.8 2.2 -0.1
v 0.8 2.3 -0.1
v 2.1 2.1 -0.1
v 2.1 2.3 -0.1
v 2.3 2.1 -0.1
v 2.3 2.3 -0.1
v -2 2 -0.2
v -2 2.4 -0.2
v -1.8 2 -0.2
v -1.8 2.4 -0.2
v -0.7 2 -0.2
v -0.7 2.2 -0.2
v -0.6 1.8 -0.2
v -0.6 1.9 -0.2
v -0.6 2 -0.2
v -0.6 2.2 -0.2
v -0.6 2.3 -0.2
v -0.6 2.4 -0.2
v -0.5 1.7 -0.2
v -0.5 1.8 -0.2
v -0.5 1.9 -0.2
v -0.5 2.3 -0.2
v -0.5 2.4 -0.2
v -0.4 1.7 -0.2
v -0.4 1.8 -0.2
v -0.3 1.5 -0.2
v -0.3 1.6 -0.2
v -0.2 0.2 -0.2
v -0.2 0.4 -0.2
v -0.2 1.5 -0.2
v -0.2 1.6 -0.2
v -0.2 2.6 -0.2
v -0.2 2.7 -0.2
v -0.2 4 -0.2
v -0.2 4.2 -0.2
v -0.0999999 2.6 -0.2
v -0.0999999 2.7 -0.2
v 0 2.7 -0.2
v 0 2.8 -0.2
v 0.2 0.2 -0.2
v 0.2 0.4 -0.2
v 0.2 2.7 -0.2
v 0.2 2.8 -0.2
v 0.2 4 -0.2
v 0.2 4.2 -0.2
v 0.3 2.6 -0.2
v 0.3 2.7 -0.2
v 0.4 2.6 -0.2
v 0.4 2.7 -0.2
v 0.6 1.8 -0.2
v 0.6 1.9 -0.2
v 0.6 2.3 -0.2
v 0.6 2.4 -0.2
v 0.7 1.8 -0.2
v 0.7 1.9 -0.2
v 0.7 2 -0.2
v 0.7 2.2 -0.2
v 0.7 2.3 -0.2
v 0.7 2.4 -0.2
v 0.8 2 -0.2
v 0.8 2.2 -0.2
v 1.9 2 -0.2
v 1.9 2.4 -0.2
v 2.1 2 -0.2
v 2.1 2.4 -0.2
v -1.8 1.9 -0.3
v -1.8 2.5 -0.3
v -1.6 1.9 -0.3
v -1.6 2.5 -0.3
v -0.6 1.9 -0.3
v -0.6 2.3 -0.3
v -0.5 1.8 -0.3
v -0.5 1.9 -0.3
v -0.5 2 -0.3
v -0.5 2.2 -0.3
v -0.5 2.3 -0.3
v -0.5 2.4 -0.3
v -0.4 1.6 -0.3
v -0.4 1.7 -0.3
v -0.4 1.8 -0.3
v -0.4 2 -0.3
v -0.4 2.2 -0.3
v -0.4 2.4 -0.3
v -0.4 2.5 -0.3
v -0.4 2.6 -0.3
v -0.3 0.4 -0.3
v -0.3 0.6 -0.3
v -0.3 1.6 -0.3
v -0.3 1.7 -0.3
v -0.3 2.5 -0.3
v -0.3 2.6 -0.3
v -0.3 3.8 -0.3
v -0.3 4 -0.3
v -0.2 1.5 -0.3
v -0.2 1.6 -0.3
v -0.0999999 2.6 -0.3
v -0.0999999 2.7 -0.3
v 0 1.5 -0.3
v 0 1.6 -0.3
v 0.2 1.5 -0.3
v 0.2 1.6 -0.3
v 0.3 0.4 -0.3
v 0.3 0.6 -0.3
v 0.3 2.6 -0.3
v 0.3 2.7 -0.3
v 0.3 3.8 -0.3
v 0.3 4 -0.3
v 0.4 1.5 -0.3
v 0.4 1.6 -0.3
v 0.4 2.5 -0.3
v 0.4 2.6 -0.3
v 0.5 1.6 -0.3
v 0.5 1.7 -0.3
v 0.5 2.4 -0.3
v 0.5 2.5 -0.3
v 0.6 1.6 -0.3
v 0.6 1.7 -0.3
v 0.6 1.9 -0.3
v 0.6 2.3 -0.3
v 0.6 2.4 -0.3
v 0.6 2.6 -0.3
v 0.7 1.9 -0.3
v 0.7 2.3 -0.3
v 1.7 1.9 -0.3
v 1.7 2.5 -0.3
v 1.9 1.9 -0.3
v 1.9 2.5 -0.3
v -1.6 1.8 -0.4
v -1.6 2.6 -0.4
v -1.4 1.8 -0.4
v -1.4 2.6 -0.4
v -0.5 2 -0.4
v -0.5 2.2 -0.4
v -0.4 0.6 -0.4
v -0.4 0.8 -0.4
v -0.4 1.7 -0.4
v -0.4 1.8 -0.4
v -0.4 2 -0.4
v -0.4 2.2 -0.4
v -0.4 2.4 -0.4
v -0.4 2.5 -0.4
v -0.4 3.6 -0.4
v -0.4 3.8 -0.4
v -0.3 1.6 -0.4
v -0.3 1.7 -0.4
v -0.3 1.8 -0.4
v -0.3 2.4 -0.4
v -0.3 2.5 -0.4
v -0.3 2.6 -0.4
v -0.2 1.6 -0.4
v -0.2 1.7 -0.4
v -0.2 2.5 -0.4
v -0.2 2.6 -0.4
v 0 1.5 -0.4
v 0 1.6 -0.4
v 0.2 1.5 -0.4
v 0.2 1.6 -0.4
v 0.4 0.6 -0.4
v 0.4 0.8 -0.4
v 0.4 1.6 -0.4
v 0.4 1.7 -0.4
v 0.4 2.4 -0.4
v 0.4 2.5 -0.4
v 0.4 3.6 -0.4
v 0.4 3.8 -0.4
v 0.5 1.6 -0.4
v 0.5 1.7 -0.4
v 0.5 1.8 -0.4
v 0.5 2.4 -0.4
v 0.5 2.5 -0.4
v 0.6 1.7 -0.4
v 0.6 1.8 -0.4
v 1.5 1.8 -0.4
v 1.5 2.6 -0.4
v 1.7 1.8 -0.4
v 1.7 2.6 -0.4
v -1.4 1.7 -0.5
v -1.4 2.7 -0.5
v -1.2 1.7 -0.5
v -1.2 2.7 -0.5
v -0.5 0.8 -0.5
v -0.5 1 -0.5
v -0.5 3.4 -0.5
v -0.5 3.6 -0.5
v -0.4 1.8 -0.5
v -0.4 2.4 -0.5
v -0.3 1.7 -0.5
v -0.3 1.8 -0.5
v -0.3 2.4 -0.5
v -0.3 2.5 -0.5
v -0.2 1.6 -0.5
v -0.2 1.7 -0.5
v -0.2 1.9 -0.5
v -0.2 2.3 -0.5
v -0.2 2.5 -0.5
v -0.2 2.6 -0.5
v -0.0999999 1.8 -0.5
v -0.0999999 1.9 -0.5
v -0.0999999 2.3 -0.5
v -0.0999999 2.4 -0.5
v 0.3 1.8 -0.5
v 0.3 1.9 -0.5
v 0.3 2.3 -0.5
v 0.3 2.4 -0.5
v 0.4 1.6 -0.5
v 0.4 1.7 -0.5
v 0.4 1.9 -0.5
v 0.4 2.3 -0.5
v 0.4 2.4 -0.5
v 0.4 2.6 -0.5
v 0.5 0.8 -0.5
v 0.5 1 -0.5
v 0.5 1.7 -0.5
v 0.5 1.8 -0.5
v 0.5 3.4 -0.5
v 0.5 3.6 -0.5
v 0.6 1.8 -0.5
v 0.6 2.4 -0.5
v 1.3 1.7 -0.5
v 1.3 2.7 -0.5
v 1.5 1.7 -0.5
v 1.5 2.7 -0.5
v -1.2 1.6 -0.6
v -1.2 2.8 -0.6
v -1 1.6 -0.6
v -1 2.8 -0.6
v -0.6 1 -0.6
v -0.6 1.2 -0.6
v -0.6 3.2 -0.6
v -0.6 3.4 -0.6
v -0.2 1.9 -0.6
v -0.2 2.3 -0.6
v -0.0999999 1.8 -0.6
v -0.0999999 1.9 -0.6
v -0.0999999 2 -0.6
v -0.0999999 2.2 -0.6
v -0.0999999 2.3 -0.6
v -0.0999999 2.4 -0.6
v 0 1.9 -0.6
v 0 2 -0.6
v 0 2.2 -0.6
v 0 2.3 -0.6
v 0.2 1.9 -0.6
v 0.2 2 -0.6
v 0.2 2.2 -0.6
v 0.2 2.3 -0.6
v 0.3 1.8 -0.6
v 0.3 1.9 -0.6
v 0.3 2 -0.6
v 0.3 2.2 -0.6
v 0.3 2.3 -0.6
v 0.3 2.4 -0.6
v 0.4 1.9 -0.6
v 0.4 2.3 -0.6
v 0.6 1 -0.6
v 0.6 1.2 -0.6
v 0.6 3.2 -0.6
v 0.6 3.4 -0.6
v 1.1 1.6 -0.6
v 1.1 2.8 -0.6
v 1.3 1.6 -0.6
v 1.3 2.8 -0.6
v -1 1.5 -0.7
v -1 2.9 -0.7
v -0.8 1.5 -0.7
v -0.8 2.9 -0.7
v -0.7 1.2 -0.7
v -0.7 1.4 -0.7
v -0.7 3 -0.7
v -0.7 3.2 -0.7
v -0.0999999 2 -0.7
v -0.0999999 2.2 -0.7
v 0 1.9 -0.7
v 0 2 -0.7
v 0 2.2 -0.7
v 0 2.3 -0.7
v 0.2 1.9 -0.7
v 0.2 2 -0.7
v 0.2 2.2 -0.7
v 0.2 2.3 -0.7
v 0.3 2 -0.7
v 0.3 2.2 -0.7
v 0.7 1.2 -0.7
v 0.7 1.4 -0.7
v 0.7 3 -0.7
v 0.7 3.2 -0.7
v 0.9 1.5 -0.7
v 0.9 2.9 -0.7
v 1.1 1.5 -0.7
v 1.1 2.9 -0.7
v -0.8 1.4 -0.8
v -0.8 3 -0.8
v -0.7 1.5 -0.8
v -0.7 2.9 -0.8
v 0.8 1.5 -0.8
v 0.8 2.9 -0.8
v 0.9 1.4 -0.8
v 0.9 3 -0.8
v -0.0999999 0 0.1
v 0.1 0 0.1
v -0.0999999 0 -0.1
v 0.1 0 -0.1
v -0.2 0.2 0.2
v 0.2 0.2 0.2
v -0.0999999 0.2 0.1
v 0.1 0.2 0.1
v -0.0999999 0.2 -0.1
v 0.1 0.2 -0.1
v -0.2 0.2 -0.2
v 0.2 0.2 -0.2
v -0.3 0.4 0.3
v 0.3 0.4 0.3
v -0.2 0.4 0.2
v 0.2 0.4 0.2
v -0.2 0.4 -0.2
v 0.2 0.4 -0.2
v -0.3 0.4 -0.3
v 0.3 0.4 -0.3
v -0.4 0.6 0.4
v 0.4 0.6 0.4
v -0.3 0.6 0.3
v 0.3 0.6 0.3
v -0.3 0.6 -0.3
v 0.3 0.6 -0.3
v -0.4 0.6 -0.4
v 0.4 0.6 -0.4
v -0.5 0.8 0.5
v 0.5 0.8 0.5
v -0.4 0.8 0.4
v 0.4 0.8 0.4
v -0.4 0.8 -0.4
v 0.4 0.8 -0.4
v -0.5 0.8 -0.5
v 0.5 0.8 -0.5
v -0.6 1 0.6
v 0.6 1 0.6
v -0.5 1 0.5
v 0.5 1 0.5
v -0.5 1 -0.5
v 0.5 1 -0.5
v -0.6 1 -0.6
v 0.6 1 -0.6
v -0.7 1.2 0.7
v 0.7 1.2 0.7
v -0.6 1.2 0.6
v 0.6 1.2 0.6
v -0.6 1.2 -0.6
v 0.6 1.2 -0.6
v -0.7 1.2 -0.7
v 0.7 1.2 -0.7
v -0.8 1.4 0.8
v 0.9 1.4 0.8
v -0.7 1.4 0.7
v 0.7 1.4 0.7
v -0.7 1.4 -0.7
v 0.7 1.4 -0.7
v -0.8 1.4 -0.8
v 0.9 1.4 -0.8
v -1 1.5 0.7
v -0.8 1.5 0.7
v 0.9 1.5 0.7
v 1.1 1.5 0.7
v -1 1.5 -0.7
v -0.8 1.5 -0.7
v 0.9 1.5 -0.7
v 1.1 1.5 -0.7
v -1.2 1.6 0.6
v -1 1.6 0.6
v 1.1 1.6 0.6
v 1.3 1.6 0.6
v -0.3 1.6 0.5
v 0.4 1.6 0.5
v -0.4 1.6 0.4
v -0.3 1.6 0.4
v -0.0999999 1.6 0.4
v 0.3 1.6 0.4
v 0.4 1.6 0.4
v 0.5 1.6 0.4
v -0.2 1.6 0.3
v -0.0999999 1.6 0.3
v 0.3 1.6 0.3
v 0.4 1.6 0.3
v 0.5 1.6 0.3
v 0.6 1.6 0.3
v -0.3 1.6 0.2
v -0.2 1.6 0.2
v 0.4 1.6 0.1
v 0.5 1.6 0.1
v 0.4 1.6 -0.1
v 0.5 1.6 -0.1
v -0.3 1.6 -0.2
v -0.2 1.6 -0.2
v -0.4 1.6 -0.3
v -0.3 1.6 -0.3
v -0.2 1.6 -0.3
v 0 1.6 -0.3
v 0.2 1.6 -0.3
v 0.4 1.6 -0.3
v 0.5 1.6 -0.3
v 0.6 1.6 -0.3
v -0.3 1.6 -0.4
v -0.2 1.6 -0.4
v 0 1.6 -0.4
v 0.2 1.6 -0.4
v 0.4 1.6 -0.4
v 0.5 1.6 -0.4
v -0.2 1.6 -0.5
v 0.4 1.6 -0.5
v -1.2 1.6 -0.6
v -1 1.6 -0.6
v 1.1 1.6 -0.6
v 1.3 1.6 -0.6
v -0.0999999 1.7 0.6
v 0.3 1.7 0.6
v -1.4 1.7 0.5
v -1.2 1.7 0.5
v -0.4 1.7 0.5
v -0.3 1.7 0.5
v -0.0999999 1.7 0.5
v 0.3 1.7 0.5
v 0.4 1.7 0.5
v 0.5 1.7 0.5
v 1.3 1.7 0.5
v 1.5 1.7 0.5
v -0.4 1.7 0.4
v -0.3 1.7 0.4
v 0.4 1.7 0.4
v 0.5 1.7 0.4
v 0.6 1.7 0.4
v 0.5 1.7 0.3
v 0.6 1.7 0.3
v -0.5 1.7 0.2
v -0.4 1.7 0.2
v -0.5 1.7 -0.2
v -0.4 1.7 -0.2
v -0.4 1.7 -0.3
v -0.3 1.7 -0.3
v 0.5 1.7 -0.3
v 0.6 1.7 -0.3
v -0.4 1.7 -0.4
v -0.3 1.7 -0.4
v -0.2 1.7 -0.4
v 0.4 1.7 -0.4
v 0.5 1.7 -0.4
v 0.6 1.7 -0.4
v -1.4 1.7 -0.5
v -1.2 1.7 -0.5
v -0.3 1.7 -0.5
v -0.2 1.7 -0.5
v 0.4 1.7 -0.5
v 0.5 1.7 -0.5
v 1.3 1.7 -0.5
v 1.5 1.7 -0.5
v -0.0999999 1.8 0.7
v 0.3 1.8 0.7
v -0.2 1.8 0.6
v -0.0999999 1.8 0.6
v 0.3 1.8 0.6
v 0.4 1.8 0.6
v -0.2 1.8 0.5
v -0.0999999 1.8 0.5
v 0.3 1.8 0.5
v 0.4 1.8 0.5
v 0.5 1.8 0.5
v 0.6 1.8 0.5
v -1.6 1.8 0.4
v -1.4 1.8 0.4
v 0.5 1.8 0.4
v 0.6 1.8 0.4
v 1.5 1.8 0.4
v 1.7 1.8 0.4
v -0.5 1.8 0.3
v -0.4 1.8 0.3
v -0.6 1.8 0.2
v -0.5 1.8 0.2
v -0.4 1.8 0.2
v 0.6 1.8 0.2
v 0.7 1.8 0.2
v -0.6 1.8 -0.2
v -0.5 1.8 -0.2
v -0.4 1.8 -0.2
v 0.6 1.8 -0.2
v 0.7 1.8 -0.2
v -0.5 1.8 -0.3
v -0.4 1.8 -0.3
v -1.6 1.8 -0.4
v -1.4 1.8 -0.4
v -0.4 1.8 -0.4
v -0.3 1.8 -0.4
v 0.5 1.8 -0.4
v 0.6 1.8 -0.4
v 1.5 1.8 -0.4
v 1.7 1.8 -0.4
v -0.4 1.8 -0.5
v -0.3 1.8 -0.5
v -0.0999999 1.8 -0.5
v 0.3 1.8 -0.5
v 0.5 1.8 -0.5
v 0.6 1.8 -0.5
v -0.0999999 1.8 -0.6
v 0.3 1.8 -0.6
v 0 1.9 0.8
v 0.2 1.9 0.8
v -0.2 1.9 0.7
v -0.0999999 1.9 0.7
v 0 1.9 0.7
v 0.2 1.9 0.7
v 0.3 1.9 0.7
v 0.4 1.9 0.7
v -0.3 1.9 0.6
v -0.2 1.9 0.6
v -0.0999999 1.9 0.6
v 0.3 1.9 0.6
v 0.4 1.9 0.6
v -0.3 1.9 0.5
v -0.2 1.9 0.5
v -0.5 1.9 0.4
v -0.4 1.9 0.4
v -1.8 1.9 0.3
v -1.6 1.9 0.3
v -0.6 1.9 0.3
v -0.5 1.9 0.3
v -0.4 1.9 0.3
v 0.6 1.9 0.3
v 0.7 1.9 0.3
v 1.7 1.9 0.3
v 1.9 1.9 0.3
v -0.6 1.9 0.2
v -0.5 1.9 0.2
v 0.6 1.9 0.2
v 0.7 1.9 0.2
v -0.7 1.9 0.1
v -0.6 1.9 0.1
v 0.7 1.9 0.1
v 0.8 1.9 0.1
v -0.7 1.9 -0.1
v -0.6 1.9 -0.1
v 0.7 1.9 -0.1
v 0.8 1.9 -0.1
v -0.6 1.9 -0.2
v -0.5 1.9 -0.2
v 0.6 1.9 -0.2
v 0.7 1.9 -0.2
v -1.8 1.9 -0.3
v -1.6 1.9 -0.3
v -0.6 1.9 -0.3
v -0.5 1.9 -0.3
v 0.6 1.9 -0.3
v 0.7 1.9 -0.3
v 1.7 1.9 -0.3
v 1.9 1.9 -0.3
v -0.2 1.9 -0.5
v -0.0999999 1.9 -0.5
v 0.3 1.9 -0.5
v 0.4 1.9 -0.5
v -0.2 1.9 -0.6
v -0.0999999 1.9 -0.6
v 0 1.9 -0.6
v 0.2 1.9 -0.6
v 0.3 1.9 -0.6
v 0.4 1.9 -0.6
v 0 1.9 -0.7
v 0.2 1.9 -0.7
v -0.0999999 2 0.8
v 0 2 0.8
v 0.2 2 0.8
v 0.3 2 0.8
v -0.0999999 2 0.7
v 0 2 0.7
v 0.2 2 0.7
v 0.3 2 0.7
v 0.4 2 0.6
v 0.5 2 0.6
v 0.4 2 0.5
v 0.5 2 0.5
v -2 2 0.2
v -1.8 2 0.2
v -0.7 2 0.2
v -0.6 2 0.2
v 0.7 2 0.2
v 0.8 2 0.2
v 1.9 2 0.2
v 2.1 2 0.2
v -0.7 2 0.1
v -0.6 2 0.1
v 0.7 2 0.1
v 0.8 2 0.1
v -0.7 2 -0.1
v -0.6 2 -0.1
v 0.7 2 -0.1
v 0.8 2 -0.1
v -2 2 -0.2
v -1.8 2 -0.2
v -0.7 2 -0.2
v -0.6 2 -0.2
v 0.7 2 -0.2
v 0.8 2 -0.2
v 1.9 2 -0.2
v 2.1 2 -0.2
v -0.5 2 -0.3
v -0.4 2 -0.3
v -0.5 2 -0.4
v -0.4 2 -0.4
v -0.0999999 2 -0.6
v 0 2 -0.6
v 0.2 2 -0.6
v 0.3 2 -0.6
v -0.0999999 2 -0.7
v 0 2 -0.7
v 0.2 2 -0.7
v 0.3 2 -0.7
v -2.2 2.1 0.1
v -2 2.1 0.1
v 2.1 2.1 0.1
v 2.3 2.1 0.1
v -2.2 2.1 -0.1
v -2 2.1 -0.1
v 2.1 2.1 -0.1
v 2.3 2.1 -0.1
v -0.7 2.9 0.8
v 0.8 2.9 0.8
v -0.7 2.9 -0.8
v 0.8 2.9 -0.8
v -0.7 1.5 0.8
v 0.8 1.5 0.8
v -0.0999999 1.5 0.4
v 0.3 1.5 0.4
v -0.2 1.5 0.3
v -0.0999999 1.5 0.3
v 0.3 1.5 0.3
v 0.4 1.5 0.3
v -0.3 1.5 0.2
v -0.2 1.5 0.2
v 0.4 1.5 0.1
v 0.5 1.5 0.1
v 0.4 1.5 -0.1
v 0.5 1.5 -0.1
v -0.3 1.5 -0.2
v -0.2 1.5 -0.2
v -0.2 1.5 -0.3
v 0 1.5 -0.3
v 0.2 1.5 -0.3
v 0.4 1.5 -0.3
v 0 1.5 -0.4
v 0.2 1.5 -0.4
v -0.7 1.5 -0.8
v 0.8 1.5 -0.8
v -0.0999999 2.2 0.8
v 0 2.2 0.8
v 0.2 2.2 0.8
v 0.3 2.2 0.8
v -0.0999999 2.2 0.7
v 0 2.2 0.7
v 0.2 2.2 0.7
v 0.3 2.2 0.7
v 0.4 2.2 0.6
v 0.5 2.2 0.6
v 0.4 2.2 0.5
v 0.5 2.2 0.5
v -0.7 2.2 0.2
v -0.6 2.2 0.2
v 0.7 2.2 0.2
v 0.8 2.2 0.2
v -0.7 2.2 0.1
v -0.6 2.2 0.1
v 0.7 2.2 0.1
v 0.8 2.2 0.1
v -0.7 2.2 -0.1
v -0.6 2.2 -0.1
v 0.7 2.2 -0.1
v 0.8 2.2 -0.1
v -0.7 2.2 -0.2
v -0.6 2.2 -0.2
v 0.7 2.2 -0.2
v 0.8 2.2 -0.2
v -0.5 2.2 -0.3
v -0.4 2.2 -0.3
v -0.5 2.2 -0.4
v -0.4 2.2 -0.4
v -0.0999999 2.2 -0.6
v 0 2.2 -0.6
v 0.2 2.2 -0.6
v 0.3 2.2 -0.6
v -0.0999999 2.2 -0.7
v 0 2.2 -0.7
v 0.2 2.2 -0.7
v 0.3 2.2 -0.7
v 0 2.3 0.8
v 0.2 2.3 0.8
v -0.2 2.3 0.7
v -0.0999999 2.3 0.7
v 0 2.3 0.7
v 0.2 2.3 0.7
v 0.3 2.3 0.7
v 0.4 2.3 0.7
v -0.3 2.3 0.6
v -0.2 2.3 0.6
v -0.0999999 2.3 0.6
v 0.3 2.3 0.6
v 0.4 2.3 0.6
v -0.3 2.3 0.5
v -0.2 2.3 0.5
v -0.5 2.3 0.4
v -0.4 2.3 0.4
v -0.6 2.3 0.3
v -0.5 2.3 0.3
v -0.4 2.3 0.3
v 0.6 2.3 0.3
v 0.7 2.3 0.3
v -0.6 2.3 0.2
v -0.5 2.3 0.2
v 0.6 2.3 0.2
v 0.7 2.3 0.2
v -2.2 2.3 0.1
v -2 2.3 0.1
v -0.7 2.3 0.1
v -0.6 2.3 0.1
v 0.7 2.3 0.1
v 0.8 2.3 0.1
v 2.1 2.3 0.1
v 2.3 2.3 0.1
v -2.2 2.3 -0.1
v -2 2.3 -0.1
v -0.7 2.3 -0.1
v -0.6 2.3 -0.1
v 0.7 2.3 -0.1
v 0.8 2.3 -0.1
v 2.1 2.3 -0.1
v 2.3 2.3 -0.1
v -0.6 2.3 -0.2
v -0.5 2.3 -0.2
v 0.6 2.3 -0.2
v 0.7 2.3 -0.2
v -0.6 2.3 -0.3
v -0.5 2.3 -0.3
v 0.6 2.3 -0.3
v 0.7 2.3 -0.3
v -0.2 2.3 -0.5
v -0.0999999 2.3 -0.5
v 0.3 2.3 -0.5
v 0.4 2.3 -0.5
v -0.2 2.3 -0.6
v -0.0999999 2.3 -0.6
v 0 2.3 -0.6
v 0.2 2.3 -0.6
v 0.3 2.3 -0.6
v 0.4 2.3 -0.6
v 0 2.3 -0.7
v 0.2 2.3 -0.7
v -0.0999999 2.4 0.7
v 0.3 2.4 0.7
v -0.2 2.4 0.6
v -0.0999999 2.4 0.6
v 0 2.4 0.6
v 0.2 2.4 0.6
v 0.3 2.4 0.6
v 0.4 2.4 0.6
v -0.4 2.4 0.5
v -0.3 2.4 0.5
v -0.2 2.4 0.5
v 0 2.4 0.5
v 0.2 2.4 0.5
v 0.4 2.4 0.5
v 0.5 2.4 0.5
v 0.6 2.4 0.5
v -0.4 2.4 0.4
v -0.3 2.4 0.4
v 0.5 2.4 0.4
v 0.6 2.4 0.4
v -0.5 2.4 0.3
v -0.4 2.4 0.3
v -2 2.4 0.2
v -1.8 2.4 0.2
v -0.6 2.4 0.2
v -0.5 2.4 0.2
v 0.6 2.4 0.2
v 0.7 2.4 0.2
v 1.9 2.4 0.2
v 2.1 2.4 0.2
v -0.5 2.4 0.1
v -0.4 2.4 0.1
v -0.5 2.4 -0.1
v -0.4 2.4 -0.1
v -2 2.4 -0.2
v -1.8 2.4 -0.2
v -0.6 2.4 -0.2
v -0.5 2.4 -0.2
v 0.6 2.4 -0.2
v 0.7 2.4 -0.2
v 1.9 2.4 -0.2
v 2.1 2.4 -0.2
v -0.5 2.4 -0.3
v -0.4 2.4 -0.3
v 0.5 2.4 -0.3
v 0.6 2.4 -0.3
v -0.4 2.4 -0.4
v -0.3 2.4 -0.4
v 0.4 2.4 -0.4
v 0.5 2.4 -0.4
v -0.4 2.4 -0.5
v -0.3 2.4 -0.5
v -0.0999999 2.4 -0.5
v 0.3 2.4 -0.5
v 0.4 2.4 -0.5
v 0.6 2.4 -0.5
v -0.0999999 2.4 -0.6
v 0.3 2.4 -0.6
v 0 2.5 0.6
v 0.2 2.5 0.6
v -0.3 2.5 0.5
v -0.2 2.5 0.5
v 0 2.5 0.5
v 0.2 2.5 0.5
v 0.4 2.5 0.5
v 0.5 2.5 0.5
v -0.4 2.5 0.4
v -0.3 2.5 0.4
v -0.2 2.5 0.4
v 0.4 2.5 0.4
v 0.5 2.5 0.4
v 0.6 2.5 0.4
v -1.8 2.5 0.3
v -1.6 2.5 0.3
v -0.4 2.5 0.3
v -0.3 2.5 0.3
v 0.5 2.5 0.3
v 0.6 2.5 0.3
v 1.7 2.5 0.3
v 1.9 2.5 0.3
v -0.5 2.5 0.1
v -0.4 2.5 0.1
v -0.5 2.5 -0.1
v -0.4 2.5 -0.1
v -1.8 2.5 -0.3
v -1.6 2.5 -0.3
v -0.4 2.5 -0.3
v -0.3 2.5 -0.3
v 0.4 2.5 -0.3
v 0.5 2.5 -0.3
v 1.7 2.5 -0.3
v 1.9 2.5 -0.3
v -0.4 2.5 -0.4
v -0.3 2.5 -0.4
v -0.2 2.5 -0.4
v 0.4 2.5 -0.4
v 0.5 2.5 -0.4
v -0.3 2.5 -0.5
v -0.2 2.5 -0.5
v -0.2 2.6 0.5
v 0.4 2.6 0.5
v -1.6 2.6 0.4
v -1.4 2.6 0.4
v -0.3 2.6 0.4
v -0.2 2.6 0.4
v 0.4 2.6 0.4
v 0.5 2.6 0.4
v 1.5 2.6 0.4
v 1.7 2.6 0.4
v -0.4 2.6 0.3
v -0.3 2.6 0.3
v -0.0999999 2.6 0.3
v 0.3 2.6 0.3
v 0.5 2.6 0.3
v 0.6 2.6 0.3
v -0.2 2.6 0.2
v -0.0999999 2.6 0.2
v 0.3 2.6 0.2
v 0.4 2.6 0.2
v -0.2 2.6 -0.2
v -0.0999999 2.6 -0.2
v 0.3 2.6 -0.2
v 0.4 2.6 -0.2
v -0.4 2.6 -0.3
v -0.3 2.6 -0.3
v -0.0999999 2.6 -0.3
v 0.3 2.6 -0.3
v 0.4 2.6 -0.3
v 0.6 2.6 -0.3
v -1.6 2.6 -0.4
v -1.4 2.6 -0.4
v -0.3 2.6 -0.4
v -0.2 2.6 -0.4
v 1.5 2.6 -0.4
v 1.7 2.6 -0.4
v -0.2 2.6 -0.5
v 0.4 2.6 -0.5
v -1.4 2.7 0.5
v -1.2 2.7 0.5
v 1.3 2.7 0.5
v 1.5 2.7 0.5
v -0.0999999 2.7 0.3
v 0.3 2.7 0.3
v -0.2 2.7 0.2
v -0.0999999 2.7 0.2
v 0 2.7 0.2
v 0.2 2.7 0.2
v 0.3 2.7 0.2
v 0.4 2.7 0.2
v -0.0999999 2.7 0.1
v 0 2.7 0.1
v 0.2 2.7 0.1
v 0.3 2.7 0.1
v -0.0999999 2.7 -0.1
v 0 2.7 -0.1
v 0.2 2.7 -0.1
v 0.3 2.7 -0.1
v -0.2 2.7 -0.2
v -0.0999999 2.7 -0.2
v 0 2.7 -0.2
v 0.2 2.7 -0.2
v 0.3 2.7 -0.2
v 0.4 2.7 -0.2
v -0.0999999 2.7 -0.3
v 0.3 2.7 -0.3
v -1.4 2.7 -0.5
v -1.2 2.7 -0.5
v 1.3 2.7 -0.5
v 1.5 2.7 -0.5
v -1.2 2.8 0.6
v -1 2.8 0.6
v 1.1 2.8 0.6
v 1.3 2.8 0.6
v 0 2.8 0.2
v 0.2 2.8 0.2
v -0.0999999 2.8 0.1
v 0 2.8 0.1
v 0.2 2.8 0.1
v 0.3 2.8 0.1
v -0.0999999 2.8 -0.1
v 0 2.8 -0.1
v 0.2 2.8 -0.1
v 0.3 2.8 -0.1
v 0 2.8 -0.2
v 0.2 2.8 -0.2
v -1.2 2.8 -0.6
v -1 2.8 -0.6
v 1.1 2.8 -0.6
v 1.3 2.8 -0.6
v -1 2.9 0.7
v -0.8 2.9 0.7
v 0.9 2.9 0.7
v 1.1 2.9 0.7
v -1 2.9 -0.7
v -0.8 2.9 -0.7
v 0.9 2.9 -0.7
v 1.1 2.9 -0.7
v -0.8 3 0.8
v 0.9 3 0.8
v -0.7 3 0.7
v 0.7 3 0.7
v -0.7 3 -0.7
v 0.7 3 -0.7
v -0.8 3 -0.8
v 0.9 3 -0.8
v -0.7 3.2 0.7
v 0.7 3.2 0.7
v -0.6 3.2 0.6
v 0.6 3.2 0.6
v -0.6 3.2 -0.6
v 0.6 3.2 -0.6
v -0.7 3.2 -0.7
v 0.7 3.2 -0.7
v -0.6 3.4 0.6
v 0.6 3.4 0.6
v -0.5 3.4 0.5
v 0.5 3.4 0.5
v -0.5 3.4 -0.5
v 0.5 3.4 -0.5
v -0.6 3.4 -0.6
v 0.6 3.4 -0.6
v -0.5 3.6 0.5
v 0.5 3.6 0.5
v -0.4 3.6 0.4
v 0.4 3.6 0.4
v -0.4 3.6 -0.4
v 0.4 3.6 -0.4
v -0.5 3.6 -0.5
v 0.5 3.6 -0.5
v -0.4 3.8 0.4
v 0.4 3.8 0.4
v -0.3 3.8 0.3
v 0.3 3.8 0.3
v -0.3 3.8 -0.3
v 0.3 3.8 -0.3
v -0.4 3.8 -0.4
v 0.4 3.8 -0.4
v -0.3 4 0.3
v 0.3 4 0.3
v -0.2 4 0.2
v 0.2 4 0.2
v -0.2 4 -0.2
v 0.2 4 -0.2
v -0.3 4 -0.3
v 0.3 4 -0.3
v -0.2 4.2 0.2
v 0.2 4.2 0.2
v -0.0999999 4.2 0.1
v 0.1 4.2 0.1
v -0.0999999 4.2 -0.1
v 0.1 4.2 -0.1
v -0.2 4.2 -0.2
v 0.2 4.2 -0.2
v -0.0999999 4.4 0.1
v 0.1 4.4 0.1
v -0.0999999 4.4 -0.1
v 0.1 4.4 -0.1

# faces
f 3/2/1 2/2/1 1/2/1
f 4/2/1 2/2/1 3/2/1
f 7/2/1 6/2/1 5/2/1
f 8/2/1 6/2/1 7/2/1
f 9/2/1 7/2/1 5/2/1
f 10/2/1 6/2/1 8/2/1
f 11/2/1 9/2/1 5/2/1
f 11/2/1 10/2/1 9/2/1
f 12/2/1 6/2/1 10/2/1
f 12/2/1 10/2/1 11/2/1
f 15/2/1 14/2/1 13/2/1
f 16/2/1 14/2/1 15/2/1
f 17/2/1 15/2/1 13/2/1
f 18/2/1 14/2/1 16/2/1
f 19/2/1 17/2/1 13/2/1
f 19/2/1 18/2/1 17/2/1
f 20/2/1 14/2/1 18/2/1
f 20/2/1 18/2/1 19/2/1
f 23/2/1 22/2/1 21/2/1
f 24/2/1 22/2/1 23/2/1
f 25/2/1 23/2/1 21/2/1
f 26/2/1 22/2/1 24/2/1
f 27/2/1 25/2/1 21/2/1
f 27/2/1 26/2/1 25/2/1
f 28/2/1 22/2/1 26/2/1
f 28/2/1 26/2/1 27/2/1
f 31/2/1 30/2/1 29/2/1
f 32/2/1 30/2/1 31/2/1
f 33/2/1 31/2/1 29/2/1
f 34/2/1 30/2/1 32/2/1
f 35/2/1 33/2/1 29/2/1
f 35/2/1 34/2/1 33/2/1
f 36/2/1 30/2/1 34/2/1
f 36/2/1 34/2/1 35/2/1
f 39/2/1 38/2/1 37/2/1
f 40/2/1 38/2/1 39/2/1
f 41/2/1 39/2/1 37/2/1
f 42/2/1 38/2/1 40/2/1
f 43/2/1 41/2/1 37/2/1
f 43/2/1 42/2/1 41/2/1
f 44/2/1 38/2/1 42/2/1
f 44/2/1 42/2/1 43/2/1
f 47/2/1 46/2/1 45/2/1
f 48/2/1 46/2/1 47/2/1
f 49/2/1 47/2/1 45/2/1
f 50/2/1 46/2/1 48/2/1
f 51/2/1 49/2/1 45/2/1
f 51/2/1 50/2/1 49/2/1
f 52/2/1 46/2/1 50/2/1
f 52/2/1 50/2/1 51/2/1
f 55/2/1 54/2/1 53/2/1
f 56/2/1 54/2/1 55/2/1
f 57/2/1 55/2/1 53/2/1
f 58/2/1 54/2/1 56/2/1
f 59/2/1 57/2/1 53/2/1
f 59/2/1 58/2/1 57/2/1
f 60/2/1 54/2/1 58/2/1
f 60/2/1 58/2/1 59/2/1
f 63/2/1 62/2/1 61/2/1
f 64/2/1 62/2/1 63/2/1
f 67/2/1 66/2/1 65/2/1
f 68/2/1 66/2/1 67/2/1
f 71/2/1 70/2/1 69/2/1
f 72/2/1 70/2/1 71/2/1
f 76/3/1 74/3/1 73/3/1
f 77/3/1 74/3/1 76/3/1
f 78/3/1 74/3/1 77/3/1
f 79/3/1 74/3/1 78/3/1
f 81/3/1 76/3/1 75/3/1
f 81/3/1 77/3/1 76/3/1
f 82/3/1 77/3/1 81/3/1
f 83/3/1 80/3/1 79/3/1
f 83/3/1 79/3/1 78/3/1
f 84/3/1 80/3/1 83/3/1
f 85/3/1 81/3/1 75/3/1
f 88/3/1 80/3/1 84/3/1
f 89/3/1 86/3/1 85/3/1
f 89/3/1 85/3/1 75/3/1
f 90/3/1 86/3/1 89/3/1
f 91/3/1 86/3/1 90/3/1
f 92/3/1 88/3/1 87/3/1
f 93/3/1 80/3/1 88/3/1
f 93/3/1 88/3/1 92/3/1
f 94/3/1 80/3/1 93/3/1
f 95/3/1 91/3/1 90/3/1
f 95/3/1 92/3/1 91/3/1
f 95/3/1 93/3/1 92/3/1
f 96/3/1 93/3/1 95/3/1
f 99/2/1 98/2/1 97/2/1
f 100/2/1 98/2/1 99/2/1
f 103/2/1 102/2/1 101/2/1
f 104/2/1 102/2/1 103/2/1
f 108/1/1 106/1/1 105/1/1
f 109/1/1 106/1/1 108/1/1
f 112/1/1 108/1/1 107/1/1
f 113/1/1 108/1/1 112/1/1
f 114/1/1 110/1/1 109/1/1
f 115/1/1 110/1/1 114/1/1
f 118/1/1 117/1/1 116/1/1
f 119/1/1 117/1/1 118/1/1
f 120/1/1 112/1/1 111/1/1
f 121/1/1 112/1/1 120/1/1
f 125/1/1 122/1/1 121/1/1
f 126/1/1 122/1/1 125/1/1
f 129/1/1 124/1/1 123/1/1
f 130/1/1 124/1/1 129/1/1
f 131/1/1 128/1/1 127/1/1
f 132/1/1 128/1/1 131/1/1
f 135/2/1 134/2/1 133/2/1
f 136/2/1 134/2/1 135/2/1
f 139/2/1 138/2/1 137/2/1
f 140/2/1 138/2/1 139/2/1
f 144/1/1 142/1/1 141/1/1
f 145/1/1 142/1/1 144/1/1
f 146/1/1 142/1/1 145/1/1
f 147/1/1 142/1/1 146/1/1
f 149/1/1 144/1/1 143/1/1
f 149/1/1 145/1/1 144/1/1
f 150/1/1 145/1/1 149/1/1
f 151/1/1 148/1/1 147/1/1
f 151/1/1 147/1/1 146/1/1
f 152/1/1 148/1/1 151/1/1
f 153/1/1 148/1/1 152/1/1
f 155/1/1 149/1/1 143/1/1
f 156/1/1 149/1/1 155/1/1
f 157/1/1 153/1/1 152/1/1
f 157/1/1 154/1/1 153/1/1
f 158/1/1 154/1/1 157/1/1
f 160/1/1 154/1/1 158/1/1
f 161/1/1 155/1/1 143/1/1
f 163/1/1 161/1/1 143/1/1
f 163/1/1 162/1/1 161/1/1
f 164/1/1 162/1/1 163/1/1
f 165/1/1 162/1/1 164/1/1
f 168/1/1 160/1/1 159/1/1
f 169/1/1 154/1/1 160/1/1
f 169/1/1 160/1/1 168/1/1
f 170/1/1 154/1/1 169/1/1
f 171/1/1 166/1/1 165/1/1
f 171/1/1 165/1/1 164/1/1
f 172/1/1 166/1/1 171/1/1
f 173/1/1 166/1/1 172/1/1
f 174/1/1 168/1/1 167/1/1
f 174/1/1 169/1/1 168/1/1
f 175/1/1 169/1/1 174/1/1
f 176/1/1 169/1/1 175/1/1
f 177/1/1 173/1/1 172/1/1
f 177/1/1 175/1/1 174/1/1
f 177/1/1 174/1/1 173/1/1
f 178/1/1 175/1/1 177/1/1
f 181/2/1 180/2/1 179/2/1
f 182/2/1 180/2/1 181/2/1
f 185/2/1 184/2/1 183/2/1
f 186/2/1 184/2/1 185/2/1
f 191/1/1 188/1/1 187/1/1
f 192/1/1 188/1/1 191/1/1
f 195/1/1 190/1/1 189/1/1
f 196/1/1 190/1/1 195/1/1
f 197/1/1 194/1/1 193/1/1
f 198/1/1 194/1/1 197/1/1
f 200/1/1 199/1/1 198/1/1
f 201/1/1 199/1/1 200/1/1
f 204/1/1 203/1/1 202/1/1
f 205/1/1 203/1/1 204/1/1
f 210/1/1 207/1/1 206/1/1
f 211/1/1 207/1/1 210/1/1
f 214/1/1 209/1/1 208/1/1
f 215/1/1 209/1/1 214/1/1
f 216/1/1 212/1/1 211/1/1
f 217/1/1 212/1/1 216/1/1
f 218/1/1 214/1/1 213/1/1
f 219/1/1 214/1/1 218/1/1
f 222/2/1 221/2/1 220/2/1
f 223/2/1 221/2/1 222/2/1
f 226/2/1 225/2/1 224/2/1
f 227/2/1 225/2/1 226/2/1
f 232/1/1 229/1/1 228/1/1
f 233/1/1 229/1/1 232/1/1
f 234/1/1 231/1/1 230/1/1
f 235/1/1 231/1/1 234/1/1
f 238/1/1 237/1/1 236/1/1
f 239/1/1 237/1/1 238/1/1
f 243/1/1 241/1/1 240/1/1
f 244/1/1 241/1/1 243/1/1
f 247/3/1 243/3/1 242/3/1
f 248/3/1 243/3/1 247/3/1
f 250/3/1 246/3/1 245/3/1
f 251/3/1 246/3/1 250/3/1
f 252/1/1 249/1/1 248/1/1
f 253/1/1 249/1/1 252/1/1
f 258/1/1 255/1/1 254/1/1
f 259/1/1 255/1/1 258/1/1
f 262/1/1 257/1/1 256/1/1
f 263/1/1 257/1/1 262/1/1
f 264/3/1 261/3/1 260/3/1
f 265/3/1 261/3/1 264/3/1
f 268/2/1 267/2/1 266/2/1
f 269/2/1 267/2/1 268/2/1
f 272/2/1 271/2/1 270/2/1
f 273/2/1 271/2/1 272/2/1
f 276/1/1 275/1/1 274/1/1
f 277/1/1 275/1/1 276/1/1
f 281/1/1 279/1/1 278/1/1
f 282/1/1 279/1/1 281/1/1
f 285/3/1 281/3/1 280/3/1
f 286/3/1 281/3/1 285/3/1
f 287/3/1 284/3/1 283/3/1
f 288/3/1 284/3/1 287/3/1
f 293/1/1 290/1/1 289/1/1
f 294/1/1 290/1/1 293/1/1
f 295/1/1 292/1/1 291/1/1
f 296/1/1 292/1/1 295/1/1
f 301/3/1 298/3/1 297/3/1
f 302/3/1 298/3/1 301/3/1
f 303/3/1 300/3/1 299/3/1
f 304/3/1 300/3/1 303/3/1
f 309/3/1 306/3/1 305/3/1
f 310/3/1 306/3/1 309/3/1
f 313/3/1 308/3/1 307/3/1
f 314/3/1 308/3/1 313/3/1
f 315/1/1 312/1/1 311/1/1
f 316/1/1 312/1/1 315/1/1
f 319/2/1 318/2/1 317/2/1
f 320/2/1 318/2/1 319/2/1
f 323/1/1 322/1/1 321/1/1
f 324/1/1 322/1/1 323/1/1
f 329/1/1 326/1/1 325/1/1
f 330/1/1 326/1/1 329/1/1
f 331/1/1 328/1/1 327/1/1
f 332/1/1 328/1/1 331/1/1
f 337/1/1 334/1/1 333/1/1
f 338/1/1 334/1/1 337/1/1
f 339/1/1 336/1/1 335/1/1
f 340/1/1 336/1/1 339/1/1
f 343/1/1 342/1/1 341/1/1
f 344/1/1 342/1/1 343/1/1
f 349/1/1 346/1/1 345/1/1
f 350/1/1 346/1/1 349/1/1
f 351/1/1 348/1/1 347/1/1
f 352/1/1 348/1/1 351/1/1
f 355/2/1 354/2/1 353/2/1
f 356/2/1 354/2/1 355/2/1
f 357/2/1 355/2/1 353/2/1
f 358/2/1 355/2/1 357/2/1
f 359/2/1 354/2/1 356/2/1
f 360/2/1 354/2/1 359/2/1
f 361/2/1 357/2/1 353/2/1
f 364/2/1 354/2/1 360/2/1
f 365/2/1 362/2/1 361/2/1
f 366/2/1 364/2/1 363/2/1
f 367/2/1 365/2/1 361/2/1
f 367/2/1 366/2/1 365/2/1
f 367/2/1 361/2/1 353/2/1
f 368/2/1 364/2/1 366/2/1
f 368/2/1 366/2/1 367/2/1
f 368/2/1 354/2/1 364/2/1
f 369/2/2 370/2/2 371/2/2
f 371/2/2 370/2/2 372/2/2
f 369/2/2 371/2/2 373/2/2
f 373/2/2 371/2/2 374/2/2
f 372/2/2 370/2/2 375/2/2
f 375/2/2 370/2/2 376/2/2
f 369/2/2 373/2/2 377/2/2
f 376/2/2 370/2/2 380/2/2
f 377/2/2 378/2/2 381/2/2
f 379/2/2 380/2/2 382/2/2
f 377/2/2 381/2/2 383/2/2
f 381/2/2 382/2/2 383/2/2
f 369/2/2 377/2/2 383/2/2
f 382/2/2 380/2/2 384/2/2
f 383/2/2 382/2/2 384/2/2
f 380/2/2 370/2/2 384/2/2
f 385/2/2 386/2/2 387/2/2
f 387/2/2 386/2/2 388/2/2
f 389/2/2 390/2/2 391/2/2
f 391/2/2 390/2/2 392/2/2
f 393/2/2 394/2/2 395/2/2
f 395/2/2 394/2/2 396/2/2
f 397/1/2 398/1/2 399/1/2
f 399/1/2 398/1/2 400/1/2
f 401/1/2 402/1/2 405/1/2
f 405/1/2 402/1/2 406/1/2
f 403/1/2 404/1/2 407/1/2
f 407/1/2 404/1/2 408/1/2
f 409/1/2 410/1/2 413/1/2
f 413/1/2 410/1/2 414/1/2
f 411/1/2 412/1/2 415/1/2
f 415/1/2 412/1/2 416/1/2
f 417/1/2 418/1/2 419/1/2
f 419/1/2 418/1/2 420/1/2
f 421/1/2 422/1/2 425/1/2
f 425/1/2 422/1/2 426/1/2
f 423/1/2 424/1/2 427/1/2
f 427/1/2 424/1/2 428/1/2
f 429/2/2 430/2/2 431/2/2
f 431/2/2 430/2/2 432/2/2
f 433/2/2 434/2/2 435/2/2
f 435/2/2 434/2/2 436/2/2
f 437/1/2 438/1/2 439/1/2
f 439/1/2 438/1/2 440/1/2
f 441/1/2 442/1/2 444/1/2
f 444/1/2 442/1/2 445/1/2
f 443/3/2 444/3/2 448/3/2
f 448/3/2 444/3/2 449/3/2
f 446/3/2 447/3/2 450/3/2
f 450/3/2 447/3/2 451/3/2
f 452/1/2 453/1/2 456/1/2
f 456/1/2 453/1/2 457/1/2
f 454/1/2 455/1/2 458/1/2
f 458/1/2 455/1/2 459/1/2
f 460/3/2 461/3/2 464/3/2
f 464/3/2 461/3/2 465/3/2
f 462/3/2 463/3/2 466/3/2
f 466/3/2 463/3/2 467/3/2
f 468/3/2 469/3/2 472/3/2
f 472/3/2 469/3/2 473/3/2
f 470/3/2 471/3/2 476/3/2
f 476/3/2 471/3/2 477/3/2
f 474/1/2 475/1/2 478/1/2
f 478/1/2 475/1/2 479/1/2
f 480/2/2 481/2/2 482/2/2
f 482/2/2 481/2/2 483/2/2
f 484/2/2 485/2/2 486/2/2
f 486/2/2 485/2/2 487/2/2
f 488/1/2 489/1/2 494/1/2
f 494/1/2 489/1/2 495/1/2
f 490/1/2 491/1/2 496/1/2
f 496/1/2 491/1/2 497/1/2
f 492/1/2 493/1/2 500/1/2
f 500/1/2 493/1/2 501/1/2
f 498/1/2 499/1/2 502/1/2
f 502/1/2 499/1/2 503/1/2
f 504/1/2 505/1/2 507/1/2
f 506/3/2 507/3/2 510/3/2
f 507/1/2 505/1/2 510/1/2
f 510/1/2 505/1/2 511/1/2
f 506/3/2 510/3/2 512/3/2
f 506/3/2 512/3/2 514/3/2
f 512/1/2 513/1/2 515/1/2
f 514/3/2 512/3/2 515/3/2
f 508/3/2 509/3/2 516/3/2
f 516/3/2 509/3/2 517/3/2
f 515/1/2 513/1/2 518/1/2
f 518/1/2 513/1/2 519/1/2
f 520/1/2 521/1/2 525/1/2
f 522/1/2 523/1/2 526/1/2
f 526/1/2 523/1/2 527/1/2
f 524/1/2 525/1/2 530/1/2
f 525/1/2 521/1/2 531/1/2
f 530/1/2 525/1/2 531/1/2
f 528/3/2 529/3/2 532/3/2
f 532/3/2 529/3/2 533/3/2
f 534/2/2 535/2/2 536/2/2
f 536/2/2 535/2/2 537/2/2
f 538/2/2 539/2/2 540/2/2
f 540/2/2 539/2/2 541/2/2
f 542/1/2 543/1/2 546/1/2
f 546/1/2 543/1/2 547/1/2
f 544/1/2 545/1/2 551/1/2
f 551/1/2 545/1/2 552/1/2
f 548/1/2 549/1/2 553/1/2
f 553/1/2 549/1/2 554/1/2
f 550/1/2 551/1/2 556/1/2
f 556/1/2 551/1/2 557/1/2
f 554/1/2 555/1/2 558/1/2
f 558/1/2 555/1/2 559/1/2
f 560/1/2 561/1/2 562/1/2
f 562/1/2 561/1/2 563/1/2
f 564/1/2 565/1/2 568/1/2
f 568/1/2 565/1/2 569/1/2
f 566/1/2 567/1/2 571/1/2
f 571/1/2 567/1/2 572/1/2
f 569/1/2 570/1/2 573/1/2
f 573/1/2 570/1/2 574/1/2
f 575/2/2 576/2/2 577/2/2
f 577/2/2 576/2/2 578/2/2
f 579/2/2 580/2/2 581/2/2
f 581/2/2 580/2/2 582/2/2
f 583/1/2 584/1/2 586/1/2
f 586/1/2 584/1/2 587/1/2
f 585/1/2 586/1/2 590/1/2
f 587/1/2 588/1/2 590/1/2
f 586/1/2 587/1/2 590/1/2
f 590/1/2 588/1/2 591/1/2
f 591/1/2 588/1/2 592/1/2
f 592/1/2 588/1/2 593/1/2
f 589/1/2 590/1/2 595/1/2
f 590/1/2 591/1/2 595/1/2
f 595/1/2 591/1/2 596/1/2
f 593/1/2 594/1/2 597/1/2
f 592/1/2 593/1/2 597/1/2
f 597/1/2 594/1/2 598/1/2
f 589/1/2 595/1/2 599/1/2
f 598/1/2 594/1/2 602/1/2
f 599/1/2 600/1/2 603/1/2
f 589/1/2 599/1/2 603/1/2
f 603/1/2 600/1/2 604/1/2
f 604/1/2 600/1/2 605/1/2
f 601/1/2 602/1/2 606/1/2
f 602/1/2 594/1/2 607/1/2
f 606/1/2 602/1/2 607/1/2
f 607/1/2 594/1/2 608/1/2
f 604/1/2 605/1/2 609/1/2
f 605/1/2 606/1/2 609/1/2
f 606/1/2 607/1/2 609/1/2
f 609/1/2 607/1/2 610/1/2
f 610/1/2 607/1/2 611/1/2
f 611/1/2 607/1/2 612/1/2
f 613/2/2 614/2/2 615/2/2
f 615/2/2 614/2/2 616/2/2
f 617/2/2 618/2/2 619/2/2
f 619/2/2 618/2/2 620/2/2
f 621/3/2 622/3/2 624/3/2
f 624/3/2 622/3/2 625/3/2
f 625/3/2 622/3/2 626/3/2
f 626/3/2 622/3/2 627/3/2
f 623/3/2 624/3/2 629/3/2
f 624/3/2 625/3/2 629/3/2
f 629/3/2 625/3/2 630/3/2
f 627/3/2 628/3/2 631/3/2
f 626/3/2 627/3/2 631/3/2
f 631/3/2 628/3/2 632/3/2
f 623/3/2 629/3/2 633/3/2
f 632/3/2 628/3/2 636/3/2
f 633/3/2 634/3/2 637/3/2
f 623/3/2 633/3/2 637/3/2
f 637/3/2 634/3/2 638/3/2
f 638/3/2 634/3/2 639/3/2
f 635/3/2 636/3/2 640/3/2
f 636/3/2 628/3/2 641/3/2
f 640/3/2 636/3/2 641/3/2
f 641/3/2 628/3/2 642/3/2
f 638/3/2 639/3/2 643/3/2
f 639/3/2 640/3/2 643/3/2
f 640/3/2 641/3/2 643/3/2
f 643/3/2 641/3/2 644/3/2
f 645/2/2 646/2/2 647/2/2
f 647/2/2 646/2/2 648/2/2
f 649/2/2 650/2/2 651/2/2
f 651/2/2 650/2/2 652/2/2
f 649/2/2 651/2/2 653/2/2
f 652/2/2 650/2/2 654/2/2
f 649/2/2 653/2/2 655/2/2
f 653/2/2 654/2/2 655/2/2
f 654/2/2 650/2/2 656/2/2
f 655/2/2 654/2/2 656/2/2
f 657/2/2 658/2/2 659/2/2
f 659/2/2 658/2/2 660/2/2
f 657/2/2 659/2/2 661/2/2
f 660/2/2 658/2/2 662/2/2
f 657/2/2 661/2/2 663/2/2
f 661/2/2 662/2/2 663/2/2
f 662/2/2 658/2/2 664/2/2
f 663/2/2 662/2/2 664/2/2
f 665/2/2 666/2/2 667/2/2
f 667/2/2 666/2/2 668/2/2
f 665/2/2 667/2/2 669/2/2
f 668/2/2 666/2/2 670/2/2
f 665/2/2 669/2/2 671/2/2
f 669/2/2 670/2/2 671/2/2
f 670/2/2 666/2/2 672/2/2
f 671/2/2 670/2/2 672/2/2
f 673/2/2 674/2/2 675/2/2
f 675/2/2 674/2/2 676/2/2
f 673/2/2 675/2/2 677/2/2
f 676/2/2 674/2/2 678/2/2
f 673/2/2 677/2/2 679/2/2
f 677/2/2 678/2/2 679/2/2
f 678/2/2 674/2/2 680/2/2
f 679/2/2 678/2/2 680/2/2
f 681/2/2 682/2/2 683/2/2
f 683/2/2 682/2/2 684/2/2
f 681/2/2 683/2/2 685/2/2
f 684/2/2 682/2/2 686/2/2
f 681/2/2 685/2/2 687/2/2
f 685/2/2 686/2/2 687/2/2
f 686/2/2 682/2/2 688/2/2
f 687/2/2 686/2/2 688/2/2
f 689/2/2 690/2/2 691/2/2
f 691/2/2 690/2/2 692/2/2
f 689/2/2 691/2/2 693/2/2
f 692/2/2 690/2/2 694/2/2
f 689/2/2 693/2/2 695/2/2
f 693/2/2 694/2/2 695/2/2
f 694/2/2 690/2/2 696/2/2
f 695/2/2 694/2/2 696/2/2
f 697/2/2 698/2/2 699/2/2
f 699/2/2 698/2/2 700/2/2
f 697/2/2 699/2/2 701/2/2
f 700/2/2 698/2/2 702/2/2
f 697/2/2 701/2/2 703/2/2
f 701/2/2 702/2/2 703/2/2
f 702/2/2 698/2/2 704/2/2
f 703/2/2 702/2/2 704/2/2
f 705/2/2 706/2/2 707/2/2
f 707/2/2 706/2/2 708/2/2
f 711/2/3 710/2/3 709/2/3
f 712/2/3 710/2/3 711/2/3
f 716/1/3 714/1/3 713/1/3
f 717/1/3 714/1/3 716/1/3
f 719/1/3 716/1/3 715/1/3
f 719/1/3 718/1/3 717/1/3
f 719/1/3 717/1/3 716/1/3
f 720/1/3 718/1/3 719/1/3
f 721/1/3 718/1/3 720/1/3
f 722/1/3 718/1/3 721/1/3
f 723/1/3 721/1/3 720/1/3
f 724/1/3 721/1/3 723/1/3
f 725/2/3 711/2/3 709/2/3
f 726/2/3 710/2/3 712/2/3
f 727/2/3 725/2/3 709/2/3
f 727/2/3 726/2/3 725/2/3
f 728/2/3 710/2/3 726/2/3
f 728/2/3 726/2/3 727/2/3
f 731/2/3 730/2/3 729/2/3
f 732/2/3 730/2/3 731/2/3
f 740/3/3 738/3/3 737/3/3
f 741/3/3 738/3/3 740/3/3
f 742/3/3 738/3/3 741/3/3
f 743/3/3 738/3/3 742/3/3
f 745/3/3 740/3/3 739/3/3
f 745/3/3 741/3/3 740/3/3
f 746/3/3 741/3/3 745/3/3
f 747/3/3 744/3/3 743/3/3
f 747/3/3 743/3/3 742/3/3
f 748/3/3 744/3/3 747/3/3
f 749/3/3 745/3/3 739/3/3
f 752/3/3 744/3/3 748/3/3
f 753/3/3 750/3/3 749/3/3
f 753/3/3 749/3/3 739/3/3
f 754/3/3 750/3/3 753/3/3
f 755/3/3 750/3/3 754/3/3
f 756/3/3 752/3/3 751/3/3
f 757/3/3 744/3/3 752/3/3
f 757/3/3 752/3/3 756/3/3
f 758/3/3 744/3/3 757/3/3
f 759/3/3 755/3/3 754/3/3
f 759/3/3 756/3/3 755/3/3
f 759/3/3 757/3/3 756/3/3
f 760/3/3 757/3/3 759/3/3
f 761/2/3 734/2/3 733/2/3
f 762/2/3 734/2/3 761/2/3
f 763/2/3 736/2/3 735/2/3
f 764/2/3 736/2/3 763/2/3
f 767/2/3 766/2/3 765/2/3
f 768/2/3 766/2/3 767/2/3
f 771/2/3 770/2/3 769/2/3
f 772/2/3 770/2/3 771/2/3
f 780/1/3 778/1/3 777/1/3
f 781/1/3 778/1/3 780/1/3
f 784/1/3 780/1/3 779/1/3
f 785/1/3 780/1/3 784/1/3
f 786/1/3 782/1/3 781/1/3
f 787/1/3 782/1/3 786/1/3
f 790/1/3 789/1/3 788/1/3
f 791/1/3 789/1/3 790/1/3
f 792/1/3 784/1/3 783/1/3
f 793/1/3 784/1/3 792/1/3
f 797/1/3 794/1/3 793/1/3
f 798/1/3 794/1/3 797/1/3
f 801/1/3 796/1/3 795/1/3
f 802/1/3 796/1/3 801/1/3
f 803/1/3 800/1/3 799/1/3
f 804/1/3 800/1/3 803/1/3
f 805/2/3 774/2/3 773/2/3
f 806/2/3 774/2/3 805/2/3
f 807/2/3 776/2/3 775/2/3
f 808/2/3 776/2/3 807/2/3
f 811/2/3 810/2/3 809/2/3
f 812/2/3 810/2/3 811/2/3
f 815/2/3 814/2/3 813/2/3
f 816/2/3 814/2/3 815/2/3
f 824/1/3 822/1/3 821/1/3
f 825/1/3 822/1/3 824/1/3
f 826/1/3 822/1/3 825/1/3
f 827/1/3 822/1/3 826/1/3
f 829/1/3 824/1/3 823/1/3
f 829/1/3 825/1/3 824/1/3
f 830/1/3 825/1/3 829/1/3
f 831/1/3 828/1/3 827/1/3
f 831/1/3 827/1/3 826/1/3
f 832/1/3 828/1/3 831/1/3
f 833/1/3 828/1/3 832/1/3
f 835/1/3 829/1/3 823/1/3
f 836/1/3 829/1/3 835/1/3
f 837/1/3 834/1/3 833/1/3
f 837/1/3 833/1/3 832/1/3
f 838/1/3 834/1/3 837/1/3
f 840/1/3 834/1/3 838/1/3
f 841/1/3 835/1/3 823/1/3
f 843/1/3 841/1/3 823/1/3
f 843/1/3 842/1/3 841/1/3
f 844/1/3 842/1/3 843/1/3
f 845/1/3 842/1/3 844/1/3
f 848/1/3 840/1/3 839/1/3
f 849/1/3 834/1/3 840/1/3
f 849/1/3 840/1/3 848/1/3
f 850/1/3 834/1/3 849/1/3
f 851/2/3 818/2/3 817/2/3
f 852/2/3 818/2/3 851/2/3
f 853/1/3 846/1/3 845/1/3
f 853/1/3 845/1/3 844/1/3
f 854/1/3 846/1/3 853/1/3
f 855/1/3 846/1/3 854/1/3
f 856/1/3 848/1/3 847/1/3
f 856/1/3 849/1/3 848/1/3
f 857/1/3 849/1/3 856/1/3
f 858/1/3 849/1/3 857/1/3
f 859/2/3 820/2/3 819/2/3
f 860/2/3 820/2/3 859/2/3
f 861/1/3 857/1/3 856/1/3
f 861/1/3 856/1/3 855/1/3
f 861/1/3 855/1/3 854/1/3
f 862/1/3 857/1/3 861/1/3
f 865/2/3 864/2/3 863/2/3
f 866/2/3 864/2/3 865/2/3
f 869/2/3 868/2/3 867/2/3
f 870/2/3 868/2/3 869/2/3
f 877/1/3 872/1/3 871/1/3
f 878/1/3 872/1/3 877/1/3
f 883/1/3 876/1/3 875/1/3
f 884/1/3 876/1/3 883/1/3
f 885/1/3 880/1/3 879/1/3
f 886/1/3 880/1/3 885/1/3
f 888/1/3 887/1/3 886/1/3
f 889/1/3 887/1/3 888/1/3
f 892/1/3 891/1/3 890/1/3
f 893/1/3 891/1/3 892/1/3
f 894/2/3 874/2/3 873/2/3
f 895/2/3 874/2/3 894/2/3
f 900/2/3 882/2/3 881/2/3
f 901/2/3 882/2/3 900/2/3
f 902/1/3 897/1/3 896/1/3
f 903/1/3 897/1/3 902/1/3
f 906/1/3 899/1/3 898/1/3
f 907/1/3 899/1/3 906/1/3
f 908/1/3 904/1/3 903/1/3
f 909/1/3 904/1/3 908/1/3
f 910/1/3 906/1/3 905/1/3
f 911/1/3 906/1/3 910/1/3
f 914/2/3 913/2/3 912/2/3
f 915/2/3 913/2/3 914/2/3
f 918/2/3 917/2/3 916/2/3
f 919/2/3 917/2/3 918/2/3
f 923/3/3 921/3/3 920/3/3
f 924/3/3 921/3/3 923/3/3
f 926/1/3 923/1/3 922/1/3
f 927/1/3 923/1/3 926/1/3
f 928/1/3 925/1/3 924/1/3
f 929/1/3 925/1/3 928/1/3
f 934/1/3 931/1/3 930/1/3
f 935/1/3 931/1/3 934/1/3
f 940/1/3 939/1/3 938/1/3
f 941/1/3 939/1/3 940/1/3
f 944/2/3 933/2/3 932/2/3
f 945/2/3 933/2/3 944/2/3
f 948/3/3 943/3/3 942/3/3
f 949/3/3 943/3/3 948/3/3
f 950/2/3 937/2/3 936/2/3
f 951/2/3 937/2/3 950/2/3
f 952/1/3 947/1/3 946/1/3
f 953/1/3 947/1/3 952/1/3
f 958/1/3 955/1/3 954/1/3
f 959/1/3 955/1/3 958/1/3
f 962/1/3 957/1/3 956/1/3
f 963/1/3 957/1/3 962/1/3
f 964/3/3 961/3/3 960/3/3
f 965/3/3 961/3/3 964/3/3
f 968/2/3 967/2/3 966/2/3
f 969/2/3 967/2/3 968/2/3
f 972/2/3 971/2/3 970/2/3
f 973/2/3 971/2/3 972/2/3
f 978/1/3 975/1/3 974/1/3
f 979/1/3 975/1/3 978/1/3
f 983/3/3 977/3/3 976/3/3
f 984/3/3 977/3/3 983/3/3
f 985/3/3 981/3/3 980/3/3
f 986/3/3 981/3/3 985/3/3
f 987/1/3 983/1/3 982/1/3
f 988/1/3 983/1/3 987/1/3
f 993/1/3 990/1/3 989/1/3
f 994/1/3 990/1/3 993/1/3
f 999/3/3 996/3/3 995/3/3
f 1000/3/3 996/3/3 999/3/3
f 1003/2/3 992/2/3 991/2/3
f 1004/2/3 992/2/3 1003/2/3
f 1005/1/3 1002/1/3 1001/1/3
f 1006/1/3 1002/1/3 1005/1/3
f 1007/2/3 998/2/3 997/2/3
f 1008/2/3 998/2/3 1007/2/3
f 1011/3/3 1010/3/3 1009/3/3
f 1012/3/3 1010/3/3 1011/3/3
f 1017/3/3 1014/3/3 1013/3/3
f 1018/3/3 1014/3/3 1017/3/3
f 1021/3/3 1016/3/3 1015/3/3
f 1022/3/3 1016/3/3 1021/3/3
f 1023/1/3 1020/1/3 1019/1/3
f 1024/1/3 1020/1/3 1023/1/3
f 1027/2/3 1026/2/3 1025/2/3
f 1028/2/3 1026/2/3 1027/2/3
f 1031/2/3 1030/2/3 1029/2/3
f 1032/2/3 1030/2/3 1031/2/3
f 1037/1/3 1034/1/3 1033/1/3
f 1038/1/3 1034/1/3 1037/1/3
f 1039/1/3 1036/1/3 1035/1/3
f 1040/1/3 1036/1/3 1039/1/3
f 1043/1/3 1042/1/3 1041/1/3
f 1044/1/3 1042/1/3 1043/1/3
f 1051/1/3 1048/1/3 1047/1/3
f 1052/1/3 1048/1/3 1051/1/3
f 1053/2/3 1046/2/3 1045/2/3
f 1054/2/3 1046/2/3 1053/2/3
f 1055/2/3 1050/2/3 1049/2/3
f 1056/2/3 1050/2/3 1055/2/3
f 1059/1/3 1058/1/3 1057/1/3
f 1060/1/3 1058/1/3 1059/1/3
f 1063/1/3 1062/1/3 1061/1/3
f 1064/1/3 1062/1/3 1063/1/3
f 1069/1/3 1066/1/3 1065/1/3
f 1070/1/3 1066/1/3 1069/1/3
f 1071/1/3 1068/1/3 1067/1/3
f 1072/1/3 1068/1/3 1071/1/3
f 1075/2/3 1074/2/3 1073/2/3
f 1076/2/3 1074/2/3 1075/2/3
f 1077/2/4 1078/2/4 1079/2/4
f 1079/2/4 1078/2/4 1080/2/4
f 1081/1/4 1082/1/4 1085/1/4
f 1085/1/4 1082/1/4 1086/1/4
f 1083/1/4 1084/1/4 1087/1/4
f 1087/1/4 1084/1/4 1088/1/4
f 1089/1/4 1090/1/4 1091/1/4
f 1091/1/4 1090/1/4 1092/1/4
f 1095/1/4 1096/1/4 1099/1/4
f 1099/1/4 1096/1/4 1100/1/4
f 1093/2/4 1094/2/4 1101/2/4
f 1101/2/4 1094/2/4 1102/2/4
f 1097/2/4 1098/2/4 1103/2/4
f 1103/2/4 1098/2/4 1104/2/4
f 1105/1/4 1106/1/4 1107/1/4
f 1107/1/4 1106/1/4 1108/1/4
f 1109/1/4 1110/1/4 1111/1/4
f 1111/1/4 1110/1/4 1112/1/4
f 1113/1/4 1114/1/4 1117/1/4
f 1117/1/4 1114/1/4 1118/1/4
f 1115/1/4 1116/1/4 1119/1/4
f 1119/1/4 1116/1/4 1120/1/4
f 1121/2/4 1122/2/4 1123/2/4
f 1123/2/4 1122/2/4 1124/2/4
f 1125/2/4 1126/2/4 1127/2/4
f 1127/2/4 1126/2/4 1128/2/4
f 1129/1/4 1130/1/4 1133/1/4
f 1133/1/4 1130/1/4 1134/1/4
f 1131/3/4 1132/3/4 1138/3/4
f 1138/3/4 1132/3/4 1139/3/4
f 1135/3/4 1136/3/4 1140/3/4
f 1140/3/4 1136/3/4 1141/3/4
f 1137/1/4 1138/1/4 1142/1/4
f 1142/1/4 1138/1/4 1143/1/4
f 1144/1/4 1145/1/4 1148/1/4
f 1148/1/4 1145/1/4 1149/1/4
f 1150/3/4 1151/3/4 1154/3/4
f 1154/3/4 1151/3/4 1155/3/4
f 1146/2/4 1147/2/4 1158/2/4
f 1158/2/4 1147/2/4 1159/2/4
f 1156/1/4 1157/1/4 1160/1/4
f 1160/1/4 1157/1/4 1161/1/4
f 1152/2/4 1153/2/4 1162/2/4
f 1162/2/4 1153/2/4 1163/2/4
f 1164/3/4 1165/3/4 1166/3/4
f 1166/3/4 1165/3/4 1167/3/4
f 1168/3/4 1169/3/4 1172/3/4
f 1172/3/4 1169/3/4 1173/3/4
f 1170/3/4 1171/3/4 1176/3/4
f 1176/3/4 1171/3/4 1177/3/4
f 1174/1/4 1175/1/4 1178/1/4
f 1178/1/4 1175/1/4 1179/1/4
f 1180/2/4 1181/2/4 1182/2/4
f 1182/2/4 1181/2/4 1183/2/4
f 1184/2/4 1185/2/4 1186/2/4
f 1186/2/4 1185/2/4 1187/2/4
f 1188/3/4 1189/3/4 1191/3/4
f 1191/3/4 1189/3/4 1192/3/4
f 1192/3/4 1189/3/4 1193/3/4
f 1193/3/4 1189/3/4 1194/3/4
f 1190/1/4 1191/1/4 1198/1/4
f 1191/1/4 1192/1/4 1198/1/4
f 1198/1/4 1192/1/4 1199/1/4
f 1193/1/4 1194/1/4 1200/1/4
f 1194/1/4 1195/1/4 1200/1/4
f 1200/1/4 1195/1/4 1201/1/4
f 1196/1/4 1197/1/4 1206/1/4
f 1206/1/4 1197/1/4 1207/1/4
f 1202/1/4 1203/1/4 1208/1/4
f 1208/1/4 1203/1/4 1209/1/4
f 1212/1/4 1213/1/4 1216/1/4
f 1216/1/4 1213/1/4 1217/1/4
f 1204/2/4 1205/2/4 1220/2/4
f 1220/2/4 1205/2/4 1221/2/4
f 1214/3/4 1215/3/4 1222/3/4
f 1222/3/4 1215/3/4 1223/3/4
f 1210/2/4 1211/2/4 1224/2/4
f 1224/2/4 1211/2/4 1225/2/4
f 1218/1/4 1219/1/4 1226/1/4
f 1226/1/4 1219/1/4 1227/1/4
f 1228/1/4 1229/1/4 1233/1/4
f 1230/1/4 1231/1/4 1234/1/4
f 1234/1/4 1231/1/4 1235/1/4
f 1232/1/4 1233/1/4 1238/1/4
f 1233/1/4 1229/1/4 1239/1/4
f 1238/1/4 1233/1/4 1239/1/4
f 1236/3/4 1237/3/4 1240/3/4
f 1240/3/4 1237/3/4 1241/3/4
f 1242/2/4 1243/2/4 1244/2/4
f 1244/2/4 1243/2/4 1245/2/4
f 1246/2/4 1247/2/4 1248/2/4
f 1248/2/4 1247/2/4 1249/2/4
f 1250/1/4 1251/1/4 1256/1/4
f 1256/1/4 1251/1/4 1257/1/4
f 1254/1/4 1255/1/4 1263/1/4
f 1263/1/4 1255/1/4 1264/1/4
f 1258/1/4 1259/1/4 1265/1/4
f 1265/1/4 1259/1/4 1266/1/4
f 1262/1/4 1263/1/4 1268/1/4
f 1268/1/4 1263/1/4 1269/1/4
f 1266/1/4 1267/1/4 1270/1/4
f 1270/1/4 1267/1/4 1271/1/4
f 1272/1/4 1273/1/4 1274/1/4
f 1274/1/4 1273/1/4 1275/1/4
f 1252/2/4 1253/2/4 1276/2/4
f 1276/2/4 1253/2/4 1277/2/4
f 1260/2/4 1261/2/4 1282/2/4
f 1282/2/4 1261/2/4 1283/2/4
f 1278/1/4 1279/1/4 1284/1/4
f 1284/1/4 1279/1/4 1285/1/4
f 1280/1/4 1281/1/4 1287/1/4
f 1287/1/4 1281/1/4 1288/1/4
f 1285/1/4 1286/1/4 1289/1/4
f 1289/1/4 1286/1/4 1290/1/4
f 1291/2/4 1292/2/4 1293/2/4
f 1293/2/4 1292/2/4 1294/2/4
f 1295/2/4 1296/2/4 1297/2/4
f 1297/2/4 1296/2/4 1298/2/4
f 1303/1/4 1304/1/4 1306/1/4
f 1306/1/4 1304/1/4 1307/1/4
f 1305/1/4 1306/1/4 1310/1/4
f 1307/1/4 1308/1/4 1310/1/4
f 1306/1/4 1307/1/4 1310/1/4
f 1310/1/4 1308/1/4 1311/1/4
f 1311/1/4 1308/1/4 1312/1/4
f 1312/1/4 1308/1/4 1313/1/4
f 1309/1/4 1310/1/4 1315/1/4
f 1310/1/4 1311/1/4 1315/1/4
f 1315/1/4 1311/1/4 1316/1/4
f 1313/1/4 1314/1/4 1317/1/4
f 1312/1/4 1313/1/4 1317/1/4
f 1317/1/4 1314/1/4 1318/1/4
f 1309/1/4 1315/1/4 1319/1/4
f 1318/1/4 1314/1/4 1322/1/4
f 1319/1/4 1320/1/4 1323/1/4
f 1309/1/4 1319/1/4 1323/1/4
f 1323/1/4 1320/1/4 1324/1/4
f 1324/1/4 1320/1/4 1325/1/4
f 1321/1/4 1322/1/4 1326/1/4
f 1322/1/4 1314/1/4 1327/1/4
f 1326/1/4 1322/1/4 1327/1/4
f 1327/1/4 1314/1/4 1328/1/4
f 1299/2/4 1300/2/4 1329/2/4
f 1329/2/4 1300/2/4 1330/2/4
f 1324/1/4 1325/1/4 1331/1/4
f 1325/1/4 1326/1/4 1331/1/4
f 1326/1/4 1327/1/4 1331/1/4
f 1331/1/4 1327/1/4 1332/1/4
f 1301/2/4 1302/2/4 1333/2/4
f 1333/2/4 1302/2/4 1334/2/4
f 1332/1/4 1327/1/4 1335/1/4
f 1335/1/4 1327/1/4 1336/1/4
f 1337/2/4 1338/2/4 1339/2/4
f 1339/2/4 1338/2/4 1340/2/4
f 1341/2/4 1342/2/4 1343/2/4
f 1343/2/4 1342/2/4 1344/2/4
f 1349/3/4 1350/3/4 1352/3/4
f 1352/3/4 1350/3/4 1353/3/4
f 1353/3/4 1350/3/4 1354/3/4
f 1354/3/4 1350/3/4 1355/3/4
f 1351/3/4 1352/3/4 1357/3/4
f 1352/3/4 1353/3/4 1357/3/4
f 1357/3/4 1353/3/4 1358/3/4
f 1355/3/4 1356/3/4 1359/3/4
f 1354/3/4 1355/3/4 1359/3/4
f 1359/3/4 1356/3/4 1360/3/4
f 1351/3/4 1357/3/4 1361/3/4
f 1360/3/4 1356/3/4 1364/3/4
f 1361/3/4 1362/3/4 1365/3/4
f 1351/3/4 1361/3/4 1365/3/4
f 1365/3/4 1362/3/4 1366/3/4
f 1366/3/4 1362/3/4 1367/3/4
f 1363/3/4 1364/3/4 1368/3/4
f 1364/3/4 1356/3/4 1369/3/4
f 1368/3/4 1364/3/4 1369/3/4
f 1369/3/4 1356/3/4 1370/3/4
f 1366/3/4 1367/3/4 1371/3/4
f 1367/3/4 1368/3/4 1371/3/4
f 1368/3/4 1369/3/4 1371/3/4
f 1371/3/4 1369/3/4 1372/3/4
f 1345/2/4 1346/2/4 1373/2/4
f 1373/2/4 1346/2/4 1374/2/4
f 1347/2/4 1348/2/4 1375/2/4
f 1375/2/4 1348/2/4 1376/2/4
f 1377/2/4 1378/2/4 1379/2/4
f 1379/2/4 1378/2/4 1380/2/4
f 1381/2/4 1382/2/4 1383/2/4
f 1383/2/4 1382/2/4 1384/2/4
f 1389/1/4 1390/1/4 1392/1/4
f 1392/1/4 1390/1/4 1393/1/4
f 1391/1/4 1392/1/4 1395/1/4
f 1393/1/4 1394/1/4 1395/1/4
f 1392/1/4 1393/1/4 1395/1/4
f 1395/1/4 1394/1/4 1396/1/4
f 1396/1/4 1394/1/4 1397/1/4
f 1397/1/4 1394/1/4 1398/1/4
f 1396/1/4 1397/1/4 1399/1/4
f 1399/1/4 1397/1/4 1400/1/4
f 1385/2/4 1386/2/4 1401/2/4
f 1401/2/4 1386/2/4 1402/2/4
f 1387/2/4 1388/2/4 1403/2/4
f 1403/2/4 1388/2/4 1404/2/4
f 1405/2/4 1406/2/4 1407/2/4
f 1407/2/4 1406/2/4 1408/2/4
f 1409/2/4 1410/2/4 1411/2/4
f 1411/2/4 1410/2/4 1412/2/4
f 1409/2/4 1411/2/4 1413/2/4
f 1412/2/4 1410/2/4 1414/2/4
f 1409/2/4 1413/2/4 1415/2/4
f 1413/2/4 1414/2/4 1415/2/4
f 1414/2/4 1410/2/4 1416/2/4
f 1415/2/4 1414/2/4 1416/2/4
f 1419/2/5 1418/2/5 1417/2/5
f 1420/2/5 1418/2/5 1419/2/5
f 1423/2/5 1422/2/5 1421/2/5
f 1424/2/5 1422/2/5 1423/2/5
f 1425/2/5 1423/2/5 1421/2/5
f 1426/2/5 1422/2/5 1424/2/5
f 1427/2/5 1425/2/5 1421/2/5
f 1427/2/5 1426/2/5 1425/2/5
f 1428/2/5 1422/2/5 1426/2/5
f 1428/2/5 1426/2/5 1427/2/5
f 1431/2/5 1430/2/5 1429/2/5
f 1432/2/5 1430/2/5 1431/2/5
f 1433/2/5 1431/2/5 1429/2/5
f 1434/2/5 1430/2/5 1432/2/5
f 1435/2/5 1433/2/5 1429/2/5
f 1435/2/5 1434/2/5 1433/2/5
f 1436/2/5 1430/2/5 1434/2/5
f 1436/2/5 1434/2/5 1435/2/5
f 1439/2/5 1438/2/5 1437/2/5
f 1440/2/5 1438/2/5 1439/2/5
f 1441/2/5 1439/2/5 1437/2/5
f 1442/2/5 1438/2/5 1440/2/5
f 1443/2/5 1441/2/5 1437/2/5
f 1443/2/5 1442/2/5 1441/2/5
f 1444/2/5 1438/2/5 1442/2/5
f 1444/2/5 1442/2/5 1443/2/5
f 1447/2/5 1446/2/5 1445/2/5
f 1448/2/5 1446/2/5 1447/2/5
f 1449/2/5 1447/2/5 1445/2/5
f 1450/2/5 1446/2/5 1448/2/5
f 1451/2/5 1449/2/5 1445/2/5
f 1451/2/5 1450/2/5 1449/2/5
f 1452/2/5 1446/2/5 1450/2/5
f 1452/2/5 1450/2/5 1451/2/5
f 1455/2/5 1454/2/5 1453/2/5
f 1456/2/5 1454/2/5 1455/2/5
f 1457/2/5 1455/2/5 1453/2/5
f 1458/2/5 1454/2/5 1456/2/5
f 1459/2/5 1457/2/5 1453/2/5
f 1459/2/5 1458/2/5 1457/2/5
f 1460/2/5 1454/2/5 1458/2/5
f 1460/2/5 1458/2/5 1459/2/5
f 1463/2/5 1462/2/5 1461/2/5
f 1464/2/5 1462/2/5 1463/2/5
f 1465/2/5 1463/2/5 1461/2/5
f 1466/2/5 1462/2/5 1464/2/5
f 1467/2/5 1465/2/5 1461/2/5
f 1467/2/5 1466/2/5 1465/2/5
f 1468/2/5 1462/2/5 1466/2/5
f 1468/2/5 1466/2/5 1467/2/5
f 1471/2/5 1470/2/5 1469/2/5
f 1472/2/5 1470/2/5 1471/2/5
f 1473/2/5 1471/2/5 1469/2/5
f 1474/2/5 1470/2/5 1472/2/5
f 1475/2/5 1473/2/5 1469/2/5
f 1475/2/5 1474/2/5 1473/2/5
f 1476/2/5 1470/2/5 1474/2/5
f 1476/2/5 1474/2/5 1475/2/5
f 1481/2/5 1478/2/5 1477/2/5
f 1482/2/5 1478/2/5 1481/2/5
f 1483/2/5 1480/2/5 1479/2/5
f 1484/2/5 1480/2/5 1483/2/5
f 1492/1/5 1490/1/5 1489/1/5
f 1493/1/5 1490/1/5 1492/1/5
f 1494/1/5 1490/1/5 1493/1/5
f 1495/1/5 1490/1/5 1494/1/5
f 1497/1/5 1492/1/5 1491/1/5
f 1497/1/5 1493/1/5 1492/1/5
f 1498/1/5 1493/1/5 1497/1/5
f 1499/1/5 1496/1/5 1495/1/5
f 1499/1/5 1495/1/5 1494/1/5
f 1500/1/5 1496/1/5 1499/1/5
f 1501/1/5 1496/1/5 1500/1/5
f 1503/1/5 1497/1/5 1491/1/5
f 1504/1/5 1497/1/5 1503/1/5
f 1505/1/5 1502/1/5 1501/1/5
f 1505/1/5 1501/1/5 1500/1/5
f 1506/1/5 1502/1/5 1505/1/5
f 1508/1/5 1502/1/5 1506/1/5
f 1509/1/5 1503/1/5 1491/1/5
f 1511/1/5 1509/1/5 1491/1/5
f 1511/1/5 1510/1/5 1509/1/5
f 1512/1/5 1510/1/5 1511/1/5
f 1513/1/5 1510/1/5 1512/1/5
f 1516/1/5 1508/1/5 1507/1/5
f 1517/1/5 1502/1/5 1508/1/5
f 1517/1/5 1508/1/5 1516/1/5
f 1518/1/5 1502/1/5 1517/1/5
f 1519/1/5 1514/1/5 1513/1/5
f 1519/1/5 1513/1/5 1512/1/5
f 1520/1/5 1514/1/5 1519/1/5
f 1521/1/5 1514/1/5 1520/1/5
f 1522/1/5 1516/1/5 1515/1/5
f 1522/1/5 1517/1/5 1516/1/5
f 1523/1/5 1517/1/5 1522/1/5
f 1524/1/5 1517/1/5 1523/1/5
f 1525/1/5 1521/1/5 1520/1/5
f 1525/1/5 1523/1/5 1522/1/5
f 1525/1/5 1522/1/5 1521/1/5
f 1526/1/5 1523/1/5 1525/1/5
f 1527/2/5 1486/2/5 1485/2/5
f 1528/2/5 1486/2/5 1527/2/5
f 1529/2/5 1488/2/5 1487/2/5
f 1530/2/5 1488/2/5 1529/2/5
f 1537/1/5 1532/1/5 1531/1/5
f 1538/1/5 1532/1/5 1537/1/5
f 1543/1/5 1536/1/5 1535/1/5
f 1544/1/5 1536/1/5 1543/1/5
f 1545/1/5 1540/1/5 1539/1/5
f 1546/1/5 1540/1/5 1545/1/5
f 1548/1/5 1547/1/5 1546/1/5
f 1549/1/5 1547/1/5 1548/1/5
f 1552/1/5 1551/1/5 1550/1/5
f 1553/1/5 1551/1/5 1552/1/5
f 1558/1/5 1555/1/5 1554/1/5
f 1559/1/5 1555/1/5 1558/1/5
f 1562/1/5 1557/1/5 1556/1/5
f 1563/1/5 1557/1/5 1562/1/5
f 1564/2/5 1534/2/5 1533/2/5
f 1565/2/5 1534/2/5 1564/2/5
f 1566/1/5 1560/1/5 1559/1/5
f 1567/1/5 1560/1/5 1566/1/5
f 1568/1/5 1562/1/5 1561/1/5
f 1569/1/5 1562/1/5 1568/1/5
f 1570/2/5 1542/2/5 1541/2/5
f 1571/2/5 1542/2/5 1570/2/5
f 1575/3/5 1573/3/5 1572/3/5
f 1576/3/5 1573/3/5 1575/3/5
f 1578/1/5 1575/1/5 1574/1/5
f 1579/1/5 1575/1/5 1578/1/5
f 1580/1/5 1577/1/5 1576/1/5
f 1581/1/5 1577/1/5 1580/1/5
f 1586/1/5 1583/1/5 1582/1/5
f 1587/1/5 1583/1/5 1586/1/5
f 1593/1/5 1591/1/5 1590/1/5
f 1594/1/5 1591/1/5 1593/1/5
f 1597/3/5 1593/3/5 1592/3/5
f 1598/3/5 1593/3/5 1597/3/5
f 1600/3/5 1596/3/5 1595/3/5
f 1601/3/5 1596/3/5 1600/3/5
f 1602/1/5 1599/1/5 1598/1/5
f 1603/1/5 1599/1/5 1602/1/5
f 1604/2/5 1585/2/5 1584/2/5
f 1605/2/5 1585/2/5 1604/2/5
f 1610/2/5 1589/2/5 1588/2/5
f 1611/2/5 1589/2/5 1610/2/5
f 1612/1/5 1607/1/5 1606/1/5
f 1613/1/5 1607/1/5 1612/1/5
f 1616/1/5 1609/1/5 1608/1/5
f 1617/1/5 1609/1/5 1616/1/5
f 1618/3/5 1615/3/5 1614/3/5
f 1619/3/5 1615/3/5 1618/3/5
f 1624/1/5 1621/1/5 1620/1/5
f 1625/1/5 1621/1/5 1624/1/5
f 1629/3/5 1623/3/5 1622/3/5
f 1630/3/5 1623/3/5 1629/3/5
f 1631/3/5 1627/3/5 1626/3/5
f 1632/3/5 1627/3/5 1631/3/5
f 1633/1/5 1629/1/5 1628/1/5
f 1634/1/5 1629/1/5 1633/1/5
f 1640/1/5 1636/1/5 1635/1/5
f 1641/1/5 1636/1/5 1640/1/5
f 1646/3/5 1640/3/5 1639/3/5
f 1647/3/5 1640/3/5 1646/3/5
f 1648/3/5 1643/3/5 1642/3/5
f 1649/3/5 1643/3/5 1648/3/5
f 1654/1/5 1651/1/5 1650/1/5
f 1655/1/5 1651/1/5 1654/1/5
f 1656/1/5 1653/1/5 1652/1/5
f 1657/1/5 1653/1/5 1656/1/5
f 1662/2/5 1638/2/5 1637/2/5
f 1663/2/5 1638/2/5 1662/2/5
f 1664/3/5 1659/3/5 1658/3/5
f 1665/3/5 1659/3/5 1664/3/5
f 1666/3/5 1661/3/5 1660/3/5
f 1667/3/5 1661/3/5 1666/3/5
f 1668/2/5 1645/2/5 1644/2/5
f 1669/2/5 1645/2/5 1668/2/5
f 1674/3/5 1671/3/5 1670/3/5
f 1675/3/5 1671/3/5 1674/3/5
f 1678/3/5 1673/3/5 1672/3/5
f 1679/3/5 1673/3/5 1678/3/5
f 1680/1/5 1677/1/5 1676/1/5
f 1681/1/5 1677/1/5 1680/1/5
f 1686/1/5 1683/1/5 1682/1/5
f 1687/1/5 1683/1/5 1686/1/5
f 1688/1/5 1685/1/5 1684/1/5
f 1689/1/5 1685/1/5 1688/1/5
f 1692/1/5 1691/1/5 1690/1/5
f 1693/1/5 1691/1/5 1692/1/5
f 1702/1/5 1697/1/5 1696/1/5
f 1703/1/5 1697/1/5 1702/1/5
f 1704/1/5 1699/1/5 1698/1/5
f 1705/1/5 1699/1/5 1704/1/5
f 1710/2/5 1695/2/5 1694/2/5
f 1711/2/5 1695/2/5 1710/2/5
f 1712/1/5 1707/1/5 1706/1/5
f 1713/1/5 1707/1/5 1712/1/5
f 1714/1/5 1709/1/5 1708/1/5
f 1715/1/5 1709/1/5 1714/1/5
f 1716/2/5 1701/2/5 1700/2/5
f 1717/2/5 1701/2/5 1716/2/5
f 1720/1/5 1719/1/5 1718/1/5
f 1721/1/5 1719/1/5 1720/1/5
f 1726/1/5 1723/1/5 1722/1/5
f 1727/1/5 1723/1/5 1726/1/5
f 1728/1/5 1725/1/5 1724/1/5
f 1729/1/5 1725/1/5 1728/1/5
f 1734/2/5 1731/2/5 1730/2/5
f 1735/2/5 1731/2/5 1734/2/5
f 1736/2/5 1733/2/5 1732/2/5
f 1737/2/5 1733/2/5 1736/2/5
f 1740/2/5 1739/2/5 1738/2/5
f 1741/2/5 1739/2/5 1740/2/5
f 1742/2/6 1743/2/6 1744/2/6
f 1744/2/6 1743/2/6 1745/2/6
f 1742/2/6 1744/2/6 1746/2/6
f 1746/2/6 1744/2/6 1747/2/6
f 1745/2/6 1743/2/6 1748/2/6
f 1748/2/6 1743/2/6 1749/2/6
f 1742/2/6 1746/2/6 1750/2/6
f 1750/2/6 1746/2/6 1751/2/6
f 1749/2/6 1743/2/6 1752/2/6
f 1752/2/6 1743/2/6 1753/2/6
f 1753/2/6 1743/2/6 1755/2/6
f 1742/2/6 1750/2/6 1756/2/6
f 1756/2/6 1757/2/6 1758/2/6
f 1754/2/6 1755/2/6 1761/2/6
f 1758/2/6 1759/2/6 1762/2/6
f 1760/2/6 1761/2/6 1763/2/6
f 1758/2/6 1762/2/6 1764/2/6
f 1762/2/6 1763/2/6 1764/2/6
f 1742/2/6 1756/2/6 1764/2/6
f 1756/2/6 1758/2/6 1764/2/6
f 1763/2/6 1761/2/6 1765/2/6
f 1764/2/6 1763/2/6 1765/2/6
f 1755/2/6 1743/2/6 1765/2/6
f 1761/2/6 1755/2/6 1765/2/6
f 1766/1/6 1767/1/6 1770/1/6
f 1770/1/6 1767/1/6 1771/1/6
f 1768/1/6 1769/1/6 1772/1/6
f 1772/1/6 1769/1/6 1773/1/6
f 1774/1/6 1775/1/6 1776/1/6
f 1776/1/6 1775/1/6 1777/1/6
f 1778/1/6 1779/1/6 1782/1/6
f 1782/1/6 1779/1/6 1783/1/6
f 1780/1/6 1781/1/6 1784/1/6
f 1784/1/6 1781/1/6 1785/1/6
f 1786/1/6 1787/1/6 1790/1/6
f 1790/1/6 1787/1/6 1791/1/6
f 1788/1/6 1789/1/6 1792/1/6
f 1792/1/6 1789/1/6 1793/1/6
f 1794/1/6 1795/1/6 1796/1/6
f 1796/1/6 1795/1/6 1797/1/6
f 1798/1/6 1799/1/6 1802/1/6
f 1802/1/6 1799/1/6 1803/1/6
f 1800/1/6 1801/1/6 1804/1/6
f 1804/1/6 1801/1/6 1805/1/6
f 1806/1/6 1807/1/6 1810/1/6
f 1810/1/6 1807/1/6 1811/1/6
f 1808/3/6 1809/3/6 1815/3/6
f 1815/3/6 1809/3/6 1816/3/6
f 1812/3/6 1813/3/6 1817/3/6
f 1817/3/6 1813/3/6 1818/3/6
f 1814/1/6 1815/1/6 1819/1/6
f 1819/1/6 1815/1/6 1820/1/6
f 1821/1/6 1822/1/6 1824/1/6
f 1824/1/6 1822/1/6 1825/1/6
f 1823/3/6 1824/3/6 1828/3/6
f 1828/3/6 1824/3/6 1829/3/6
f 1826/3/6 1827/3/6 1830/3/6
f 1830/3/6 1827/3/6 1831/3/6
f 1832/2/6 1833/2/6 1840/2/6
f 1840/2/6 1833/2/6 1841/2/6
f 1834/1/6 1835/1/6 1842/1/6
f 1842/1/6 1835/1/6 1843/1/6
f 1836/1/6 1837/1/6 1844/1/6
f 1844/1/6 1837/1/6 1845/1/6
f 1838/2/6 1839/2/6 1846/2/6
f 1846/2/6 1839/2/6 1847/2/6
f 1848/3/6 1849/3/6 1852/3/6
f 1852/3/6 1849/3/6 1853/3/6
f 1850/3/6 1851/3/6 1854/3/6
f 1854/3/6 1851/3/6 1855/3/6
f 1856/3/6 1857/3/6 1860/3/6
f 1860/3/6 1857/3/6 1861/3/6
f 1858/3/6 1859/3/6 1864/3/6
f 1864/3/6 1859/3/6 1865/3/6
f 1862/1/6 1863/1/6 1866/1/6
f 1866/1/6 1863/1/6 1867/1/6
f 1868/3/6 1869/3/6 1871/3/6
f 1871/3/6 1869/3/6 1872/3/6
f 1872/3/6 1869/3/6 1873/3/6
f 1873/3/6 1869/3/6 1874/3/6
f 1870/1/6 1871/1/6 1878/1/6
f 1871/1/6 1872/1/6 1878/1/6
f 1878/1/6 1872/1/6 1879/1/6
f 1873/1/6 1874/1/6 1880/1/6
f 1874/1/6 1875/1/6 1880/1/6
f 1880/1/6 1875/1/6 1881/1/6
f 1876/1/6 1877/1/6 1884/1/6
f 1884/1/6 1877/1/6 1885/1/6
f 1882/1/6 1883/1/6 1886/1/6
f 1886/1/6 1883/1/6 1887/1/6
f 1888/1/6 1889/1/6 1893/1/6
f 1892/3/6 1893/3/6 1898/3/6
f 1893/1/6 1889/1/6 1898/1/6
f 1898/1/6 1889/1/6 1899/1/6
f 1892/3/6 1898/3/6 1900/3/6
f 1890/2/6 1891/2/6 1902/2/6
f 1902/2/6 1891/2/6 1903/2/6
f 1892/3/6 1900/3/6 1904/3/6
f 1900/1/6 1901/1/6 1905/1/6
f 1904/3/6 1900/3/6 1905/3/6
f 1894/3/6 1895/3/6 1906/3/6
f 1906/3/6 1895/3/6 1907/3/6
f 1896/2/6 1897/2/6 1908/2/6
f 1908/2/6 1897/2/6 1909/2/6
f 1905/1/6 1901/1/6 1910/1/6
f 1910/1/6 1901/1/6 1911/1/6
f 1912/1/6 1913/1/6 1917/1/6
f 1914/1/6 1915/1/6 1918/1/6
f 1918/1/6 1915/1/6 1919/1/6
f 1916/1/6 1917/1/6 1922/1/6
f 1917/1/6 1913/1/6 1923/1/6
f 1922/1/6 1917/1/6 1923/1/6
f 1920/3/6 1921/3/6 1924/3/6
f 1924/3/6 1921/3/6 1925/3/6
f 1926/1/6 1927/1/6 1930/1/6
f 1930/1/6 1927/1/6 1931/1/6
f 1928/1/6 1929/1/6 1935/1/6
f 1935/1/6 1929/1/6 1936/1/6
f 1932/1/6 1933/1/6 1937/1/6
f 1937/1/6 1933/1/6 1938/1/6
f 1934/1/6 1935/1/6 1942/1/6
f 1942/1/6 1935/1/6 1943/1/6
f 1938/1/6 1939/1/6 1944/1/6
f 1944/1/6 1939/1/6 1945/1/6
f 1948/1/6 1949/1/6 1950/1/6
f 1950/1/6 1949/1/6 1951/1/6
f 1940/2/6 1941/2/6 1952/2/6
f 1952/2/6 1941/2/6 1953/2/6
f 1946/2/6 1947/2/6 1958/2/6
f 1958/2/6 1947/2/6 1959/2/6
f 1954/1/6 1955/1/6 1960/1/6
f 1960/1/6 1955/1/6 1961/1/6
f 1956/1/6 1957/1/6 1963/1/6
f 1963/1/6 1957/1/6 1964/1/6
f 1961/1/6 1962/1/6 1965/1/6
f 1965/1/6 1962/1/6 1966/1/6
f 1967/1/6 1968/1/6 1972/1/6
f 1972/1/6 1968/1/6 1973/1/6
f 1971/1/6 1972/1/6 1978/1/6
f 1972/1/6 1973/1/6 1978/1/6
f 1973/1/6 1974/1/6 1978/1/6
f 1978/1/6 1974/1/6 1979/1/6
f 1979/1/6 1974/1/6 1980/1/6
f 1980/1/6 1974/1/6 1981/1/6
f 1977/1/6 1978/1/6 1983/1/6
f 1978/1/6 1979/1/6 1983/1/6
f 1983/1/6 1979/1/6 1984/1/6
f 1981/1/6 1982/1/6 1985/1/6
f 1980/1/6 1981/1/6 1985/1/6
f 1985/1/6 1982/1/6 1986/1/6
f 1977/1/6 1983/1/6 1987/1/6
f 1986/1/6 1982/1/6 1990/1/6
f 1987/1/6 1988/1/6 1991/1/6
f 1977/1/6 1987/1/6 1991/1/6
f 1991/1/6 1988/1/6 1992/1/6
f 1992/1/6 1988/1/6 1993/1/6
f 1989/1/6 1990/1/6 1994/1/6
f 1990/1/6 1982/1/6 1995/1/6
f 1994/1/6 1990/1/6 1995/1/6
f 1995/1/6 1982/1/6 1996/1/6
f 1969/2/6 1970/2/6 1997/2/6
f 1997/2/6 1970/2/6 1998/2/6
f 1992/1/6 1993/1/6 1999/1/6
f 1993/1/6 1994/1/6 1999/1/6
f 1994/1/6 1995/1/6 1999/1/6
f 1999/1/6 1995/1/6 2000/1/6
f 1975/2/6 1976/2/6 2001/2/6
f 2001/2/6 1976/2/6 2002/2/6
f 2000/1/6 1995/1/6 2003/1/6
f 2003/1/6 1995/1/6 2004/1/6
f 2009/3/6 2010/3/6 2012/3/6
f 2012/3/6 2010/3/6 2013/3/6
f 2013/3/6 2010/3/6 2014/3/6
f 2014/3/6 2010/3/6 2015/3/6
f 2011/3/6 2012/3/6 2017/3/6
f 2012/3/6 2013/3/6 2017/3/6
f 2017/3/6 2013/3/6 2018/3/6
f 2015/3/6 2016/3/6 2019/3/6
f 2014/3/6 2015/3/6 2019/3/6
f 2019/3/6 2016/3/6 2020/3/6
f 2011/3/6 2017/3/6 2021/3/6
f 2020/3/6 2016/3/6 2024/3/6
f 2021/3/6 2022/3/6 2025/3/6
f 2011/3/6 2021/3/6 2025/3/6
f 2025/3/6 2022/3/6 2026/3/6
f 2026/3/6 2022/3/6 2027/3/6
f 2023/3/6 2024/3/6 2028/3/6
f 2024/3/6 2016/3/6 2029/3/6
f 2028/3/6 2024/3/6 2029/3/6
f 2029/3/6 2016/3/6 2030/3/6
f 2026/3/6 2027/3/6 2031/3/6
f 2027/3/6 2028/3/6 2031/3/6
f 2028/3/6 2029/3/6 2031/3/6
f 2031/3/6 2029/3/6 2032/3/6
f 2005/2/6 2006/2/6 2033/2/6
f 2033/2/6 2006/2/6 2034/2/6
f 2007/2/6 2008/2/6 2035/2/6
f 2035/2/6 2008/2/6 2036/2/6
f 2041/1/6 2042/1/6 2044/1/6
f 2044/1/6 2042/1/6 2045/1/6
f 2043/1/6 2044/1/6 2047/1/6
f 2045/1/6 2046/1/6 2047/1/6
f 2044/1/6 2045/1/6 2047/1/6
f 2047/1/6 2046/1/6 2048/1/6
f 2048/1/6 2046/1/6 2049/1/6
f 2049/1/6 2046/1/6 2050/1/6
f 2048/1/6 2049/1/6 2051/1/6
f 2051/1/6 2049/1/6 2052/1/6
f 2037/2/6 2038/2/6 2053/2/6
f 2053/2/6 2038/2/6 2054/2/6
f 2039/2/6 2040/2/6 2055/2/6
f 2055/2/6 2040/2/6 2056/2/6
f 2057/2/6 2058/2/6 2061/2/6
f 2061/2/6 2058/2/6 2062/2/6
f 2059/2/6 2060/2/6 2063/2/6
f 2063/2/6 2060/2/6 2064/2/6
f 2065/2/6 2066/2/6 2067/2/6
f 2067/2/6 2066/2/6 2068/2/6
f 2065/2/6 2067/2/6 2069/2/6
f 2068/2/6 2066/2/6 2070/2/6
f 2065/2/6 2069/2/6 2071/2/6
f 2069/2/6 2070/2/6 2071/2/6
f 2070/2/6 2066/2/6 2072/2/6
f 2071/2/6 2070/2/6 2072/2/6
f 2073/2/6 2074/2/6 2075/2/6
f 2075/2/6 2074/2/6 2076/2/6
f 2073/2/6 2075/2/6 2077/2/6
f 2076/2/6 2074/2/6 2078/2/6
f 2073/2/6 2077/2/6 2079/2/6
f 2077/2/6 2078/2/6 2079/2/6
f 2078/2/6 2074/2/6 2080/2/6
f 2079/2/6 2078/2/6 2080/2/6
f 2081/2/6 2082/2/6 2083/2/6
f 2083/2/6 2082/2/6 2084/2/6
f 2081/2/6 2083/2/6 2085/2/6
f 2084/2/6 2082/2/6 2086/2/6
f 2081/2/6 2085/2/6 2087/2/6
f 2085/2/6 2086/2/6 2087/2/6
f 2086/2/6 2082/2/6 2088/2/6
f 2087/2/6 2086/2/6 2088/2/6
f 2089/2/6 2090/2/6 2091/2/6
f 2091/2/6 2090/2/6 2092/2/6
f 2089/2/6 2091/2/6 2093/2/6
f 2092/2/6 2090/2/6 2094/2/6
f 2089/2/6 2093/2/6 2095/2/6
f 2093/2/6 2094/2/6 2095/2/6
f 2094/2/6 2090/2/6 2096/2/6
f 2095/2/6 2094/2/6 2096/2/6
f 2097/2/6 2098/2/6 2099/2/6
f 2099/2/6 2098/2/6 2100/2/6
f 2097/2/6 2099/2/6 2101/2/6
f 2100/2/6 2098/2/6 2102/2/6
f 2097/2/6 2101/2/6 2103/2/6
f 2101/2/6 2102/2/6 2103/2/6
f 2102/2/6 2098/2/6 2104/2/6
f 2103/2/6 2102/2/6 2104/2/6
f 2105/2/6 2106/2/6 2107/2/6
f 2107/2/6 2106/2/6 2108/2/6
f 2105/2/6 2107/2/6 2109/2/6
f 2108/2/6 2106/2/6 2110/2/6
f 2105/2/6 2109/2/6 2111/2/6
f 2109/2/6 2110/2/6 2111/2/6
f 2110/2/6 2106/2/6 2112/2/6
f 2111/2/6 2110/2/6 2112/2/6
f 2113/2/6 2114/2/6 2115/2/6
f 2115/2/6 2114/2/6 2116/2/6
f 2113/2/6 2115/2/6 2117/2/6
f 2116/2/6 2114/2/6 2118/2/6
f 2113/2/6 2117/2/6 2119/2/6
f 2117/2/6 2118/2/6 2119/2/6
f 2118/2/6 2114/2/6 2120/2/6
f 2119/2/6 2118/2/6 2120/2/6
f 2121/2/6 2122/2/6 2123/2/6
f 2123/2/6 2122/2/6 2124/2/6
