# MagicaVoxel @ Ephtracy

# group
o 

# material
mtllib Steel_Ornament_2-0.mtl
usemtl palette

# normals
vn -1 0 0
vn 1 0 0
vn 0 0 1
vn 0 0 -1
vn 0 -1 0
vn 0 1 0

# texcoords
vt 0.615234 0.5
vt 0.642578 0.5
vt 0.673828 0.5
vt 0.677734 0.5
vt 0.701172 0.5
vt 0.705078 0.5
vt 0.740234 0.5
vt 0.759766 0.5
vt 0.763672 0.5
vt 0.951172 0.5

# verts
v 0 0 0
v 0 0 -0.1
v 0 0.1 0.1
v 0 0.1 0
v 0 0.1 -0.1
v 0 0.1 -0.2
v 0 0.2 0.2
v 0 0.2 0.1
v 0 0.2 0
v 0 0.2 -0.1
v 0 0.2 -0.2
v 0 0.2 -0.3
v 0 0.3 0.3
v 0 0.3 0.2
v 0 0.3 0.1
v 0 0.3 0
v 0 0.3 -0.1
v 0 0.3 -0.2
v 0 0.3 -0.3
v 0 0.3 -0.4
v 0 0.4 0.4
v 0 0.4 0.3
v 0 0.4 0.2
v 0 0.4 0.1
v 0 0.4 0
v 0 0.4 -0.1
v 0 0.4 -0.2
v 0 0.4 -0.3
v 0 0.4 -0.4
v 0 0.4 -0.5
v 0 0.5 0.5
v 0 0.5 0.4
v 0 0.5 0.3
v 0 0.5 0.2
v 0 0.5 0.1
v 0 0.5 0
v 0 0.5 -0.1
v 0 0.5 -0.2
v 0 0.5 -0.3
v 0 0.5 -0.4
v 0 0.5 -0.5
v 0 0.5 -0.6
v 0 0.6 0.6
v 0 0.6 0.5
v 0 0.6 0.4
v 0 0.6 0.3
v 0 0.6 0.2
v 0 0.6 0.1
v 0 0.6 0
v 0 0.6 -0.1
v 0 0.6 -0.2
v 0 0.6 -0.3
v 0 0.6 -0.4
v 0 0.6 -0.5
v 0 0.6 -0.6
v 0 0.6 -0.7
v 0 0.7 0.7
v 0 0.7 0.6
v 0 0.7 0.5
v 0 0.7 0.4
v 0 0.7 0.3
v 0 0.7 0.2
v 0 0.7 0.1
v 0 0.7 -0.2
v 0 0.7 -0.3
v 0 0.7 -0.4
v 0 0.7 -0.5
v 0 0.7 -0.6
v 0 0.7 -0.7
v 0 0.7 -0.8
v 0 0.8 0.8
v 0 0.8 0.7
v 0 0.8 0.6
v 0 0.8 0.5
v 0 0.8 0.4
v 0 0.8 0.3
v 0 0.8 0.2
v 0 0.8 0
v 0 0.8 -0.1
v 0 0.8 -0.3
v 0 0.8 -0.4
v 0 0.8 -0.5
v 0 0.8 -0.6
v 0 0.8 -0.7
v 0 0.8 -0.8
v 0 0.8 -0.9
v 0 0.9 0.9
v 0 0.9 0.8
v 0 0.9 0.7
v 0 0.9 0.6
v 0 0.9 0.5
v 0 0.9 0.4
v 0 0.9 0.3
v 0 0.9 0.1
v 0 0.9 0
v 0 0.9 -0.1
v 0 0.9 -0.2
v 0 0.9 -0.4
v 0 0.9 -0.5
v 0 0.9 -0.6
v 0 0.9 -0.7
v 0 0.9 -0.8
v 0 0.9 -0.9
v 0 0.9 -1
v 0 1 1
v 0 1 0.9
v 0 1 0.8
v 0 1 0.7
v 0 1 0.6
v 0 1 0.5
v 0 1 0.4
v 0 1 0.3
v 0 1 0.2
v 0 1 0
v 0 1 -0.1
v 0 1 -0.3
v 0 1 -0.4
v 0 1 -0.5
v 0 1 -0.7
v 0 1 -0.8
v 0 1 -0.9
v 0 1 -1
v 0 1 -1.1
v 0 1.1 1.1
v 0 1.1 1
v 0 1.1 0.9
v 0 1.1 0.8
v 0 1.1 0.7
v 0 1.1 0.6
v 0 1.1 0.5
v 0 1.1 0.4
v 0 1.1 0.3
v 0 1.1 0.2
v 0 1.1 0.1
v 0 1.1 0
v 0 1.1 -0.1
v 0 1.1 -0.2
v 0 1.1 -0.3
v 0 1.1 -0.4
v 0 1.1 -0.5
v 0 1.1 -0.7
v 0 1.1 -0.8
v 0 1.1 -0.9
v 0 1.1 -1
v 0 1.1 -1.1
v 0 1.1 -1.2
v 0 1.2 1.2
v 0 1.2 1.1
v 0 1.2 1
v 0 1.2 0.9
v 0 1.2 0.8
v 0 1.2 0.7
v 0 1.2 0.6
v 0 1.2 0.4
v 0 1.2 0.3
v 0 1.2 0.2
v 0 1.2 0.1
v 0 1.2 0
v 0 1.2 -0.1
v 0 1.2 -0.2
v 0 1.2 -0.3
v 0 1.2 -0.4
v 0 1.2 -0.5
v 0 1.2 -0.7
v 0 1.2 -0.8
v 0 1.2 -0.9
v 0 1.2 -1
v 0 1.2 -1.1
v 0 1.2 -1.2
v 0 1.2 -1.3
v 0 1.3 1.3
v 0 1.3 1.2
v 0 1.3 1.1
v 0 1.3 1
v 0 1.3 0.9
v 0 1.3 0.8
v 0 1.3 0.7
v 0 1.3 0.5
v 0 1.3 0.3
v 0 1.3 0.2
v 0 1.3 0.1
v 0 1.3 0
v 0 1.3 -0.1
v 0 1.3 -0.2
v 0 1.3 -0.3
v 0 1.3 -0.4
v 0 1.3 -0.6
v 0 1.3 -0.8
v 0 1.3 -0.9
v 0 1.3 -1
v 0 1.3 -1.1
v 0 1.3 -1.2
v 0 1.3 -1.3
v 0 1.3 -1.4
v 0 1.4 1.4
v 0 1.4 1.3
v 0 1.4 1.2
v 0 1.4 1.1
v 0 1.4 1
v 0 1.4 0.9
v 0 1.4 0.8
v 0 1.4 0.6
v 0 1.4 0.5
v 0 1.4 0.4
v 0 1.4 0.3
v 0 1.4 0.2
v 0 1.4 0.1
v 0 1.4 0
v 0 1.4 -0.1
v 0 1.4 -0.2
v 0 1.4 -0.3
v 0 1.4 -0.4
v 0 1.4 -0.5
v 0 1.4 -0.6
v 0 1.4 -0.7
v 0 1.4 -0.9
v 0 1.4 -1
v 0 1.4 -1.1
v 0 1.4 -1.2
v 0 1.4 -1.3
v 0 1.4 -1.4
v 0 1.4 -1.5
v 0 1.5 1.4
v 0 1.5 1.3
v 0 1.5 1.2
v 0 1.5 1.1
v 0 1.5 1
v 0 1.5 0.9
v 0 1.5 0.8
v 0 1.5 0.6
v 0 1.5 0.5
v 0 1.5 0.4
v 0 1.5 0.3
v 0 1.5 0.2
v 0 1.5 0.1
v 0 1.5 0
v 0 1.5 -0.1
v 0 1.5 -0.2
v 0 1.5 -0.3
v 0 1.5 -0.4
v 0 1.5 -0.5
v 0 1.5 -0.6
v 0 1.5 -0.7
v 0 1.5 -0.9
v 0 1.5 -1
v 0 1.5 -1.1
v 0 1.5 -1.2
v 0 1.5 -1.3
v 0 1.5 -1.4
v 0 1.5 -1.5
v 0 1.6 1.3
v 0 1.6 1.2
v 0 1.6 1.1
v 0 1.6 1
v 0 1.6 0.9
v 0 1.6 0.8
v 0 1.6 0.7
v 0 1.6 0.5
v 0 1.6 0.3
v 0 1.6 0.2
v 0 1.6 0.1
v 0 1.6 0
v 0 1.6 -0.1
v 0 1.6 -0.2
v 0 1.6 -0.3
v 0 1.6 -0.4
v 0 1.6 -0.6
v 0 1.6 -0.8
v 0 1.6 -0.9
v 0 1.6 -1
v 0 1.6 -1.1
v 0 1.6 -1.2
v 0 1.6 -1.3
v 0 1.6 -1.4
v 0 1.7 1.2
v 0 1.7 1.1
v 0 1.7 1
v 0 1.7 0.9
v 0 1.7 0.8
v 0 1.7 0.7
v 0 1.7 0.6
v 0 1.7 0.4
v 0 1.7 0.3
v 0 1.7 0.2
v 0 1.7 0.1
v 0 1.7 0
v 0 1.7 -0.1
v 0 1.7 -0.2
v 0 1.7 -0.3
v 0 1.7 -0.4
v 0 1.7 -0.5
v 0 1.7 -0.7
v 0 1.7 -0.8
v 0 1.7 -0.9
v 0 1.7 -1
v 0 1.7 -1.1
v 0 1.7 -1.2
v 0 1.7 -1.3
v 0 1.8 1.1
v 0 1.8 1
v 0 1.8 0.9
v 0 1.8 0.8
v 0 1.8 0.7
v 0 1.8 0.6
v 0 1.8 0.5
v 0 1.8 0.4
v 0 1.8 0.3
v 0 1.8 0.2
v 0 1.8 0.1
v 0 1.8 0
v 0 1.8 -0.1
v 0 1.8 -0.2
v 0 1.8 -0.3
v 0 1.8 -0.4
v 0 1.8 -0.5
v 0 1.8 -0.6
v 0 1.8 -0.7
v 0 1.8 -0.8
v 0 1.8 -0.9
v 0 1.8 -1
v 0 1.8 -1.1
v 0 1.8 -1.2
v 0 1.9 1
v 0 1.9 0.9
v 0 1.9 0.8
v 0 1.9 0.7
v 0 1.9 0.6
v 0 1.9 0.5
v 0 1.9 0.4
v 0 1.9 0.3
v 0 1.9 0.2
v 0 1.9 0
v 0 1.9 -0.1
v 0 1.9 -0.2
v 0 1.9 -0.3
v 0 1.9 -0.4
v 0 1.9 -0.5
v 0 1.9 -0.6
v 0 1.9 -0.7
v 0 1.9 -0.8
v 0 1.9 -0.9
v 0 1.9 -1
v 0 1.9 -1.1
v 0 2 0.9
v 0 2 0.8
v 0 2 0.7
v 0 2 0.6
v 0 2 0.5
v 0 2 0.4
v 0 2 0.3
v 0 2 0.1
v 0 2 0
v 0 2 -0.1
v 0 2 -0.2
v 0 2 -0.4
v 0 2 -0.5
v 0 2 -0.6
v 0 2 -0.7
v 0 2 -0.8
v 0 2 -0.9
v 0 2 -1
v 0 2.1 0.8
v 0 2.1 0.7
v 0 2.1 0.6
v 0 2.1 0.5
v 0 2.1 0.4
v 0 2.1 0.3
v 0 2.1 0.2
v 0 2.1 0
v 0 2.1 -0.1
v 0 2.1 -0.3
v 0 2.1 -0.4
v 0 2.1 -0.5
v 0 2.1 -0.6
v 0 2.1 -0.7
v 0 2.1 -0.8
v 0 2.1 -0.9
v 0 2.2 0.7
v 0 2.2 0.6
v 0 2.2 0.5
v 0 2.2 0.4
v 0 2.2 0.3
v 0 2.2 0.2
v 0 2.2 0.1
v 0 2.2 -0.2
v 0 2.2 -0.3
v 0 2.2 -0.4
v 0 2.2 -0.5
v 0 2.2 -0.6
v 0 2.2 -0.7
v 0 2.2 -0.8
v 0 2.3 0.6
v 0 2.3 0.5
v 0 2.3 0.4
v 0 2.3 0.3
v 0 2.3 0.2
v 0 2.3 0.1
v 0 2.3 0
v 0 2.3 -0.1
v 0 2.3 -0.2
v 0 2.3 -0.3
v 0 2.3 -0.4
v 0 2.3 -0.5
v 0 2.3 -0.6
v 0 2.3 -0.7
v 0 2.4 0.5
v 0 2.4 0.4
v 0 2.4 0.3
v 0 2.4 0.2
v 0 2.4 0.1
v 0 2.4 0
v 0 2.4 -0.1
v 0 2.4 -0.2
v 0 2.4 -0.3
v 0 2.4 -0.4
v 0 2.4 -0.5
v 0 2.4 -0.6
v 0 2.5 0.4
v 0 2.5 0.3
v 0 2.5 0.2
v 0 2.5 0.1
v 0 2.5 0
v 0 2.5 -0.1
v 0 2.5 -0.2
v 0 2.5 -0.3
v 0 2.5 -0.4
v 0 2.5 -0.5
v 0 2.6 0.3
v 0 2.6 0.2
v 0 2.6 0.1
v 0 2.6 0
v 0 2.6 -0.1
v 0 2.6 -0.2
v 0 2.6 -0.3
v 0 2.6 -0.4
v 0 2.7 0.2
v 0 2.7 0.1
v 0 2.7 0
v 0 2.7 -0.1
v 0 2.7 -0.2
v 0 2.7 -0.3
v 0 2.8 0.1
v 0 2.8 0
v 0 2.8 -0.1
v 0 2.8 -0.2
v 0 2.9 0
v 0 2.9 -0.1
v 0.1 0 0
v 0.1 0 -0.1
v 0.1 0.1 0.1
v 0.1 0.1 0
v 0.1 0.1 -0.1
v 0.1 0.1 -0.2
v 0.1 0.2 0.2
v 0.1 0.2 0.1
v 0.1 0.2 0
v 0.1 0.2 -0.1
v 0.1 0.2 -0.2
v 0.1 0.2 -0.3
v 0.1 0.3 0.3
v 0.1 0.3 0.2
v 0.1 0.3 0.1
v 0.1 0.3 0
v 0.1 0.3 -0.1
v 0.1 0.3 -0.2
v 0.1 0.3 -0.3
v 0.1 0.3 -0.4
v 0.1 0.4 0.4
v 0.1 0.4 0.3
v 0.1 0.4 0.2
v 0.1 0.4 0.1
v 0.1 0.4 0
v 0.1 0.4 -0.1
v 0.1 0.4 -0.2
v 0.1 0.4 -0.3
v 0.1 0.4 -0.4
v 0.1 0.4 -0.5
v 0.1 0.5 0.5
v 0.1 0.5 0.4
v 0.1 0.5 0.3
v 0.1 0.5 0.2
v 0.1 0.5 0.1
v 0.1 0.5 0
v 0.1 0.5 -0.1
v 0.1 0.5 -0.2
v 0.1 0.5 -0.3
v 0.1 0.5 -0.4
v 0.1 0.5 -0.5
v 0.1 0.5 -0.6
v 0.1 0.6 0.6
v 0.1 0.6 0.5
v 0.1 0.6 0.4
v 0.1 0.6 0.3
v 0.1 0.6 0.2
v 0.1 0.6 0.1
v 0.1 0.6 0
v 0.1 0.6 -0.1
v 0.1 0.6 -0.2
v 0.1 0.6 -0.3
v 0.1 0.6 -0.4
v 0.1 0.6 -0.5
v 0.1 0.6 -0.6
v 0.1 0.6 -0.7
v 0.1 0.7 0.7
v 0.1 0.7 0.6
v 0.1 0.7 0.5
v 0.1 0.7 0.4
v 0.1 0.7 0.3
v 0.1 0.7 0.2
v 0.1 0.7 0.1
v 0.1 0.7 -0.2
v 0.1 0.7 -0.3
v 0.1 0.7 -0.4
v 0.1 0.7 -0.5
v 0.1 0.7 -0.6
v 0.1 0.7 -0.7
v 0.1 0.7 -0.8
v 0.1 0.8 0.8
v 0.1 0.8 0.7
v 0.1 0.8 0.6
v 0.1 0.8 0.5
v 0.1 0.8 0.4
v 0.1 0.8 0.3
v 0.1 0.8 0.2
v 0.1 0.8 0
v 0.1 0.8 -0.1
v 0.1 0.8 -0.3
v 0.1 0.8 -0.4
v 0.1 0.8 -0.5
v 0.1 0.8 -0.6
v 0.1 0.8 -0.7
v 0.1 0.8 -0.8
v 0.1 0.8 -0.9
v 0.1 0.9 0.9
v 0.1 0.9 0.8
v 0.1 0.9 0.7
v 0.1 0.9 0.6
v 0.1 0.9 0.5
v 0.1 0.9 0.4
v 0.1 0.9 0.3
v 0.1 0.9 0.1
v 0.1 0.9 0
v 0.1 0.9 -0.1
v 0.1 0.9 -0.2
v 0.1 0.9 -0.4
v 0.1 0.9 -0.5
v 0.1 0.9 -0.6
v 0.1 0.9 -0.7
v 0.1 0.9 -0.8
v 0.1 0.9 -0.9
v 0.1 0.9 -1
v 0.1 1 1
v 0.1 1 0.9
v 0.1 1 0.8
v 0.1 1 0.7
v 0.1 1 0.6
v 0.1 1 0.5
v 0.1 1 0.4
v 0.1 1 0.3
v 0.1 1 0.2
v 0.1 1 0
v 0.1 1 -0.1
v 0.1 1 -0.3
v 0.1 1 -0.4
v 0.1 1 -0.5
v 0.1 1 -0.7
v 0.1 1 -0.8
v 0.1 1 -0.9
v 0.1 1 -1
v 0.1 1 -1.1
v 0.1 1.1 1.1
v 0.1 1.1 1
v 0.1 1.1 0.9
v 0.1 1.1 0.8
v 0.1 1.1 0.7
v 0.1 1.1 0.6
v 0.1 1.1 0.5
v 0.1 1.1 0.4
v 0.1 1.1 0.3
v 0.1 1.1 0.2
v 0.1 1.1 0.1
v 0.1 1.1 0
v 0.1 1.1 -0.1
v 0.1 1.1 -0.2
v 0.1 1.1 -0.3
v 0.1 1.1 -0.4
v 0.1 1.1 -0.5
v 0.1 1.1 -0.7
v 0.1 1.1 -0.8
v 0.1 1.1 -0.9
v 0.1 1.1 -1
v 0.1 1.1 -1.1
v 0.1 1.1 -1.2
v 0.1 1.2 1.2
v 0.1 1.2 1.1
v 0.1 1.2 1
v 0.1 1.2 0.9
v 0.1 1.2 0.8
v 0.1 1.2 0.7
v 0.1 1.2 0.6
v 0.1 1.2 0.4
v 0.1 1.2 0.3
v 0.1 1.2 0.2
v 0.1 1.2 0.1
v 0.1 1.2 0
v 0.1 1.2 -0.1
v 0.1 1.2 -0.2
v 0.1 1.2 -0.3
v 0.1 1.2 -0.4
v 0.1 1.2 -0.5
v 0.1 1.2 -0.7
v 0.1 1.2 -0.8
v 0.1 1.2 -0.9
v 0.1 1.2 -1
v 0.1 1.2 -1.1
v 0.1 1.2 -1.2
v 0.1 1.2 -1.3
v 0.1 1.3 1.3
v 0.1 1.3 1.2
v 0.1 1.3 1.1
v 0.1 1.3 1
v 0.1 1.3 0.9
v 0.1 1.3 0.8
v 0.1 1.3 0.7
v 0.1 1.3 0.5
v 0.1 1.3 0.3
v 0.1 1.3 0.2
v 0.1 1.3 0.1
v 0.1 1.3 0
v 0.1 1.3 -0.1
v 0.1 1.3 -0.2
v 0.1 1.3 -0.3
v 0.1 1.3 -0.4
v 0.1 1.3 -0.6
v 0.1 1.3 -0.8
v 0.1 1.3 -0.9
v 0.1 1.3 -1
v 0.1 1.3 -1.1
v 0.1 1.3 -1.2
v 0.1 1.3 -1.3
v 0.1 1.3 -1.4
v 0.1 1.4 1.4
v 0.1 1.4 1.3
v 0.1 1.4 1.2
v 0.1 1.4 1.1
v 0.1 1.4 1
v 0.1 1.4 0.9
v 0.1 1.4 0.8
v 0.1 1.4 0.6
v 0.1 1.4 0.5
v 0.1 1.4 0.4
v 0.1 1.4 0.3
v 0.1 1.4 0.2
v 0.1 1.4 0.1
v 0.1 1.4 0
v 0.1 1.4 -0.1
v 0.1 1.4 -0.2
v 0.1 1.4 -0.3
v 0.1 1.4 -0.4
v 0.1 1.4 -0.5
v 0.1 1.4 -0.6
v 0.1 1.4 -0.7
v 0.1 1.4 -0.9
v 0.1 1.4 -1
v 0.1 1.4 -1.1
v 0.1 1.4 -1.2
v 0.1 1.4 -1.3
v 0.1 1.4 -1.4
v 0.1 1.4 -1.5
v 0.1 1.5 1.4
v 0.1 1.5 1.3
v 0.1 1.5 1.2
v 0.1 1.5 1.1
v 0.1 1.5 1
v 0.1 1.5 0.9
v 0.1 1.5 0.8
v 0.1 1.5 0.6
v 0.1 1.5 0.5
v 0.1 1.5 0.4
v 0.1 1.5 0.3
v 0.1 1.5 0.2
v 0.1 1.5 0.1
v 0.1 1.5 0
v 0.1 1.5 -0.1
v 0.1 1.5 -0.2
v 0.1 1.5 -0.3
v 0.1 1.5 -0.4
v 0.1 1.5 -0.5
v 0.1 1.5 -0.6
v 0.1 1.5 -0.7
v 0.1 1.5 -0.9
v 0.1 1.5 -1
v 0.1 1.5 -1.1
v 0.1 1.5 -1.2
v 0.1 1.5 -1.3
v 0.1 1.5 -1.4
v 0.1 1.5 -1.5
v 0.1 1.6 1.3
v 0.1 1.6 1.2
v 0.1 1.6 1.1
v 0.1 1.6 1
v 0.1 1.6 0.9
v 0.1 1.6 0.8
v 0.1 1.6 0.7
v 0.1 1.6 0.5
v 0.1 1.6 0.3
v 0.1 1.6 0.2
v 0.1 1.6 0.1
v 0.1 1.6 0
v 0.1 1.6 -0.1
v 0.1 1.6 -0.2
v 0.1 1.6 -0.3
v 0.1 1.6 -0.4
v 0.1 1.6 -0.6
v 0.1 1.6 -0.8
v 0.1 1.6 -0.9
v 0.1 1.6 -1
v 0.1 1.6 -1.1
v 0.1 1.6 -1.2
v 0.1 1.6 -1.3
v 0.1 1.6 -1.4
v 0.1 1.7 1.2
v 0.1 1.7 1.1
v 0.1 1.7 1
v 0.1 1.7 0.9
v 0.1 1.7 0.8
v 0.1 1.7 0.7
v 0.1 1.7 0.6
v 0.1 1.7 0.4
v 0.1 1.7 0.3
v 0.1 1.7 0.2
v 0.1 1.7 0.1
v 0.1 1.7 0
v 0.1 1.7 -0.1
v 0.1 1.7 -0.2
v 0.1 1.7 -0.3
v 0.1 1.7 -0.4
v 0.1 1.7 -0.5
v 0.1 1.7 -0.7
v 0.1 1.7 -0.8
v 0.1 1.7 -0.9
v 0.1 1.7 -1
v 0.1 1.7 -1.1
v 0.1 1.7 -1.2
v 0.1 1.7 -1.3
v 0.1 1.8 1.1
v 0.1 1.8 1
v 0.1 1.8 0.9
v 0.1 1.8 0.8
v 0.1 1.8 0.7
v 0.1 1.8 0.6
v 0.1 1.8 0.5
v 0.1 1.8 0.4
v 0.1 1.8 0.3
v 0.1 1.8 0.2
v 0.1 1.8 0.1
v 0.1 1.8 0
v 0.1 1.8 -0.1
v 0.1 1.8 -0.2
v 0.1 1.8 -0.3
v 0.1 1.8 -0.4
v 0.1 1.8 -0.5
v 0.1 1.8 -0.6
v 0.1 1.8 -0.7
v 0.1 1.8 -0.8
v 0.1 1.8 -0.9
v 0.1 1.8 -1
v 0.1 1.8 -1.1
v 0.1 1.8 -1.2
v 0.1 1.9 1
v 0.1 1.9 0.9
v 0.1 1.9 0.8
v 0.1 1.9 0.7
v 0.1 1.9 0.6
v 0.1 1.9 0.5
v 0.1 1.9 0.4
v 0.1 1.9 0.3
v 0.1 1.9 0.2
v 0.1 1.9 0
v 0.1 1.9 -0.1
v 0.1 1.9 -0.2
v 0.1 1.9 -0.3
v 0.1 1.9 -0.4
v 0.1 1.9 -0.5
v 0.1 1.9 -0.6
v 0.1 1.9 -0.7
v 0.1 1.9 -0.8
v 0.1 1.9 -0.9
v 0.1 1.9 -1
v 0.1 1.9 -1.1
v 0.1 2 0.9
v 0.1 2 0.8
v 0.1 2 0.7
v 0.1 2 0.6
v 0.1 2 0.5
v 0.1 2 0.4
v 0.1 2 0.3
v 0.1 2 0.1
v 0.1 2 0
v 0.1 2 -0.1
v 0.1 2 -0.2
v 0.1 2 -0.4
v 0.1 2 -0.5
v 0.1 2 -0.6
v 0.1 2 -0.7
v 0.1 2 -0.8
v 0.1 2 -0.9
v 0.1 2 -1
v 0.1 2.1 0.8
v 0.1 2.1 0.7
v 0.1 2.1 0.6
v 0.1 2.1 0.5
v 0.1 2.1 0.4
v 0.1 2.1 0.3
v 0.1 2.1 0.2
v 0.1 2.1 0
v 0.1 2.1 -0.1
v 0.1 2.1 -0.3
v 0.1 2.1 -0.4
v 0.1 2.1 -0.5
v 0.1 2.1 -0.6
v 0.1 2.1 -0.7
v 0.1 2.1 -0.8
v 0.1 2.1 -0.9
v 0.1 2.2 0.7
v 0.1 2.2 0.6
v 0.1 2.2 0.5
v 0.1 2.2 0.4
v 0.1 2.2 0.3
v 0.1 2.2 0.2
v 0.1 2.2 0.1
v 0.1 2.2 -0.2
v 0.1 2.2 -0.3
v 0.1 2.2 -0.4
v 0.1 2.2 -0.5
v 0.1 2.2 -0.6
v 0.1 2.2 -0.7
v 0.1 2.2 -0.8
v 0.1 2.3 0.6
v 0.1 2.3 0.5
v 0.1 2.3 0.4
v 0.1 2.3 0.3
v 0.1 2.3 0.2
v 0.1 2.3 0.1
v 0.1 2.3 0
v 0.1 2.3 -0.1
v 0.1 2.3 -0.2
v 0.1 2.3 -0.3
v 0.1 2.3 -0.4
v 0.1 2.3 -0.5
v 0.1 2.3 -0.6
v 0.1 2.3 -0.7
v 0.1 2.4 0.5
v 0.1 2.4 0.4
v 0.1 2.4 0.3
v 0.1 2.4 0.2
v 0.1 2.4 0.1
v 0.1 2.4 0
v 0.1 2.4 -0.1
v 0.1 2.4 -0.2
v 0.1 2.4 -0.3
v 0.1 2.4 -0.4
v 0.1 2.4 -0.5
v 0.1 2.4 -0.6
v 0.1 2.5 0.4
v 0.1 2.5 0.3
v 0.1 2.5 0.2
v 0.1 2.5 0.1
v 0.1 2.5 0
v 0.1 2.5 -0.1
v 0.1 2.5 -0.2
v 0.1 2.5 -0.3
v 0.1 2.5 -0.4
v 0.1 2.5 -0.5
v 0.1 2.6 0.3
v 0.1 2.6 0.2
v 0.1 2.6 0.1
v 0.1 2.6 0
v 0.1 2.6 -0.1
v 0.1 2.6 -0.2
v 0.1 2.6 -0.3
v 0.1 2.6 -0.4
v 0.1 2.7 0.2
v 0.1 2.7 0.1
v 0.1 2.7 0
v 0.1 2.7 -0.1
v 0.1 2.7 -0.2
v 0.1 2.7 -0.3
v 0.1 2.8 0.1
v 0.1 2.8 0
v 0.1 2.8 -0.1
v 0.1 2.8 -0.2
v 0.1 2.9 0
v 0.1 2.9 -0.1
v 0 1.4 1.4
v 0 1.5 1.4
v 0.1 1.4 1.4
v 0.1 1.5 1.4
v 0 1.3 1.3
v 0 1.4 1.3
v 0 1.5 1.3
v 0 1.6 1.3
v 0.1 1.3 1.3
v 0.1 1.4 1.3
v 0.1 1.5 1.3
v 0.1 1.6 1.3
v 0 1.2 1.2
v 0 1.3 1.2
v 0 1.6 1.2
v 0 1.7 1.2
v 0.1 1.2 1.2
v 0.1 1.3 1.2
v 0.1 1.6 1.2
v 0.1 1.7 1.2
v 0 1.1 1.1
v 0 1.2 1.1
v 0 1.4 1.1
v 0 1.5 1.1
v 0 1.7 1.1
v 0 1.8 1.1
v 0.1 1.1 1.1
v 0.1 1.2 1.1
v 0.1 1.4 1.1
v 0.1 1.5 1.1
v 0.1 1.7 1.1
v 0.1 1.8 1.1
v 0 1 1
v 0 1.1 1
v 0 1.3 1
v 0 1.4 1
v 0 1.5 1
v 0 1.6 1
v 0 1.8 1
v 0 1.9 1
v 0.1 1 1
v 0.1 1.1 1
v 0.1 1.3 1
v 0.1 1.4 1
v 0.1 1.5 1
v 0.1 1.6 1
v 0.1 1.8 1
v 0.1 1.9 1
v 0 0.9 0.9
v 0 1 0.9
v 0 1.2 0.9
v 0 1.3 0.9
v 0 1.6 0.9
v 0 1.7 0.9
v 0 1.9 0.9
v 0 2 0.9
v 0.1 0.9 0.9
v 0.1 1 0.9
v 0.1 1.2 0.9
v 0.1 1.3 0.9
v 0.1 1.6 0.9
v 0.1 1.7 0.9
v 0.1 1.9 0.9
v 0.1 2 0.9
v 0 0.8 0.8
v 0 0.9 0.8
v 0 1.1 0.8
v 0 1.2 0.8
v 0 1.7 0.8
v 0 1.8 0.8
v 0 2 0.8
v 0 2.1 0.8
v 0.1 0.8 0.8
v 0.1 0.9 0.8
v 0.1 1.1 0.8
v 0.1 1.2 0.8
v 0.1 1.7 0.8
v 0.1 1.8 0.8
v 0.1 2 0.8
v 0.1 2.1 0.8
v 0 0.7 0.7
v 0 0.8 0.7
v 0 1 0.7
v 0 1.1 0.7
v 0 1.8 0.7
v 0 1.9 0.7
v 0 2.1 0.7
v 0 2.2 0.7
v 0.1 0.7 0.7
v 0.1 0.8 0.7
v 0.1 1 0.7
v 0.1 1.1 0.7
v 0.1 1.8 0.7
v 0.1 1.9 0.7
v 0.1 2.1 0.7
v 0.1 2.2 0.7
v 0 0.6 0.6
v 0 0.7 0.6
v 0 0.9 0.6
v 0 1 0.6
v 0 1.4 0.6
v 0 1.5 0.6
v 0 1.9 0.6
v 0 2 0.6
v 0 2.2 0.6
v 0 2.3 0.6
v 0.1 0.6 0.6
v 0.1 0.7 0.6
v 0.1 0.9 0.6
v 0.1 1 0.6
v 0.1 1.4 0.6
v 0.1 1.5 0.6
v 0.1 1.9 0.6
v 0.1 2 0.6
v 0.1 2.2 0.6
v 0.1 2.3 0.6
v 0 0.5 0.5
v 0 0.6 0.5
v 0 0.8 0.5
v 0 0.9 0.5
v 0 1.3 0.5
v 0 1.4 0.5
v 0 1.5 0.5
v 0 1.6 0.5
v 0 2 0.5
v 0 2.1 0.5
v 0 2.3 0.5
v 0 2.4 0.5
v 0.1 0.5 0.5
v 0.1 0.6 0.5
v 0.1 0.8 0.5
v 0.1 0.9 0.5
v 0.1 1.3 0.5
v 0.1 1.4 0.5
v 0.1 1.5 0.5
v 0.1 1.6 0.5
v 0.1 2 0.5
v 0.1 2.1 0.5
v 0.1 2.3 0.5
v 0.1 2.4 0.5
v 0 0.4 0.4
v 0 0.5 0.4
v 0 0.7 0.4
v 0 0.8 0.4
v 0 1.1 0.4
v 0 1.2 0.4
v 0 1.7 0.4
v 0 1.8 0.4
v 0 2.1 0.4
v 0 2.2 0.4
v 0 2.4 0.4
v 0 2.5 0.4
v 0.1 0.4 0.4
v 0.1 0.5 0.4
v 0.1 0.7 0.4
v 0.1 0.8 0.4
v 0.1 1.1 0.4
v 0.1 1.2 0.4
v 0.1 1.7 0.4
v 0.1 1.8 0.4
v 0.1 2.1 0.4
v 0.1 2.2 0.4
v 0.1 2.4 0.4
v 0.1 2.5 0.4
v 0 0.3 0.3
v 0 0.4 0.3
v 0 0.6 0.3
v 0 0.7 0.3
v 0 1.2 0.3
v 0 1.3 0.3
v 0 1.6 0.3
v 0 1.7 0.3
v 0 2.2 0.3
v 0 2.3 0.3
v 0 2.5 0.3
v 0 2.6 0.3
v 0.1 0.3 0.3
v 0.1 0.4 0.3
v 0.1 0.6 0.3
v 0.1 0.7 0.3
v 0.1 1.2 0.3
v 0.1 1.3 0.3
v 0.1 1.6 0.3
v 0.1 1.7 0.3
v 0.1 2.2 0.3
v 0.1 2.3 0.3
v 0.1 2.5 0.3
v 0.1 2.6 0.3
v 0 0.2 0.2
v 0 0.3 0.2
v 0 0.5 0.2
v 0 0.6 0.2
v 0 1.3 0.2
v 0 1.4 0.2
v 0 1.5 0.2
v 0 1.6 0.2
v 0 2.3 0.2
v 0 2.4 0.2
v 0 2.6 0.2
v 0 2.7 0.2
v 0.1 0.2 0.2
v 0.1 0.3 0.2
v 0.1 0.5 0.2
v 0.1 0.6 0.2
v 0.1 1.3 0.2
v 0.1 1.4 0.2
v 0.1 1.5 0.2
v 0.1 1.6 0.2
v 0.1 2.3 0.2
v 0.1 2.4 0.2
v 0.1 2.6 0.2
v 0.1 2.7 0.2
v 0 0.1 0.1
v 0 0.2 0.1
v 0 0.4 0.1
v 0 0.5 0.1
v 0 0.9 0.1
v 0 1.1 0.1
v 0 1.4 0.1
v 0 1.5 0.1
v 0 1.8 0.1
v 0 2 0.1
v 0 2.4 0.1
v 0 2.5 0.1
v 0 2.7 0.1
v 0 2.8 0.1
v 0.1 0.1 0.1
v 0.1 0.2 0.1
v 0.1 0.4 0.1
v 0.1 0.5 0.1
v 0.1 0.9 0.1
v 0.1 1.1 0.1
v 0.1 1.4 0.1
v 0.1 1.5 0.1
v 0.1 1.8 0.1
v 0.1 2 0.1
v 0.1 2.4 0.1
v 0.1 2.5 0.1
v 0.1 2.7 0.1
v 0.1 2.8 0.1
v 0 0 0
v 0 0.1 0
v 0 0.3 0
v 0 0.4 0
v 0 0.8 0
v 0 0.9 0
v 0 2 0
v 0 2.1 0
v 0 2.5 0
v 0 2.6 0
v 0 2.8 0
v 0 2.9 0
v 0.1 0 0
v 0.1 0.1 0
v 0.1 0.3 0
v 0.1 0.4 0
v 0.1 0.8 0
v 0.1 0.9 0
v 0.1 2 0
v 0.1 2.1 0
v 0.1 2.5 0
v 0.1 2.6 0
v 0.1 2.8 0
v 0.1 2.9 0
v 0 0.2 -0.1
v 0 0.3 -0.1
v 0 0.5 -0.1
v 0 0.6 -0.1
v 0 1 -0.1
v 0 1.1 -0.1
v 0 1.2 -0.1
v 0 1.3 -0.1
v 0 1.4 -0.1
v 0 1.5 -0.1
v 0 1.6 -0.1
v 0 1.7 -0.1
v 0 1.8 -0.1
v 0 1.9 -0.1
v 0 2.3 -0.1
v 0 2.4 -0.1
v 0 2.6 -0.1
v 0 2.7 -0.1
v 0.1 0.2 -0.1
v 0.1 0.3 -0.1
v 0.1 0.5 -0.1
v 0.1 0.6 -0.1
v 0.1 1 -0.1
v 0.1 1.1 -0.1
v 0.1 1.2 -0.1
v 0.1 1.3 -0.1
v 0.1 1.4 -0.1
v 0.1 1.5 -0.1
v 0.1 1.6 -0.1
v 0.1 1.7 -0.1
v 0.1 1.8 -0.1
v 0.1 1.9 -0.1
v 0.1 2.3 -0.1
v 0.1 2.4 -0.1
v 0.1 2.6 -0.1
v 0.1 2.7 -0.1
v 0 0.3 -0.2
v 0 0.4 -0.2
v 0 0.6 -0.2
v 0 0.7 -0.2
v 0 1.1 -0.2
v 0 1.2 -0.2
v 0 1.7 -0.2
v 0 1.8 -0.2
v 0 2.2 -0.2
v 0 2.3 -0.2
v 0 2.5 -0.2
v 0 2.6 -0.2
v 0.1 0.3 -0.2
v 0.1 0.4 -0.2
v 0.1 0.6 -0.2
v 0.1 0.7 -0.2
v 0.1 1.1 -0.2
v 0.1 1.2 -0.2
v 0.1 1.7 -0.2
v 0.1 1.8 -0.2
v 0.1 2.2 -0.2
v 0.1 2.3 -0.2
v 0.1 2.5 -0.2
v 0.1 2.6 -0.2
v 0 0.4 -0.3
v 0 0.5 -0.3
v 0 0.7 -0.3
v 0 0.8 -0.3
v 0 1 -0.3
v 0 1.1 -0.3
v 0 1.8 -0.3
v 0 1.9 -0.3
v 0 2.1 -0.3
v 0 2.2 -0.3
v 0 2.4 -0.3
v 0 2.5 -0.3
v 0.1 0.4 -0.3
v 0.1 0.5 -0.3
v 0.1 0.7 -0.3
v 0.1 0.8 -0.3
v 0.1 1 -0.3
v 0.1 1.1 -0.3
v 0.1 1.8 -0.3
v 0.1 1.9 -0.3
v 0.1 2.1 -0.3
v 0.1 2.2 -0.3
v 0.1 2.4 -0.3
v 0.1 2.5 -0.3
v 0 0.5 -0.4
v 0 0.6 -0.4
v 0 0.8 -0.4
v 0 0.9 -0.4
v 0 1 -0.4
v 0 1.3 -0.4
v 0 1.4 -0.4
v 0 1.5 -0.4
v 0 1.6 -0.4
v 0 1.9 -0.4
v 0 2 -0.4
v 0 2.1 -0.4
v 0 2.3 -0.4
v 0 2.4 -0.4
v 0.1 0.5 -0.4
v 0.1 0.6 -0.4
v 0.1 0.8 -0.4
v 0.1 0.9 -0.4
v 0.1 1 -0.4
v 0.1 1.3 -0.4
v 0.1 1.4 -0.4
v 0.1 1.5 -0.4
v 0.1 1.6 -0.4
v 0.1 1.9 -0.4
v 0.1 2 -0.4
v 0.1 2.1 -0.4
v 0.1 2.3 -0.4
v 0.1 2.4 -0.4
v 0 0.6 -0.5
v 0 0.7 -0.5
v 0 1.4 -0.5
v 0 1.5 -0.5
v 0 2.2 -0.5
v 0 2.3 -0.5
v 0.1 0.6 -0.5
v 0.1 0.7 -0.5
v 0.1 1.4 -0.5
v 0.1 1.5 -0.5
v 0.1 2.2 -0.5
v 0.1 2.3 -0.5
v 0 0.7 -0.6
v 0 0.8 -0.6
v 0 2.1 -0.6
v 0 2.2 -0.6
v 0.1 0.7 -0.6
v 0.1 0.8 -0.6
v 0.1 2.1 -0.6
v 0.1 2.2 -0.6
v 0 0.8 -0.7
v 0 0.9 -0.7
v 0 1.1 -0.7
v 0 1.2 -0.7
v 0 1.7 -0.7
v 0 1.8 -0.7
v 0 2 -0.7
v 0 2.1 -0.7
v 0.1 0.8 -0.7
v 0.1 0.9 -0.7
v 0.1 1.1 -0.7
v 0.1 1.2 -0.7
v 0.1 1.7 -0.7
v 0.1 1.8 -0.7
v 0.1 2 -0.7
v 0.1 2.1 -0.7
v 0 0.9 -0.8
v 0 1 -0.8
v 0 1.2 -0.8
v 0 1.3 -0.8
v 0 1.6 -0.8
v 0 1.7 -0.8
v 0 1.9 -0.8
v 0 2 -0.8
v 0.1 0.9 -0.8
v 0.1 1 -0.8
v 0.1 1.2 -0.8
v 0.1 1.3 -0.8
v 0.1 1.6 -0.8
v 0.1 1.7 -0.8
v 0.1 1.9 -0.8
v 0.1 2 -0.8
v 0 1 -0.9
v 0 1.1 -0.9
v 0 1.3 -0.9
v 0 1.4 -0.9
v 0 1.5 -0.9
v 0 1.6 -0.9
v 0 1.8 -0.9
v 0 1.9 -0.9
v 0.1 1 -0.9
v 0.1 1.1 -0.9
v 0.1 1.3 -0.9
v 0.1 1.4 -0.9
v 0.1 1.5 -0.9
v 0.1 1.6 -0.9
v 0.1 1.8 -0.9
v 0.1 1.9 -0.9
v 0 1.1 -1
v 0 1.2 -1
v 0 1.4 -1
v 0 1.5 -1
v 0 1.7 -1
v 0 1.8 -1
v 0.1 1.1 -1
v 0.1 1.2 -1
v 0.1 1.4 -1
v 0.1 1.5 -1
v 0.1 1.7 -1
v 0.1 1.8 -1
v 0 1.2 -1.1
v 0 1.3 -1.1
v 0 1.6 -1.1
v 0 1.7 -1.1
v 0.1 1.2 -1.1
v 0.1 1.3 -1.1
v 0.1 1.6 -1.1
v 0.1 1.7 -1.1
v 0 1.3 -1.2
v 0 1.4 -1.2
v 0 1.5 -1.2
v 0 1.6 -1.2
v 0.1 1.3 -1.2
v 0.1 1.4 -1.2
v 0.1 1.5 -1.2
v 0.1 1.6 -1.2
v 0 1.4 -1.3
v 0 1.5 -1.3
v 0.1 1.4 -1.3
v 0.1 1.5 -1.3
v 0 1.4 1.2
v 0 1.5 1.2
v 0.1 1.4 1.2
v 0.1 1.5 1.2
v 0 1.3 1.1
v 0 1.4 1.1
v 0 1.5 1.1
v 0 1.6 1.1
v 0.1 1.3 1.1
v 0.1 1.4 1.1
v 0.1 1.5 1.1
v 0.1 1.6 1.1
v 0 1.2 1
v 0 1.3 1
v 0 1.6 1
v 0 1.7 1
v 0.1 1.2 1
v 0.1 1.3 1
v 0.1 1.6 1
v 0.1 1.7 1
v 0 1.1 0.9
v 0 1.2 0.9
v 0 1.4 0.9
v 0 1.5 0.9
v 0 1.7 0.9
v 0 1.8 0.9
v 0.1 1.1 0.9
v 0.1 1.2 0.9
v 0.1 1.4 0.9
v 0.1 1.5 0.9
v 0.1 1.7 0.9
v 0.1 1.8 0.9
v 0 1 0.8
v 0 1.1 0.8
v 0 1.3 0.8
v 0 1.4 0.8
v 0 1.5 0.8
v 0 1.6 0.8
v 0 1.8 0.8
v 0 1.9 0.8
v 0.1 1 0.8
v 0.1 1.1 0.8
v 0.1 1.3 0.8
v 0.1 1.4 0.8
v 0.1 1.5 0.8
v 0.1 1.6 0.8
v 0.1 1.8 0.8
v 0.1 1.9 0.8
v 0 0.9 0.7
v 0 1 0.7
v 0 1.2 0.7
v 0 1.3 0.7
v 0 1.6 0.7
v 0 1.7 0.7
v 0 1.9 0.7
v 0 2 0.7
v 0.1 0.9 0.7
v 0.1 1 0.7
v 0.1 1.2 0.7
v 0.1 1.3 0.7
v 0.1 1.6 0.7
v 0.1 1.7 0.7
v 0.1 1.9 0.7
v 0.1 2 0.7
v 0 0.8 0.6
v 0 0.9 0.6
v 0 1.1 0.6
v 0 1.2 0.6
v 0 1.7 0.6
v 0 1.8 0.6
v 0 2 0.6
v 0 2.1 0.6
v 0.1 0.8 0.6
v 0.1 0.9 0.6
v 0.1 1.1 0.6
v 0.1 1.2 0.6
v 0.1 1.7 0.6
v 0.1 1.8 0.6
v 0.1 2 0.6
v 0.1 2.1 0.6
v 0 0.7 0.5
v 0 0.8 0.5
v 0 2.1 0.5
v 0 2.2 0.5
v 0.1 0.7 0.5
v 0.1 0.8 0.5
v 0.1 2.1 0.5
v 0.1 2.2 0.5
v 0 0.6 0.4
v 0 0.7 0.4
v 0 1.4 0.4
v 0 1.5 0.4
v 0 2.2 0.4
v 0 2.3 0.4
v 0.1 0.6 0.4
v 0.1 0.7 0.4
v 0.1 1.4 0.4
v 0.1 1.5 0.4
v 0.1 2.2 0.4
v 0.1 2.3 0.4
v 0 0.5 0.3
v 0 0.6 0.3
v 0 0.8 0.3
v 0 0.9 0.3
v 0 1 0.3
v 0 1.3 0.3
v 0 1.4 0.3
v 0 1.5 0.3
v 0 1.6 0.3
v 0 1.9 0.3
v 0 2 0.3
v 0 2.1 0.3
v 0 2.3 0.3
v 0 2.4 0.3
v 0.1 0.5 0.3
v 0.1 0.6 0.3
v 0.1 0.8 0.3
v 0.1 0.9 0.3
v 0.1 1 0.3
v 0.1 1.3 0.3
v 0.1 1.4 0.3
v 0.1 1.5 0.3
v 0.1 1.6 0.3
v 0.1 1.9 0.3
v 0.1 2 0.3
v 0.1 2.1 0.3
v 0.1 2.3 0.3
v 0.1 2.4 0.3
v 0 0.4 0.2
v 0 0.5 0.2
v 0 0.7 0.2
v 0 0.8 0.2
v 0 1 0.2
v 0 1.1 0.2
v 0 1.8 0.2
v 0 1.9 0.2
v 0 2.1 0.2
v 0 2.2 0.2
v 0 2.4 0.2
v 0 2.5 0.2
v 0.1 0.4 0.2
v 0.1 0.5 0.2
v 0.1 0.7 0.2
v 0.1 0.8 0.2
v 0.1 1 0.2
v 0.1 1.1 0.2
v 0.1 1.8 0.2
v 0.1 1.9 0.2
v 0.1 2.1 0.2
v 0.1 2.2 0.2
v 0.1 2.4 0.2
v 0.1 2.5 0.2
v 0 0.3 0.1
v 0 0.4 0.1
v 0 0.6 0.1
v 0 0.7 0.1
v 0 1.1 0.1
v 0 1.2 0.1
v 0 1.7 0.1
v 0 1.8 0.1
v 0 2.2 0.1
v 0 2.3 0.1
v 0 2.5 0.1
v 0 2.6 0.1
v 0.1 0.3 0.1
v 0.1 0.4 0.1
v 0.1 0.6 0.1
v 0.1 0.7 0.1
v 0.1 1.1 0.1
v 0.1 1.2 0.1
v 0.1 1.7 0.1
v 0.1 1.8 0.1
v 0.1 2.2 0.1
v 0.1 2.3 0.1
v 0.1 2.5 0.1
v 0.1 2.6 0.1
v 0 0.2 0
v 0 0.3 0
v 0 0.5 0
v 0 0.6 0
v 0 1 0
v 0 1.1 0
v 0 1.2 0
v 0 1.3 0
v 0 1.4 0
v 0 1.5 0
v 0 1.6 0
v 0 1.7 0
v 0 1.8 0
v 0 1.9 0
v 0 2.3 0
v 0 2.4 0
v 0 2.6 0
v 0 2.7 0
v 0.1 0.2 0
v 0.1 0.3 0
v 0.1 0.5 0
v 0.1 0.6 0
v 0.1 1 0
v 0.1 1.1 0
v 0.1 1.2 0
v 0.1 1.3 0
v 0.1 1.4 0
v 0.1 1.5 0
v 0.1 1.6 0
v 0.1 1.7 0
v 0.1 1.8 0
v 0.1 1.9 0
v 0.1 2.3 0
v 0.1 2.4 0
v 0.1 2.6 0
v 0.1 2.7 0
v 0 0 -0.1
v 0 0.1 -0.1
v 0 0.3 -0.1
v 0 0.4 -0.1
v 0 0.8 -0.1
v 0 0.9 -0.1
v 0 2 -0.1
v 0 2.1 -0.1
v 0 2.5 -0.1
v 0 2.6 -0.1
v 0 2.8 -0.1
v 0 2.9 -0.1
v 0.1 0 -0.1
v 0.1 0.1 -0.1
v 0.1 0.3 -0.1
v 0.1 0.4 -0.1
v 0.1 0.8 -0.1
v 0.1 0.9 -0.1
v 0.1 2 -0.1
v 0.1 2.1 -0.1
v 0.1 2.5 -0.1
v 0.1 2.6 -0.1
v 0.1 2.8 -0.1
v 0.1 2.9 -0.1
v 0 0.1 -0.2
v 0 0.2 -0.2
v 0 0.4 -0.2
v 0 0.5 -0.2
v 0 0.9 -0.2
v 0 1.1 -0.2
v 0 1.4 -0.2
v 0 1.5 -0.2
v 0 1.8 -0.2
v 0 1.9 -0.2
v 0 2 -0.2
v 0 2.4 -0.2
v 0 2.5 -0.2
v 0 2.7 -0.2
v 0 2.8 -0.2
v 0.1 0.1 -0.2
v 0.1 0.2 -0.2
v 0.1 0.4 -0.2
v 0.1 0.5 -0.2
v 0.1 0.9 -0.2
v 0.1 1.1 -0.2
v 0.1 1.4 -0.2
v 0.1 1.5 -0.2
v 0.1 1.8 -0.2
v 0.1 1.9 -0.2
v 0.1 2 -0.2
v 0.1 2.4 -0.2
v 0.1 2.5 -0.2
v 0.1 2.7 -0.2
v 0.1 2.8 -0.2
v 0 0.2 -0.3
v 0 0.3 -0.3
v 0 0.5 -0.3
v 0 0.6 -0.3
v 0 1.3 -0.3
v 0 1.4 -0.3
v 0 1.5 -0.3
v 0 1.6 -0.3
v 0 2.3 -0.3
v 0 2.4 -0.3
v 0 2.6 -0.3
v 0 2.7 -0.3
v 0.1 0.2 -0.3
v 0.1 0.3 -0.3
v 0.1 0.5 -0.3
v 0.1 0.6 -0.3
v 0.1 1.3 -0.3
v 0.1 1.4 -0.3
v 0.1 1.5 -0.3
v 0.1 1.6 -0.3
v 0.1 2.3 -0.3
v 0.1 2.4 -0.3
v 0.1 2.6 -0.3
v 0.1 2.7 -0.3
v 0 0.3 -0.4
v 0 0.4 -0.4
v 0 0.6 -0.4
v 0 0.7 -0.4
v 0 1.2 -0.4
v 0 1.3 -0.4
v 0 1.6 -0.4
v 0 1.7 -0.4
v 0 2.2 -0.4
v 0 2.3 -0.4
v 0 2.5 -0.4
v 0 2.6 -0.4
v 0.1 0.3 -0.4
v 0.1 0.4 -0.4
v 0.1 0.6 -0.4
v 0.1 0.7 -0.4
v 0.1 1.2 -0.4
v 0.1 1.3 -0.4
v 0.1 1.6 -0.4
v 0.1 1.7 -0.4
v 0.1 2.2 -0.4
v 0.1 2.3 -0.4
v 0.1 2.5 -0.4
v 0.1 2.6 -0.4
v 0 0.4 -0.5
v 0 0.5 -0.5
v 0 0.7 -0.5
v 0 0.8 -0.5
v 0 1.1 -0.5
v 0 1.2 -0.5
v 0 1.7 -0.5
v 0 1.8 -0.5
v 0 2.1 -0.5
v 0 2.2 -0.5
v 0 2.4 -0.5
v 0 2.5 -0.5
v 0.1 0.4 -0.5
v 0.1 0.5 -0.5
v 0.1 0.7 -0.5
v 0.1 0.8 -0.5
v 0.1 1.1 -0.5
v 0.1 1.2 -0.5
v 0.1 1.7 -0.5
v 0.1 1.8 -0.5
v 0.1 2.1 -0.5
v 0.1 2.2 -0.5
v 0.1 2.4 -0.5
v 0.1 2.5 -0.5
v 0 0.5 -0.6
v 0 0.6 -0.6
v 0 0.8 -0.6
v 0 0.9 -0.6
v 0 1.3 -0.6
v 0 1.4 -0.6
v 0 1.5 -0.6
v 0 1.6 -0.6
v 0 2 -0.6
v 0 2.1 -0.6
v 0 2.3 -0.6
v 0 2.4 -0.6
v 0.1 0.5 -0.6
v 0.1 0.6 -0.6
v 0.1 0.8 -0.6
v 0.1 0.9 -0.6
v 0.1 1.3 -0.6
v 0.1 1.4 -0.6
v 0.1 1.5 -0.6
v 0.1 1.6 -0.6
v 0.1 2 -0.6
v 0.1 2.1 -0.6
v 0.1 2.3 -0.6
v 0.1 2.4 -0.6
v 0 0.6 -0.7
v 0 0.7 -0.7
v 0 0.9 -0.7
v 0 1 -0.7
v 0 1.4 -0.7
v 0 1.5 -0.7
v 0 1.9 -0.7
v 0 2 -0.7
v 0 2.2 -0.7
v 0 2.3 -0.7
v 0.1 0.6 -0.7
v 0.1 0.7 -0.7
v 0.1 0.9 -0.7
v 0.1 1 -0.7
v 0.1 1.4 -0.7
v 0.1 1.5 -0.7
v 0.1 1.9 -0.7
v 0.1 2 -0.7
v 0.1 2.2 -0.7
v 0.1 2.3 -0.7
v 0 0.7 -0.8
v 0 0.8 -0.8
v 0 1 -0.8
v 0 1.1 -0.8
v 0 1.8 -0.8
v 0 1.9 -0.8
v 0 2.1 -0.8
v 0 2.2 -0.8
v 0.1 0.7 -0.8
v 0.1 0.8 -0.8
v 0.1 1 -0.8
v 0.1 1.1 -0.8
v 0.1 1.8 -0.8
v 0.1 1.9 -0.8
v 0.1 2.1 -0.8
v 0.1 2.2 -0.8
v 0 0.8 -0.9
v 0 0.9 -0.9
v 0 1.1 -0.9
v 0 1.2 -0.9
v 0 1.7 -0.9
v 0 1.8 -0.9
v 0 2 -0.9
v 0 2.1 -0.9
v 0.1 0.8 -0.9
v 0.1 0.9 -0.9
v 0.1 1.1 -0.9
v 0.1 1.2 -0.9
v 0.1 1.7 -0.9
v 0.1 1.8 -0.9
v 0.1 2 -0.9
v 0.1 2.1 -0.9
v 0 0.9 -1
v 0 1 -1
v 0 1.2 -1
v 0 1.3 -1
v 0 1.6 -1
v 0 1.7 -1
v 0 1.9 -1
v 0 2 -1
v 0.1 0.9 -1
v 0.1 1 -1
v 0.1 1.2 -1
v 0.1 1.3 -1
v 0.1 1.6 -1
v 0.1 1.7 -1
v 0.1 1.9 -1
v 0.1 2 -1
v 0 1 -1.1
v 0 1.1 -1.1
v 0 1.3 -1.1
v 0 1.4 -1.1
v 0 1.5 -1.1
v 0 1.6 -1.1
v 0 1.8 -1.1
v 0 1.9 -1.1
v 0.1 1 -1.1
v 0.1 1.1 -1.1
v 0.1 1.3 -1.1
v 0.1 1.4 -1.1
v 0.1 1.5 -1.1
v 0.1 1.6 -1.1
v 0.1 1.8 -1.1
v 0.1 1.9 -1.1
v 0 1.1 -1.2
v 0 1.2 -1.2
v 0 1.4 -1.2
v 0 1.5 -1.2
v 0 1.7 -1.2
v 0 1.8 -1.2
v 0.1 1.1 -1.2
v 0.1 1.2 -1.2
v 0.1 1.4 -1.2
v 0.1 1.5 -1.2
v 0.1 1.7 -1.2
v 0.1 1.8 -1.2
v 0 1.2 -1.3
v 0 1.3 -1.3
v 0 1.6 -1.3
v 0 1.7 -1.3
v 0.1 1.2 -1.3
v 0.1 1.3 -1.3
v 0.1 1.6 -1.3
v 0.1 1.7 -1.3
v 0 1.3 -1.4
v 0 1.4 -1.4
v 0 1.5 -1.4
v 0 1.6 -1.4
v 0.1 1.3 -1.4
v 0.1 1.4 -1.4
v 0.1 1.5 -1.4
v 0.1 1.6 -1.4
v 0 1.4 -1.5
v 0 1.5 -1.5
v 0.1 1.4 -1.5
v 0.1 1.5 -1.5
v 0 0 0
v 0.1 0 0
v 0 0 -0.1
v 0.1 0 -0.1
v 0 0.1 0.1
v 0.1 0.1 0.1
v 0 0.1 0
v 0.1 0.1 0
v 0 0.1 -0.1
v 0.1 0.1 -0.1
v 0 0.1 -0.2
v 0.1 0.1 -0.2
v 0 0.2 0.2
v 0.1 0.2 0.2
v 0 0.2 0.1
v 0.1 0.2 0.1
v 0 0.2 -0.2
v 0.1 0.2 -0.2
v 0 0.2 -0.3
v 0.1 0.2 -0.3
v 0 0.3 0.3
v 0.1 0.3 0.3
v 0 0.3 0.2
v 0.1 0.3 0.2
v 0 0.3 0
v 0.1 0.3 0
v 0 0.3 -0.1
v 0.1 0.3 -0.1
v 0 0.3 -0.3
v 0.1 0.3 -0.3
v 0 0.3 -0.4
v 0.1 0.3 -0.4
v 0 0.4 0.4
v 0.1 0.4 0.4
v 0 0.4 0.3
v 0.1 0.4 0.3
v 0 0.4 0.1
v 0.1 0.4 0.1
v 0 0.4 0
v 0.1 0.4 0
v 0 0.4 -0.1
v 0.1 0.4 -0.1
v 0 0.4 -0.2
v 0.1 0.4 -0.2
v 0 0.4 -0.4
v 0.1 0.4 -0.4
v 0 0.4 -0.5
v 0.1 0.4 -0.5
v 0 0.5 0.5
v 0.1 0.5 0.5
v 0 0.5 0.4
v 0.1 0.5 0.4
v 0 0.5 0.2
v 0.1 0.5 0.2
v 0 0.5 0.1
v 0.1 0.5 0.1
v 0 0.5 -0.2
v 0.1 0.5 -0.2
v 0 0.5 -0.3
v 0.1 0.5 -0.3
v 0 0.5 -0.5
v 0.1 0.5 -0.5
v 0 0.5 -0.6
v 0.1 0.5 -0.6
v 0 0.6 0.6
v 0.1 0.6 0.6
v 0 0.6 0.5
v 0.1 0.6 0.5
v 0 0.6 0.3
v 0.1 0.6 0.3
v 0 0.6 0.2
v 0.1 0.6 0.2
v 0 0.6 -0.3
v 0.1 0.6 -0.3
v 0 0.6 -0.4
v 0.1 0.6 -0.4
v 0 0.6 -0.6
v 0.1 0.6 -0.6
v 0 0.6 -0.7
v 0.1 0.6 -0.7
v 0 0.7 0.7
v 0.1 0.7 0.7
v 0 0.7 0.6
v 0.1 0.7 0.6
v 0 0.7 0.4
v 0.1 0.7 0.4
v 0 0.7 0.3
v 0.1 0.7 0.3
v 0 0.7 -0.4
v 0.1 0.7 -0.4
v 0 0.7 -0.5
v 0.1 0.7 -0.5
v 0 0.7 -0.7
v 0.1 0.7 -0.7
v 0 0.7 -0.8
v 0.1 0.7 -0.8
v 0 0.8 0.8
v 0.1 0.8 0.8
v 0 0.8 0.7
v 0.1 0.8 0.7
v 0 0.8 0.5
v 0.1 0.8 0.5
v 0 0.8 0.4
v 0.1 0.8 0.4
v 0 0.8 0
v 0.1 0.8 0
v 0 0.8 -0.1
v 0.1 0.8 -0.1
v 0 0.8 -0.5
v 0.1 0.8 -0.5
v 0 0.8 -0.6
v 0.1 0.8 -0.6
v 0 0.8 -0.8
v 0.1 0.8 -0.8
v 0 0.8 -0.9
v 0.1 0.8 -0.9
v 0 0.9 0.9
v 0.1 0.9 0.9
v 0 0.9 0.8
v 0.1 0.9 0.8
v 0 0.9 0.6
v 0.1 0.9 0.6
v 0 0.9 0.5
v 0.1 0.9 0.5
v 0 0.9 0.1
v 0.1 0.9 0.1
v 0 0.9 0
v 0.1 0.9 0
v 0 0.9 -0.1
v 0.1 0.9 -0.1
v 0 0.9 -0.2
v 0.1 0.9 -0.2
v 0 0.9 -0.6
v 0.1 0.9 -0.6
v 0 0.9 -0.7
v 0.1 0.9 -0.7
v 0 0.9 -0.9
v 0.1 0.9 -0.9
v 0 0.9 -1
v 0.1 0.9 -1
v 0 1 1
v 0.1 1 1
v 0 1 0.9
v 0.1 1 0.9
v 0 1 0.7
v 0.1 1 0.7
v 0 1 0.6
v 0.1 1 0.6
v 0 1 0.3
v 0.1 1 0.3
v 0 1 0.2
v 0.1 1 0.2
v 0 1 -0.3
v 0.1 1 -0.3
v 0 1 -0.4
v 0.1 1 -0.4
v 0 1 -0.7
v 0.1 1 -0.7
v 0 1 -0.8
v 0.1 1 -0.8
v 0 1 -1
v 0.1 1 -1
v 0 1 -1.1
v 0.1 1 -1.1
v 0 1.1 1.1
v 0.1 1.1 1.1
v 0 1.1 1
v 0.1 1.1 1
v 0 1.1 0.8
v 0.1 1.1 0.8
v 0 1.1 0.7
v 0.1 1.1 0.7
v 0 1.1 0.2
v 0.1 1.1 0.2
v 0 1.1 0.1
v 0.1 1.1 0.1
v 0 1.1 -0.2
v 0.1 1.1 -0.2
v 0 1.1 -0.3
v 0.1 1.1 -0.3
v 0 1.1 -0.8
v 0.1 1.1 -0.8
v 0 1.1 -0.9
v 0.1 1.1 -0.9
v 0 1.1 -1.1
v 0.1 1.1 -1.1
v 0 1.1 -1.2
v 0.1 1.1 -1.2
v 0 1.2 1.2
v 0.1 1.2 1.2
v 0 1.2 1.1
v 0.1 1.2 1.1
v 0 1.2 0.9
v 0.1 1.2 0.9
v 0 1.2 0.8
v 0.1 1.2 0.8
v 0 1.2 0.1
v 0.1 1.2 0.1
v 0 1.2 0
v 0.1 1.2 0
v 0 1.2 -0.1
v 0.1 1.2 -0.1
v 0 1.2 -0.2
v 0.1 1.2 -0.2
v 0 1.2 -0.9
v 0.1 1.2 -0.9
v 0 1.2 -1
v 0.1 1.2 -1
v 0 1.2 -1.2
v 0.1 1.2 -1.2
v 0 1.2 -1.3
v 0.1 1.2 -1.3
v 0 1.3 1.3
v 0.1 1.3 1.3
v 0 1.3 1.2
v 0.1 1.3 1.2
v 0 1.3 1
v 0.1 1.3 1
v 0 1.3 0.9
v 0.1 1.3 0.9
v 0 1.3 0.5
v 0.1 1.3 0.5
v 0 1.3 0.3
v 0.1 1.3 0.3
v 0 1.3 0
v 0.1 1.3 0
v 0 1.3 -0.1
v 0.1 1.3 -0.1
v 0 1.3 -0.4
v 0.1 1.3 -0.4
v 0 1.3 -0.6
v 0.1 1.3 -0.6
v 0 1.3 -1
v 0.1 1.3 -1
v 0 1.3 -1.1
v 0.1 1.3 -1.1
v 0 1.3 -1.3
v 0.1 1.3 -1.3
v 0 1.3 -1.4
v 0.1 1.3 -1.4
v 0 1.4 1.4
v 0.1 1.4 1.4
v 0 1.4 1.3
v 0.1 1.4 1.3
v 0 1.4 1.1
v 0.1 1.4 1.1
v 0 1.4 1
v 0.1 1.4 1
v 0 1.4 0.6
v 0.1 1.4 0.6
v 0 1.4 0.5
v 0.1 1.4 0.5
v 0 1.4 -0.6
v 0.1 1.4 -0.6
v 0 1.4 -0.7
v 0.1 1.4 -0.7
v 0 1.4 -1.1
v 0.1 1.4 -1.1
v 0 1.4 -1.2
v 0.1 1.4 -1.2
v 0 1.4 -1.4
v 0.1 1.4 -1.4
v 0 1.4 -1.5
v 0.1 1.4 -1.5
v 0 1.5 1.2
v 0.1 1.5 1.2
v 0 1.5 1.1
v 0.1 1.5 1.1
v 0 1.5 0.9
v 0.1 1.5 0.9
v 0 1.5 0.8
v 0.1 1.5 0.8
v 0 1.5 0.4
v 0.1 1.5 0.4
v 0 1.5 0.3
v 0.1 1.5 0.3
v 0 1.5 0.2
v 0.1 1.5 0.2
v 0 1.5 0.1
v 0.1 1.5 0.1
v 0 1.5 0
v 0.1 1.5 0
v 0 1.5 -0.1
v 0.1 1.5 -0.1
v 0 1.5 -0.2
v 0.1 1.5 -0.2
v 0 1.5 -0.3
v 0.1 1.5 -0.3
v 0 1.5 -0.4
v 0.1 1.5 -0.4
v 0 1.5 -0.5
v 0.1 1.5 -0.5
v 0 1.5 -0.9
v 0.1 1.5 -0.9
v 0 1.5 -1
v 0.1 1.5 -1
v 0 1.5 -1.2
v 0.1 1.5 -1.2
v 0 1.5 -1.3
v 0.1 1.5 -1.3
v 0 1.6 1.1
v 0.1 1.6 1.1
v 0 1.6 1
v 0.1 1.6 1
v 0 1.6 0.8
v 0.1 1.6 0.8
v 0 1.6 0.7
v 0.1 1.6 0.7
v 0 1.6 0.3
v 0.1 1.6 0.3
v 0 1.6 0.2
v 0.1 1.6 0.2
v 0 1.6 -0.3
v 0.1 1.6 -0.3
v 0 1.6 -0.4
v 0.1 1.6 -0.4
v 0 1.6 -0.8
v 0.1 1.6 -0.8
v 0 1.6 -0.9
v 0.1 1.6 -0.9
v 0 1.6 -1.1
v 0.1 1.6 -1.1
v 0 1.6 -1.2
v 0.1 1.6 -1.2
v 0 1.7 1
v 0.1 1.7 1
v 0 1.7 0.9
v 0.1 1.7 0.9
v 0 1.7 0.7
v 0.1 1.7 0.7
v 0 1.7 0.6
v 0.1 1.7 0.6
v 0 1.7 0.4
v 0.1 1.7 0.4
v 0 1.7 0.3
v 0.1 1.7 0.3
v 0 1.7 -0.4
v 0.1 1.7 -0.4
v 0 1.7 -0.5
v 0.1 1.7 -0.5
v 0 1.7 -0.7
v 0.1 1.7 -0.7
v 0 1.7 -0.8
v 0.1 1.7 -0.8
v 0 1.7 -1
v 0.1 1.7 -1
v 0 1.7 -1.1
v 0.1 1.7 -1.1
v 0 1.8 0.9
v 0.1 1.8 0.9
v 0 1.8 0.8
v 0.1 1.8 0.8
v 0 1.8 0.6
v 0.1 1.8 0.6
v 0 1.8 0.5
v 0.1 1.8 0.5
v 0 1.8 0.4
v 0.1 1.8 0.4
v 0 1.8 0.1
v 0.1 1.8 0.1
v 0 1.8 0
v 0.1 1.8 0
v 0 1.8 -0.1
v 0.1 1.8 -0.1
v 0 1.8 -0.2
v 0.1 1.8 -0.2
v 0 1.8 -0.5
v 0.1 1.8 -0.5
v 0 1.8 -0.6
v 0.1 1.8 -0.6
v 0 1.8 -0.7
v 0.1 1.8 -0.7
v 0 1.8 -0.9
v 0.1 1.8 -0.9
v 0 1.8 -1
v 0.1 1.8 -1
v 0 1.9 0.8
v 0.1 1.9 0.8
v 0 1.9 0.7
v 0.1 1.9 0.7
v 0 1.9 0
v 0.1 1.9 0
v 0 1.9 -0.1
v 0.1 1.9 -0.1
v 0 1.9 -0.8
v 0.1 1.9 -0.8
v 0 1.9 -0.9
v 0.1 1.9 -0.9
v 0 2 0.7
v 0.1 2 0.7
v 0 2 0.6
v 0.1 2 0.6
v 0 2 -0.7
v 0.1 2 -0.7
v 0 2 -0.8
v 0.1 2 -0.8
v 0 2.1 0.6
v 0.1 2.1 0.6
v 0 2.1 0.5
v 0.1 2.1 0.5
v 0 2.1 0.3
v 0.1 2.1 0.3
v 0 2.1 0.2
v 0.1 2.1 0.2
v 0 2.1 -0.3
v 0.1 2.1 -0.3
v 0 2.1 -0.4
v 0.1 2.1 -0.4
v 0 2.1 -0.6
v 0.1 2.1 -0.6
v 0 2.1 -0.7
v 0.1 2.1 -0.7
v 0 2.2 0.5
v 0.1 2.2 0.5
v 0 2.2 0.4
v 0.1 2.2 0.4
v 0 2.2 0.2
v 0.1 2.2 0.2
v 0 2.2 0.1
v 0.1 2.2 0.1
v 0 2.2 -0.2
v 0.1 2.2 -0.2
v 0 2.2 -0.3
v 0.1 2.2 -0.3
v 0 2.2 -0.5
v 0.1 2.2 -0.5
v 0 2.2 -0.6
v 0.1 2.2 -0.6
v 0 2.3 0.4
v 0.1 2.3 0.4
v 0 2.3 0.3
v 0.1 2.3 0.3
v 0 2.3 0.1
v 0.1 2.3 0.1
v 0 2.3 0
v 0.1 2.3 0
v 0 2.3 -0.1
v 0.1 2.3 -0.1
v 0 2.3 -0.2
v 0.1 2.3 -0.2
v 0 2.3 -0.4
v 0.1 2.3 -0.4
v 0 2.3 -0.5
v 0.1 2.3 -0.5
v 0 2.4 0.3
v 0.1 2.4 0.3
v 0 2.4 0.2
v 0.1 2.4 0.2
v 0 2.4 0
v 0.1 2.4 0
v 0 2.4 -0.1
v 0.1 2.4 -0.1
v 0 2.4 -0.3
v 0.1 2.4 -0.3
v 0 2.4 -0.4
v 0.1 2.4 -0.4
v 0 2.5 0.2
v 0.1 2.5 0.2
v 0 2.5 0.1
v 0.1 2.5 0.1
v 0 2.5 -0.2
v 0.1 2.5 -0.2
v 0 2.5 -0.3
v 0.1 2.5 -0.3
v 0 2.6 0.1
v 0.1 2.6 0.1
v 0 2.6 0
v 0.1 2.6 0
v 0 2.6 -0.1
v 0.1 2.6 -0.1
v 0 2.6 -0.2
v 0.1 2.6 -0.2
v 0 2.7 0
v 0.1 2.7 0
v 0 2.7 -0.1
v 0.1 2.7 -0.1
v 0 0.2 0
v 0.1 0.2 0
v 0 0.2 -0.1
v 0.1 0.2 -0.1
v 0 0.3 0.1
v 0.1 0.3 0.1
v 0 0.3 0
v 0.1 0.3 0
v 0 0.3 -0.1
v 0.1 0.3 -0.1
v 0 0.3 -0.2
v 0.1 0.3 -0.2
v 0 0.4 0.2
v 0.1 0.4 0.2
v 0 0.4 0.1
v 0.1 0.4 0.1
v 0 0.4 -0.2
v 0.1 0.4 -0.2
v 0 0.4 -0.3
v 0.1 0.4 -0.3
v 0 0.5 0.3
v 0.1 0.5 0.3
v 0 0.5 0.2
v 0.1 0.5 0.2
v 0 0.5 0
v 0.1 0.5 0
v 0 0.5 -0.1
v 0.1 0.5 -0.1
v 0 0.5 -0.3
v 0.1 0.5 -0.3
v 0 0.5 -0.4
v 0.1 0.5 -0.4
v 0 0.6 0.4
v 0.1 0.6 0.4
v 0 0.6 0.3
v 0.1 0.6 0.3
v 0 0.6 0.1
v 0.1 0.6 0.1
v 0 0.6 0
v 0.1 0.6 0
v 0 0.6 -0.1
v 0.1 0.6 -0.1
v 0 0.6 -0.2
v 0.1 0.6 -0.2
v 0 0.6 -0.4
v 0.1 0.6 -0.4
v 0 0.6 -0.5
v 0.1 0.6 -0.5
v 0 0.7 0.5
v 0.1 0.7 0.5
v 0 0.7 0.4
v 0.1 0.7 0.4
v 0 0.7 0.2
v 0.1 0.7 0.2
v 0 0.7 0.1
v 0.1 0.7 0.1
v 0 0.7 -0.2
v 0.1 0.7 -0.2
v 0 0.7 -0.3
v 0.1 0.7 -0.3
v 0 0.7 -0.5
v 0.1 0.7 -0.5
v 0 0.7 -0.6
v 0.1 0.7 -0.6
v 0 0.8 0.6
v 0.1 0.8 0.6
v 0 0.8 0.5
v 0.1 0.8 0.5
v 0 0.8 0.3
v 0.1 0.8 0.3
v 0 0.8 0.2
v 0.1 0.8 0.2
v 0 0.8 -0.3
v 0.1 0.8 -0.3
v 0 0.8 -0.4
v 0.1 0.8 -0.4
v 0 0.8 -0.6
v 0.1 0.8 -0.6
v 0 0.8 -0.7
v 0.1 0.8 -0.7
v 0 0.9 0.7
v 0.1 0.9 0.7
v 0 0.9 0.6
v 0.1 0.9 0.6
v 0 0.9 -0.7
v 0.1 0.9 -0.7
v 0 0.9 -0.8
v 0.1 0.9 -0.8
v 0 1 0.8
v 0.1 1 0.8
v 0 1 0.7
v 0.1 1 0.7
v 0 1 0
v 0.1 1 0
v 0 1 -0.1
v 0.1 1 -0.1
v 0 1 -0.8
v 0.1 1 -0.8
v 0 1 -0.9
v 0.1 1 -0.9
v 0 1.1 0.9
v 0.1 1.1 0.9
v 0 1.1 0.8
v 0.1 1.1 0.8
v 0 1.1 0.6
v 0.1 1.1 0.6
v 0 1.1 0.5
v 0.1 1.1 0.5
v 0 1.1 0.4
v 0.1 1.1 0.4
v 0 1.1 0.1
v 0.1 1.1 0.1
v 0 1.1 0
v 0.1 1.1 0
v 0 1.1 -0.1
v 0.1 1.1 -0.1
v 0 1.1 -0.2
v 0.1 1.1 -0.2
v 0 1.1 -0.5
v 0.1 1.1 -0.5
v 0 1.1 -0.7
v 0.1 1.1 -0.7
v 0 1.1 -0.9
v 0.1 1.1 -0.9
v 0 1.1 -1
v 0.1 1.1 -1
v 0 1.2 1
v 0.1 1.2 1
v 0 1.2 0.9
v 0.1 1.2 0.9
v 0 1.2 0.7
v 0.1 1.2 0.7
v 0 1.2 0.6
v 0.1 1.2 0.6
v 0 1.2 0.4
v 0.1 1.2 0.4
v 0 1.2 0.3
v 0.1 1.2 0.3
v 0 1.2 -0.4
v 0.1 1.2 -0.4
v 0 1.2 -0.5
v 0.1 1.2 -0.5
v 0 1.2 -0.7
v 0.1 1.2 -0.7
v 0 1.2 -0.8
v 0.1 1.2 -0.8
v 0 1.2 -1
v 0.1 1.2 -1
v 0 1.2 -1.1
v 0.1 1.2 -1.1
v 0 1.3 1.1
v 0.1 1.3 1.1
v 0 1.3 1
v 0.1 1.3 1
v 0 1.3 0.8
v 0.1 1.3 0.8
v 0 1.3 0.7
v 0.1 1.3 0.7
v 0 1.3 0.3
v 0.1 1.3 0.3
v 0 1.3 0.2
v 0.1 1.3 0.2
v 0 1.3 -0.3
v 0.1 1.3 -0.3
v 0 1.3 -0.4
v 0.1 1.3 -0.4
v 0 1.3 -0.8
v 0.1 1.3 -0.8
v 0 1.3 -0.9
v 0.1 1.3 -0.9
v 0 1.3 -1.1
v 0.1 1.3 -1.1
v 0 1.3 -1.2
v 0.1 1.3 -1.2
v 0 1.4 1.2
v 0.1 1.4 1.2
v 0 1.4 1.1
v 0.1 1.4 1.1
v 0 1.4 0.9
v 0.1 1.4 0.9
v 0 1.4 0.8
v 0.1 1.4 0.8
v 0 1.4 0.4
v 0.1 1.4 0.4
v 0 1.4 0.3
v 0.1 1.4 0.3
v 0 1.4 0.2
v 0.1 1.4 0.2
v 0 1.4 0.1
v 0.1 1.4 0.1
v 0 1.4 0
v 0.1 1.4 0
v 0 1.4 -0.1
v 0.1 1.4 -0.1
v 0 1.4 -0.2
v 0.1 1.4 -0.2
v 0 1.4 -0.3
v 0.1 1.4 -0.3
v 0 1.4 -0.4
v 0.1 1.4 -0.4
v 0 1.4 -0.5
v 0.1 1.4 -0.5
v 0 1.4 -0.9
v 0.1 1.4 -0.9
v 0 1.4 -1
v 0.1 1.4 -1
v 0 1.4 -1.2
v 0.1 1.4 -1.2
v 0 1.4 -1.3
v 0.1 1.4 -1.3
v 0 1.5 1.4
v 0.1 1.5 1.4
v 0 1.5 1.3
v 0.1 1.5 1.3
v 0 1.5 1.1
v 0.1 1.5 1.1
v 0 1.5 1
v 0.1 1.5 1
v 0 1.5 0.6
v 0.1 1.5 0.6
v 0 1.5 0.5
v 0.1 1.5 0.5
v 0 1.5 -0.6
v 0.1 1.5 -0.6
v 0 1.5 -0.7
v 0.1 1.5 -0.7
v 0 1.5 -1.1
v 0.1 1.5 -1.1
v 0 1.5 -1.2
v 0.1 1.5 -1.2
v 0 1.5 -1.4
v 0.1 1.5 -1.4
v 0 1.5 -1.5
v 0.1 1.5 -1.5
v 0 1.6 1.3
v 0.1 1.6 1.3
v 0 1.6 1.2
v 0.1 1.6 1.2
v 0 1.6 1
v 0.1 1.6 1
v 0 1.6 0.9
v 0.1 1.6 0.9
v 0 1.6 0.5
v 0.1 1.6 0.5
v 0 1.6 0.3
v 0.1 1.6 0.3
v 0 1.6 0
v 0.1 1.6 0
v 0 1.6 -0.1
v 0.1 1.6 -0.1
v 0 1.6 -0.4
v 0.1 1.6 -0.4
v 0 1.6 -0.6
v 0.1 1.6 -0.6
v 0 1.6 -1
v 0.1 1.6 -1
v 0 1.6 -1.1
v 0.1 1.6 -1.1
v 0 1.6 -1.3
v 0.1 1.6 -1.3
v 0 1.6 -1.4
v 0.1 1.6 -1.4
v 0 1.7 1.2
v 0.1 1.7 1.2
v 0 1.7 1.1
v 0.1 1.7 1.1
v 0 1.7 0.9
v 0.1 1.7 0.9
v 0 1.7 0.8
v 0.1 1.7 0.8
v 0 1.7 0.1
v 0.1 1.7 0.1
v 0 1.7 0
v 0.1 1.7 0
v 0 1.7 -0.1
v 0.1 1.7 -0.1
v 0 1.7 -0.2
v 0.1 1.7 -0.2
v 0 1.7 -0.9
v 0.1 1.7 -0.9
v 0 1.7 -1
v 0.1 1.7 -1
v 0 1.7 -1.2
v 0.1 1.7 -1.2
v 0 1.7 -1.3
v 0.1 1.7 -1.3
v 0 1.8 1.1
v 0.1 1.8 1.1
v 0 1.8 1
v 0.1 1.8 1
v 0 1.8 0.8
v 0.1 1.8 0.8
v 0 1.8 0.7
v 0.1 1.8 0.7
v 0 1.8 0.2
v 0.1 1.8 0.2
v 0 1.8 0.1
v 0.1 1.8 0.1
v 0 1.8 -0.2
v 0.1 1.8 -0.2
v 0 1.8 -0.3
v 0.1 1.8 -0.3
v 0 1.8 -0.8
v 0.1 1.8 -0.8
v 0 1.8 -0.9
v 0.1 1.8 -0.9
v 0 1.8 -1.1
v 0.1 1.8 -1.1
v 0 1.8 -1.2
v 0.1 1.8 -1.2
v 0 1.9 1
v 0.1 1.9 1
v 0 1.9 0.9
v 0.1 1.9 0.9
v 0 1.9 0.7
v 0.1 1.9 0.7
v 0 1.9 0.6
v 0.1 1.9 0.6
v 0 1.9 0.3
v 0.1 1.9 0.3
v 0 1.9 0.2
v 0.1 1.9 0.2
v 0 1.9 -0.3
v 0.1 1.9 -0.3
v 0 1.9 -0.4
v 0.1 1.9 -0.4
v 0 1.9 -0.7
v 0.1 1.9 -0.7
v 0 1.9 -0.8
v 0.1 1.9 -0.8
v 0 1.9 -1
v 0.1 1.9 -1
v 0 1.9 -1.1
v 0.1 1.9 -1.1
v 0 2 0.9
v 0.1 2 0.9
v 0 2 0.8
v 0.1 2 0.8
v 0 2 0.6
v 0.1 2 0.6
v 0 2 0.5
v 0.1 2 0.5
v 0 2 0.1
v 0.1 2 0.1
v 0 2 0
v 0.1 2 0
v 0 2 -0.1
v 0.1 2 -0.1
v 0 2 -0.2
v 0.1 2 -0.2
v 0 2 -0.6
v 0.1 2 -0.6
v 0 2 -0.7
v 0.1 2 -0.7
v 0 2 -0.9
v 0.1 2 -0.9
v 0 2 -1
v 0.1 2 -1
v 0 2.1 0.8
v 0.1 2.1 0.8
v 0 2.1 0.7
v 0.1 2.1 0.7
v 0 2.1 0.5
v 0.1 2.1 0.5
v 0 2.1 0.4
v 0.1 2.1 0.4
v 0 2.1 0
v 0.1 2.1 0
v 0 2.1 -0.1
v 0.1 2.1 -0.1
v 0 2.1 -0.5
v 0.1 2.1 -0.5
v 0 2.1 -0.6
v 0.1 2.1 -0.6
v 0 2.1 -0.8
v 0.1 2.1 -0.8
v 0 2.1 -0.9
v 0.1 2.1 -0.9
v 0 2.2 0.7
v 0.1 2.2 0.7
v 0 2.2 0.6
v 0.1 2.2 0.6
v 0 2.2 0.4
v 0.1 2.2 0.4
v 0 2.2 0.3
v 0.1 2.2 0.3
v 0 2.2 -0.4
v 0.1 2.2 -0.4
v 0 2.2 -0.5
v 0.1 2.2 -0.5
v 0 2.2 -0.7
v 0.1 2.2 -0.7
v 0 2.2 -0.8
v 0.1 2.2 -0.8
v 0 2.3 0.6
v 0.1 2.3 0.6
v 0 2.3 0.5
v 0.1 2.3 0.5
v 0 2.3 0.3
v 0.1 2.3 0.3
v 0 2.3 0.2
v 0.1 2.3 0.2
v 0 2.3 -0.3
v 0.1 2.3 -0.3
v 0 2.3 -0.4
v 0.1 2.3 -0.4
v 0 2.3 -0.6
v 0.1 2.3 -0.6
v 0 2.3 -0.7
v 0.1 2.3 -0.7
v 0 2.4 0.5
v 0.1 2.4 0.5
v 0 2.4 0.4
v 0.1 2.4 0.4
v 0 2.4 0.2
v 0.1 2.4 0.2
v 0 2.4 0.1
v 0.1 2.4 0.1
v 0 2.4 -0.2
v 0.1 2.4 -0.2
v 0 2.4 -0.3
v 0.1 2.4 -0.3
v 0 2.4 -0.5
v 0.1 2.4 -0.5
v 0 2.4 -0.6
v 0.1 2.4 -0.6
v 0 2.5 0.4
v 0.1 2.5 0.4
v 0 2.5 0.3
v 0.1 2.5 0.3
v 0 2.5 0.1
v 0.1 2.5 0.1
v 0 2.5 0
v 0.1 2.5 0
v 0 2.5 -0.1
v 0.1 2.5 -0.1
v 0 2.5 -0.2
v 0.1 2.5 -0.2
v 0 2.5 -0.4
v 0.1 2.5 -0.4
v 0 2.5 -0.5
v 0.1 2.5 -0.5
v 0 2.6 0.3
v 0.1 2.6 0.3
v 0 2.6 0.2
v 0.1 2.6 0.2
v 0 2.6 0
v 0.1 2.6 0
v 0 2.6 -0.1
v 0.1 2.6 -0.1
v 0 2.6 -0.3
v 0.1 2.6 -0.3
v 0 2.6 -0.4
v 0.1 2.6 -0.4
v 0 2.7 0.2
v 0.1 2.7 0.2
v 0 2.7 0.1
v 0.1 2.7 0.1
v 0 2.7 -0.2
v 0.1 2.7 -0.2
v 0 2.7 -0.3
v 0.1 2.7 -0.3
v 0 2.8 0.1
v 0.1 2.8 0.1
v 0 2.8 0
v 0.1 2.8 0
v 0 2.8 -0.1
v 0.1 2.8 -0.1
v 0 2.8 -0.2
v 0.1 2.8 -0.2
v 0 2.9 0
v 0.1 2.9 0
v 0 2.9 -0.1
v 0.1 2.9 -0.1

# faces
f 4/4/1 2/4/1 1/4/1
f 5/4/1 2/4/1 4/4/1
f 8/9/1 4/9/1 3/9/1
f 9/4/1 5/4/1 4/4/1
f 9/9/1 4/9/1 8/9/1
f 10/9/1 6/9/1 5/9/1
f 10/4/1 5/4/1 9/4/1
f 11/9/1 6/9/1 10/9/1
f 14/1/1 8/1/1 7/1/1
f 15/4/1 9/4/1 8/4/1
f 15/1/1 8/1/1 14/1/1
f 16/4/1 9/4/1 15/4/1
f 17/4/1 11/4/1 10/4/1
f 18/1/1 12/1/1 11/1/1
f 18/4/1 11/4/1 17/4/1
f 19/1/1 12/1/1 18/1/1
f 22/1/1 14/1/1 13/1/1
f 23/4/1 15/4/1 14/4/1
f 23/1/1 14/1/1 22/1/1
f 24/4/1 15/4/1 23/4/1
f 25/3/1 17/3/1 16/3/1
f 26/3/1 17/3/1 25/3/1
f 27/4/1 19/4/1 18/4/1
f 28/1/1 20/1/1 19/1/1
f 28/4/1 19/4/1 27/4/1
f 29/1/1 20/1/1 28/1/1
f 32/1/1 22/1/1 21/1/1
f 33/4/1 23/4/1 22/4/1
f 33/1/1 22/1/1 32/1/1
f 34/4/1 23/4/1 33/4/1
f 35/3/1 25/3/1 24/3/1
f 36/10/1 26/10/1 25/10/1
f 36/3/1 25/3/1 35/3/1
f 37/3/1 27/3/1 26/3/1
f 37/10/1 26/10/1 36/10/1
f 38/3/1 27/3/1 37/3/1
f 39/4/1 29/4/1 28/4/1
f 40/1/1 30/1/1 29/1/1
f 40/4/1 29/4/1 39/4/1
f 41/1/1 30/1/1 40/1/1
f 44/1/1 32/1/1 31/1/1
f 45/4/1 33/4/1 32/4/1
f 45/1/1 32/1/1 44/1/1
f 46/4/1 33/4/1 45/4/1
f 47/3/1 35/3/1 34/3/1
f 48/10/1 36/10/1 35/10/1
f 48/3/1 35/3/1 47/3/1
f 49/10/1 36/10/1 48/10/1
f 50/10/1 38/10/1 37/10/1
f 51/3/1 39/3/1 38/3/1
f 51/10/1 38/10/1 50/10/1
f 52/3/1 39/3/1 51/3/1
f 53/4/1 41/4/1 40/4/1
f 54/1/1 42/1/1 41/1/1
f 54/4/1 41/4/1 53/4/1
f 55/1/1 42/1/1 54/1/1
f 58/1/1 44/1/1 43/1/1
f 59/4/1 45/4/1 44/4/1
f 59/1/1 44/1/1 58/1/1
f 60/4/1 45/4/1 59/4/1
f 61/3/1 47/3/1 46/3/1
f 62/10/1 48/10/1 47/10/1
f 62/3/1 47/3/1 61/3/1
f 63/10/1 48/10/1 62/10/1
f 64/10/1 52/10/1 51/10/1
f 65/3/1 53/3/1 52/3/1
f 65/10/1 52/10/1 64/10/1
f 66/3/1 53/3/1 65/3/1
f 67/4/1 55/4/1 54/4/1
f 68/1/1 56/1/1 55/1/1
f 68/4/1 55/4/1 67/4/1
f 69/1/1 56/1/1 68/1/1
f 72/1/1 58/1/1 57/1/1
f 73/4/1 59/4/1 58/4/1
f 73/1/1 58/1/1 72/1/1
f 74/4/1 59/4/1 73/4/1
f 75/10/1 61/10/1 60/10/1
f 75/10/1 62/10/1 61/10/1
f 76/10/1 62/10/1 75/10/1
f 77/10/1 62/10/1 76/10/1
f 80/10/1 66/10/1 65/10/1
f 81/3/1 67/3/1 66/3/1
f 81/10/1 66/10/1 80/10/1
f 82/3/1 67/3/1 81/3/1
f 83/4/1 69/4/1 68/4/1
f 84/1/1 70/1/1 69/1/1
f 84/4/1 69/4/1 83/4/1
f 85/1/1 70/1/1 84/1/1
f 88/1/1 72/1/1 71/1/1
f 89/4/1 73/4/1 72/4/1
f 89/1/1 72/1/1 88/1/1
f 90/4/1 73/4/1 89/4/1
f 91/10/1 75/10/1 74/10/1
f 91/10/1 76/10/1 75/10/1
f 92/10/1 76/10/1 91/10/1
f 93/10/1 76/10/1 92/10/1
f 95/2/1 79/2/1 78/2/1
f 96/2/1 79/2/1 95/2/1
f 98/10/1 83/10/1 82/10/1
f 98/10/1 82/10/1 81/10/1
f 99/10/1 83/10/1 98/10/1
f 100/10/1 83/10/1 99/10/1
f 101/4/1 85/4/1 84/4/1
f 102/1/1 86/1/1 85/1/1
f 102/4/1 85/4/1 101/4/1
f 103/1/1 86/1/1 102/1/1
f 106/1/1 88/1/1 87/1/1
f 107/4/1 89/4/1 88/4/1
f 107/1/1 88/1/1 106/1/1
f 108/4/1 89/4/1 107/4/1
f 109/3/1 91/3/1 90/3/1
f 110/10/1 92/10/1 91/10/1
f 110/3/1 91/3/1 109/3/1
f 111/6/1 93/6/1 92/6/1
f 111/10/1 92/10/1 110/10/1
f 112/6/1 93/6/1 111/6/1
f 114/2/1 97/2/1 96/2/1
f 114/2/1 96/2/1 95/2/1
f 114/2/1 95/2/1 94/2/1
f 115/2/1 97/2/1 114/2/1
f 117/1/1 99/1/1 98/1/1
f 118/10/1 101/10/1 100/10/1
f 118/10/1 100/10/1 99/10/1
f 118/1/1 99/1/1 117/1/1
f 119/10/1 101/10/1 118/10/1
f 120/4/1 103/4/1 102/4/1
f 121/1/1 104/1/1 103/1/1
f 121/4/1 103/4/1 120/4/1
f 122/1/1 104/1/1 121/1/1
f 125/1/1 106/1/1 105/1/1
f 126/4/1 107/4/1 106/4/1
f 126/1/1 106/1/1 125/1/1
f 127/4/1 107/4/1 126/4/1
f 128/3/1 109/3/1 108/3/1
f 129/10/1 110/10/1 109/10/1
f 129/3/1 109/3/1 128/3/1
f 130/1/1 111/1/1 110/1/1
f 130/10/1 110/10/1 129/10/1
f 131/6/1 113/6/1 112/6/1
f 131/1/1 111/1/1 130/1/1
f 131/6/1 112/6/1 111/6/1
f 132/6/1 113/6/1 131/6/1
f 133/6/1 113/6/1 132/6/1
f 134/2/1 114/2/1 94/2/1
f 135/2/1 114/2/1 134/2/1
f 136/2/1 97/2/1 115/2/1
f 137/2/1 97/2/1 136/2/1
f 138/1/1 117/1/1 116/1/1
f 139/6/1 119/6/1 118/6/1
f 139/6/1 118/6/1 117/6/1
f 139/1/1 117/1/1 138/1/1
f 140/6/1 119/6/1 139/6/1
f 141/3/1 120/3/1 119/3/1
f 141/6/1 119/6/1 140/6/1
f 142/3/1 120/3/1 141/3/1
f 143/4/1 122/4/1 121/4/1
f 144/1/1 123/1/1 122/1/1
f 144/4/1 122/4/1 143/4/1
f 145/1/1 123/1/1 144/1/1
f 148/1/1 125/1/1 124/1/1
f 149/4/1 126/4/1 125/4/1
f 149/1/1 125/1/1 148/1/1
f 150/4/1 126/4/1 149/4/1
f 151/10/1 128/10/1 127/10/1
f 151/10/1 129/10/1 128/10/1
f 152/10/1 129/10/1 151/10/1
f 153/10/1 129/10/1 152/10/1
f 154/1/1 132/1/1 131/1/1
f 155/6/1 134/6/1 133/6/1
f 155/1/1 132/1/1 154/1/1
f 155/6/1 133/6/1 132/6/1
f 156/6/1 134/6/1 155/6/1
f 157/6/1 134/6/1 156/6/1
f 160/1/1 138/1/1 137/1/1
f 161/6/1 140/6/1 139/6/1
f 161/6/1 139/6/1 138/6/1
f 161/1/1 138/1/1 160/1/1
f 162/6/1 140/6/1 161/6/1
f 163/6/1 140/6/1 162/6/1
f 164/10/1 143/10/1 142/10/1
f 164/10/1 142/10/1 141/10/1
f 165/10/1 143/10/1 164/10/1
f 166/10/1 143/10/1 165/10/1
f 167/4/1 145/4/1 144/4/1
f 168/1/1 146/1/1 145/1/1
f 168/4/1 145/4/1 167/4/1
f 169/1/1 146/1/1 168/1/1
f 172/1/1 148/1/1 147/1/1
f 173/4/1 149/4/1 148/4/1
f 173/1/1 148/1/1 172/1/1
f 174/4/1 149/4/1 173/4/1
f 175/10/1 152/10/1 151/10/1
f 175/10/1 151/10/1 150/10/1
f 176/10/1 152/10/1 175/10/1
f 177/10/1 152/10/1 176/10/1
f 179/1/1 156/1/1 155/1/1
f 180/6/1 158/6/1 157/6/1
f 180/6/1 157/6/1 156/6/1
f 180/1/1 156/1/1 179/1/1
f 181/6/1 158/6/1 180/6/1
f 182/6/1 158/6/1 181/6/1
f 183/1/1 160/1/1 159/1/1
f 184/6/1 162/6/1 161/6/1
f 184/6/1 161/6/1 160/6/1
f 184/1/1 160/1/1 183/1/1
f 185/6/1 162/6/1 184/6/1
f 186/6/1 162/6/1 185/6/1
f 188/10/1 167/10/1 166/10/1
f 188/10/1 166/10/1 165/10/1
f 189/10/1 167/10/1 188/10/1
f 190/10/1 167/10/1 189/10/1
f 191/4/1 169/4/1 168/4/1
f 192/2/1 170/2/1 169/2/1
f 192/4/1 169/4/1 191/4/1
f 193/2/1 170/2/1 192/2/1
f 196/6/1 172/6/1 171/6/1
f 197/1/1 173/1/1 172/1/1
f 197/6/1 172/6/1 196/6/1
f 198/1/1 173/1/1 197/1/1
f 199/3/1 175/3/1 174/3/1
f 200/10/1 176/10/1 175/10/1
f 200/3/1 175/3/1 199/3/1
f 201/10/1 176/10/1 200/10/1
f 203/2/1 179/2/1 178/2/1
f 204/2/1 179/2/1 203/2/1
f 205/2/1 179/2/1 204/2/1
f 206/1/1 181/1/1 180/1/1
f 207/5/1 182/5/1 181/5/1
f 207/1/1 181/1/1 206/1/1
f 208/7/1 183/7/1 182/7/1
f 208/5/1 182/5/1 207/5/1
f 209/5/1 184/5/1 183/5/1
f 209/7/1 183/7/1 208/7/1
f 210/6/1 185/6/1 184/6/1
f 210/5/1 184/5/1 209/5/1
f 211/6/1 185/6/1 210/6/1
f 212/2/1 187/2/1 186/2/1
f 213/2/1 187/2/1 212/2/1
f 214/2/1 187/2/1 213/2/1
f 216/10/1 191/10/1 190/10/1
f 216/10/1 190/10/1 189/10/1
f 217/10/1 191/10/1 216/10/1
f 218/10/1 191/10/1 217/10/1
f 219/2/1 193/2/1 192/2/1
f 220/6/1 194/6/1 193/6/1
f 220/2/1 193/2/1 219/2/1
f 221/6/1 194/6/1 220/6/1
f 223/6/1 196/6/1 195/6/1
f 223/6/1 197/6/1 196/6/1
f 224/6/1 197/6/1 223/6/1
f 225/6/1 197/6/1 224/6/1
f 226/3/1 199/3/1 198/3/1
f 227/10/1 200/10/1 199/10/1
f 227/3/1 199/3/1 226/3/1
f 228/10/1 200/10/1 227/10/1
f 230/2/1 204/2/1 203/2/1
f 230/2/1 203/2/1 202/2/1
f 231/2/1 204/2/1 230/2/1
f 232/2/1 204/2/1 231/2/1
f 235/7/1 208/7/1 207/7/1
f 236/7/1 208/7/1 235/7/1
f 237/1/1 210/1/1 209/1/1
f 238/1/1 210/1/1 237/1/1
f 241/2/1 215/2/1 214/2/1
f 241/2/1 214/2/1 213/2/1
f 242/2/1 215/2/1 241/2/1
f 243/2/1 215/2/1 242/2/1
f 245/10/1 218/10/1 217/10/1
f 246/3/1 219/3/1 218/3/1
f 246/10/1 218/10/1 245/10/1
f 247/3/1 219/3/1 246/3/1
f 248/6/1 222/6/1 221/6/1
f 248/6/1 221/6/1 220/6/1
f 249/6/1 222/6/1 248/6/1
f 250/6/1 222/6/1 249/6/1
f 251/6/1 225/6/1 224/6/1
f 252/1/1 226/1/1 225/1/1
f 252/6/1 225/6/1 251/6/1
f 253/1/1 226/1/1 252/1/1
f 254/10/1 229/10/1 228/10/1
f 254/10/1 228/10/1 227/10/1
f 255/10/1 229/10/1 254/10/1
f 256/10/1 229/10/1 255/10/1
f 258/2/1 233/2/1 232/2/1
f 258/2/1 232/2/1 231/2/1
f 259/2/1 233/2/1 258/2/1
f 260/1/1 235/1/1 234/1/1
f 261/5/1 236/5/1 235/5/1
f 261/1/1 235/1/1 260/1/1
f 262/7/1 237/7/1 236/7/1
f 262/5/1 236/5/1 261/5/1
f 263/5/1 238/5/1 237/5/1
f 263/7/1 237/7/1 262/7/1
f 264/6/1 239/6/1 238/6/1
f 264/5/1 238/5/1 263/5/1
f 265/6/1 239/6/1 264/6/1
f 266/2/1 242/2/1 241/2/1
f 266/2/1 241/2/1 240/2/1
f 267/2/1 242/2/1 266/2/1
f 269/10/1 245/10/1 244/10/1
f 269/10/1 246/10/1 245/10/1
f 270/10/1 246/10/1 269/10/1
f 271/10/1 246/10/1 270/10/1
f 272/6/1 249/6/1 248/6/1
f 272/6/1 248/6/1 247/6/1
f 273/6/1 249/6/1 272/6/1
f 274/6/1 249/6/1 273/6/1
f 275/1/1 253/1/1 252/1/1
f 276/4/1 254/4/1 253/4/1
f 276/1/1 253/1/1 275/1/1
f 277/4/1 254/4/1 276/4/1
f 278/3/1 256/3/1 255/3/1
f 279/10/1 257/10/1 256/10/1
f 279/3/1 256/3/1 278/3/1
f 280/10/1 257/10/1 279/10/1
f 283/1/1 260/1/1 259/1/1
f 284/6/1 262/6/1 261/6/1
f 284/6/1 261/6/1 260/6/1
f 284/1/1 260/1/1 283/1/1
f 285/6/1 262/6/1 284/6/1
f 286/6/1 262/6/1 285/6/1
f 287/1/1 264/1/1 263/1/1
f 288/5/1 265/5/1 264/5/1
f 288/1/1 264/1/1 287/1/1
f 289/6/1 266/6/1 265/6/1
f 289/5/1 265/5/1 288/5/1
f 290/6/1 266/6/1 289/6/1
f 293/10/1 270/10/1 269/10/1
f 293/10/1 269/10/1 268/10/1
f 294/10/1 270/10/1 293/10/1
f 295/10/1 270/10/1 294/10/1
f 296/1/1 273/1/1 272/1/1
f 296/1/1 272/1/1 271/1/1
f 297/1/1 273/1/1 296/1/1
f 298/1/1 273/1/1 297/1/1
f 299/1/1 278/1/1 277/1/1
f 299/1/1 277/1/1 276/1/1
f 300/1/1 278/1/1 299/1/1
f 301/1/1 278/1/1 300/1/1
f 302/3/1 280/3/1 279/3/1
f 303/10/1 281/10/1 280/10/1
f 303/3/1 280/3/1 302/3/1
f 304/10/1 281/10/1 303/10/1
f 306/1/1 283/1/1 282/1/1
f 307/6/1 284/6/1 283/6/1
f 307/6/1 285/6/1 284/6/1
f 307/1/1 283/1/1 306/1/1
f 308/6/1 285/6/1 307/6/1
f 309/6/1 285/6/1 308/6/1
f 312/1/1 289/1/1 288/1/1
f 313/6/1 291/6/1 290/6/1
f 313/6/1 290/6/1 289/6/1
f 313/1/1 289/1/1 312/1/1
f 314/6/1 291/6/1 313/6/1
f 315/6/1 291/6/1 314/6/1
f 317/10/1 294/10/1 293/10/1
f 317/10/1 293/10/1 292/10/1
f 318/10/1 294/10/1 317/10/1
f 319/10/1 294/10/1 318/10/1
f 320/1/1 297/1/1 296/1/1
f 320/1/1 296/1/1 295/1/1
f 321/1/1 297/1/1 320/1/1
f 322/1/1 297/1/1 321/1/1
f 323/1/1 302/1/1 301/1/1
f 323/1/1 301/1/1 300/1/1
f 324/1/1 302/1/1 323/1/1
f 325/1/1 302/1/1 324/1/1
f 326/10/1 305/10/1 304/10/1
f 326/10/1 304/10/1 303/10/1
f 327/10/1 305/10/1 326/10/1
f 328/1/1 306/1/1 305/1/1
f 328/10/1 305/10/1 327/10/1
f 329/6/1 307/6/1 306/6/1
f 329/1/1 306/1/1 328/1/1
f 329/6/1 308/6/1 307/6/1
f 330/6/1 308/6/1 329/6/1
f 331/6/1 308/6/1 330/6/1
f 332/2/1 310/2/1 309/2/1
f 333/2/1 312/2/1 311/2/1
f 334/2/1 312/2/1 333/2/1
f 335/1/1 314/1/1 313/1/1
f 336/6/1 316/6/1 315/6/1
f 336/1/1 314/1/1 335/1/1
f 336/6/1 315/6/1 314/6/1
f 337/6/1 316/6/1 336/6/1
f 338/10/1 318/10/1 317/10/1
f 338/6/1 316/6/1 337/6/1
f 338/10/1 317/10/1 316/10/1
f 339/10/1 318/10/1 338/10/1
f 340/10/1 318/10/1 339/10/1
f 341/1/1 321/1/1 320/1/1
f 341/1/1 320/1/1 319/1/1
f 342/1/1 321/1/1 341/1/1
f 343/1/1 321/1/1 342/1/1
f 344/1/1 325/1/1 324/1/1
f 344/1/1 326/1/1 325/1/1
f 345/1/1 326/1/1 344/1/1
f 346/1/1 326/1/1 345/1/1
f 347/3/1 328/3/1 327/3/1
f 348/10/1 329/10/1 328/10/1
f 348/3/1 328/3/1 347/3/1
f 349/6/1 330/6/1 329/6/1
f 349/10/1 329/10/1 348/10/1
f 350/6/1 330/6/1 349/6/1
f 351/2/1 332/2/1 309/2/1
f 352/8/1 333/8/1 332/8/1
f 352/2/1 332/2/1 351/2/1
f 352/8/1 334/8/1 333/8/1
f 353/8/1 334/8/1 352/8/1
f 354/8/1 334/8/1 353/8/1
f 355/1/1 337/1/1 336/1/1
f 356/10/1 339/10/1 338/10/1
f 356/1/1 337/1/1 355/1/1
f 356/10/1 338/10/1 337/10/1
f 357/10/1 339/10/1 356/10/1
f 358/10/1 339/10/1 357/10/1
f 359/1/1 342/1/1 341/1/1
f 359/1/1 341/1/1 340/1/1
f 360/1/1 342/1/1 359/1/1
f 361/1/1 342/1/1 360/1/1
f 362/1/1 346/1/1 345/1/1
f 362/1/1 347/1/1 346/1/1
f 363/1/1 347/1/1 362/1/1
f 364/1/1 347/1/1 363/1/1
f 365/3/1 349/3/1 348/3/1
f 366/10/1 350/10/1 349/10/1
f 366/3/1 349/3/1 365/3/1
f 367/10/1 350/10/1 366/10/1
f 369/2/1 353/2/1 352/2/1
f 370/2/1 353/2/1 369/2/1
f 372/10/1 357/10/1 356/10/1
f 372/10/1 356/10/1 355/10/1
f 373/10/1 357/10/1 372/10/1
f 374/10/1 357/10/1 373/10/1
f 375/4/1 359/4/1 358/4/1
f 376/1/1 360/1/1 359/1/1
f 376/4/1 359/4/1 375/4/1
f 377/1/1 360/1/1 376/1/1
f 378/1/1 365/1/1 364/1/1
f 378/1/1 364/1/1 363/1/1
f 379/1/1 365/1/1 378/1/1
f 380/1/1 365/1/1 379/1/1
f 381/3/1 367/3/1 366/3/1
f 382/10/1 368/10/1 367/10/1
f 382/3/1 367/3/1 381/3/1
f 383/10/1 368/10/1 382/10/1
f 386/10/1 373/10/1 372/10/1
f 386/10/1 372/10/1 371/10/1
f 387/10/1 373/10/1 386/10/1
f 388/10/1 373/10/1 387/10/1
f 389/4/1 375/4/1 374/4/1
f 390/1/1 376/1/1 375/1/1
f 390/4/1 375/4/1 389/4/1
f 391/1/1 376/1/1 390/1/1
f 392/1/1 381/1/1 380/1/1
f 392/1/1 380/1/1 379/1/1
f 393/1/1 381/1/1 392/1/1
f 394/1/1 381/1/1 393/1/1
f 395/3/1 383/3/1 382/3/1
f 396/10/1 384/10/1 383/10/1
f 396/3/1 383/3/1 395/3/1
f 397/10/1 384/10/1 396/10/1
f 400/10/1 387/10/1 386/10/1
f 400/10/1 386/10/1 385/10/1
f 401/10/1 387/10/1 400/10/1
f 402/10/1 387/10/1 401/10/1
f 403/4/1 389/4/1 388/4/1
f 404/1/1 390/1/1 389/1/1
f 404/4/1 389/4/1 403/4/1
f 405/1/1 390/1/1 404/1/1
f 406/1/1 395/1/1 394/1/1
f 406/1/1 394/1/1 393/1/1
f 407/1/1 395/1/1 406/1/1
f 408/1/1 395/1/1 407/1/1
f 409/3/1 397/3/1 396/3/1
f 410/7/1 398/7/1 397/7/1
f 410/3/1 397/3/1 409/3/1
f 411/7/1 398/7/1 410/7/1
f 412/10/1 401/10/1 400/10/1
f 412/10/1 400/10/1 399/10/1
f 413/10/1 401/10/1 412/10/1
f 414/10/1 401/10/1 413/10/1
f 415/1/1 403/1/1 402/1/1
f 415/1/1 404/1/1 403/1/1
f 416/1/1 404/1/1 415/1/1
f 417/1/1 404/1/1 416/1/1
f 418/1/1 409/1/1 408/1/1
f 418/1/1 408/1/1 407/1/1
f 419/1/1 409/1/1 418/1/1
f 420/1/1 409/1/1 419/1/1
f 421/10/1 413/10/1 412/10/1
f 421/10/1 411/10/1 410/10/1
f 421/10/1 412/10/1 411/10/1
f 422/10/1 413/10/1 421/10/1
f 423/10/1 413/10/1 422/10/1
f 424/10/1 413/10/1 423/10/1
f 425/1/1 416/1/1 415/1/1
f 425/1/1 415/1/1 414/1/1
f 426/1/1 416/1/1 425/1/1
f 427/1/1 416/1/1 426/1/1
f 428/1/1 420/1/1 419/1/1
f 428/1/1 421/1/1 420/1/1
f 429/1/1 421/1/1 428/1/1
f 430/1/1 421/1/1 429/1/1
f 431/3/1 423/3/1 422/3/1
f 432/3/1 423/3/1 431/3/1
f 433/4/1 425/4/1 424/4/1
f 434/1/1 426/1/1 425/1/1
f 434/4/1 425/4/1 433/4/1
f 435/1/1 426/1/1 434/1/1
f 436/1/1 430/1/1 429/1/1
f 436/1/1 431/1/1 430/1/1
f 437/1/1 431/1/1 436/1/1
f 438/1/1 431/1/1 437/1/1
f 439/1/1 433/1/1 432/1/1
f 439/1/1 434/1/1 433/1/1
f 440/1/1 434/1/1 439/1/1
f 441/1/1 434/1/1 440/1/1
f 442/1/1 438/1/1 437/1/1
f 443/4/1 439/4/1 438/4/1
f 443/1/1 438/1/1 442/1/1
f 444/1/1 440/1/1 439/1/1
f 444/4/1 439/4/1 443/4/1
f 445/1/1 440/1/1 444/1/1
f 446/4/1 444/4/1 443/4/1
f 447/4/1 444/4/1 446/4/1
f 448/4/2 449/4/2 451/4/2
f 451/4/2 449/4/2 452/4/2
f 450/9/2 451/9/2 455/9/2
f 451/4/2 452/4/2 456/4/2
f 455/9/2 451/9/2 456/9/2
f 452/9/2 453/9/2 457/9/2
f 456/4/2 452/4/2 457/4/2
f 457/9/2 453/9/2 458/9/2
f 454/1/2 455/1/2 461/1/2
f 455/4/2 456/4/2 462/4/2
f 461/1/2 455/1/2 462/1/2
f 462/4/2 456/4/2 463/4/2
f 457/4/2 458/4/2 464/4/2
f 458/1/2 459/1/2 465/1/2
f 464/4/2 458/4/2 465/4/2
f 465/1/2 459/1/2 466/1/2
f 460/1/2 461/1/2 469/1/2
f 461/4/2 462/4/2 470/4/2
f 469/1/2 461/1/2 470/1/2
f 470/4/2 462/4/2 471/4/2
f 463/3/2 464/3/2 472/3/2
f 472/3/2 464/3/2 473/3/2
f 465/4/2 466/4/2 474/4/2
f 466/1/2 467/1/2 475/1/2
f 474/4/2 466/4/2 475/4/2
f 475/1/2 467/1/2 476/1/2
f 468/1/2 469/1/2 479/1/2
f 469/4/2 470/4/2 480/4/2
f 479/1/2 469/1/2 480/1/2
f 480/4/2 470/4/2 481/4/2
f 471/3/2 472/3/2 482/3/2
f 472/10/2 473/10/2 483/10/2
f 482/3/2 472/3/2 483/3/2
f 473/3/2 474/3/2 484/3/2
f 483/10/2 473/10/2 484/10/2
f 484/3/2 474/3/2 485/3/2
f 475/4/2 476/4/2 486/4/2
f 476/1/2 477/1/2 487/1/2
f 486/4/2 476/4/2 487/4/2
f 487/1/2 477/1/2 488/1/2
f 478/1/2 479/1/2 491/1/2
f 479/4/2 480/4/2 492/4/2
f 491/1/2 479/1/2 492/1/2
f 492/4/2 480/4/2 493/4/2
f 481/3/2 482/3/2 494/3/2
f 482/10/2 483/10/2 495/10/2
f 494/3/2 482/3/2 495/3/2
f 495/10/2 483/10/2 496/10/2
f 484/10/2 485/10/2 497/10/2
f 485/3/2 486/3/2 498/3/2
f 497/10/2 485/10/2 498/10/2
f 498/3/2 486/3/2 499/3/2
f 487/4/2 488/4/2 500/4/2
f 488/1/2 489/1/2 501/1/2
f 500/4/2 488/4/2 501/4/2
f 501/1/2 489/1/2 502/1/2
f 490/1/2 491/1/2 505/1/2
f 491/4/2 492/4/2 506/4/2
f 505/1/2 491/1/2 506/1/2
f 506/4/2 492/4/2 507/4/2
f 493/3/2 494/3/2 508/3/2
f 494/10/2 495/10/2 509/10/2
f 508/3/2 494/3/2 509/3/2
f 509/10/2 495/10/2 510/10/2
f 498/10/2 499/10/2 511/10/2
f 499/3/2 500/3/2 512/3/2
f 511/10/2 499/10/2 512/10/2
f 512/3/2 500/3/2 513/3/2
f 501/4/2 502/4/2 514/4/2
f 502/1/2 503/1/2 515/1/2
f 514/4/2 502/4/2 515/4/2
f 515/1/2 503/1/2 516/1/2
f 504/1/2 505/1/2 519/1/2
f 505/4/2 506/4/2 520/4/2
f 519/1/2 505/1/2 520/1/2
f 520/4/2 506/4/2 521/4/2
f 507/10/2 508/10/2 522/10/2
f 508/10/2 509/10/2 522/10/2
f 522/10/2 509/10/2 523/10/2
f 523/10/2 509/10/2 524/10/2
f 512/10/2 513/10/2 527/10/2
f 513/3/2 514/3/2 528/3/2
f 527/10/2 513/10/2 528/10/2
f 528/3/2 514/3/2 529/3/2
f 515/4/2 516/4/2 530/4/2
f 516/1/2 517/1/2 531/1/2
f 530/4/2 516/4/2 531/4/2
f 531/1/2 517/1/2 532/1/2
f 518/1/2 519/1/2 535/1/2
f 519/4/2 520/4/2 536/4/2
f 535/1/2 519/1/2 536/1/2
f 536/4/2 520/4/2 537/4/2
f 521/10/2 522/10/2 538/10/2
f 522/10/2 523/10/2 538/10/2
f 538/10/2 523/10/2 539/10/2
f 539/10/2 523/10/2 540/10/2
f 525/2/2 526/2/2 542/2/2
f 542/2/2 526/2/2 543/2/2
f 529/10/2 530/10/2 545/10/2
f 528/10/2 529/10/2 545/10/2
f 545/10/2 530/10/2 546/10/2
f 546/10/2 530/10/2 547/10/2
f 531/4/2 532/4/2 548/4/2
f 532/1/2 533/1/2 549/1/2
f 548/4/2 532/4/2 549/4/2
f 549/1/2 533/1/2 550/1/2
f 534/1/2 535/1/2 553/1/2
f 535/4/2 536/4/2 554/4/2
f 553/1/2 535/1/2 554/1/2
f 554/4/2 536/4/2 555/4/2
f 537/3/2 538/3/2 556/3/2
f 538/10/2 539/10/2 557/10/2
f 556/3/2 538/3/2 557/3/2
f 539/6/2 540/6/2 558/6/2
f 557/10/2 539/10/2 558/10/2
f 558/6/2 540/6/2 559/6/2
f 543/2/2 544/2/2 561/2/2
f 542/2/2 543/2/2 561/2/2
f 541/2/2 542/2/2 561/2/2
f 561/2/2 544/2/2 562/2/2
f 545/1/2 546/1/2 564/1/2
f 547/10/2 548/10/2 565/10/2
f 546/10/2 547/10/2 565/10/2
f 564/1/2 546/1/2 565/1/2
f 565/10/2 548/10/2 566/10/2
f 549/4/2 550/4/2 567/4/2
f 550/1/2 551/1/2 568/1/2
f 567/4/2 550/4/2 568/4/2
f 568/1/2 551/1/2 569/1/2
f 552/1/2 553/1/2 572/1/2
f 553/4/2 554/4/2 573/4/2
f 572/1/2 553/1/2 573/1/2
f 573/4/2 554/4/2 574/4/2
f 555/3/2 556/3/2 575/3/2
f 556/10/2 557/10/2 576/10/2
f 575/3/2 556/3/2 576/3/2
f 557/1/2 558/1/2 577/1/2
f 576/10/2 557/10/2 577/10/2
f 559/6/2 560/6/2 578/6/2
f 577/1/2 558/1/2 578/1/2
f 558/6/2 559/6/2 578/6/2
f 578/6/2 560/6/2 579/6/2
f 579/6/2 560/6/2 580/6/2
f 541/2/2 561/2/2 581/2/2
f 581/2/2 561/2/2 582/2/2
f 562/2/2 544/2/2 583/2/2
f 583/2/2 544/2/2 584/2/2
f 563/1/2 564/1/2 585/1/2
f 565/6/2 566/6/2 586/6/2
f 564/6/2 565/6/2 586/6/2
f 585/1/2 564/1/2 586/1/2
f 586/6/2 566/6/2 587/6/2
f 566/3/2 567/3/2 588/3/2
f 587/6/2 566/6/2 588/6/2
f 588/3/2 567/3/2 589/3/2
f 568/4/2 569/4/2 590/4/2
f 569/1/2 570/1/2 591/1/2
f 590/4/2 569/4/2 591/4/2
f 591/1/2 570/1/2 592/1/2
f 571/1/2 572/1/2 595/1/2
f 572/4/2 573/4/2 596/4/2
f 595/1/2 572/1/2 596/1/2
f 596/4/2 573/4/2 597/4/2
f 574/10/2 575/10/2 598/10/2
f 575/10/2 576/10/2 598/10/2
f 598/10/2 576/10/2 599/10/2
f 599/10/2 576/10/2 600/10/2
f 578/1/2 579/1/2 601/1/2
f 580/6/2 581/6/2 602/6/2
f 601/1/2 579/1/2 602/1/2
f 579/6/2 580/6/2 602/6/2
f 602/6/2 581/6/2 603/6/2
f 603/6/2 581/6/2 604/6/2
f 584/1/2 585/1/2 607/1/2
f 586/6/2 587/6/2 608/6/2
f 585/6/2 586/6/2 608/6/2
f 607/1/2 585/1/2 608/1/2
f 608/6/2 587/6/2 609/6/2
f 609/6/2 587/6/2 610/6/2
f 589/10/2 590/10/2 611/10/2
f 588/10/2 589/10/2 611/10/2
f 611/10/2 590/10/2 612/10/2
f 612/10/2 590/10/2 613/10/2
f 591/4/2 592/4/2 614/4/2
f 592/1/2 593/1/2 615/1/2
f 614/4/2 592/4/2 615/4/2
f 615/1/2 593/1/2 616/1/2
f 594/1/2 595/1/2 619/1/2
f 595/4/2 596/4/2 620/4/2
f 619/1/2 595/1/2 620/1/2
f 620/4/2 596/4/2 621/4/2
f 598/10/2 599/10/2 622/10/2
f 597/10/2 598/10/2 622/10/2
f 622/10/2 599/10/2 623/10/2
f 623/10/2 599/10/2 624/10/2
f 602/1/2 603/1/2 626/1/2
f 604/6/2 605/6/2 627/6/2
f 603/6/2 604/6/2 627/6/2
f 626/1/2 603/1/2 627/1/2
f 627/6/2 605/6/2 628/6/2
f 628/6/2 605/6/2 629/6/2
f 606/1/2 607/1/2 630/1/2
f 608/6/2 609/6/2 631/6/2
f 607/6/2 608/6/2 631/6/2
f 630/1/2 607/1/2 631/1/2
f 631/6/2 609/6/2 632/6/2
f 632/6/2 609/6/2 633/6/2
f 613/10/2 614/10/2 635/10/2
f 612/10/2 613/10/2 635/10/2
f 635/10/2 614/10/2 636/10/2
f 636/10/2 614/10/2 637/10/2
f 615/4/2 616/4/2 638/4/2
f 616/2/2 617/2/2 639/2/2
f 638/4/2 616/4/2 639/4/2
f 639/2/2 617/2/2 640/2/2
f 618/6/2 619/6/2 643/6/2
f 619/1/2 620/1/2 644/1/2
f 643/6/2 619/6/2 644/6/2
f 644/1/2 620/1/2 645/1/2
f 621/3/2 622/3/2 646/3/2
f 622/10/2 623/10/2 647/10/2
f 646/3/2 622/3/2 647/3/2
f 647/10/2 623/10/2 648/10/2
f 625/2/2 626/2/2 650/2/2
f 650/2/2 626/2/2 651/2/2
f 651/2/2 626/2/2 652/2/2
f 627/1/2 628/1/2 653/1/2
f 628/5/2 629/5/2 654/5/2
f 653/1/2 628/1/2 654/1/2
f 629/7/2 630/7/2 655/7/2
f 654/5/2 629/5/2 655/5/2
f 630/5/2 631/5/2 656/5/2
f 655/7/2 630/7/2 656/7/2
f 631/6/2 632/6/2 657/6/2
f 656/5/2 631/5/2 657/5/2
f 657/6/2 632/6/2 658/6/2
f 633/2/2 634/2/2 659/2/2
f 659/2/2 634/2/2 660/2/2
f 660/2/2 634/2/2 661/2/2
f 637/10/2 638/10/2 663/10/2
f 636/10/2 637/10/2 663/10/2
f 663/10/2 638/10/2 664/10/2
f 664/10/2 638/10/2 665/10/2
f 639/2/2 640/2/2 666/2/2
f 640/6/2 641/6/2 667/6/2
f 666/2/2 640/2/2 667/2/2
f 667/6/2 641/6/2 668/6/2
f 642/6/2 643/6/2 670/6/2
f 643/6/2 644/6/2 670/6/2
f 670/6/2 644/6/2 671/6/2
f 671/6/2 644/6/2 672/6/2
f 645/3/2 646/3/2 673/3/2
f 646/10/2 647/10/2 674/10/2
f 673/3/2 646/3/2 674/3/2
f 674/10/2 647/10/2 675/10/2
f 650/2/2 651/2/2 677/2/2
f 649/2/2 650/2/2 677/2/2
f 677/2/2 651/2/2 678/2/2
f 678/2/2 651/2/2 679/2/2
f 654/7/2 655/7/2 682/7/2
f 682/7/2 655/7/2 683/7/2
f 656/1/2 657/1/2 684/1/2
f 684/1/2 657/1/2 685/1/2
f 661/2/2 662/2/2 688/2/2
f 660/2/2 661/2/2 688/2/2
f 688/2/2 662/2/2 689/2/2
f 689/2/2 662/2/2 690/2/2
f 664/10/2 665/10/2 692/10/2
f 665/3/2 666/3/2 693/3/2
f 692/10/2 665/10/2 693/10/2
f 693/3/2 666/3/2 694/3/2
f 668/6/2 669/6/2 695/6/2
f 667/6/2 668/6/2 695/6/2
f 695/6/2 669/6/2 696/6/2
f 696/6/2 669/6/2 697/6/2
f 671/6/2 672/6/2 698/6/2
f 672/1/2 673/1/2 699/1/2
f 698/6/2 672/6/2 699/6/2
f 699/1/2 673/1/2 700/1/2
f 675/10/2 676/10/2 701/10/2
f 674/10/2 675/10/2 701/10/2
f 701/10/2 676/10/2 702/10/2
f 702/10/2 676/10/2 703/10/2
f 679/2/2 680/2/2 705/2/2
f 678/2/2 679/2/2 705/2/2
f 705/2/2 680/2/2 706/2/2
f 681/1/2 682/1/2 707/1/2
f 682/5/2 683/5/2 708/5/2
f 707/1/2 682/1/2 708/1/2
f 683/7/2 684/7/2 709/7/2
f 708/5/2 683/5/2 709/5/2
f 684/5/2 685/5/2 710/5/2
f 709/7/2 684/7/2 710/7/2
f 685/6/2 686/6/2 711/6/2
f 710/5/2 685/5/2 711/5/2
f 711/6/2 686/6/2 712/6/2
f 688/2/2 689/2/2 713/2/2
f 687/2/2 688/2/2 713/2/2
f 713/2/2 689/2/2 714/2/2
f 691/10/2 692/10/2 716/10/2
f 692/10/2 693/10/2 716/10/2
f 716/10/2 693/10/2 717/10/2
f 717/10/2 693/10/2 718/10/2
f 695/6/2 696/6/2 719/6/2
f 694/6/2 695/6/2 719/6/2
f 719/6/2 696/6/2 720/6/2
f 720/6/2 696/6/2 721/6/2
f 699/1/2 700/1/2 722/1/2
f 700/4/2 701/4/2 723/4/2
f 722/1/2 700/1/2 723/1/2
f 723/4/2 701/4/2 724/4/2
f 702/3/2 703/3/2 725/3/2
f 703/10/2 704/10/2 726/10/2
f 725/3/2 703/3/2 726/3/2
f 726/10/2 704/10/2 727/10/2
f 706/1/2 707/1/2 730/1/2
f 708/6/2 709/6/2 731/6/2
f 707/6/2 708/6/2 731/6/2
f 730/1/2 707/1/2 731/1/2
f 731/6/2 709/6/2 732/6/2
f 732/6/2 709/6/2 733/6/2
f 710/1/2 711/1/2 734/1/2
f 711/5/2 712/5/2 735/5/2
f 734/1/2 711/1/2 735/1/2
f 712/6/2 713/6/2 736/6/2
f 735/5/2 712/5/2 736/5/2
f 736/6/2 713/6/2 737/6/2
f 716/10/2 717/10/2 740/10/2
f 715/10/2 716/10/2 740/10/2
f 740/10/2 717/10/2 741/10/2
f 741/10/2 717/10/2 742/10/2
f 719/1/2 720/1/2 743/1/2
f 718/1/2 719/1/2 743/1/2
f 743/1/2 720/1/2 744/1/2
f 744/1/2 720/1/2 745/1/2
f 724/1/2 725/1/2 746/1/2
f 723/1/2 724/1/2 746/1/2
f 746/1/2 725/1/2 747/1/2
f 747/1/2 725/1/2 748/1/2
f 726/3/2 727/3/2 749/3/2
f 727/10/2 728/10/2 750/10/2
f 749/3/2 727/3/2 750/3/2
f 750/10/2 728/10/2 751/10/2
f 729/1/2 730/1/2 753/1/2
f 730/6/2 731/6/2 754/6/2
f 731/6/2 732/6/2 754/6/2
f 753/1/2 730/1/2 754/1/2
f 754/6/2 732/6/2 755/6/2
f 755/6/2 732/6/2 756/6/2
f 735/1/2 736/1/2 759/1/2
f 737/6/2 738/6/2 760/6/2
f 736/6/2 737/6/2 760/6/2
f 759/1/2 736/1/2 760/1/2
f 760/6/2 738/6/2 761/6/2
f 761/6/2 738/6/2 762/6/2
f 740/10/2 741/10/2 764/10/2
f 739/10/2 740/10/2 764/10/2
f 764/10/2 741/10/2 765/10/2
f 765/10/2 741/10/2 766/10/2
f 743/1/2 744/1/2 767/1/2
f 742/1/2 743/1/2 767/1/2
f 767/1/2 744/1/2 768/1/2
f 768/1/2 744/1/2 769/1/2
f 748/1/2 749/1/2 770/1/2
f 747/1/2 748/1/2 770/1/2
f 770/1/2 749/1/2 771/1/2
f 771/1/2 749/1/2 772/1/2
f 751/10/2 752/10/2 773/10/2
f 750/10/2 751/10/2 773/10/2
f 773/10/2 752/10/2 774/10/2
f 752/1/2 753/1/2 775/1/2
f 774/10/2 752/10/2 775/10/2
f 753/6/2 754/6/2 776/6/2
f 775/1/2 753/1/2 776/1/2
f 754/6/2 755/6/2 776/6/2
f 776/6/2 755/6/2 777/6/2
f 777/6/2 755/6/2 778/6/2
f 756/2/2 757/2/2 779/2/2
f 758/2/2 759/2/2 780/2/2
f 780/2/2 759/2/2 781/2/2
f 760/1/2 761/1/2 782/1/2
f 762/6/2 763/6/2 783/6/2
f 782/1/2 761/1/2 783/1/2
f 761/6/2 762/6/2 783/6/2
f 783/6/2 763/6/2 784/6/2
f 764/10/2 765/10/2 785/10/2
f 784/6/2 763/6/2 785/6/2
f 763/10/2 764/10/2 785/10/2
f 785/10/2 765/10/2 786/10/2
f 786/10/2 765/10/2 787/10/2
f 767/1/2 768/1/2 788/1/2
f 766/1/2 767/1/2 788/1/2
f 788/1/2 768/1/2 789/1/2
f 789/1/2 768/1/2 790/1/2
f 771/1/2 772/1/2 791/1/2
f 772/1/2 773/1/2 791/1/2
f 791/1/2 773/1/2 792/1/2
f 792/1/2 773/1/2 793/1/2
f 774/3/2 775/3/2 794/3/2
f 775/10/2 776/10/2 795/10/2
f 794/3/2 775/3/2 795/3/2
f 776/6/2 777/6/2 796/6/2
f 795/10/2 776/10/2 796/10/2
f 796/6/2 777/6/2 797/6/2
f 756/2/2 779/2/2 798/2/2
f 779/8/2 780/8/2 799/8/2
f 798/2/2 779/2/2 799/2/2
f 780/8/2 781/8/2 799/8/2
f 799/8/2 781/8/2 800/8/2
f 800/8/2 781/8/2 801/8/2
f 783/1/2 784/1/2 802/1/2
f 785/10/2 786/10/2 803/10/2
f 802/1/2 784/1/2 803/1/2
f 784/10/2 785/10/2 803/10/2
f 803/10/2 786/10/2 804/10/2
f 804/10/2 786/10/2 805/10/2
f 788/1/2 789/1/2 806/1/2
f 787/1/2 788/1/2 806/1/2
f 806/1/2 789/1/2 807/1/2
f 807/1/2 789/1/2 808/1/2
f 792/1/2 793/1/2 809/1/2
f 793/1/2 794/1/2 809/1/2
f 809/1/2 794/1/2 810/1/2
f 810/1/2 794/1/2 811/1/2
f 795/3/2 796/3/2 812/3/2
f 796/10/2 797/10/2 813/10/2
f 812/3/2 796/3/2 813/3/2
f 813/10/2 797/10/2 814/10/2
f 799/2/2 800/2/2 816/2/2
f 816/2/2 800/2/2 817/2/2
f 803/10/2 804/10/2 819/10/2
f 802/10/2 803/10/2 819/10/2
f 819/10/2 804/10/2 820/10/2
f 820/10/2 804/10/2 821/10/2
f 805/4/2 806/4/2 822/4/2
f 806/1/2 807/1/2 823/1/2
f 822/4/2 806/4/2 823/4/2
f 823/1/2 807/1/2 824/1/2
f 811/1/2 812/1/2 825/1/2
f 810/1/2 811/1/2 825/1/2
f 825/1/2 812/1/2 826/1/2
f 826/1/2 812/1/2 827/1/2
f 813/3/2 814/3/2 828/3/2
f 814/10/2 815/10/2 829/10/2
f 828/3/2 814/3/2 829/3/2
f 829/10/2 815/10/2 830/10/2
f 819/10/2 820/10/2 833/10/2
f 818/10/2 819/10/2 833/10/2
f 833/10/2 820/10/2 834/10/2
f 834/10/2 820/10/2 835/10/2
f 821/4/2 822/4/2 836/4/2
f 822/1/2 823/1/2 837/1/2
f 836/4/2 822/4/2 837/4/2
f 837/1/2 823/1/2 838/1/2
f 827/1/2 828/1/2 839/1/2
f 826/1/2 827/1/2 839/1/2
f 839/1/2 828/1/2 840/1/2
f 840/1/2 828/1/2 841/1/2
f 829/3/2 830/3/2 842/3/2
f 830/10/2 831/10/2 843/10/2
f 842/3/2 830/3/2 843/3/2
f 843/10/2 831/10/2 844/10/2
f 833/10/2 834/10/2 847/10/2
f 832/10/2 833/10/2 847/10/2
f 847/10/2 834/10/2 848/10/2
f 848/10/2 834/10/2 849/10/2
f 835/4/2 836/4/2 850/4/2
f 836/1/2 837/1/2 851/1/2
f 850/4/2 836/4/2 851/4/2
f 851/1/2 837/1/2 852/1/2
f 841/1/2 842/1/2 853/1/2
f 840/1/2 841/1/2 853/1/2
f 853/1/2 842/1/2 854/1/2
f 854/1/2 842/1/2 855/1/2
f 843/3/2 844/3/2 856/3/2
f 844/7/2 845/7/2 857/7/2
f 856/3/2 844/3/2 857/3/2
f 857/7/2 845/7/2 858/7/2
f 847/10/2 848/10/2 859/10/2
f 846/10/2 847/10/2 859/10/2
f 859/10/2 848/10/2 860/10/2
f 860/10/2 848/10/2 861/10/2
f 849/1/2 850/1/2 862/1/2
f 850/1/2 851/1/2 862/1/2
f 862/1/2 851/1/2 863/1/2
f 863/1/2 851/1/2 864/1/2
f 855/1/2 856/1/2 865/1/2
f 854/1/2 855/1/2 865/1/2
f 865/1/2 856/1/2 866/1/2
f 866/1/2 856/1/2 867/1/2
f 859/10/2 860/10/2 868/10/2
f 857/10/2 858/10/2 868/10/2
f 858/10/2 859/10/2 868/10/2
f 868/10/2 860/10/2 869/10/2
f 869/10/2 860/10/2 870/10/2
f 870/10/2 860/10/2 871/10/2
f 862/1/2 863/1/2 872/1/2
f 861/1/2 862/1/2 872/1/2
f 872/1/2 863/1/2 873/1/2
f 873/1/2 863/1/2 874/1/2
f 866/1/2 867/1/2 875/1/2
f 867/1/2 868/1/2 875/1/2
f 875/1/2 868/1/2 876/1/2
f 876/1/2 868/1/2 877/1/2
f 869/3/2 870/3/2 878/3/2
f 878/3/2 870/3/2 879/3/2
f 871/4/2 872/4/2 880/4/2
f 872/1/2 873/1/2 881/1/2
f 880/4/2 872/4/2 881/4/2
f 881/1/2 873/1/2 882/1/2
f 876/1/2 877/1/2 883/1/2
f 877/1/2 878/1/2 883/1/2
f 883/1/2 878/1/2 884/1/2
f 884/1/2 878/1/2 885/1/2
f 879/1/2 880/1/2 886/1/2
f 880/1/2 881/1/2 886/1/2
f 886/1/2 881/1/2 887/1/2
f 887/1/2 881/1/2 888/1/2
f 884/1/2 885/1/2 889/1/2
f 885/4/2 886/4/2 890/4/2
f 889/1/2 885/1/2 890/1/2
f 886/1/2 887/1/2 891/1/2
f 890/4/2 886/4/2 891/4/2
f 891/1/2 887/1/2 892/1/2
f 890/4/2 891/4/2 893/4/2
f 893/4/2 891/4/2 894/4/2
f 897/6/3 896/6/3 895/6/3
f 898/6/3 896/6/3 897/6/3
f 903/6/3 900/6/3 899/6/3
f 904/6/3 900/6/3 903/6/3
f 905/6/3 902/6/3 901/6/3
f 906/6/3 902/6/3 905/6/3
f 911/1/3 908/1/3 907/1/3
f 912/1/3 908/1/3 911/1/3
f 913/1/3 910/1/3 909/1/3
f 914/1/3 910/1/3 913/1/3
f 921/1/3 916/1/3 915/1/3
f 922/1/3 916/1/3 921/1/3
f 923/3/3 918/3/3 917/3/3
f 924/3/3 918/3/3 923/3/3
f 925/1/3 920/1/3 919/1/3
f 926/1/3 920/1/3 925/1/3
f 935/1/3 928/1/3 927/1/3
f 936/1/3 928/1/3 935/1/3
f 937/3/3 930/3/3 929/3/3
f 938/3/3 930/3/3 937/3/3
f 939/10/3 932/10/3 931/10/3
f 940/10/3 932/10/3 939/10/3
f 941/1/3 934/1/3 933/1/3
f 942/1/3 934/1/3 941/1/3
f 951/1/3 944/1/3 943/1/3
f 952/1/3 944/1/3 951/1/3
f 953/10/3 946/10/3 945/10/3
f 954/10/3 946/10/3 953/10/3
f 955/3/3 948/3/3 947/3/3
f 956/3/3 948/3/3 955/3/3
f 957/1/3 950/1/3 949/1/3
f 958/1/3 950/1/3 957/1/3
f 967/1/3 960/1/3 959/1/3
f 968/1/3 960/1/3 967/1/3
f 969/10/3 962/10/3 961/10/3
f 970/10/3 962/10/3 969/10/3
f 971/3/3 964/3/3 963/3/3
f 972/3/3 964/3/3 971/3/3
f 973/1/3 966/1/3 965/1/3
f 974/1/3 966/1/3 973/1/3
f 983/1/3 976/1/3 975/1/3
f 984/1/3 976/1/3 983/1/3
f 985/3/3 978/3/3 977/3/3
f 986/3/3 978/3/3 985/3/3
f 987/10/3 980/10/3 979/10/3
f 988/10/3 980/10/3 987/10/3
f 989/1/3 982/1/3 981/1/3
f 990/1/3 982/1/3 989/1/3
f 1001/1/3 992/1/3 991/1/3
f 1002/1/3 992/1/3 1001/1/3
f 1003/3/3 994/3/3 993/3/3
f 1004/3/3 994/3/3 1003/3/3
f 1005/2/3 996/2/3 995/2/3
f 1006/2/3 996/2/3 1005/2/3
f 1007/3/3 998/3/3 997/3/3
f 1008/3/3 998/3/3 1007/3/3
f 1009/1/3 1000/1/3 999/1/3
f 1010/1/3 1000/1/3 1009/1/3
f 1023/1/3 1012/1/3 1011/1/3
f 1024/1/3 1012/1/3 1023/1/3
f 1025/10/3 1014/10/3 1013/10/3
f 1026/10/3 1014/10/3 1025/10/3
f 1027/2/3 1016/2/3 1015/2/3
f 1028/2/3 1016/2/3 1027/2/3
f 1029/2/3 1018/2/3 1017/2/3
f 1030/2/3 1018/2/3 1029/2/3
f 1031/3/3 1020/3/3 1019/3/3
f 1032/3/3 1020/3/3 1031/3/3
f 1033/1/3 1022/1/3 1021/1/3
f 1034/1/3 1022/1/3 1033/1/3
f 1047/1/3 1036/1/3 1035/1/3
f 1048/1/3 1036/1/3 1047/1/3
f 1049/10/3 1038/10/3 1037/10/3
f 1050/10/3 1038/10/3 1049/10/3
f 1051/1/3 1040/1/3 1039/1/3
f 1052/1/3 1040/1/3 1051/1/3
f 1053/1/3 1042/1/3 1041/1/3
f 1054/1/3 1042/1/3 1053/1/3
f 1055/3/3 1044/3/3 1043/3/3
f 1056/3/3 1044/3/3 1055/3/3
f 1057/1/3 1046/1/3 1045/1/3
f 1058/1/3 1046/1/3 1057/1/3
f 1071/1/3 1060/1/3 1059/1/3
f 1072/1/3 1060/1/3 1071/1/3
f 1073/3/3 1062/3/3 1061/3/3
f 1074/3/3 1062/3/3 1073/3/3
f 1075/1/3 1064/1/3 1063/1/3
f 1076/1/3 1064/1/3 1075/1/3
f 1077/1/3 1066/1/3 1065/1/3
f 1078/1/3 1066/1/3 1077/1/3
f 1079/3/3 1068/3/3 1067/3/3
f 1080/3/3 1068/3/3 1079/3/3
f 1081/1/3 1070/1/3 1069/1/3
f 1082/1/3 1070/1/3 1081/1/3
f 1095/1/3 1084/1/3 1083/1/3
f 1096/1/3 1084/1/3 1095/1/3
f 1097/3/3 1086/3/3 1085/3/3
f 1098/3/3 1086/3/3 1097/3/3
f 1099/1/3 1088/1/3 1087/1/3
f 1100/1/3 1088/1/3 1099/1/3
f 1101/1/3 1090/1/3 1089/1/3
f 1102/1/3 1090/1/3 1101/1/3
f 1103/3/3 1092/3/3 1091/3/3
f 1104/3/3 1092/3/3 1103/3/3
f 1105/1/3 1094/1/3 1093/1/3
f 1106/1/3 1094/1/3 1105/1/3
f 1121/9/3 1108/9/3 1107/9/3
f 1122/9/3 1108/9/3 1121/9/3
f 1123/3/3 1110/3/3 1109/3/3
f 1124/3/3 1110/3/3 1123/3/3
f 1125/2/3 1112/2/3 1111/2/3
f 1126/2/3 1112/2/3 1125/2/3
f 1127/7/3 1114/7/3 1113/7/3
f 1128/7/3 1114/7/3 1127/7/3
f 1129/2/3 1116/2/3 1115/2/3
f 1130/2/3 1116/2/3 1129/2/3
f 1131/10/3 1118/10/3 1117/10/3
f 1132/10/3 1118/10/3 1131/10/3
f 1133/1/3 1120/1/3 1119/1/3
f 1134/1/3 1120/1/3 1133/1/3
f 1147/4/3 1136/4/3 1135/4/3
f 1148/4/3 1136/4/3 1147/4/3
f 1149/3/3 1138/3/3 1137/3/3
f 1150/3/3 1138/3/3 1149/3/3
f 1151/2/3 1140/2/3 1139/2/3
f 1152/2/3 1140/2/3 1151/2/3
f 1153/2/3 1142/2/3 1141/2/3
f 1154/2/3 1142/2/3 1153/2/3
f 1155/3/3 1144/3/3 1143/3/3
f 1156/3/3 1144/3/3 1155/3/3
f 1157/4/3 1146/4/3 1145/4/3
f 1158/4/3 1146/4/3 1157/4/3
f 1177/4/3 1160/4/3 1159/4/3
f 1178/4/3 1160/4/3 1177/4/3
f 1179/10/3 1162/10/3 1161/10/3
f 1180/10/3 1162/10/3 1179/10/3
f 1181/2/3 1164/2/3 1163/2/3
f 1182/2/3 1164/2/3 1181/2/3
f 1183/1/3 1166/1/3 1165/1/3
f 1184/1/3 1166/1/3 1183/1/3
f 1185/1/3 1168/1/3 1167/1/3
f 1186/1/3 1168/1/3 1185/1/3
f 1187/1/3 1170/1/3 1169/1/3
f 1188/1/3 1170/1/3 1187/1/3
f 1189/2/3 1172/2/3 1171/2/3
f 1190/2/3 1172/2/3 1189/2/3
f 1191/10/3 1174/10/3 1173/10/3
f 1192/10/3 1174/10/3 1191/10/3
f 1193/1/3 1176/1/3 1175/1/3
f 1194/1/3 1176/1/3 1193/1/3
f 1207/4/3 1196/4/3 1195/4/3
f 1208/4/3 1196/4/3 1207/4/3
f 1209/10/3 1198/10/3 1197/10/3
f 1210/10/3 1198/10/3 1209/10/3
f 1211/1/3 1200/1/3 1199/1/3
f 1212/1/3 1200/1/3 1211/1/3
f 1213/1/3 1202/1/3 1201/1/3
f 1214/1/3 1202/1/3 1213/1/3
f 1215/10/3 1204/10/3 1203/10/3
f 1216/10/3 1204/10/3 1215/10/3
f 1217/4/3 1206/4/3 1205/4/3
f 1218/4/3 1206/4/3 1217/4/3
f 1231/4/3 1220/4/3 1219/4/3
f 1232/4/3 1220/4/3 1231/4/3
f 1233/10/3 1222/10/3 1221/10/3
f 1234/10/3 1222/10/3 1233/10/3
f 1235/1/3 1224/1/3 1223/1/3
f 1236/1/3 1224/1/3 1235/1/3
f 1237/1/3 1226/1/3 1225/1/3
f 1238/1/3 1226/1/3 1237/1/3
f 1239/10/3 1228/10/3 1227/10/3
f 1240/10/3 1228/10/3 1239/10/3
f 1241/1/3 1230/1/3 1229/1/3
f 1242/1/3 1230/1/3 1241/1/3
f 1257/4/3 1244/4/3 1243/4/3
f 1258/4/3 1244/4/3 1257/4/3
f 1259/10/3 1246/10/3 1245/10/3
f 1260/1/3 1247/1/3 1246/1/3
f 1260/10/3 1246/10/3 1259/10/3
f 1261/1/3 1247/1/3 1260/1/3
f 1262/2/3 1249/2/3 1248/2/3
f 1263/2/3 1249/2/3 1262/2/3
f 1264/2/3 1251/2/3 1250/2/3
f 1265/2/3 1251/2/3 1264/2/3
f 1266/1/3 1253/1/3 1252/1/3
f 1267/10/3 1254/10/3 1253/10/3
f 1267/1/3 1253/1/3 1266/1/3
f 1268/10/3 1254/10/3 1267/10/3
f 1269/1/3 1256/1/3 1255/1/3
f 1270/1/3 1256/1/3 1269/1/3
f 1277/4/3 1272/4/3 1271/4/3
f 1278/4/3 1272/4/3 1277/4/3
f 1279/2/3 1274/2/3 1273/2/3
f 1280/2/3 1274/2/3 1279/2/3
f 1281/4/3 1276/4/3 1275/4/3
f 1282/4/3 1276/4/3 1281/4/3
f 1287/4/3 1284/4/3 1283/4/3
f 1288/4/3 1284/4/3 1287/4/3
f 1289/4/3 1286/4/3 1285/4/3
f 1290/4/3 1286/4/3 1289/4/3
f 1299/4/3 1292/4/3 1291/4/3
f 1300/4/3 1292/4/3 1299/4/3
f 1301/10/3 1294/10/3 1293/10/3
f 1302/10/3 1294/10/3 1301/10/3
f 1303/10/3 1296/10/3 1295/10/3
f 1304/10/3 1296/10/3 1303/10/3
f 1305/4/3 1298/4/3 1297/4/3
f 1306/4/3 1298/4/3 1305/4/3
f 1315/4/3 1308/4/3 1307/4/3
f 1316/4/3 1308/4/3 1315/4/3
f 1317/10/3 1310/10/3 1309/10/3
f 1318/10/3 1310/10/3 1317/10/3
f 1319/10/3 1312/10/3 1311/10/3
f 1320/10/3 1312/10/3 1319/10/3
f 1321/1/3 1314/1/3 1313/1/3
f 1322/1/3 1314/1/3 1321/1/3
f 1331/4/3 1324/4/3 1323/4/3
f 1332/4/3 1324/4/3 1331/4/3
f 1333/10/3 1326/10/3 1325/10/3
f 1334/10/3 1326/10/3 1333/10/3
f 1335/10/3 1328/10/3 1327/10/3
f 1336/10/3 1328/10/3 1335/10/3
f 1337/1/3 1330/1/3 1329/1/3
f 1338/1/3 1330/1/3 1337/1/3
f 1345/4/3 1340/4/3 1339/4/3
f 1346/4/3 1340/4/3 1345/4/3
f 1347/10/3 1342/10/3 1341/10/3
f 1348/10/3 1342/10/3 1347/10/3
f 1349/1/3 1344/1/3 1343/1/3
f 1350/1/3 1344/1/3 1349/1/3
f 1355/4/3 1352/4/3 1351/4/3
f 1356/4/3 1352/4/3 1355/4/3
f 1357/1/3 1354/1/3 1353/1/3
f 1358/1/3 1354/1/3 1357/1/3
f 1363/2/3 1360/2/3 1359/2/3
f 1364/2/3 1360/2/3 1363/2/3
f 1365/6/3 1362/6/3 1361/6/3
f 1366/6/3 1362/6/3 1365/6/3
f 1369/6/3 1368/6/3 1367/6/3
f 1370/6/3 1368/6/3 1369/6/3
f 1371/6/4 1372/6/4 1373/6/4
f 1373/6/4 1372/6/4 1374/6/4
f 1375/1/4 1376/1/4 1379/1/4
f 1379/1/4 1376/1/4 1380/1/4
f 1377/1/4 1378/1/4 1381/1/4
f 1381/1/4 1378/1/4 1382/1/4
f 1383/4/4 1384/4/4 1387/4/4
f 1387/4/4 1384/4/4 1388/4/4
f 1385/4/4 1386/4/4 1389/4/4
f 1389/4/4 1386/4/4 1390/4/4
f 1391/4/4 1392/4/4 1397/4/4
f 1397/4/4 1392/4/4 1398/4/4
f 1393/10/4 1394/10/4 1399/10/4
f 1399/10/4 1394/10/4 1400/10/4
f 1395/1/4 1396/1/4 1401/1/4
f 1401/1/4 1396/1/4 1402/1/4
f 1403/4/4 1404/4/4 1411/4/4
f 1411/4/4 1404/4/4 1412/4/4
f 1405/10/4 1406/10/4 1413/10/4
f 1413/10/4 1406/10/4 1414/10/4
f 1407/10/4 1408/10/4 1415/10/4
f 1415/10/4 1408/10/4 1416/10/4
f 1409/1/4 1410/1/4 1417/1/4
f 1417/1/4 1410/1/4 1418/1/4
f 1419/4/4 1420/4/4 1427/4/4
f 1427/4/4 1420/4/4 1428/4/4
f 1421/10/4 1422/10/4 1429/10/4
f 1429/10/4 1422/10/4 1430/10/4
f 1423/10/4 1424/10/4 1431/10/4
f 1431/10/4 1424/10/4 1432/10/4
f 1425/1/4 1426/1/4 1433/1/4
f 1433/1/4 1426/1/4 1434/1/4
f 1435/4/4 1436/4/4 1443/4/4
f 1443/4/4 1436/4/4 1444/4/4
f 1437/10/4 1438/10/4 1445/10/4
f 1445/10/4 1438/10/4 1446/10/4
f 1439/10/4 1440/10/4 1447/10/4
f 1447/10/4 1440/10/4 1448/10/4
f 1441/1/4 1442/1/4 1449/1/4
f 1449/1/4 1442/1/4 1450/1/4
f 1451/4/4 1452/4/4 1455/4/4
f 1455/4/4 1452/4/4 1456/4/4
f 1453/1/4 1454/1/4 1457/1/4
f 1457/1/4 1454/1/4 1458/1/4
f 1459/4/4 1460/4/4 1465/4/4
f 1465/4/4 1460/4/4 1466/4/4
f 1461/2/4 1462/2/4 1467/2/4
f 1467/2/4 1462/2/4 1468/2/4
f 1463/1/4 1464/1/4 1469/1/4
f 1469/1/4 1464/1/4 1470/1/4
f 1471/4/4 1472/4/4 1485/4/4
f 1485/4/4 1472/4/4 1486/4/4
f 1473/10/4 1474/10/4 1487/10/4
f 1474/6/4 1475/6/4 1488/6/4
f 1487/10/4 1474/10/4 1488/10/4
f 1488/6/4 1475/6/4 1489/6/4
f 1476/2/4 1477/2/4 1490/2/4
f 1490/2/4 1477/2/4 1491/2/4
f 1478/2/4 1479/2/4 1492/2/4
f 1492/2/4 1479/2/4 1493/2/4
f 1480/6/4 1481/6/4 1494/6/4
f 1481/10/4 1482/10/4 1495/10/4
f 1494/6/4 1481/6/4 1495/6/4
f 1495/10/4 1482/10/4 1496/10/4
f 1483/1/4 1484/1/4 1497/1/4
f 1497/1/4 1484/1/4 1498/1/4
f 1499/4/4 1500/4/4 1511/4/4
f 1511/4/4 1500/4/4 1512/4/4
f 1501/10/4 1502/10/4 1513/10/4
f 1513/10/4 1502/10/4 1514/10/4
f 1503/6/4 1504/6/4 1515/6/4
f 1515/6/4 1504/6/4 1516/6/4
f 1505/6/4 1506/6/4 1517/6/4
f 1517/6/4 1506/6/4 1518/6/4
f 1507/10/4 1508/10/4 1519/10/4
f 1519/10/4 1508/10/4 1520/10/4
f 1509/1/4 1510/1/4 1521/1/4
f 1521/1/4 1510/1/4 1522/1/4
f 1523/4/4 1524/4/4 1535/4/4
f 1535/4/4 1524/4/4 1536/4/4
f 1525/10/4 1526/10/4 1537/10/4
f 1537/10/4 1526/10/4 1538/10/4
f 1527/6/4 1528/6/4 1539/6/4
f 1539/6/4 1528/6/4 1540/6/4
f 1529/6/4 1530/6/4 1541/6/4
f 1541/6/4 1530/6/4 1542/6/4
f 1531/10/4 1532/10/4 1543/10/4
f 1543/10/4 1532/10/4 1544/10/4
f 1533/1/4 1534/1/4 1545/1/4
f 1545/1/4 1534/1/4 1546/1/4
f 1547/4/4 1548/4/4 1565/4/4
f 1565/4/4 1548/4/4 1566/4/4
f 1549/10/4 1550/10/4 1567/10/4
f 1567/10/4 1550/10/4 1568/10/4
f 1551/2/4 1552/2/4 1569/2/4
f 1569/2/4 1552/2/4 1570/2/4
f 1553/6/4 1554/6/4 1571/6/4
f 1571/6/4 1554/6/4 1572/6/4
f 1555/7/4 1556/7/4 1573/7/4
f 1573/7/4 1556/7/4 1574/7/4
f 1557/6/4 1558/6/4 1575/6/4
f 1575/6/4 1558/6/4 1576/6/4
f 1559/2/4 1560/2/4 1577/2/4
f 1577/2/4 1560/2/4 1578/2/4
f 1561/7/4 1562/7/4 1579/7/4
f 1579/7/4 1562/7/4 1580/7/4
f 1563/1/4 1564/1/4 1581/1/4
f 1581/1/4 1564/1/4 1582/1/4
f 1583/4/4 1584/4/4 1595/4/4
f 1595/4/4 1584/4/4 1596/4/4
f 1585/3/4 1586/3/4 1597/3/4
f 1597/3/4 1586/3/4 1598/3/4
f 1587/2/4 1588/2/4 1599/2/4
f 1599/2/4 1588/2/4 1600/2/4
f 1589/2/4 1590/2/4 1601/2/4
f 1601/2/4 1590/2/4 1602/2/4
f 1591/3/4 1592/3/4 1603/3/4
f 1603/3/4 1592/3/4 1604/3/4
f 1593/4/4 1594/4/4 1605/4/4
f 1605/4/4 1594/4/4 1606/4/4
f 1607/9/4 1608/9/4 1622/9/4
f 1622/9/4 1608/9/4 1623/9/4
f 1609/3/4 1610/3/4 1624/3/4
f 1624/3/4 1610/3/4 1625/3/4
f 1611/2/4 1612/2/4 1626/2/4
f 1626/2/4 1612/2/4 1627/2/4
f 1613/1/4 1614/1/4 1628/1/4
f 1628/1/4 1614/1/4 1629/1/4
f 1615/2/4 1616/2/4 1630/2/4
f 1616/8/4 1617/8/4 1631/8/4
f 1630/2/4 1616/2/4 1631/2/4
f 1631/8/4 1617/8/4 1632/8/4
f 1618/10/4 1619/10/4 1633/10/4
f 1633/10/4 1619/10/4 1634/10/4
f 1620/1/4 1621/1/4 1635/1/4
f 1635/1/4 1621/1/4 1636/1/4
f 1637/1/4 1638/1/4 1649/1/4
f 1649/1/4 1638/1/4 1650/1/4
f 1639/3/4 1640/3/4 1651/3/4
f 1651/3/4 1640/3/4 1652/3/4
f 1641/6/4 1642/6/4 1653/6/4
f 1653/6/4 1642/6/4 1654/6/4
f 1643/6/4 1644/6/4 1655/6/4
f 1655/6/4 1644/6/4 1656/6/4
f 1645/10/4 1646/10/4 1657/10/4
f 1657/10/4 1646/10/4 1658/10/4
f 1647/1/4 1648/1/4 1659/1/4
f 1659/1/4 1648/1/4 1660/1/4
f 1661/1/4 1662/1/4 1673/1/4
f 1673/1/4 1662/1/4 1674/1/4
f 1663/3/4 1664/3/4 1675/3/4
f 1675/3/4 1664/3/4 1676/3/4
f 1665/6/4 1666/6/4 1677/6/4
f 1677/6/4 1666/6/4 1678/6/4
f 1667/6/4 1668/6/4 1679/6/4
f 1679/6/4 1668/6/4 1680/6/4
f 1669/10/4 1670/10/4 1681/10/4
f 1681/10/4 1670/10/4 1682/10/4
f 1671/1/4 1672/1/4 1683/1/4
f 1683/1/4 1672/1/4 1684/1/4
f 1685/1/4 1686/1/4 1697/1/4
f 1697/1/4 1686/1/4 1698/1/4
f 1687/3/4 1688/3/4 1699/3/4
f 1699/3/4 1688/3/4 1700/3/4
f 1689/6/4 1690/6/4 1701/6/4
f 1701/6/4 1690/6/4 1702/6/4
f 1691/6/4 1692/6/4 1703/6/4
f 1703/6/4 1692/6/4 1704/6/4
f 1693/10/4 1694/10/4 1705/10/4
f 1705/10/4 1694/10/4 1706/10/4
f 1695/1/4 1696/1/4 1707/1/4
f 1707/1/4 1696/1/4 1708/1/4
f 1709/1/4 1710/1/4 1721/1/4
f 1721/1/4 1710/1/4 1722/1/4
f 1711/10/4 1712/10/4 1723/10/4
f 1723/10/4 1712/10/4 1724/10/4
f 1713/2/4 1714/2/4 1725/2/4
f 1725/2/4 1714/2/4 1726/2/4
f 1715/2/4 1716/2/4 1727/2/4
f 1727/2/4 1716/2/4 1728/2/4
f 1717/10/4 1718/10/4 1729/10/4
f 1729/10/4 1718/10/4 1730/10/4
f 1719/1/4 1720/1/4 1731/1/4
f 1731/1/4 1720/1/4 1732/1/4
f 1733/1/4 1734/1/4 1743/1/4
f 1743/1/4 1734/1/4 1744/1/4
f 1735/10/4 1736/10/4 1745/10/4
f 1745/10/4 1736/10/4 1746/10/4
f 1737/2/4 1738/2/4 1747/2/4
f 1747/2/4 1738/2/4 1748/2/4
f 1739/10/4 1740/10/4 1749/10/4
f 1749/10/4 1740/10/4 1750/10/4
f 1741/1/4 1742/1/4 1751/1/4
f 1751/1/4 1742/1/4 1752/1/4
f 1753/1/4 1754/1/4 1761/1/4
f 1761/1/4 1754/1/4 1762/1/4
f 1755/3/4 1756/3/4 1763/3/4
f 1763/3/4 1756/3/4 1764/3/4
f 1757/10/4 1758/10/4 1765/10/4
f 1765/10/4 1758/10/4 1766/10/4
f 1759/1/4 1760/1/4 1767/1/4
f 1767/1/4 1760/1/4 1768/1/4
f 1769/1/4 1770/1/4 1777/1/4
f 1777/1/4 1770/1/4 1778/1/4
f 1771/10/4 1772/10/4 1779/10/4
f 1779/10/4 1772/10/4 1780/10/4
f 1773/10/4 1774/10/4 1781/10/4
f 1781/10/4 1774/10/4 1782/10/4
f 1775/1/4 1776/1/4 1783/1/4
f 1783/1/4 1776/1/4 1784/1/4
f 1785/1/4 1786/1/4 1793/1/4
f 1793/1/4 1786/1/4 1794/1/4
f 1787/10/4 1788/10/4 1795/10/4
f 1795/10/4 1788/10/4 1796/10/4
f 1789/10/4 1790/10/4 1797/10/4
f 1797/10/4 1790/10/4 1798/10/4
f 1791/1/4 1792/1/4 1799/1/4
f 1799/1/4 1792/1/4 1800/1/4
f 1801/1/4 1802/1/4 1809/1/4
f 1809/1/4 1802/1/4 1810/1/4
f 1803/10/4 1804/10/4 1811/10/4
f 1811/10/4 1804/10/4 1812/10/4
f 1805/10/4 1806/10/4 1813/10/4
f 1813/10/4 1806/10/4 1814/10/4
f 1807/1/4 1808/1/4 1815/1/4
f 1815/1/4 1808/1/4 1816/1/4
f 1817/1/4 1818/1/4 1823/1/4
f 1823/1/4 1818/1/4 1824/1/4
f 1819/3/4 1820/3/4 1825/3/4
f 1825/3/4 1820/3/4 1826/3/4
f 1821/1/4 1822/1/4 1827/1/4
f 1827/1/4 1822/1/4 1828/1/4
f 1829/2/4 1830/2/4 1833/2/4
f 1833/2/4 1830/2/4 1834/2/4
f 1831/1/4 1832/1/4 1835/1/4
f 1835/1/4 1832/1/4 1836/1/4
f 1837/6/4 1838/6/4 1841/6/4
f 1841/6/4 1838/6/4 1842/6/4
f 1839/6/4 1840/6/4 1843/6/4
f 1843/6/4 1840/6/4 1844/6/4
f 1845/6/4 1846/6/4 1847/6/4
f 1847/6/4 1846/6/4 1848/6/4
f 1851/4/5 1850/4/5 1849/4/5
f 1852/4/5 1850/4/5 1851/4/5
f 1855/9/5 1854/9/5 1853/9/5
f 1856/9/5 1854/9/5 1855/9/5
f 1859/9/5 1858/9/5 1857/9/5
f 1860/9/5 1858/9/5 1859/9/5
f 1863/1/5 1862/1/5 1861/1/5
f 1864/1/5 1862/1/5 1863/1/5
f 1867/1/5 1866/1/5 1865/1/5
f 1868/1/5 1866/1/5 1867/1/5
f 1871/1/5 1870/1/5 1869/1/5
f 1872/1/5 1870/1/5 1871/1/5
f 1875/3/5 1874/3/5 1873/3/5
f 1876/3/5 1874/3/5 1875/3/5
f 1879/1/5 1878/1/5 1877/1/5
f 1880/1/5 1878/1/5 1879/1/5
f 1883/1/5 1882/1/5 1881/1/5
f 1884/1/5 1882/1/5 1883/1/5
f 1887/3/5 1886/3/5 1885/3/5
f 1888/3/5 1886/3/5 1887/3/5
f 1891/3/5 1890/3/5 1889/3/5
f 1892/3/5 1890/3/5 1891/3/5
f 1895/1/5 1894/1/5 1893/1/5
f 1896/1/5 1894/1/5 1895/1/5
f 1899/1/5 1898/1/5 1897/1/5
f 1900/1/5 1898/1/5 1899/1/5
f 1903/3/5 1902/3/5 1901/3/5
f 1904/3/5 1902/3/5 1903/3/5
f 1907/3/5 1906/3/5 1905/3/5
f 1908/3/5 1906/3/5 1907/3/5
f 1911/1/5 1910/1/5 1909/1/5
f 1912/1/5 1910/1/5 1911/1/5
f 1915/1/5 1914/1/5 1913/1/5
f 1916/1/5 1914/1/5 1915/1/5
f 1919/3/5 1918/3/5 1917/3/5
f 1920/3/5 1918/3/5 1919/3/5
f 1923/3/5 1922/3/5 1921/3/5
f 1924/3/5 1922/3/5 1923/3/5
f 1927/1/5 1926/1/5 1925/1/5
f 1928/1/5 1926/1/5 1927/1/5
f 1931/1/5 1930/1/5 1929/1/5
f 1932/1/5 1930/1/5 1931/1/5
f 1935/10/5 1934/10/5 1933/10/5
f 1936/10/5 1934/10/5 1935/10/5
f 1939/3/5 1938/3/5 1937/3/5
f 1940/3/5 1938/3/5 1939/3/5
f 1943/1/5 1942/1/5 1941/1/5
f 1944/1/5 1942/1/5 1943/1/5
f 1947/1/5 1946/1/5 1945/1/5
f 1948/1/5 1946/1/5 1947/1/5
f 1951/10/5 1950/10/5 1949/10/5
f 1952/10/5 1950/10/5 1951/10/5
f 1955/2/5 1954/2/5 1953/2/5
f 1956/2/5 1954/2/5 1955/2/5
f 1959/10/5 1958/10/5 1957/10/5
f 1960/10/5 1958/10/5 1959/10/5
f 1963/1/5 1962/1/5 1961/1/5
f 1964/1/5 1962/1/5 1963/1/5
f 1967/1/5 1966/1/5 1965/1/5
f 1968/1/5 1966/1/5 1967/1/5
f 1971/3/5 1970/3/5 1969/3/5
f 1972/3/5 1970/3/5 1971/3/5
f 1975/2/5 1974/2/5 1973/2/5
f 1976/2/5 1974/2/5 1975/2/5
f 1979/2/5 1978/2/5 1977/2/5
f 1980/2/5 1978/2/5 1979/2/5
f 1983/10/5 1982/10/5 1981/10/5
f 1984/10/5 1982/10/5 1983/10/5
f 1987/1/5 1986/1/5 1985/1/5
f 1988/1/5 1986/1/5 1987/1/5
f 1991/1/5 1990/1/5 1989/1/5
f 1992/1/5 1990/1/5 1991/1/5
f 1995/3/5 1994/3/5 1993/3/5
f 1996/3/5 1994/3/5 1995/3/5
f 1999/6/5 1998/6/5 1997/6/5
f 2000/6/5 1998/6/5 1999/6/5
f 2003/1/5 2002/1/5 2001/1/5
f 2004/1/5 2002/1/5 2003/1/5
f 2007/3/5 2006/3/5 2005/3/5
f 2008/3/5 2006/3/5 2007/3/5
f 2011/1/5 2010/1/5 2009/1/5
f 2012/1/5 2010/1/5 2011/1/5
f 2015/1/5 2014/1/5 2013/1/5
f 2016/1/5 2014/1/5 2015/1/5
f 2019/10/5 2018/10/5 2017/10/5
f 2020/10/5 2018/10/5 2019/10/5
f 2023/6/5 2022/6/5 2021/6/5
f 2024/6/5 2022/6/5 2023/6/5
f 2027/1/5 2026/1/5 2025/1/5
f 2028/1/5 2026/1/5 2027/1/5
f 2031/10/5 2030/10/5 2029/10/5
f 2032/10/5 2030/10/5 2031/10/5
f 2035/1/5 2034/1/5 2033/1/5
f 2036/1/5 2034/1/5 2035/1/5
f 2039/1/5 2038/1/5 2037/1/5
f 2040/1/5 2038/1/5 2039/1/5
f 2043/10/5 2042/10/5 2041/10/5
f 2044/10/5 2042/10/5 2043/10/5
f 2047/6/5 2046/6/5 2045/6/5
f 2048/6/5 2046/6/5 2047/6/5
f 2051/1/5 2050/1/5 2049/1/5
f 2052/1/5 2050/1/5 2051/1/5
f 2055/10/5 2054/10/5 2053/10/5
f 2056/10/5 2054/10/5 2055/10/5
f 2059/2/5 2058/2/5 2057/2/5
f 2060/2/5 2058/2/5 2059/2/5
f 2063/6/5 2062/6/5 2061/6/5
f 2064/6/5 2062/6/5 2063/6/5
f 2067/3/5 2066/3/5 2065/3/5
f 2068/3/5 2066/3/5 2067/3/5
f 2071/2/5 2070/2/5 2069/2/5
f 2072/2/5 2070/2/5 2071/2/5
f 2075/7/5 2074/7/5 2073/7/5
f 2076/7/5 2074/7/5 2075/7/5
f 2079/2/5 2078/2/5 2077/2/5
f 2080/2/5 2078/2/5 2079/2/5
f 2083/10/5 2082/10/5 2081/10/5
f 2084/10/5 2082/10/5 2083/10/5
f 2087/6/5 2086/6/5 2085/6/5
f 2088/6/5 2086/6/5 2087/6/5
f 2091/6/5 2090/6/5 2089/6/5
f 2092/6/5 2090/6/5 2091/6/5
f 2095/3/5 2094/3/5 2093/3/5
f 2096/3/5 2094/3/5 2095/3/5
f 2099/2/5 2098/2/5 2097/2/5
f 2100/2/5 2098/2/5 2099/2/5
f 2103/2/5 2102/2/5 2101/2/5
f 2104/2/5 2102/2/5 2103/2/5
f 2107/3/5 2106/3/5 2105/3/5
f 2108/3/5 2106/3/5 2107/3/5
f 2111/6/5 2110/6/5 2109/6/5
f 2112/6/5 2110/6/5 2111/6/5
f 2115/1/5 2114/1/5 2113/1/5
f 2116/1/5 2114/1/5 2115/1/5
f 2119/10/5 2118/10/5 2117/10/5
f 2120/10/5 2118/10/5 2119/10/5
f 2123/2/5 2122/2/5 2121/2/5
f 2124/2/5 2122/2/5 2123/2/5
f 2127/1/5 2126/1/5 2125/1/5
f 2128/1/5 2126/1/5 2127/1/5
f 2131/7/5 2130/7/5 2129/7/5
f 2132/7/5 2130/7/5 2131/7/5
f 2135/6/5 2134/6/5 2133/6/5
f 2136/6/5 2134/6/5 2135/6/5
f 2139/2/5 2138/2/5 2137/2/5
f 2140/2/5 2138/2/5 2139/2/5
f 2143/10/5 2142/10/5 2141/10/5
f 2144/10/5 2142/10/5 2143/10/5
f 2147/6/5 2146/6/5 2145/6/5
f 2148/6/5 2146/6/5 2147/6/5
f 2151/4/5 2150/4/5 2149/4/5
f 2152/4/5 2150/4/5 2151/4/5
f 2155/10/5 2154/10/5 2153/10/5
f 2156/10/5 2154/10/5 2155/10/5
f 2159/1/5 2158/1/5 2157/1/5
f 2160/1/5 2158/1/5 2159/1/5
f 2163/6/5 2162/6/5 2161/6/5
f 2164/6/5 2162/6/5 2163/6/5
f 2167/10/5 2166/10/5 2165/10/5
f 2168/10/5 2166/10/5 2167/10/5
f 2171/1/5 2170/1/5 2169/1/5
f 2172/1/5 2170/1/5 2171/1/5
f 2175/1/5 2174/1/5 2173/1/5
f 2176/1/5 2174/1/5 2175/1/5
f 2179/10/5 2178/10/5 2177/10/5
f 2180/10/5 2178/10/5 2179/10/5
f 2183/1/5 2182/1/5 2181/1/5
f 2184/1/5 2182/1/5 2183/1/5
f 2187/6/5 2186/6/5 2185/6/5
f 2188/6/5 2186/6/5 2187/6/5
f 2191/10/5 2190/10/5 2189/10/5
f 2192/10/5 2190/10/5 2191/10/5
f 2195/1/5 2194/1/5 2193/1/5
f 2196/1/5 2194/1/5 2195/1/5
f 2199/1/5 2198/1/5 2197/1/5
f 2200/1/5 2198/1/5 2199/1/5
f 2203/10/5 2202/10/5 2201/10/5
f 2204/10/5 2202/10/5 2203/10/5
f 2205/1/5 2204/1/5 2203/1/5
f 2206/1/5 2204/1/5 2205/1/5
f 2209/2/5 2208/2/5 2207/2/5
f 2210/2/5 2208/2/5 2209/2/5
f 2213/2/5 2212/2/5 2211/2/5
f 2214/2/5 2212/2/5 2213/2/5
f 2217/6/5 2216/6/5 2215/6/5
f 2218/6/5 2216/6/5 2217/6/5
f 2219/10/5 2218/10/5 2217/10/5
f 2220/10/5 2218/10/5 2219/10/5
f 2223/1/5 2222/1/5 2221/1/5
f 2224/1/5 2222/1/5 2223/1/5
f 2227/1/5 2226/1/5 2225/1/5
f 2228/1/5 2226/1/5 2227/1/5
f 2231/8/5 2230/8/5 2229/8/5
f 2232/8/5 2230/8/5 2231/8/5
f 2235/1/5 2234/1/5 2233/1/5
f 2236/1/5 2234/1/5 2235/1/5
f 2239/1/5 2238/1/5 2237/1/5
f 2240/1/5 2238/1/5 2239/1/5
f 2243/4/5 2242/4/5 2241/4/5
f 2244/4/5 2242/4/5 2243/4/5
f 2247/1/5 2246/1/5 2245/1/5
f 2248/1/5 2246/1/5 2247/1/5
f 2251/10/5 2250/10/5 2249/10/5
f 2252/10/5 2250/10/5 2251/10/5
f 2255/10/5 2254/10/5 2253/10/5
f 2256/10/5 2254/10/5 2255/10/5
f 2259/4/5 2258/4/5 2257/4/5
f 2260/4/5 2258/4/5 2259/4/5
f 2263/1/5 2262/1/5 2261/1/5
f 2264/1/5 2262/1/5 2263/1/5
f 2267/10/5 2266/10/5 2265/10/5
f 2268/10/5 2266/10/5 2267/10/5
f 2271/10/5 2270/10/5 2269/10/5
f 2272/10/5 2270/10/5 2271/10/5
f 2275/4/5 2274/4/5 2273/4/5
f 2276/4/5 2274/4/5 2275/4/5
f 2279/1/5 2278/1/5 2277/1/5
f 2280/1/5 2278/1/5 2279/1/5
f 2283/7/5 2282/7/5 2281/7/5
f 2284/7/5 2282/7/5 2283/7/5
f 2287/10/5 2286/10/5 2285/10/5
f 2288/10/5 2286/10/5 2287/10/5
f 2291/1/5 2290/1/5 2289/1/5
f 2292/1/5 2290/1/5 2291/1/5
f 2295/1/5 2294/1/5 2293/1/5
f 2296/1/5 2294/1/5 2295/1/5
f 2299/10/5 2298/10/5 2297/10/5
f 2300/10/5 2298/10/5 2299/10/5
f 2303/1/5 2302/1/5 2301/1/5
f 2304/1/5 2302/1/5 2303/1/5
f 2307/1/5 2306/1/5 2305/1/5
f 2308/1/5 2306/1/5 2307/1/5
f 2311/4/5 2310/4/5 2309/4/5
f 2312/4/5 2310/4/5 2311/4/5
f 2315/1/5 2314/1/5 2313/1/5
f 2316/1/5 2314/1/5 2315/1/5
f 2319/1/5 2318/1/5 2317/1/5
f 2320/1/5 2318/1/5 2319/1/5
f 2323/4/5 2322/4/5 2321/4/5
f 2324/4/5 2322/4/5 2323/4/5
f 2325/4/6 2326/4/6 2327/4/6
f 2327/4/6 2326/4/6 2328/4/6
f 2329/4/6 2330/4/6 2331/4/6
f 2331/4/6 2330/4/6 2332/4/6
f 2333/4/6 2334/4/6 2335/4/6
f 2335/4/6 2334/4/6 2336/4/6
f 2337/4/6 2338/4/6 2339/4/6
f 2339/4/6 2338/4/6 2340/4/6
f 2341/4/6 2342/4/6 2343/4/6
f 2343/4/6 2342/4/6 2344/4/6
f 2345/4/6 2346/4/6 2347/4/6
f 2347/4/6 2346/4/6 2348/4/6
f 2349/10/6 2350/10/6 2351/10/6
f 2351/10/6 2350/10/6 2352/10/6
f 2353/4/6 2354/4/6 2355/4/6
f 2355/4/6 2354/4/6 2356/4/6
f 2357/4/6 2358/4/6 2359/4/6
f 2359/4/6 2358/4/6 2360/4/6
f 2361/10/6 2362/10/6 2363/10/6
f 2363/10/6 2362/10/6 2364/10/6
f 2365/10/6 2366/10/6 2367/10/6
f 2367/10/6 2366/10/6 2368/10/6
f 2369/4/6 2370/4/6 2371/4/6
f 2371/4/6 2370/4/6 2372/4/6
f 2373/4/6 2374/4/6 2375/4/6
f 2375/4/6 2374/4/6 2376/4/6
f 2377/10/6 2378/10/6 2379/10/6
f 2379/10/6 2378/10/6 2380/10/6
f 2381/10/6 2382/10/6 2383/10/6
f 2383/10/6 2382/10/6 2384/10/6
f 2385/4/6 2386/4/6 2387/4/6
f 2387/4/6 2386/4/6 2388/4/6
f 2389/4/6 2390/4/6 2391/4/6
f 2391/4/6 2390/4/6 2392/4/6
f 2393/10/6 2394/10/6 2395/10/6
f 2395/10/6 2394/10/6 2396/10/6
f 2397/10/6 2398/10/6 2399/10/6
f 2399/10/6 2398/10/6 2400/10/6
f 2401/4/6 2402/4/6 2403/4/6
f 2403/4/6 2402/4/6 2404/4/6
f 2405/4/6 2406/4/6 2407/4/6
f 2407/4/6 2406/4/6 2408/4/6
f 2409/4/6 2410/4/6 2411/4/6
f 2411/4/6 2410/4/6 2412/4/6
f 2413/4/6 2414/4/6 2415/4/6
f 2415/4/6 2414/4/6 2416/4/6
f 2417/2/6 2418/2/6 2419/2/6
f 2419/2/6 2418/2/6 2420/2/6
f 2421/4/6 2422/4/6 2423/4/6
f 2423/4/6 2422/4/6 2424/4/6
f 2425/4/6 2426/4/6 2427/4/6
f 2427/4/6 2426/4/6 2428/4/6
f 2429/10/6 2430/10/6 2431/10/6
f 2431/10/6 2430/10/6 2432/10/6
f 2431/1/6 2432/1/6 2433/1/6
f 2433/1/6 2432/1/6 2434/1/6
f 2435/2/6 2436/2/6 2437/2/6
f 2437/2/6 2436/2/6 2438/2/6
f 2439/2/6 2440/2/6 2441/2/6
f 2441/2/6 2440/2/6 2442/2/6
f 2443/6/6 2444/6/6 2445/6/6
f 2445/6/6 2444/6/6 2446/6/6
f 2447/4/6 2448/4/6 2449/4/6
f 2449/4/6 2448/4/6 2450/4/6
f 2451/4/6 2452/4/6 2453/4/6
f 2453/4/6 2452/4/6 2454/4/6
f 2455/10/6 2456/10/6 2457/10/6
f 2457/10/6 2456/10/6 2458/10/6
f 2459/1/6 2460/1/6 2461/1/6
f 2461/1/6 2460/1/6 2462/1/6
f 2463/6/6 2464/6/6 2465/6/6
f 2465/6/6 2464/6/6 2466/6/6
f 2467/10/6 2468/10/6 2469/10/6
f 2469/10/6 2468/10/6 2470/10/6
f 2471/4/6 2472/4/6 2473/4/6
f 2473/4/6 2472/4/6 2474/4/6
f 2475/4/6 2476/4/6 2477/4/6
f 2477/4/6 2476/4/6 2478/4/6
f 2479/10/6 2480/10/6 2481/10/6
f 2481/10/6 2480/10/6 2482/10/6
f 2483/1/6 2484/1/6 2485/1/6
f 2485/1/6 2484/1/6 2486/1/6
f 2487/6/6 2488/6/6 2489/6/6
f 2489/6/6 2488/6/6 2490/6/6
f 2491/10/6 2492/10/6 2493/10/6
f 2493/10/6 2492/10/6 2494/10/6
f 2495/4/6 2496/4/6 2497/4/6
f 2497/4/6 2496/4/6 2498/4/6
f 2499/1/6 2500/1/6 2501/1/6
f 2501/1/6 2500/1/6 2502/1/6
f 2503/10/6 2504/10/6 2505/10/6
f 2505/10/6 2504/10/6 2506/10/6
f 2507/2/6 2508/2/6 2509/2/6
f 2509/2/6 2508/2/6 2510/2/6
f 2511/1/6 2512/1/6 2513/1/6
f 2513/1/6 2512/1/6 2514/1/6
f 2515/7/6 2516/7/6 2517/7/6
f 2517/7/6 2516/7/6 2518/7/6
f 2519/6/6 2520/6/6 2521/6/6
f 2521/6/6 2520/6/6 2522/6/6
f 2523/2/6 2524/2/6 2525/2/6
f 2525/2/6 2524/2/6 2526/2/6
f 2527/10/6 2528/10/6 2529/10/6
f 2529/10/6 2528/10/6 2530/10/6
f 2531/2/6 2532/2/6 2533/2/6
f 2533/2/6 2532/2/6 2534/2/6
f 2535/6/6 2536/6/6 2537/6/6
f 2537/6/6 2536/6/6 2538/6/6
f 2539/3/6 2540/3/6 2541/3/6
f 2541/3/6 2540/3/6 2542/3/6
f 2543/2/6 2544/2/6 2545/2/6
f 2545/2/6 2544/2/6 2546/2/6
f 2547/2/6 2548/2/6 2549/2/6
f 2549/2/6 2548/2/6 2550/2/6
f 2551/3/6 2552/3/6 2553/3/6
f 2553/3/6 2552/3/6 2554/3/6
f 2555/6/6 2556/6/6 2557/6/6
f 2557/6/6 2556/6/6 2558/6/6
f 2559/6/6 2560/6/6 2561/6/6
f 2561/6/6 2560/6/6 2562/6/6
f 2563/10/6 2564/10/6 2565/10/6
f 2565/10/6 2564/10/6 2566/10/6
f 2567/2/6 2568/2/6 2569/2/6
f 2569/2/6 2568/2/6 2570/2/6
f 2571/7/6 2572/7/6 2573/7/6
f 2573/7/6 2572/7/6 2574/7/6
f 2575/2/6 2576/2/6 2577/2/6
f 2577/2/6 2576/2/6 2578/2/6
f 2579/10/6 2580/10/6 2581/10/6
f 2581/10/6 2580/10/6 2582/10/6
f 2583/6/6 2584/6/6 2585/6/6
f 2585/6/6 2584/6/6 2586/6/6
f 2587/1/6 2588/1/6 2589/1/6
f 2589/1/6 2588/1/6 2590/1/6
f 2591/3/6 2592/3/6 2593/3/6
f 2593/3/6 2592/3/6 2594/3/6
f 2595/6/6 2596/6/6 2597/6/6
f 2597/6/6 2596/6/6 2598/6/6
f 2599/1/6 2600/1/6 2601/1/6
f 2601/1/6 2600/1/6 2602/1/6
f 2603/10/6 2604/10/6 2605/10/6
f 2605/10/6 2604/10/6 2606/10/6
f 2607/1/6 2608/1/6 2609/1/6
f 2609/1/6 2608/1/6 2610/1/6
f 2611/1/6 2612/1/6 2613/1/6
f 2613/1/6 2612/1/6 2614/1/6
f 2615/3/6 2616/3/6 2617/3/6
f 2617/3/6 2616/3/6 2618/3/6
f 2619/6/6 2620/6/6 2621/6/6
f 2621/6/6 2620/6/6 2622/6/6
f 2623/1/6 2624/1/6 2625/1/6
f 2625/1/6 2624/1/6 2626/1/6
f 2627/10/6 2628/10/6 2629/10/6
f 2629/10/6 2628/10/6 2630/10/6
f 2631/1/6 2632/1/6 2633/1/6
f 2633/1/6 2632/1/6 2634/1/6
f 2635/1/6 2636/1/6 2637/1/6
f 2637/1/6 2636/1/6 2638/1/6
f 2639/10/6 2640/10/6 2641/10/6
f 2641/10/6 2640/10/6 2642/10/6
f 2643/6/6 2644/6/6 2645/6/6
f 2645/6/6 2644/6/6 2646/6/6
f 2647/1/6 2648/1/6 2649/1/6
f 2649/1/6 2648/1/6 2650/1/6
f 2651/10/6 2652/10/6 2653/10/6
f 2653/10/6 2652/10/6 2654/10/6
f 2655/1/6 2656/1/6 2657/1/6
f 2657/1/6 2656/1/6 2658/1/6
f 2659/1/6 2660/1/6 2661/1/6
f 2661/1/6 2660/1/6 2662/1/6
f 2663/3/6 2664/3/6 2665/3/6
f 2665/3/6 2664/3/6 2666/3/6
f 2667/2/6 2668/2/6 2669/2/6
f 2669/2/6 2668/2/6 2670/2/6
f 2671/8/6 2672/8/6 2673/8/6
f 2673/8/6 2672/8/6 2674/8/6
f 2675/10/6 2676/10/6 2677/10/6
f 2677/10/6 2676/10/6 2678/10/6
f 2679/1/6 2680/1/6 2681/1/6
f 2681/1/6 2680/1/6 2682/1/6
f 2683/1/6 2684/1/6 2685/1/6
f 2685/1/6 2684/1/6 2686/1/6
f 2687/3/6 2688/3/6 2689/3/6
f 2689/3/6 2688/3/6 2690/3/6
f 2691/2/6 2692/2/6 2693/2/6
f 2693/2/6 2692/2/6 2694/2/6
f 2695/10/6 2696/10/6 2697/10/6
f 2697/10/6 2696/10/6 2698/10/6
f 2699/1/6 2700/1/6 2701/1/6
f 2701/1/6 2700/1/6 2702/1/6
f 2703/1/6 2704/1/6 2705/1/6
f 2705/1/6 2704/1/6 2706/1/6
f 2707/3/6 2708/3/6 2709/3/6
f 2709/3/6 2708/3/6 2710/3/6
f 2711/10/6 2712/10/6 2713/10/6
f 2713/10/6 2712/10/6 2714/10/6
f 2715/1/6 2716/1/6 2717/1/6
f 2717/1/6 2716/1/6 2718/1/6
f 2719/1/6 2720/1/6 2721/1/6
f 2721/1/6 2720/1/6 2722/1/6
f 2723/3/6 2724/3/6 2725/3/6
f 2725/3/6 2724/3/6 2726/3/6
f 2727/10/6 2728/10/6 2729/10/6
f 2729/10/6 2728/10/6 2730/10/6
f 2731/1/6 2732/1/6 2733/1/6
f 2733/1/6 2732/1/6 2734/1/6
f 2735/1/6 2736/1/6 2737/1/6
f 2737/1/6 2736/1/6 2738/1/6
f 2739/3/6 2740/3/6 2741/3/6
f 2741/3/6 2740/3/6 2742/3/6
f 2743/10/6 2744/10/6 2745/10/6
f 2745/10/6 2744/10/6 2746/10/6
f 2747/1/6 2748/1/6 2749/1/6
f 2749/1/6 2748/1/6 2750/1/6
f 2751/1/6 2752/1/6 2753/1/6
f 2753/1/6 2752/1/6 2754/1/6
f 2755/10/6 2756/10/6 2757/10/6
f 2757/10/6 2756/10/6 2758/10/6
f 2759/10/6 2760/10/6 2761/10/6
f 2761/10/6 2760/10/6 2762/10/6
f 2763/1/6 2764/1/6 2765/1/6
f 2765/1/6 2764/1/6 2766/1/6
f 2767/1/6 2768/1/6 2769/1/6
f 2769/1/6 2768/1/6 2770/1/6
f 2771/3/6 2772/3/6 2773/3/6
f 2773/3/6 2772/3/6 2774/3/6
f 2775/1/6 2776/1/6 2777/1/6
f 2777/1/6 2776/1/6 2778/1/6
f 2779/1/6 2780/1/6 2781/1/6
f 2781/1/6 2780/1/6 2782/1/6
f 2783/1/6 2784/1/6 2785/1/6
f 2785/1/6 2784/1/6 2786/1/6
f 2787/1/6 2788/1/6 2789/1/6
f 2789/1/6 2788/1/6 2790/1/6
f 2791/1/6 2792/1/6 2793/1/6
f 2793/1/6 2792/1/6 2794/1/6
f 2795/4/6 2796/4/6 2797/4/6
f 2797/4/6 2796/4/6 2798/4/6
